{
  "general": {
    "validation": {
      "valid": false,
      "errors": [
        "Host h2: No periodicity found in the streams received",
        "Stream 1---2---6001 (-> vid 1908): max latency (1041.0005130480022) higher than allowed (0.01)",
        "Stream 1---2---6000 (-> vid 1907): max latency (1042.0005205240013) higher than allowed (0.01)"
      ]
    }
  },
  "sim_parameters": {
    "**.displayAddresses": "false",
    "**.verbose": "false",
    "**.promiscuous": "true",
    "**.registerProtocol": "true",
    "**.*.clock.clockRate": "\"1us\"",
    "**.h1.eth.address": "\"12:23:34:45:56:67\"",
    "**.h2.eth.address": "\"aa:bb:cc:dd:ee:aa\"",
    "**.*.processingDelay[*].delay": "5us",
    "**.filteringDatabase.database": "xmldoc(\"xml/routing.xml\", \"/filteringDatabases/\")",
    "**.filteringDatabase.cycle": "xmldoc(\"xml/tas.xml\", \"/schedule/\")",
    "**.gateController.initialSchedule": "xmldoc(\"xml/tas.xml\")",
    "**.gateController.enableHoldAndRelease": "false",
    "**.*.eth[*].queuing.tsAlgorithms[*].typename": "\"StrictPriority\"",
    "**.s17.eth[1].queuing.queuingFrames.tciToQueueMapping": "xmldoc(\"xml/tci-maps/tci-map-s17-1.xml\")",
    "**.s62.eth[2].queuing.queuingFrames.tciToQueueMapping": "xmldoc(\"xml/tci-maps/tci-map-s62-2.xml\")",
    "**.s11.eth[1].queuing.queuingFrames.tciToQueueMapping": "xmldoc(\"xml/tci-maps/tci-map-s11-1.xml\")",
    "**.s53.eth[1].queuing.queuingFrames.tciToQueueMapping": "xmldoc(\"xml/tci-maps/tci-map-s53-1.xml\")",
    "**.s51.eth[1].queuing.queuingFrames.tciToQueueMapping": "xmldoc(\"xml/tci-maps/tci-map-s51-1.xml\")",
    "**.s45.eth[1].queuing.queuingFrames.tciToQueueMapping": "xmldoc(\"xml/tci-maps/tci-map-s45-1.xml\")",
    "**.s42.eth[1].queuing.queuingFrames.tciToQueueMapping": "xmldoc(\"xml/tci-maps/tci-map-s42-1.xml\")",
    "**.s5.eth[1].queuing.queuingFrames.tciToQueueMapping": "xmldoc(\"xml/tci-maps/tci-map-s5-1.xml\")",
    "**.s36.eth[1].queuing.queuingFrames.tciToQueueMapping": "xmldoc(\"xml/tci-maps/tci-map-s36-1.xml\")",
    "**.s15.eth[1].queuing.queuingFrames.tciToQueueMapping": "xmldoc(\"xml/tci-maps/tci-map-s15-1.xml\")",
    "**.s16.eth[1].queuing.queuingFrames.tciToQueueMapping": "xmldoc(\"xml/tci-maps/tci-map-s16-1.xml\")",
    "**.s43.eth[1].queuing.queuingFrames.tciToQueueMapping": "xmldoc(\"xml/tci-maps/tci-map-s43-1.xml\")",
    "**.s52.eth[1].queuing.queuingFrames.tciToQueueMapping": "xmldoc(\"xml/tci-maps/tci-map-s52-1.xml\")",
    "**.s49.eth[1].queuing.queuingFrames.tciToQueueMapping": "xmldoc(\"xml/tci-maps/tci-map-s49-1.xml\")",
    "**.s13.eth[1].queuing.queuingFrames.tciToQueueMapping": "xmldoc(\"xml/tci-maps/tci-map-s13-1.xml\")",
    "**.s9.eth[1].queuing.queuingFrames.tciToQueueMapping": "xmldoc(\"xml/tci-maps/tci-map-s9-1.xml\")",
    "**.s47.eth[1].queuing.queuingFrames.tciToQueueMapping": "xmldoc(\"xml/tci-maps/tci-map-s47-1.xml\")",
    "**.s48.eth[1].queuing.queuingFrames.tciToQueueMapping": "xmldoc(\"xml/tci-maps/tci-map-s48-1.xml\")",
    "**.s2.eth[1].queuing.queuingFrames.tciToQueueMapping": "xmldoc(\"xml/tci-maps/tci-map-s2-1.xml\")",
    "**.s57.eth[1].queuing.queuingFrames.tciToQueueMapping": "xmldoc(\"xml/tci-maps/tci-map-s57-1.xml\")",
    "**.s22.eth[1].queuing.queuingFrames.tciToQueueMapping": "xmldoc(\"xml/tci-maps/tci-map-s22-1.xml\")",
    "**.s38.eth[1].queuing.queuingFrames.tciToQueueMapping": "xmldoc(\"xml/tci-maps/tci-map-s38-1.xml\")",
    "**.s37.eth[1].queuing.queuingFrames.tciToQueueMapping": "xmldoc(\"xml/tci-maps/tci-map-s37-1.xml\")",
    "**.s39.eth[1].queuing.queuingFrames.tciToQueueMapping": "xmldoc(\"xml/tci-maps/tci-map-s39-1.xml\")",
    "**.s61.eth[1].queuing.queuingFrames.tciToQueueMapping": "xmldoc(\"xml/tci-maps/tci-map-s61-1.xml\")",
    "**.s60.eth[1].queuing.queuingFrames.tciToQueueMapping": "xmldoc(\"xml/tci-maps/tci-map-s60-1.xml\")",
    "**.s56.eth[1].queuing.queuingFrames.tciToQueueMapping": "xmldoc(\"xml/tci-maps/tci-map-s56-1.xml\")",
    "**.s23.eth[1].queuing.queuingFrames.tciToQueueMapping": "xmldoc(\"xml/tci-maps/tci-map-s23-1.xml\")",
    "**.s30.eth[1].queuing.queuingFrames.tciToQueueMapping": "xmldoc(\"xml/tci-maps/tci-map-s30-1.xml\")",
    "**.s34.eth[1].queuing.queuingFrames.tciToQueueMapping": "xmldoc(\"xml/tci-maps/tci-map-s34-1.xml\")",
    "**.s10.eth[1].queuing.queuingFrames.tciToQueueMapping": "xmldoc(\"xml/tci-maps/tci-map-s10-1.xml\")",
    "**.s54.eth[1].queuing.queuingFrames.tciToQueueMapping": "xmldoc(\"xml/tci-maps/tci-map-s54-1.xml\")",
    "**.s25.eth[1].queuing.queuingFrames.tciToQueueMapping": "xmldoc(\"xml/tci-maps/tci-map-s25-1.xml\")",
    "**.s24.eth[1].queuing.queuingFrames.tciToQueueMapping": "xmldoc(\"xml/tci-maps/tci-map-s24-1.xml\")",
    "**.s27.eth[1].queuing.queuingFrames.tciToQueueMapping": "xmldoc(\"xml/tci-maps/tci-map-s27-1.xml\")",
    "**.s21.eth[1].queuing.queuingFrames.tciToQueueMapping": "xmldoc(\"xml/tci-maps/tci-map-s21-1.xml\")",
    "**.s12.eth[1].queuing.queuingFrames.tciToQueueMapping": "xmldoc(\"xml/tci-maps/tci-map-s12-1.xml\")",
    "**.s46.eth[1].queuing.queuingFrames.tciToQueueMapping": "xmldoc(\"xml/tci-maps/tci-map-s46-1.xml\")",
    "**.s32.eth[1].queuing.queuingFrames.tciToQueueMapping": "xmldoc(\"xml/tci-maps/tci-map-s32-1.xml\")",
    "**.s14.eth[1].queuing.queuingFrames.tciToQueueMapping": "xmldoc(\"xml/tci-maps/tci-map-s14-1.xml\")",
    "**.s1.eth[1].queuing.queuingFrames.tciToQueueMapping": "xmldoc(\"xml/tci-maps/tci-map-s1-1.xml\")",
    "**.s41.eth[1].queuing.queuingFrames.tciToQueueMapping": "xmldoc(\"xml/tci-maps/tci-map-s41-1.xml\")",
    "**.s29.eth[1].queuing.queuingFrames.tciToQueueMapping": "xmldoc(\"xml/tci-maps/tci-map-s29-1.xml\")",
    "**.s55.eth[1].queuing.queuingFrames.tciToQueueMapping": "xmldoc(\"xml/tci-maps/tci-map-s55-1.xml\")",
    "**.s35.eth[1].queuing.queuingFrames.tciToQueueMapping": "xmldoc(\"xml/tci-maps/tci-map-s35-1.xml\")",
    "**.s18.eth[1].queuing.queuingFrames.tciToQueueMapping": "xmldoc(\"xml/tci-maps/tci-map-s18-1.xml\")",
    "**.s19.eth[1].queuing.queuingFrames.tciToQueueMapping": "xmldoc(\"xml/tci-maps/tci-map-s19-1.xml\")",
    "**.s59.eth[1].queuing.queuingFrames.tciToQueueMapping": "xmldoc(\"xml/tci-maps/tci-map-s59-1.xml\")",
    "**.s50.eth[1].queuing.queuingFrames.tciToQueueMapping": "xmldoc(\"xml/tci-maps/tci-map-s50-1.xml\")",
    "**.s7.eth[1].queuing.queuingFrames.tciToQueueMapping": "xmldoc(\"xml/tci-maps/tci-map-s7-1.xml\")",
    "**.s31.eth[1].queuing.queuingFrames.tciToQueueMapping": "xmldoc(\"xml/tci-maps/tci-map-s31-1.xml\")",
    "**.s3.eth[1].queuing.queuingFrames.tciToQueueMapping": "xmldoc(\"xml/tci-maps/tci-map-s3-1.xml\")",
    "**.s26.eth[1].queuing.queuingFrames.tciToQueueMapping": "xmldoc(\"xml/tci-maps/tci-map-s26-1.xml\")",
    "**.s28.eth[1].queuing.queuingFrames.tciToQueueMapping": "xmldoc(\"xml/tci-maps/tci-map-s28-1.xml\")",
    "**.s1.eth[2].queuing.queuingFrames.tciToQueueMapping": "xmldoc(\"xml/tci-maps/tci-map-s1-2.xml\")",
    "**.s20.eth[1].queuing.queuingFrames.tciToQueueMapping": "xmldoc(\"xml/tci-maps/tci-map-s20-1.xml\")",
    "**.s8.eth[1].queuing.queuingFrames.tciToQueueMapping": "xmldoc(\"xml/tci-maps/tci-map-s8-1.xml\")",
    "**.s6.eth[1].queuing.queuingFrames.tciToQueueMapping": "xmldoc(\"xml/tci-maps/tci-map-s6-1.xml\")",
    "**.s58.eth[1].queuing.queuingFrames.tciToQueueMapping": "xmldoc(\"xml/tci-maps/tci-map-s58-1.xml\")",
    "**.s33.eth[1].queuing.queuingFrames.tciToQueueMapping": "xmldoc(\"xml/tci-maps/tci-map-s33-1.xml\")",
    "**.s44.eth[1].queuing.queuingFrames.tciToQueueMapping": "xmldoc(\"xml/tci-maps/tci-map-s44-1.xml\")",
    "**.s40.eth[1].queuing.queuingFrames.tciToQueueMapping": "xmldoc(\"xml/tci-maps/tci-map-s40-1.xml\")",
    "**.s4.eth[1].queuing.queuingFrames.tciToQueueMapping": "xmldoc(\"xml/tci-maps/tci-map-s4-1.xml\")",
    "**.*.eth[*].queuing.queues[*].bufferCapacity": "365280b",
    "**.*.eth[*].queuing.queues[*].expressQueue": "true",
    "**.*.eth[*].mac.enablePreemptingFrames": "false",
    "**.*.trafGenSchedApp.jitter": "0.000016",
    "**.*.eth[*].queuing.gateController.jitter": "0.000016",
    "**.*.trafGenSchedApp.initialSchedule": "xmldoc(\"xml/traf-gen.xml\")"
  },
  "streams": {
    "1908": {
      "latency_stats": {
        "min": 34.000508048,
        "max": 1041.0005130480022,
        "mean": 857.0706598021346,
        "median": 870.0005190480006,
        "variance": 9346.871775240008,
        "std_deviation": 96.67922101072189,
        "interval_size": 1007.0000050000021,
        "jitter": 823.0701517541346,
        "packages_received": 38220
      },
      "udp_dest_port": 6001,
      "name": "1---2---6001",
      "max_allowed_latency": 10000000,
      "talker": "h1",
      "listener": "h2"
    },
    "1907": {
      "latency_stats": {
        "min": 39.000524524,
        "max": 1042.0005205240013,
        "mean": 823.2629742015652,
        "median": 833.0005135240062,
        "variance": 9565.33581845445,
        "std_deviation": 97.80253482632467,
        "interval_size": 1002.9999960000014,
        "jitter": 784.2624496775652,
        "packages_received": 38098
      },
      "udp_dest_port": 6000,
      "name": "1---2---6000",
      "max_allowed_latency": 10000000,
      "talker": "h1",
      "listener": "h2"
    }
  },
  "hosts": {
    "h2": {
      "received_periodically": {
        "is_periodic": false,
        "max-period-length": 250,
        "skipped": "first 0s"
      }
    }
  },
  "switches": {
    "s60": {
      "port_1": {
        "queue_7": {
          "queueLength": {
            "min": 0,
            "max": 44,
            "mean": 9.053540269997244,
            "median": 7,
            "variance": 68.41938681952902,
            "std_deviation": 8.271601224643813,
            "interval_size": 44,
            "jitter": 34.94645973000276
          },
          "queueingTime": {
            "min": 0.0,
            "max": 112.000007476,
            "mean": 19.594836837409943,
            "median": 14.000002476,
            "variance": 333.71136409018624,
            "std_deviation": 18.267768448559508,
            "interval_size": 112.000007476,
            "jitter": 92.40517063859005
          }
        }
      }
    },
    "s62": {
      "port_2": {
        "queue_7": {
          "queueLength": {
            "min": 0,
            "max": 3,
            "mean": 0.5095225928182551,
            "median": 1,
            "variance": 0.2595679191759393,
            "std_deviation": 0.5094780850791713,
            "interval_size": 3,
            "jitter": 2.490477407181745
          },
          "queueingTime": {
            "min": 0.0,
            "max": 1.000014476,
            "mean": 0.008586291279173982,
            "median": 1.476e-06,
            "variance": 0.008508745821184346,
            "std_deviation": 0.09224286325339401,
            "interval_size": 1.000014476,
            "jitter": 0.9914281847208261
          }
        }
      }
    },
    "s61": {
      "port_1": {
        "queue_7": {
          "queueLength": {
            "min": 0,
            "max": 44,
            "mean": 9.769672249022761,
            "median": 7,
            "variance": 78.71664381858129,
            "std_deviation": 8.872240067681966,
            "interval_size": 44,
            "jitter": 34.23032775097724
          },
          "queueingTime": {
            "min": 0.0,
            "max": 116.000004476,
            "mean": 21.236423209286134,
            "median": 15.999997476,
            "variance": 389.78486240825185,
            "std_deviation": 19.74296994902874,
            "interval_size": 116.000004476,
            "jitter": 94.76358126671387
          }
        }
      }
    },
    "s20": {
      "port_1": {
        "queue_7": {
          "queueLength": {
            "min": 0,
            "max": 44,
            "mean": 11.501329667647322,
            "median": 9,
            "variance": 90.28756664327705,
            "std_deviation": 9.501976986042276,
            "interval_size": 44,
            "jitter": 32.498670332352674
          },
          "queueingTime": {
            "min": 0.0,
            "max": 118.000004476,
            "mean": 24.802662142143273,
            "median": 19.999999476,
            "variance": 444.14939721302505,
            "std_deviation": 21.07485224652892,
            "interval_size": 118.000004476,
            "jitter": 93.19734233385672
          }
        }
      }
    },
    "s22": {
      "port_1": {
        "queue_7": {
          "queueLength": {
            "min": 0,
            "max": 44,
            "mean": 10.13798381806254,
            "median": 8,
            "variance": 72.76358178008287,
            "std_deviation": 8.53015719550835,
            "interval_size": 44,
            "jitter": 33.86201618193746
          },
          "queueingTime": {
            "min": 0.0,
            "max": 94.000006476,
            "mean": 21.667681255459023,
            "median": 17.000002476,
            "variance": 337.48770114892744,
            "std_deviation": 18.370838335495947,
            "interval_size": 94.000006476,
            "jitter": 72.33232522054098
          }
        }
      }
    },
    "s21": {
      "port_1": {
        "queue_7": {
          "queueLength": {
            "min": 0,
            "max": 44,
            "mean": 11.46302812379607,
            "median": 9.0,
            "variance": 97.67510893896683,
            "std_deviation": 9.883071837185382,
            "interval_size": 44,
            "jitter": 32.53697187620393
          },
          "queueingTime": {
            "min": 0.0,
            "max": 120.000001476,
            "mean": 24.588490320668416,
            "median": 18.999999476,
            "variance": 469.93253744552806,
            "std_deviation": 21.67792742504523,
            "interval_size": 120.000001476,
            "jitter": 95.41151115533158
          }
        }
      }
    },
    "s24": {
      "port_1": {
        "queue_7": {
          "queueLength": {
            "min": 0,
            "max": 44,
            "mean": 12.334428214442125,
            "median": 9.0,
            "variance": 120.18639290338436,
            "std_deviation": 10.96295548214004,
            "interval_size": 44,
            "jitter": 31.665571785557873
          },
          "queueingTime": {
            "min": 0.0,
            "max": 109.000008476,
            "mean": 26.548545176839824,
            "median": 19.000000476,
            "variance": 579.7405427315271,
            "std_deviation": 24.07780186668889,
            "interval_size": 109.000008476,
            "jitter": 82.45146329916018
          }
        }
      }
    },
    "s23": {
      "port_1": {
        "queue_7": {
          "queueLength": {
            "min": 0,
            "max": 44,
            "mean": 11.183370844318693,
            "median": 9,
            "variance": 87.90556753995554,
            "std_deviation": 9.375796901594848,
            "interval_size": 44,
            "jitter": 32.816629155681305
          },
          "queueingTime": {
            "min": 0.0,
            "max": 102.000004476,
            "mean": 24.089744092356188,
            "median": 18.999999476,
            "variance": 419.0494408242879,
            "std_deviation": 20.470697125996658,
            "interval_size": 102.000004476,
            "jitter": 77.91026038364382
          }
        }
      }
    },
    "s26": {
      "port_1": {
        "queue_7": {
          "queueLength": {
            "min": 0,
            "max": 44,
            "mean": 10.197265297163295,
            "median": 8,
            "variance": 81.85414963317244,
            "std_deviation": 9.047328314655793,
            "interval_size": 44,
            "jitter": 33.8027347028367
          },
          "queueingTime": {
            "min": 0.0,
            "max": 116.000003476,
            "mean": 21.97202792433797,
            "median": 16.000003476,
            "variance": 394.54326079468046,
            "std_deviation": 19.86311306907053,
            "interval_size": 116.000003476,
            "jitter": 94.02797555166204
          }
        }
      }
    },
    "s25": {
      "port_1": {
        "queue_7": {
          "queueLength": {
            "min": 0,
            "max": 44,
            "mean": 10.204917610710607,
            "median": 8.0,
            "variance": 75.57615470684108,
            "std_deviation": 8.693454704939866,
            "interval_size": 44,
            "jitter": 33.79508238928939
          },
          "queueingTime": {
            "min": 0.0,
            "max": 108.000001476,
            "mean": 21.909257314339953,
            "median": 17.000002952,
            "variance": 360.759085890151,
            "std_deviation": 18.993659096923665,
            "interval_size": 108.000001476,
            "jitter": 86.09074416166004
          }
        }
      }
    },
    "s28": {
      "port_1": {
        "queue_7": {
          "queueLength": {
            "min": 0,
            "max": 44,
            "mean": 10.968568584099401,
            "median": 8,
            "variance": 88.91180199927524,
            "std_deviation": 9.429305488702507,
            "interval_size": 44,
            "jitter": 33.0314314159006
          },
          "queueingTime": {
            "min": 0.0,
            "max": 106.000001476,
            "mean": 23.675514548416306,
            "median": 17.999997476,
            "variance": 426.75816503893833,
            "std_deviation": 20.65812588399389,
            "interval_size": 106.000001476,
            "jitter": 82.32448692758369
          }
        }
      }
    },
    "s27": {
      "port_1": {
        "queue_7": {
          "queueLength": {
            "min": 0,
            "max": 44,
            "mean": 11.485551517026268,
            "median": 9.0,
            "variance": 101.45765680544676,
            "std_deviation": 10.072619163129655,
            "interval_size": 44,
            "jitter": 32.514448482973734
          },
          "queueingTime": {
            "min": 0.0,
            "max": 120.000003476,
            "mean": 24.80354716997864,
            "median": 18.999996476,
            "variance": 496.30311320043944,
            "std_deviation": 22.277861504202765,
            "interval_size": 120.000003476,
            "jitter": 95.19645630602136
          }
        }
      }
    },
    "s29": {
      "port_1": {
        "queue_7": {
          "queueLength": {
            "min": 0,
            "max": 44,
            "mean": 11.371760119785213,
            "median": 9.0,
            "variance": 89.19007030747073,
            "std_deviation": 9.444049465534937,
            "interval_size": 44,
            "jitter": 32.628239880214785
          },
          "queueingTime": {
            "min": 0.0,
            "max": 107.000006476,
            "mean": 24.56087977975086,
            "median": 19.000004476,
            "variance": 425.3874605214207,
            "std_deviation": 20.624923285225105,
            "interval_size": 107.000006476,
            "jitter": 82.43912669624913
          }
        }
      }
    },
    "s31": {
      "port_1": {
        "queue_7": {
          "queueLength": {
            "min": 0,
            "max": 44,
            "mean": 11.024149158849523,
            "median": 9.0,
            "variance": 84.72915981060444,
            "std_deviation": 9.204844366452072,
            "interval_size": 44,
            "jitter": 32.975850841150475
          },
          "queueingTime": {
            "min": 0.0,
            "max": 109.000001476,
            "mean": 23.785779547956675,
            "median": 19.000001476,
            "variance": 408.73261385236066,
            "std_deviation": 20.217136638316532,
            "interval_size": 109.000001476,
            "jitter": 85.21422192804332
          }
        }
      }
    },
    "s30": {
      "port_1": {
        "queue_7": {
          "queueLength": {
            "min": 0,
            "max": 44,
            "mean": 10.378091689951361,
            "median": 8.0,
            "variance": 79.98759603231571,
            "std_deviation": 8.943578480245796,
            "interval_size": 44,
            "jitter": 33.62190831004864
          },
          "queueingTime": {
            "min": 0.0,
            "max": 121.000003476,
            "mean": 22.392869787296668,
            "median": 17.000002476,
            "variance": 387.445422981166,
            "std_deviation": 19.683633378549956,
            "interval_size": 121.000003476,
            "jitter": 98.60713368870333
          }
        }
      }
    },
    "s33": {
      "port_1": {
        "queue_7": {
          "queueLength": {
            "min": 0,
            "max": 44,
            "mean": 12.718451626258183,
            "median": 10.0,
            "variance": 104.78631886834035,
            "std_deviation": 10.236518884285827,
            "interval_size": 44,
            "jitter": 31.281548373741817
          },
          "queueingTime": {
            "min": 0.0,
            "max": 122.000005476,
            "mean": 27.5924809254694,
            "median": 22.000005476,
            "variance": 506.0671362127347,
            "std_deviation": 22.49593599325742,
            "interval_size": 122.000005476,
            "jitter": 94.4075245505306
          }
        }
      }
    },
    "s32": {
      "port_1": {
        "queue_7": {
          "queueLength": {
            "min": 0,
            "max": 44,
            "mean": 10.926099509315243,
            "median": 8,
            "variance": 81.63383536600082,
            "std_deviation": 9.03514445739529,
            "interval_size": 44,
            "jitter": 33.07390049068476
          },
          "queueingTime": {
            "min": 0.0,
            "max": 113.000006476,
            "mean": 23.622505666305965,
            "median": 18.000003476,
            "variance": 394.74948200619843,
            "std_deviation": 19.868303450627042,
            "interval_size": 113.000006476,
            "jitter": 89.37750080969403
          }
        }
      }
    },
    "s35": {
      "port_1": {
        "queue_7": {
          "queueLength": {
            "min": 0,
            "max": 44,
            "mean": 10.674752943309718,
            "median": 8,
            "variance": 83.01508128577859,
            "std_deviation": 9.111261234635883,
            "interval_size": 44,
            "jitter": 33.32524705669028
          },
          "queueingTime": {
            "min": 0.0,
            "max": 99.000002476,
            "mean": 23.05220589006503,
            "median": 17.000005476,
            "variance": 403.2305240841458,
            "std_deviation": 20.08060069032164,
            "interval_size": 99.000002476,
            "jitter": 75.94779658593498
          }
        }
      }
    },
    "s34": {
      "port_1": {
        "queue_7": {
          "queueLength": {
            "min": 0,
            "max": 44,
            "mean": 10.671794605943571,
            "median": 8,
            "variance": 92.7253755488856,
            "std_deviation": 9.629401619461387,
            "interval_size": 44,
            "jitter": 33.328205394056425
          },
          "queueingTime": {
            "min": 0.0,
            "max": 103.000003476,
            "mean": 22.939030963438782,
            "median": 16.999999476,
            "variance": 439.4224715267087,
            "std_deviation": 20.96240614831009,
            "interval_size": 103.000003476,
            "jitter": 80.06097251256122
          }
        }
      }
    },
    "s37": {
      "port_1": {
        "queue_7": {
          "queueLength": {
            "min": 0,
            "max": 44,
            "mean": 9.636282360258104,
            "median": 8.0,
            "variance": 61.735375592920235,
            "std_deviation": 7.857186238910227,
            "interval_size": 44,
            "jitter": 34.36371763974189
          },
          "queueingTime": {
            "min": 0.0,
            "max": 104.000006476,
            "mean": 20.74397571366323,
            "median": 17.000002476,
            "variance": 292.5683753008135,
            "std_deviation": 17.104630229876747,
            "interval_size": 104.000006476,
            "jitter": 83.25603076233676
          }
        }
      }
    },
    "s36": {
      "port_1": {
        "queue_7": {
          "queueLength": {
            "min": 0,
            "max": 44,
            "mean": 9.720063801644319,
            "median": 8.0,
            "variance": 69.46159554531786,
            "std_deviation": 8.334362335854967,
            "interval_size": 44,
            "jitter": 34.279936198355685
          },
          "queueingTime": {
            "min": 0.0,
            "max": 98.000006476,
            "mean": 20.889352484759247,
            "median": 16.000006476,
            "variance": 327.9100425418854,
            "std_deviation": 18.10828657112222,
            "interval_size": 98.000006476,
            "jitter": 77.11065399124075
          }
        }
      }
    },
    "s39": {
      "port_1": {
        "queue_7": {
          "queueLength": {
            "min": 0,
            "max": 44,
            "mean": 10.499824973097716,
            "median": 8,
            "variance": 77.16461490518782,
            "std_deviation": 8.784339184320459,
            "interval_size": 44,
            "jitter": 33.50017502690228
          },
          "queueingTime": {
            "min": 0.0,
            "max": 104.000009476,
            "mean": 22.560907259472195,
            "median": 17.000006476,
            "variance": 363.2966970394133,
            "std_deviation": 19.060343570864962,
            "interval_size": 104.000009476,
            "jitter": 81.4391022165278
          }
        }
      }
    },
    "s38": {
      "port_1": {
        "queue_7": {
          "queueLength": {
            "min": 0,
            "max": 44,
            "mean": 9.921173889905637,
            "median": 7,
            "variance": 91.64103072393495,
            "std_deviation": 9.572932190501245,
            "interval_size": 44,
            "jitter": 34.07882611009436
          },
          "queueingTime": {
            "min": 0.0,
            "max": 115.999996476,
            "mean": 21.351696513722718,
            "median": 15.000000476,
            "variance": 447.5397779717562,
            "std_deviation": 21.1551359714788,
            "interval_size": 115.999996476,
            "jitter": 94.64829996227729
          }
        }
      }
    },
    "s40": {
      "port_1": {
        "queue_7": {
          "queueLength": {
            "min": 0,
            "max": 44,
            "mean": 10.836958924415203,
            "median": 7,
            "variance": 108.27343286548829,
            "std_deviation": 10.405452074056576,
            "interval_size": 44,
            "jitter": 33.1630410755848
          },
          "queueingTime": {
            "min": 0.0,
            "max": 129.000000476,
            "mean": 23.426807616649487,
            "median": 15.999999476,
            "variance": 531.7420064363939,
            "std_deviation": 23.05953179135244,
            "interval_size": 129.000000476,
            "jitter": 105.57319285935051
          }
        }
      }
    },
    "s42": {
      "port_1": {
        "queue_7": {
          "queueLength": {
            "min": 0,
            "max": 44,
            "mean": 7.918429238959247,
            "median": 6,
            "variance": 47.53683287395946,
            "std_deviation": 6.8946959957607605,
            "interval_size": 44,
            "jitter": 36.08157076104075
          },
          "queueingTime": {
            "min": 0.0,
            "max": 117.000005476,
            "mean": 16.941892628682428,
            "median": 13.000002476,
            "variance": 228.00458884512219,
            "std_deviation": 15.099820821623089,
            "interval_size": 117.000005476,
            "jitter": 100.05811284731757
          }
        }
      }
    },
    "s41": {
      "port_1": {
        "queue_7": {
          "queueLength": {
            "min": 0,
            "max": 44,
            "mean": 9.931267196179205,
            "median": 8.0,
            "variance": 74.39516672166441,
            "std_deviation": 8.625263284193961,
            "interval_size": 44,
            "jitter": 34.068732803820794
          },
          "queueingTime": {
            "min": 0.0,
            "max": 117.000007476,
            "mean": 21.360531300798357,
            "median": 16.999995476,
            "variance": 351.9834749150717,
            "std_deviation": 18.761222639131805,
            "interval_size": 117.000007476,
            "jitter": 95.63947617520164
          }
        }
      }
    },
    "s44": {
      "port_1": {
        "queue_7": {
          "queueLength": {
            "min": 0,
            "max": 44,
            "mean": 9.816181642914833,
            "median": 7.0,
            "variance": 87.54368708608312,
            "std_deviation": 9.356478348507153,
            "interval_size": 44,
            "jitter": 34.183818357085165
          },
          "queueingTime": {
            "min": 0.0,
            "max": 132.000000476,
            "mean": 21.143138956873525,
            "median": 14.000009476,
            "variance": 430.49403300009584,
            "std_deviation": 20.748350127181098,
            "interval_size": 132.000000476,
            "jitter": 110.85686151912647
          }
        }
      }
    },
    "s43": {
      "port_1": {
        "queue_7": {
          "queueLength": {
            "min": 0,
            "max": 44,
            "mean": 10.292175991478416,
            "median": 8,
            "variance": 73.59075574954102,
            "std_deviation": 8.578505449642206,
            "interval_size": 44,
            "jitter": 33.707824008521584
          },
          "queueingTime": {
            "min": 0.0,
            "max": 106.000005476,
            "mean": 22.249294342600763,
            "median": 17.999998476,
            "variance": 354.56693068328906,
            "std_deviation": 18.82994770792763,
            "interval_size": 106.000005476,
            "jitter": 83.75071113339924
          }
        }
      }
    },
    "s46": {
      "port_1": {
        "queue_7": {
          "queueLength": {
            "min": 0,
            "max": 44,
            "mean": 10.22563440523694,
            "median": 7.0,
            "variance": 86.94940141991505,
            "std_deviation": 9.324666290002826,
            "interval_size": 44,
            "jitter": 33.77436559476306
          },
          "queueingTime": {
            "min": 0.0,
            "max": 101.000006476,
            "mean": 22.087297014201617,
            "median": 15.999999476,
            "variance": 418.31182252680304,
            "std_deviation": 20.45267274775605,
            "interval_size": 101.000006476,
            "jitter": 78.91270946179839
          }
        }
      }
    },
    "s45": {
      "port_1": {
        "queue_7": {
          "queueLength": {
            "min": 0,
            "max": 44,
            "mean": 8.881077077025042,
            "median": 7,
            "variance": 56.13082518495421,
            "std_deviation": 7.492050799677897,
            "interval_size": 44,
            "jitter": 35.11892292297496
          },
          "queueingTime": {
            "min": 0.0,
            "max": 106.000004476,
            "mean": 19.121197274287365,
            "median": 15.000005476,
            "variance": 269.42361966815463,
            "std_deviation": 16.414128660034155,
            "interval_size": 106.000004476,
            "jitter": 86.87880720171263
          }
        }
      }
    },
    "s48": {
      "port_1": {
        "queue_7": {
          "queueLength": {
            "min": 0,
            "max": 44,
            "mean": 9.53459972862958,
            "median": 7.0,
            "variance": 75.12910148498538,
            "std_deviation": 8.667704510710168,
            "interval_size": 44,
            "jitter": 34.46540027137042
          },
          "queueingTime": {
            "min": 0.0,
            "max": 111.000002952,
            "mean": 20.681031756041236,
            "median": 15.000001476,
            "variance": 372.8978887683887,
            "std_deviation": 19.310564175300232,
            "interval_size": 111.000002952,
            "jitter": 90.31897119595877
          }
        }
      }
    },
    "s47": {
      "port_1": {
        "queue_7": {
          "queueLength": {
            "min": 0,
            "max": 44,
            "mean": 10.05334703540859,
            "median": 7.0,
            "variance": 85.00420464672628,
            "std_deviation": 9.219772483457836,
            "interval_size": 44,
            "jitter": 33.94665296459141
          },
          "queueingTime": {
            "min": 0.0,
            "max": 120.000003476,
            "mean": 21.723352958155704,
            "median": 15.999998476,
            "variance": 411.07859928447067,
            "std_deviation": 20.27507334843627,
            "interval_size": 120.000003476,
            "jitter": 98.2766505178443
          }
        }
      }
    },
    "s49": {
      "port_1": {
        "queue_7": {
          "queueLength": {
            "min": 0,
            "max": 44,
            "mean": 10.182682539269061,
            "median": 8.0,
            "variance": 80.74198906839565,
            "std_deviation": 8.98565462659208,
            "interval_size": 44,
            "jitter": 33.81731746073094
          },
          "queueingTime": {
            "min": 0.0,
            "max": 121.000002476,
            "mean": 22.057389580587632,
            "median": 16.000009476,
            "variance": 395.2719735467304,
            "std_deviation": 19.881447974097117,
            "interval_size": 121.000002476,
            "jitter": 98.94261289541237
          }
        }
      }
    },
    "s9": {
      "port_1": {
        "queue_7": {
          "queueLength": {
            "min": 0,
            "max": 44,
            "mean": 13.673054028724131,
            "median": 11.0,
            "variance": 114.41879617705223,
            "std_deviation": 10.696672201065724,
            "interval_size": 44,
            "jitter": 30.32694597127587
          },
          "queueingTime": {
            "min": 0.0,
            "max": 114.000006476,
            "mean": 29.231389855248143,
            "median": 23.000004476,
            "variance": 539.4111711439695,
            "std_deviation": 23.22522704181747,
            "interval_size": 114.000006476,
            "jitter": 84.76861662075186
          }
        }
      }
    },
    "s51": {
      "port_1": {
        "queue_7": {
          "queueLength": {
            "min": 0,
            "max": 44,
            "mean": 8.457918469478184,
            "median": 7.0,
            "variance": 53.73086651728695,
            "std_deviation": 7.33013414047021,
            "interval_size": 44,
            "jitter": 35.54208153052181
          },
          "queueingTime": {
            "min": 0.0,
            "max": 102.000004476,
            "mean": 18.178052532825443,
            "median": 14.000004476,
            "variance": 258.8096630198484,
            "std_deviation": 16.087562370348355,
            "interval_size": 102.000004476,
            "jitter": 83.82195194317455
          }
        }
      }
    },
    "s50": {
      "port_1": {
        "queue_7": {
          "queueLength": {
            "min": 0,
            "max": 44,
            "mean": 11.057529058377956,
            "median": 8.0,
            "variance": 103.27884110407403,
            "std_deviation": 10.162619795312331,
            "interval_size": 44,
            "jitter": 32.94247094162205
          },
          "queueingTime": {
            "min": 0.0,
            "max": 112.999998476,
            "mean": 24.02831476294803,
            "median": 17.000000476,
            "variance": 503.9154086356954,
            "std_deviation": 22.448060242161134,
            "interval_size": 112.999998476,
            "jitter": 88.97168371305197
          }
        }
      }
    },
    "s53": {
      "port_1": {
        "queue_7": {
          "queueLength": {
            "min": 0,
            "max": 44,
            "mean": 9.420918799796576,
            "median": 7,
            "variance": 69.08622384869946,
            "std_deviation": 8.31181230831757,
            "interval_size": 44,
            "jitter": 34.579081200203426
          },
          "queueingTime": {
            "min": 0.0,
            "max": 111.000006476,
            "mean": 20.378831455260347,
            "median": 15.000005476,
            "variance": 336.9467638028685,
            "std_deviation": 18.356109713195455,
            "interval_size": 111.000006476,
            "jitter": 90.62117502073966
          }
        }
      }
    },
    "s5": {
      "port_1": {
        "queue_7": {
          "queueLength": {
            "min": 0,
            "max": 44,
            "mean": 19.331204196365828,
            "median": 18.0,
            "variance": 142.44759531222553,
            "std_deviation": 11.935141193644318,
            "interval_size": 44,
            "jitter": 24.668795803634172
          },
          "queueingTime": {
            "min": 0.0,
            "max": 136.000004476,
            "mean": 41.55546853102604,
            "median": 38.000006476,
            "variance": 688.5418658217535,
            "std_deviation": 26.24008128458739,
            "interval_size": 136.000004476,
            "jitter": 94.44453594497395
          }
        }
      }
    },
    "s52": {
      "port_1": {
        "queue_7": {
          "queueLength": {
            "min": 0,
            "max": 44,
            "mean": 10.82674290798702,
            "median": 7.0,
            "variance": 104.58329171642904,
            "std_deviation": 10.226597269689906,
            "interval_size": 44,
            "jitter": 33.17325709201298
          },
          "queueingTime": {
            "min": 0.0,
            "max": 117.000004476,
            "mean": 23.49928201562202,
            "median": 16.000000476,
            "variance": 512.3335258121649,
            "std_deviation": 22.634785746990513,
            "interval_size": 117.000004476,
            "jitter": 93.50072246037799
          }
        }
      }
    },
    "s6": {
      "port_1": {
        "queue_7": {
          "queueLength": {
            "min": 0,
            "max": 44,
            "mean": 15.531280429971545,
            "median": 14,
            "variance": 134.6360545546762,
            "std_deviation": 11.603277750475346,
            "interval_size": 44,
            "jitter": 28.468719570028455
          },
          "queueingTime": {
            "min": 0.0,
            "max": 117.000004476,
            "mean": 33.26523254525501,
            "median": 29.000000476,
            "variance": 650.2371739045029,
            "std_deviation": 25.499748506691255,
            "interval_size": 117.000004476,
            "jitter": 83.73477193074498
          }
        }
      }
    },
    "s7": {
      "port_1": {
        "queue_7": {
          "queueLength": {
            "min": 0,
            "max": 44,
            "mean": 17.456927562573366,
            "median": 16,
            "variance": 148.79503906933687,
            "std_deviation": 12.198157199730494,
            "interval_size": 44,
            "jitter": 26.543072437426634
          },
          "queueingTime": {
            "min": 0.0,
            "max": 122.000006476,
            "mean": 37.57257005002389,
            "median": 33.999999476,
            "variance": 726.661678999247,
            "std_deviation": 26.9566629796651,
            "interval_size": 122.000006476,
            "jitter": 84.42743642597611
          }
        }
      }
    },
    "s55": {
      "port_1": {
        "queue_7": {
          "queueLength": {
            "min": 0,
            "max": 44,
            "mean": 10.110568957194484,
            "median": 8,
            "variance": 76.45498810259598,
            "std_deviation": 8.743854304744332,
            "interval_size": 44,
            "jitter": 33.88943104280551
          },
          "queueingTime": {
            "min": 0.0,
            "max": 96.000001476,
            "mean": 21.98719000836877,
            "median": 16.999996476,
            "variance": 379.4085923667773,
            "std_deviation": 19.4784134971711,
            "interval_size": 96.000001476,
            "jitter": 74.01281146763122
          }
        }
      }
    },
    "s11": {
      "port_1": {
        "queue_7": {
          "queueLength": {
            "min": 0,
            "max": 44,
            "mean": 13.375820770412894,
            "median": 11,
            "variance": 119.97922281526509,
            "std_deviation": 10.95350276465319,
            "interval_size": 44,
            "jitter": 30.624179229587106
          },
          "queueingTime": {
            "min": 0.0,
            "max": 117.000004476,
            "mean": 28.592590359247488,
            "median": 22.000004476,
            "variance": 569.8754499120585,
            "std_deviation": 23.87206421556499,
            "interval_size": 117.000004476,
            "jitter": 88.4074141167525
          }
        }
      }
    },
    "s10": {
      "port_1": {
        "queue_7": {
          "queueLength": {
            "min": 0,
            "max": 44,
            "mean": 12.650165058567113,
            "median": 10,
            "variance": 111.95397522640069,
            "std_deviation": 10.580830554658773,
            "interval_size": 44,
            "jitter": 31.34983494143289
          },
          "queueingTime": {
            "min": 0.0,
            "max": 114.000002476,
            "mean": 27.151033533865252,
            "median": 21.000001476,
            "variance": 534.2272966828441,
            "std_deviation": 23.11335753807404,
            "interval_size": 114.000002476,
            "jitter": 86.84896894213475
          }
        }
      }
    },
    "s54": {
      "port_1": {
        "queue_7": {
          "queueLength": {
            "min": 0,
            "max": 44,
            "mean": 8.764304338141844,
            "median": 6,
            "variance": 63.62877113727148,
            "std_deviation": 7.976764452913943,
            "interval_size": 44,
            "jitter": 35.23569566185816
          },
          "queueingTime": {
            "min": 0.0,
            "max": 105.999998476,
            "mean": 18.917540682886948,
            "median": 14.000001476,
            "variance": 305.9082701690426,
            "std_deviation": 17.490233565308458,
            "interval_size": 105.999998476,
            "jitter": 87.08245779311305
          }
        }
      }
    },
    "s8": {
      "port_1": {
        "queue_7": {
          "queueLength": {
            "min": 0,
            "max": 44,
            "mean": 14.96147005767423,
            "median": 12.0,
            "variance": 134.8916770035053,
            "std_deviation": 11.614287623591268,
            "interval_size": 44,
            "jitter": 29.03852994232577
          },
          "queueingTime": {
            "min": 0.0,
            "max": 120.000003476,
            "mean": 32.15069506952332,
            "median": 25.000005476,
            "variance": 647.7442418552992,
            "std_deviation": 25.450820062530386,
            "interval_size": 120.000003476,
            "jitter": 87.84930840647668
          }
        }
      }
    },
    "s1": {
      "port_1": {
        "queue_7": {
          "queueLength": {
            "min": 0,
            "max": 44,
            "mean": 43.5593954699708,
            "median": 44.0,
            "variance": 1.0196946522583223,
            "std_deviation": 1.009799312862869,
            "interval_size": 44,
            "jitter": 43.5593954699708
          },
          "queueingTime": {
            "min": 0.999998476,
            "max": 137.999998476,
            "mean": 93.65535920705261,
            "median": 93.000001476,
            "variance": 111.11774904806184,
            "std_deviation": 10.54124039418805,
            "interval_size": 137.0,
            "jitter": 92.65536073105261
          }
        }
      },
      "port_2": {
        "queue_7": {
          "queueLength": {
            "min": 0,
            "max": 44,
            "mean": 43.56578605252169,
            "median": 44,
            "variance": 0.7617081056624764,
            "std_deviation": 0.872758904659515,
            "interval_size": 44,
            "jitter": 43.56578605252169
          },
          "queueingTime": {
            "min": 7.999993476,
            "max": 139.999991476,
            "mean": 93.24598615942762,
            "median": 92.999993476,
            "variance": 117.11728886286114,
            "std_deviation": 10.822074147909962,
            "interval_size": 131.999998,
            "jitter": 85.24599268342762
          }
        }
      }
    },
    "s13": {
      "port_1": {
        "queue_7": {
          "queueLength": {
            "min": 0,
            "max": 44,
            "mean": 15.358306894486704,
            "median": 13,
            "variance": 132.8024649196012,
            "std_deviation": 11.523995180474573,
            "interval_size": 44,
            "jitter": 28.641693105513298
          },
          "queueingTime": {
            "min": 0.0,
            "max": 105.000004476,
            "mean": 33.10062751603674,
            "median": 27.000007476,
            "variance": 637.3991199938412,
            "std_deviation": 25.24676454506282,
            "interval_size": 105.000004476,
            "jitter": 71.89937695996326
          }
        }
      }
    },
    "s57": {
      "port_1": {
        "queue_7": {
          "queueLength": {
            "min": 0,
            "max": 44,
            "mean": 8.775240729626054,
            "median": 6.0,
            "variance": 63.411728667534845,
            "std_deviation": 7.963148163103261,
            "interval_size": 44,
            "jitter": 35.224759270373944
          },
          "queueingTime": {
            "min": 0.0,
            "max": 90.000006476,
            "mean": 18.949009487673894,
            "median": 13.000007476,
            "variance": 308.84514723441765,
            "std_deviation": 17.573990646248156,
            "interval_size": 90.000006476,
            "jitter": 71.0509969883261
          }
        }
      }
    },
    "s12": {
      "port_1": {
        "queue_7": {
          "queueLength": {
            "min": 0,
            "max": 44,
            "mean": 12.132742798065019,
            "median": 10,
            "variance": 86.48129419370643,
            "std_deviation": 9.299531934119395,
            "interval_size": 44,
            "jitter": 31.867257201934983
          },
          "queueingTime": {
            "min": 0.0,
            "max": 109.000005476,
            "mean": 26.054213184294774,
            "median": 21.999997476,
            "variance": 413.5245240177061,
            "std_deviation": 20.335302407825317,
            "interval_size": 109.000005476,
            "jitter": 82.94579229170523
          }
        }
      }
    },
    "s2": {
      "port_1": {
        "queue_7": {
          "queueLength": {
            "min": 0,
            "max": 44,
            "mean": 22.22545627162684,
            "median": 23,
            "variance": 173.63741368157,
            "std_deviation": 13.17715499193851,
            "interval_size": 44,
            "jitter": 22.22545627162684
          },
          "queueingTime": {
            "min": 0.0,
            "max": 135.000004476,
            "mean": 47.65904476613271,
            "median": 48.000000476,
            "variance": 846.8880727478945,
            "std_deviation": 29.101341425231492,
            "interval_size": 135.000004476,
            "jitter": 87.34095970986728
          }
        }
      }
    },
    "s56": {
      "port_1": {
        "queue_7": {
          "queueLength": {
            "min": 0,
            "max": 44,
            "mean": 8.50530262312704,
            "median": 6,
            "variance": 63.038024764544,
            "std_deviation": 7.939648906881462,
            "interval_size": 44,
            "jitter": 35.49469737687296
          },
          "queueingTime": {
            "min": 0.0,
            "max": 108.000002476,
            "mean": 18.374264891662637,
            "median": 13.000003476,
            "variance": 303.8560151947045,
            "std_deviation": 17.43146623766069,
            "interval_size": 108.000002476,
            "jitter": 89.62573758433737
          }
        }
      }
    },
    "s3": {
      "port_1": {
        "queue_7": {
          "queueLength": {
            "min": 0,
            "max": 44,
            "mean": 21.722691581353743,
            "median": 22.0,
            "variance": 171.6396247356196,
            "std_deviation": 13.10113066630585,
            "interval_size": 44,
            "jitter": 22.277308418646257
          },
          "queueingTime": {
            "min": 0.0,
            "max": 132.000006476,
            "mean": 46.207763482834395,
            "median": 45.000005476,
            "variance": 816.5027210763753,
            "std_deviation": 28.5745117381973,
            "interval_size": 132.000006476,
            "jitter": 85.79224299316562
          }
        }
      }
    },
    "s15": {
      "port_1": {
        "queue_7": {
          "queueLength": {
            "min": 0,
            "max": 44,
            "mean": 12.25668770280283,
            "median": 9.0,
            "variance": 104.76271924048677,
            "std_deviation": 10.23536610192751,
            "interval_size": 44,
            "jitter": 31.74331229719717
          },
          "queueingTime": {
            "min": 0.0,
            "max": 115.000005476,
            "mean": 26.365592773058186,
            "median": 20.000003476,
            "variance": 505.6588231563044,
            "std_deviation": 22.48685889928392,
            "interval_size": 115.000005476,
            "jitter": 88.63441270294182
          }
        }
      }
    },
    "s59": {
      "port_1": {
        "queue_7": {
          "queueLength": {
            "min": 0,
            "max": 44,
            "mean": 10.111763937850894,
            "median": 7.0,
            "variance": 83.50495894569711,
            "std_deviation": 9.138104778656082,
            "interval_size": 44,
            "jitter": 33.888236062149105
          },
          "queueingTime": {
            "min": 0.0,
            "max": 112.000002476,
            "mean": 21.94552117587792,
            "median": 16.000001476,
            "variance": 407.8001865827372,
            "std_deviation": 20.194063151895342,
            "interval_size": 112.000002476,
            "jitter": 90.05448130012209
          }
        }
      }
    },
    "s58": {
      "port_1": {
        "queue_7": {
          "queueLength": {
            "min": 0,
            "max": 44,
            "mean": 8.415783676038608,
            "median": 6.0,
            "variance": 56.41339142046449,
            "std_deviation": 7.510884862681926,
            "interval_size": 44,
            "jitter": 35.58421632396139
          },
          "queueingTime": {
            "min": 0.0,
            "max": 101.000005476,
            "mean": 18.207011177360403,
            "median": 14.000001476,
            "variance": 272.58621490188585,
            "std_deviation": 16.510185186783517,
            "interval_size": 101.000005476,
            "jitter": 82.7929942986396
          }
        }
      }
    },
    "s14": {
      "port_1": {
        "queue_7": {
          "queueLength": {
            "min": 0,
            "max": 44,
            "mean": 11.35475259917746,
            "median": 9.0,
            "variance": 93.93411603282344,
            "std_deviation": 9.691961413089894,
            "interval_size": 44,
            "jitter": 32.64524740082254
          },
          "queueingTime": {
            "min": 0.0,
            "max": 97.000006476,
            "mean": 24.213311621378754,
            "median": 18.000006476,
            "variance": 436.8587912643802,
            "std_deviation": 20.90116722253521,
            "interval_size": 97.000006476,
            "jitter": 72.78669485462125
          }
        }
      }
    },
    "s4": {
      "port_1": {
        "queue_7": {
          "queueLength": {
            "min": 0,
            "max": 44,
            "mean": 13.387635282407933,
            "median": 11,
            "variance": 112.79600132627132,
            "std_deviation": 10.620546187756604,
            "interval_size": 44,
            "jitter": 30.612364717592065
          },
          "queueingTime": {
            "min": 0.0,
            "max": 115.000004476,
            "mean": 28.526939831783796,
            "median": 23.000001476,
            "variance": 536.8766657873706,
            "std_deviation": 23.170599167638514,
            "interval_size": 115.000004476,
            "jitter": 86.47306464421621
          }
        }
      }
    },
    "s17": {
      "port_1": {
        "queue_7": {
          "queueLength": {
            "min": 0,
            "max": 44,
            "mean": 13.287289492220017,
            "median": 10,
            "variance": 118.61813220148849,
            "std_deviation": 10.891195168643728,
            "interval_size": 44,
            "jitter": 30.71271050777998
          },
          "queueingTime": {
            "min": 0.0,
            "max": 114.000004476,
            "mean": 28.741784983557356,
            "median": 22.000002476,
            "variance": 575.2108016486344,
            "std_deviation": 23.983552732000202,
            "interval_size": 114.000004476,
            "jitter": 85.25821949244265
          }
        }
      }
    },
    "s16": {
      "port_1": {
        "queue_7": {
          "queueLength": {
            "min": 0,
            "max": 44,
            "mean": 13.268817892191358,
            "median": 10,
            "variance": 118.54125257286785,
            "std_deviation": 10.88766515708799,
            "interval_size": 44,
            "jitter": 30.731182107808642
          },
          "queueingTime": {
            "min": 0.0,
            "max": 120.000007476,
            "mean": 28.489176096251736,
            "median": 21.999998476,
            "variance": 567.7216488387971,
            "std_deviation": 23.826910182371467,
            "interval_size": 120.000007476,
            "jitter": 91.51083137974825
          }
        }
      }
    },
    "s19": {
      "port_1": {
        "queue_7": {
          "queueLength": {
            "min": 0,
            "max": 44,
            "mean": 11.70644060840793,
            "median": 9.0,
            "variance": 95.94044637921405,
            "std_deviation": 9.794919416677915,
            "interval_size": 44,
            "jitter": 32.29355939159207
          },
          "queueingTime": {
            "min": 0.0,
            "max": 110.000008476,
            "mean": 25.14410960508645,
            "median": 19.000004476,
            "variance": 456.2065867259209,
            "std_deviation": 21.3589931112382,
            "interval_size": 110.000008476,
            "jitter": 84.85589887091356
          }
        }
      }
    },
    "s18": {
      "port_1": {
        "queue_7": {
          "queueLength": {
            "min": 0,
            "max": 44,
            "mean": 11.297703463397745,
            "median": 8,
            "variance": 100.13044929462076,
            "std_deviation": 10.006520338990011,
            "interval_size": 44,
            "jitter": 32.702296536602255
          },
          "queueingTime": {
            "min": 0.0,
            "max": 117.000000476,
            "mean": 24.260673393104284,
            "median": 17.999999476,
            "variance": 484.44098118040404,
            "std_deviation": 22.010020017719295,
            "interval_size": 117.000000476,
            "jitter": 92.73932708289571
          }
        }
      }
    }
  }
}