{
  "general": {
    "validation": {
      "valid": false,
      "errors": [
        "Host h3: No periodicity found in the streams received"
      ]
    }
  },
  "sim_parameters": {
    "**.displayAddresses": "false",
    "**.verbose": "false",
    "**.promiscuous": "true",
    "**.registerProtocol": "true",
    "**.*.clock.clockRate": "\"1us\"",
    "**.h3.eth.address": "\"aa:aa:aa:aa:aa:bb\"",
    "**.h1.eth.address": "\"12:23:34:45:56:67\"",
    "**.h2.eth.address": "\"aa:bb:cc:dd:ee:aa\"",
    "**.*.processingDelay[*].delay": "5us",
    "**.filteringDatabase.database": "xmldoc(\"xml/routing.xml\", \"/filteringDatabases/\")",
    "**.filteringDatabase.cycle": "xmldoc(\"xml/tas.xml\", \"/schedule/\")",
    "**.gateController.initialSchedule": "xmldoc(\"xml/tas.xml\")",
    "**.gateController.enableHoldAndRelease": "false",
    "**.*.eth[*].queuing.tsAlgorithms[*].typename": "\"StrictPriority\"",
    "**.s2.eth[1].queuing.queuingFrames.tciToQueueMapping": "xmldoc(\"xml/tci-maps/tci-map-s2-1.xml\")",
    "**.s3.eth[0].queuing.queuingFrames.tciToQueueMapping": "xmldoc(\"xml/tci-maps/tci-map-s3-0.xml\")",
    "**.s1.eth[1].queuing.queuingFrames.tciToQueueMapping": "xmldoc(\"xml/tci-maps/tci-map-s1-1.xml\")",
    "**.*.eth[*].queuing.queues[*].bufferCapacity": "365280b",
    "**.*.eth[*].queuing.queues[*].expressQueue": "true",
    "**.*.eth[*].mac.enablePreemptingFrames": "false",
    "**.*.trafGenSchedApp.jitter": "0.000020",
    "**.*.eth[*].queuing.gateController.jitter": "0.000020",
    "**.*.trafGenSchedApp.initialSchedule": "xmldoc(\"xml/traf-gen.xml\")"
  },
  "streams": {
    "1907": {
      "latency_stats": {
        "min": 4.6524000000000004e-05,
        "max": 97.00003352400017,
        "mean": 56.97595888764343,
        "median": 57.00004104799882,
        "variance": 57.30197479651987,
        "std_deviation": 7.569806787264776,
        "interval_size": 96.99998700000017,
        "jitter": 56.97591236364343,
        "packages_received": 64794
      }
    },
    "1908": {
      "latency_stats": {
        "min": 3.5571999999817194e-05,
        "max": 90.0000390480127,
        "mean": 57.00040890143254,
        "median": 57.00003204400127,
        "variance": 58.81032409939575,
        "std_deviation": 7.668788959111846,
        "interval_size": 90.0000034760127,
        "jitter": 57.00037332943254,
        "packages_received": 64861
      }
    }
  },
  "hosts": {
    "h3": {
      "received_periodically": {
        "is_periodic": false,
        "max-period-length": 250,
        "skipped": "first 0s"
      }
    }
  },
  "switches": {
    "s1": {
      "port_1": {
        "queue_7": {
          "queueLength": {
            "min": 0,
            "max": 44,
            "mean": 42.6933231919045,
            "median": 43,
            "variance": 2.3448550191292483,
            "std_deviation": 1.531291944447318,
            "interval_size": 44,
            "jitter": 42.6933231919045
          },
          "queueingTime": {
            "min": 2.476e-06,
            "max": 96.999989476,
            "mean": 56.967530587145475,
            "median": 56.999995476,
            "variance": 57.342234601427776,
            "std_deviation": 7.572465556305144,
            "interval_size": 96.99998699999999,
            "jitter": 56.96752811114548
          }
        }
      }
    },
    "s2": {
      "port_1": {
        "queue_7": {
          "queueLength": {
            "min": 0,
            "max": 44,
            "mean": 42.68303341222514,
            "median": 43.0,
            "variance": 3.2987090985061225,
            "std_deviation": 1.8162348687617806,
            "interval_size": 44,
            "jitter": 42.68303341222514
          },
          "queueingTime": {
            "min": 0.0,
            "max": 90.000003476,
            "mean": 56.88730017234295,
            "median": 56.999992476,
            "variance": 58.785628774670535,
            "std_deviation": 7.667178671106506,
            "interval_size": 90.000003476,
            "jitter": 56.88730017234295
          }
        }
      }
    },
    "s3": {
      "port_0": {
        "queue_7": {
          "queueLength": {
            "min": 0,
            "max": 5,
            "mean": 0.7362163579639892,
            "median": 1,
            "variance": 0.5045261321100335,
            "std_deviation": 0.7103000296424276,
            "interval_size": 5,
            "jitter": 4.263783642036011
          },
          "queueingTime": {
            "min": 0.0,
            "max": 1.999995956,
            "mean": 0.06075998991381744,
            "median": 6.476e-06,
            "variance": 0.05755475679413272,
            "std_deviation": 0.23990572480483396,
            "interval_size": 1.999995956,
            "jitter": 1.9392359660861826
          }
        }
      }
    }
  }
}