{
  "general": {
    "validation": {
      "valid": false,
      "errors": [
        "Host h3: No periodicity found in the streams received",
        "Stream 1---2---6000 (-> vid 1907): max latency (10.000149523999426) higher than allowed (0.01)",
        "Stream 1---2---6001 (-> vid 1908): max latency (14.000157047998073) higher than allowed (0.01)"
      ]
    }
  },
  "sim_parameters": {
    "**.displayAddresses": "false",
    "**.verbose": "false",
    "**.promiscuous": "true",
    "**.registerProtocol": "true",
    "**.*.clock.clockRate": "\"1us\"",
    "**.h1.eth.address": "\"12:23:34:45:56:67\"",
    "**.h3.eth.address": "\"aa:aa:aa:aa:aa:bb\"",
    "**.h2.eth.address": "\"aa:bb:cc:dd:ee:aa\"",
    "**.*.processingDelay[*].delay": "5us",
    "**.filteringDatabase.database": "xmldoc(\"xml/routing.xml\", \"/filteringDatabases/\")",
    "**.filteringDatabase.cycle": "xmldoc(\"xml/tas.xml\", \"/schedule/\")",
    "**.gateController.initialSchedule": "xmldoc(\"xml/tas.xml\")",
    "**.gateController.enableHoldAndRelease": "false",
    "**.*.eth[*].queuing.tsAlgorithms[*].typename": "\"StrictPriority\"",
    "**.s5.eth[1].queuing.queuingFrames.tciToQueueMapping": "xmldoc(\"xml/tci-maps/tci-map-s5-1.xml\")",
    "**.s3.eth[2].queuing.queuingFrames.tciToQueueMapping": "xmldoc(\"xml/tci-maps/tci-map-s3-2.xml\")",
    "**.s2.eth[1].queuing.queuingFrames.tciToQueueMapping": "xmldoc(\"xml/tci-maps/tci-map-s2-1.xml\")",
    "**.s7.eth[0].queuing.queuingFrames.tciToQueueMapping": "xmldoc(\"xml/tci-maps/tci-map-s7-0.xml\")",
    "**.s4.eth[2].queuing.queuingFrames.tciToQueueMapping": "xmldoc(\"xml/tci-maps/tci-map-s4-2.xml\")",
    "**.s1.eth[1].queuing.queuingFrames.tciToQueueMapping": "xmldoc(\"xml/tci-maps/tci-map-s1-1.xml\")",
    "**.s6.eth[1].queuing.queuingFrames.tciToQueueMapping": "xmldoc(\"xml/tci-maps/tci-map-s6-1.xml\")",
    "**.s4.eth[1].queuing.queuingFrames.tciToQueueMapping": "xmldoc(\"xml/tci-maps/tci-map-s4-1.xml\")",
    "**.*.eth[*].queuing.queues[*].bufferCapacity": "365280b",
    "**.*.eth[*].queuing.queues[*].expressQueue": "true",
    "**.*.eth[*].mac.enablePreemptingFrames": "false",
    "**.*.trafGenSchedApp.jitter": "0.000019",
    "**.*.eth[*].queuing.gateController.jitter": "0.000019",
    "**.*.trafGenSchedApp.initialSchedule": "xmldoc(\"xml/traf-gen.xml\")"
  },
  "streams": {
    "1907": {
      "latency_stats": {
        "min": 0.00011452400212874636,
        "max": 10.000149523999426,
        "mean": 1.8455272893579056,
        "median": 2.000124523998238,
        "variance": 2.113922008234676,
        "std_deviation": 1.4539332887841436,
        "interval_size": 10.000034999997297,
        "jitter": 8.15462223464152,
        "packages_received": 86399
      },
      "udp_dest_port": 6000,
      "name": "1---2---6000",
      "max_allowed_latency": 10000000,
      "talker": "h1",
      "listener": "h3"
    },
    "1908": {
      "latency_stats": {
        "min": 0.00012804799916921183,
        "max": 14.000157047998073,
        "mean": 1.838721747885575,
        "median": 2.0001380479989166,
        "variance": 2.2074550507215562,
        "std_deviation": 1.485750669096789,
        "interval_size": 14.000028999998904,
        "jitter": 12.161435300112498,
        "packages_received": 86398
      },
      "udp_dest_port": 6001,
      "name": "1---2---6001",
      "max_allowed_latency": 10000000,
      "talker": "h2",
      "listener": "h3"
    }
  },
  "hosts": {
    "h3": {
      "received_periodically": {
        "is_periodic": false,
        "max-period-length": 250,
        "skipped": "first 0s"
      }
    }
  },
  "switches": {
    "s5": {
      "port_1": {
        "queue_7": {
          "queueLength": {
            "min": 0,
            "max": 13,
            "mean": 1.3999409715390225,
            "median": 1.0,
            "variance": 1.6023396204674254,
            "std_deviation": 1.2658355424254073,
            "interval_size": 13,
            "jitter": 11.600059028460977
          },
          "queueingTime": {
            "min": 0.0,
            "max": 13.000017476,
            "mean": 0.7782588111785921,
            "median": 2.2476e-05,
            "variance": 1.1961797620300585,
            "std_deviation": 1.0937000329295317,
            "interval_size": 13.000017476,
            "jitter": 12.221758664821408
          }
        }
      }
    },
    "s6": {
      "port_1": {
        "queue_7": {
          "queueLength": {
            "min": 0,
            "max": 11,
            "mean": 1.379319324764611,
            "median": 1,
            "variance": 1.5256492293833193,
            "std_deviation": 1.2351717408455065,
            "interval_size": 11,
            "jitter": 9.62068067523539
          },
          "queueingTime": {
            "min": 0.0,
            "max": 10.000010956,
            "mean": 0.7588393512081852,
            "median": 2.1476e-05,
            "variance": 1.1099516158717806,
            "std_deviation": 1.0535424129439594,
            "interval_size": 10.000010956,
            "jitter": 9.241171604791816
          }
        }
      }
    },
    "s7": {
      "port_0": {
        "queue_7": {
          "queueLength": {
            "min": 0,
            "max": 4,
            "mean": 0.6687567817821438,
            "median": 1,
            "variance": 0.4064266201128859,
            "std_deviation": 0.6375159763589348,
            "interval_size": 4,
            "jitter": 3.331243218217856
          },
          "queueingTime": {
            "min": 0.0,
            "max": 0.999995956,
            "mean": 0.0039027168092501605,
            "median": 6.476e-06,
            "variance": 0.003879407027802425,
            "std_deviation": 0.06228488603025958,
            "interval_size": 0.999995956,
            "jitter": 0.9960932391907499
          }
        }
      }
    },
    "s1": {
      "port_1": {
        "queue_7": {
          "queueLength": {
            "min": 0,
            "max": 8,
            "mean": 0.8871990740740741,
            "median": 1.0,
            "variance": 0.7945953642778711,
            "std_deviation": 0.8914007876807554,
            "interval_size": 8,
            "jitter": 7.112800925925926
          },
          "queueingTime": {
            "min": 0.0,
            "max": 7.000024476,
            "mean": 0.4108027292244123,
            "median": 1.4996e-05,
            "variance": 0.5700845915344169,
            "std_deviation": 0.7550394635609565,
            "interval_size": 7.000024476,
            "jitter": 6.589221746775587
          }
        }
      }
    },
    "s2": {
      "port_1": {
        "queue_7": {
          "queueLength": {
            "min": 0,
            "max": 9,
            "mean": 0.8888605968715458,
            "median": 1,
            "variance": 0.7989963412205906,
            "std_deviation": 0.8938659526017257,
            "interval_size": 9,
            "jitter": 8.111139403128455
          },
          "queueingTime": {
            "min": 0.0,
            "max": 8.000019476,
            "mean": 0.4122563086764352,
            "median": 1.5476e-05,
            "variance": 0.5737639260814469,
            "std_deviation": 0.7574720629049277,
            "interval_size": 8.000019476,
            "jitter": 7.5877631673235655
          }
        }
      }
    },
    "s3": {
      "port_2": {
        "queue_7": {
          "queueLength": {
            "min": 0,
            "max": 5,
            "mean": 1.0916958671755417,
            "median": 1,
            "variance": 0.7239919153733734,
            "std_deviation": 0.8508771447003224,
            "interval_size": 5,
            "jitter": 3.9083041328244583
          },
          "queueingTime": {
            "min": 0.0,
            "max": 1.000019956,
            "mean": 0.0013078809406998884,
            "median": 1.7476e-05,
            "variance": 0.0012888318925985019,
            "std_deviation": 0.0359003049095478,
            "interval_size": 1.000019956,
            "jitter": 0.9987120750593002
          }
        }
      }
    },
    "s4": {
      "port_1": {
        "queue_7": {
          "queueLength": {
            "min": 0,
            "max": 10,
            "mean": 1.2423032407407408,
            "median": 1.0,
            "variance": 1.2755326321922302,
            "std_deviation": 1.1293948079357503,
            "interval_size": 10,
            "jitter": 8.75769675925926
          },
          "queueingTime": {
            "min": 4.36e-07,
            "max": 9.000046476,
            "mean": 0.6388805700515515,
            "median": 4.0476e-05,
            "variance": 0.9209693920887452,
            "std_deviation": 0.9596715021760025,
            "interval_size": 9.000046039999999,
            "jitter": 8.361165905948448
          }
        }
      },
      "port_2": {
        "queue_7": {
          "queueLength": {
            "min": 0,
            "max": 11,
            "mean": 1.1072112685837303,
            "median": 1,
            "variance": 1.1529867477529705,
            "std_deviation": 1.0737722047776104,
            "interval_size": 11,
            "jitter": 9.89278873141627
          },
          "queueingTime": {
            "min": 0.0,
            "max": 10.000015476,
            "mean": 0.6746323440022686,
            "median": 1.8476e-05,
            "variance": 0.9052852937443573,
            "std_deviation": 0.9514648147694992,
            "interval_size": 10.000015476,
            "jitter": 9.32538313199773
          }
        }
      }
    }
  }
}