{
  "general": {
    "validation": {
      "valid": true,
      "errors": []
    }
  },
  "sim_parameters": {
    "**.displayAddresses": "false",
    "**.verbose": "false",
    "**.promiscuous": "true",
    "**.registerProtocol": "true",
    "**.*.clock.clockRate": "\"1us\"",
    "**.h1.eth.address": "\"12:23:34:45:56:67\"",
    "**.h2.eth.address": "\"aa:bb:cc:dd:ee:aa\"",
    "**.*.processingDelay[*].delay": "5us",
    "**.filteringDatabase.database": "xmldoc(\"xml/routing.xml\", \"/filteringDatabases/\")",
    "**.filteringDatabase.cycle": "xmldoc(\"xml/tas.xml\", \"/schedule/\")",
    "**.gateController.initialSchedule": "xmldoc(\"xml/tas.xml\")",
    "**.gateController.enableHoldAndRelease": "false",
    "**.*.eth[*].queuing.tsAlgorithms[*].typename": "\"StrictPriority\"",
    "**.s11.eth[1].queuing.queuingFrames.tciToQueueMapping": "xmldoc(\"xml/tci-maps/tci-map-s11-1.xml\")",
    "**.s22.eth[2].queuing.queuingFrames.tciToQueueMapping": "xmldoc(\"xml/tci-maps/tci-map-s22-2.xml\")",
    "**.s11.eth[2].queuing.queuingFrames.tciToQueueMapping": "xmldoc(\"xml/tci-maps/tci-map-s11-2.xml\")",
    "**.s21.eth[1].queuing.queuingFrames.tciToQueueMapping": "xmldoc(\"xml/tci-maps/tci-map-s21-1.xml\")",
    "**.s12.eth[1].queuing.queuingFrames.tciToQueueMapping": "xmldoc(\"xml/tci-maps/tci-map-s12-1.xml\")",
    "**.*.eth[*].queuing.queues[*].bufferCapacity": "365280b",
    "**.*.eth[*].queuing.queues[*].expressQueue": "true",
    "**.*.eth[*].mac.enablePreemptingFrames": "false",
    "**.*.trafGenSchedApp.jitter": "0.000006",
    "**.*.eth[*].queuing.gateController.jitter": "0.000006",
    "**.*.trafGenSchedApp.initialSchedule": "xmldoc(\"xml/traf-gen.xml\")"
  },
  "streams": {
    "1907": {
      "latency_stats": {
        "min": 0.00030252399938035524,
        "max": 0.000314524004352279,
        "mean": 0.0003085292663119051,
        "median": 0.00030852400050207507,
        "variance": 6.33496355427203e-12,
        "std_deviation": 2.516935349640914e-06,
        "interval_size": 1.2000004971923772e-05,
        "jitter": 6.0052669315498425e-06,
        "packages_received": 86400
      },
      "udp_dest_port": 6000,
      "name": "1---2---6000",
      "max_allowed_latency": 10000000,
      "talker": "h1",
      "listener": "h2"
    },
    "1908": {
      "latency_stats": {
        "min": 0.00021604799258057028,
        "max": 0.00022804800391895697,
        "mean": 0.00022204919799624366,
        "median": 0.00022204800188774243,
        "variance": 6.2812947627636845e-12,
        "std_deviation": 2.5062511372094544e-06,
        "interval_size": 1.2000011338386685e-05,
        "jitter": 6.001205415673375e-06,
        "packages_received": 86400
      },
      "udp_dest_port": 6001,
      "name": "1---2---6001",
      "max_allowed_latency": 10000000,
      "talker": "h1",
      "listener": "h2"
    }
  },
  "hosts": {
    "h2": {
      "received_periodically": {
        "is_periodic": true,
        "max-period-length": 250,
        "period": [
          1907,
          1908
        ],
        "period_length": 2,
        "skipped": "first 0s"
      }
    }
  },
  "switches": {
    "s12": {
      "port_1": {
        "queue_7": {
          "queueLength": {
            "min": 0,
            "max": 1,
            "mean": 0.49999710649822626,
            "median": 0,
            "variance": 0.25000144675088687,
            "std_deviation": 0.5000014467487938,
            "interval_size": 1,
            "jitter": 0.5000028935017737
          },
          "queueingTime": {
            "min": 8.0476e-05,
            "max": 9.2476e-05,
            "mean": 8.646653240740741e-05,
            "median": 8.6476e-05,
            "variance": 6.332066985836169e-12,
            "std_deviation": 2.5163598681103166e-06,
            "interval_size": 1.1999999999999994e-05,
            "jitter": 6.009467592592592e-06
          }
        }
      }
    },
    "s22": {
      "port_2": {
        "queue_7": {
          "queueLength": {
            "min": 0,
            "max": 1,
            "mean": 0.499998553244927,
            "median": 0,
            "variance": 0.25000072337753654,
            "std_deviation": 0.5000007233770133,
            "interval_size": 1,
            "jitter": 0.5000014467550731
          },
          "queueingTime": {
            "min": 0.0,
            "max": 9.2476e-05,
            "mean": 4.324612789351852e-05,
            "median": 4.0736000000000004e-05,
            "variance": 1.8728034537212228e-09,
            "std_deviation": 4.327589922487137e-05,
            "interval_size": 9.2476e-05,
            "jitter": 4.922987210648148e-05
          }
        }
      }
    },
    "s11": {
      "port_1": {
        "queue_7": {
          "queueLength": {
            "min": 0,
            "max": 1,
            "mean": 0.49999710649822626,
            "median": 0,
            "variance": 0.25000144675088687,
            "std_deviation": 0.5000014467487938,
            "interval_size": 1,
            "jitter": 0.5000028935017737
          },
          "queueingTime": {
            "min": 8.0476e-05,
            "max": 9.2476e-05,
            "mean": 8.647946064814815e-05,
            "median": 8.6476e-05,
            "variance": 6.322063510760584e-12,
            "std_deviation": 2.5143713947546778e-06,
            "interval_size": 1.1999999999999994e-05,
            "jitter": 6.0034606481481424e-06
          }
        }
      },
      "port_2": {
        "queue_7": {
          "queueLength": {
            "min": 0,
            "max": 1,
            "mean": 0.49999710649822626,
            "median": 0,
            "variance": 0.25000144675088687,
            "std_deviation": 0.5000014467487938,
            "interval_size": 1,
            "jitter": 0.5000028935017737
          },
          "queueingTime": {
            "min": 8.0476e-05,
            "max": 9.2476e-05,
            "mean": 8.647583796296296e-05,
            "median": 8.6476e-05,
            "variance": 6.3322954864232384e-12,
            "std_deviation": 2.516405270703278e-06,
            "interval_size": 1.1999999999999994e-05,
            "jitter": 6.000162037037037e-06
          }
        }
      }
    },
    "s21": {
      "port_1": {
        "queue_7": {
          "queueLength": {
            "min": 0,
            "max": 1,
            "mean": 0.49999710649822626,
            "median": 0,
            "variance": 0.25000144675088687,
            "std_deviation": 0.5000014467487938,
            "interval_size": 1,
            "jitter": 0.5000028935017737
          },
          "queueingTime": {
            "min": 8.0476e-05,
            "max": 9.2476e-05,
            "mean": 8.647237731481482e-05,
            "median": 8.6476e-05,
            "variance": 6.347710807990104e-12,
            "std_deviation": 2.519466373657347e-06,
            "interval_size": 1.1999999999999994e-05,
            "jitter": 6.003622685185183e-06
          }
        }
      }
    }
  }
}