{
  "general": {
    "validation": {
      "valid": true,
      "errors": []
    }
  },
  "sim_parameters": {
    "**.displayAddresses": "false",
    "**.verbose": "false",
    "**.promiscuous": "true",
    "**.registerProtocol": "true",
    "**.*.clock.clockRate": "\"1us\"",
    "**.h1.eth.address": "\"12:23:34:45:56:67\"",
    "**.h2.eth.address": "\"aa:bb:cc:dd:ee:aa\"",
    "**.*.processingDelay[*].delay": "5us",
    "**.filteringDatabase.database": "xmldoc(\"xml/routing.xml\", \"/filteringDatabases/\")",
    "**.filteringDatabase.cycle": "xmldoc(\"xml/tas.xml\", \"/schedule/\")",
    "**.gateController.initialSchedule": "xmldoc(\"xml/tas.xml\")",
    "**.gateController.enableHoldAndRelease": "false",
    "**.*.eth[*].queuing.tsAlgorithms[*].typename": "\"StrictPriority\"",
    "**.s11.eth[1].queuing.queuingFrames.tciToQueueMapping": "xmldoc(\"xml/tci-maps/tci-map-s11-1.xml\")",
    "**.s22.eth[2].queuing.queuingFrames.tciToQueueMapping": "xmldoc(\"xml/tci-maps/tci-map-s22-2.xml\")",
    "**.s11.eth[2].queuing.queuingFrames.tciToQueueMapping": "xmldoc(\"xml/tci-maps/tci-map-s11-2.xml\")",
    "**.s21.eth[1].queuing.queuingFrames.tciToQueueMapping": "xmldoc(\"xml/tci-maps/tci-map-s21-1.xml\")",
    "**.s12.eth[1].queuing.queuingFrames.tciToQueueMapping": "xmldoc(\"xml/tci-maps/tci-map-s12-1.xml\")",
    "**.*.eth[*].queuing.queues[*].bufferCapacity": "365280b",
    "**.*.eth[*].queuing.queues[*].expressQueue": "true",
    "**.*.eth[*].mac.enablePreemptingFrames": "false",
    "**.*.trafGenSchedApp.jitter": "0.00001",
    "**.*.eth[*].queuing.gateController.jitter": "0.00001",
    "**.*.trafGenSchedApp.initialSchedule": "xmldoc(\"xml/traf-gen.xml\")"
  },
  "streams": {
    "1907": {
      "latency_stats": {
        "min": 5.8523990446701646e-05,
        "max": 7.852400085539557e-05,
        "mean": 6.861648662301182e-05,
        "median": 6.852400110801682e-05,
        "variance": 1.6426379634694833e-11,
        "std_deviation": 4.052947030827671e-06,
        "interval_size": 2.0000010408693925e-05,
        "jitter": 1.0092496176310173e-05,
        "packages_received": 86400
      },
      "udp_dest_port": 6000,
      "name": "1---2---6000",
      "max_allowed_latency": 10000000,
      "talker": "h1",
      "listener": "h2"
    },
    "1908": {
      "latency_stats": {
        "min": 5.204799526836723e-05,
        "max": 7.204800203908235e-05,
        "mean": 6.230690554201817e-05,
        "median": 6.204800001796684e-05,
        "variance": 1.5500637098538256e-11,
        "std_deviation": 3.937084847769763e-06,
        "interval_size": 2.0000006770715117e-05,
        "jitter": 1.025891027365094e-05,
        "packages_received": 86400
      },
      "udp_dest_port": 6001,
      "name": "1---2---6001",
      "max_allowed_latency": 10000000,
      "talker": "h1",
      "listener": "h2"
    }
  },
  "hosts": {
    "h2": {
      "received_periodically": {
        "is_periodic": true,
        "max-period-length": 250,
        "period": [
          1907,
          1908
        ],
        "period_length": 2,
        "skipped": "first 0s"
      }
    }
  },
  "switches": {
    "s12": {
      "port_1": {
        "queue_7": {
          "queueLength": {
            "min": 0,
            "max": 1,
            "mean": 0.49999710649822626,
            "median": 0,
            "variance": 0.25000144675088687,
            "std_deviation": 0.5000014467487938,
            "interval_size": 1,
            "jitter": 0.5000028935017737
          },
          "queueingTime": {
            "min": 0.0,
            "max": 1.6476e-05,
            "mean": 6.461286064814815e-06,
            "median": 6.476e-06,
            "variance": 1.530493549075362e-11,
            "std_deviation": 3.912152283686516e-06,
            "interval_size": 1.6476e-05,
            "jitter": 1.0014713935185184e-05
          }
        }
      }
    },
    "s22": {
      "port_2": {
        "queue_7": {
          "queueLength": {
            "min": 0,
            "max": 1,
            "mean": 0.499998553244927,
            "median": 0,
            "variance": 0.25000072337753654,
            "std_deviation": 0.5000007233770133,
            "interval_size": 1,
            "jitter": 0.5000014467550731
          },
          "queueingTime": {
            "min": 0.0,
            "max": 1.6476e-05,
            "mean": 3.3385451157407406e-06,
            "median": 4.76e-07,
            "variance": 1.7827922621475112e-11,
            "std_deviation": 4.222312473215964e-06,
            "interval_size": 1.6476e-05,
            "jitter": 1.313745488425926e-05
          }
        }
      }
    },
    "s11": {
      "port_1": {
        "queue_7": {
          "queueLength": {
            "min": 0,
            "max": 1,
            "mean": 0.49999710649822626,
            "median": 0,
            "variance": 0.25000144675088687,
            "std_deviation": 0.5000014467487938,
            "interval_size": 1,
            "jitter": 0.5000028935017737
          },
          "queueingTime": {
            "min": 0.0,
            "max": 1.6476e-05,
            "mean": 6.561684768518519e-06,
            "median": 6.476e-06,
            "variance": 1.5781425335274198e-11,
            "std_deviation": 3.9725842137422585e-06,
            "interval_size": 1.6476e-05,
            "jitter": 9.91431523148148e-06
          }
        }
      },
      "port_2": {
        "queue_7": {
          "queueLength": {
            "min": 0,
            "max": 1,
            "mean": 0.49999710649822626,
            "median": 0,
            "variance": 0.25000144675088687,
            "std_deviation": 0.5000014467487938,
            "interval_size": 1,
            "jitter": 0.5000028935017737
          },
          "queueingTime": {
            "min": 0.0,
            "max": 1.6476e-05,
            "mean": 6.559106018518519e-06,
            "median": 6.476e-06,
            "variance": 1.5780670997452173e-11,
            "std_deviation": 3.972489269645945e-06,
            "interval_size": 1.6476e-05,
            "jitter": 9.916893981481481e-06
          }
        }
      }
    },
    "s21": {
      "port_1": {
        "queue_7": {
          "queueLength": {
            "min": 0,
            "max": 1,
            "mean": 0.49999710649822626,
            "median": 0,
            "variance": 0.25000144675088687,
            "std_deviation": 0.5000014467487938,
            "interval_size": 1,
            "jitter": 0.5000028935017737
          },
          "queueingTime": {
            "min": 0.0,
            "max": 1.6476e-05,
            "mean": 6.472225231481482e-06,
            "median": 6.476e-06,
            "variance": 1.533690326065111e-11,
            "std_deviation": 3.916235853552632e-06,
            "interval_size": 1.6476e-05,
            "jitter": 1.0003774768518519e-05
          }
        }
      }
    }
  }
}