{
  "general": {
    "validation": {
      "valid": true,
      "errors": []
    }
  },
  "sim_parameters": {
    "**.displayAddresses": "false",
    "**.verbose": "false",
    "**.promiscuous": "true",
    "**.registerProtocol": "true",
    "**.*.clock.clockRate": "\"1us\"",
    "**.h1.eth.address": "\"12:23:34:45:56:67\"",
    "**.h2.eth.address": "\"aa:bb:cc:dd:ee:aa\"",
    "**.*.processingDelay[*].delay": "5us",
    "**.filteringDatabase.database": "xmldoc(\"xml/routing.xml\", \"/filteringDatabases/\")",
    "**.filteringDatabase.cycle": "xmldoc(\"xml/tas.xml\", \"/schedule/\")",
    "**.gateController.initialSchedule": "xmldoc(\"xml/tas.xml\")",
    "**.gateController.enableHoldAndRelease": "false",
    "**.*.eth[*].queuing.tsAlgorithms[*].typename": "\"StrictPriority\"",
    "**.s11.eth[1].queuing.queuingFrames.tciToQueueMapping": "xmldoc(\"xml/tci-maps/tci-map-s11-1.xml\")",
    "**.s22.eth[2].queuing.queuingFrames.tciToQueueMapping": "xmldoc(\"xml/tci-maps/tci-map-s22-2.xml\")",
    "**.s11.eth[2].queuing.queuingFrames.tciToQueueMapping": "xmldoc(\"xml/tci-maps/tci-map-s11-2.xml\")",
    "**.s21.eth[1].queuing.queuingFrames.tciToQueueMapping": "xmldoc(\"xml/tci-maps/tci-map-s21-1.xml\")",
    "**.s12.eth[1].queuing.queuingFrames.tciToQueueMapping": "xmldoc(\"xml/tci-maps/tci-map-s12-1.xml\")",
    "**.*.eth[*].queuing.queues[*].bufferCapacity": "365280b",
    "**.*.eth[*].queuing.queues[*].expressQueue": "true",
    "**.*.eth[*].mac.enablePreemptingFrames": "false",
    "**.*.trafGenSchedApp.jitter": "0.000004",
    "**.*.eth[*].queuing.gateController.jitter": "0.000004",
    "**.*.trafGenSchedApp.initialSchedule": "xmldoc(\"xml/traf-gen.xml\")"
  },
  "streams": {
    "1907": {
      "latency_stats": {
        "min": 0.00030452399732894264,
        "max": 0.0003125240036752075,
        "mean": 0.00030852934806800084,
        "median": 0.00030852400232106447,
        "variance": 2.9934321015527764e-12,
        "std_deviation": 1.7301537797412046e-06,
        "interval_size": 8.000006346264854e-06,
        "jitter": 4.005350739058199e-06,
        "packages_received": 86400
      },
      "udp_dest_port": 6000,
      "name": "1---2---6000",
      "max_allowed_latency": 10000000,
      "talker": "h1",
      "listener": "h2"
    },
    "1908": {
      "latency_stats": {
        "min": 0.0002180479932576418,
        "max": 0.00022604800324188545,
        "mean": 0.00022204340532537578,
        "median": 0.00022204800188774243,
        "variance": 2.9965060519118554e-12,
        "std_deviation": 1.731041897792152e-06,
        "interval_size": 8.000009984243661e-06,
        "jitter": 4.004597916509677e-06,
        "packages_received": 86400
      },
      "udp_dest_port": 6001,
      "name": "1---2---6001",
      "max_allowed_latency": 10000000,
      "talker": "h1",
      "listener": "h2"
    }
  },
  "hosts": {
    "h2": {
      "received_periodically": {
        "is_periodic": true,
        "max-period-length": 250,
        "period": [
          1907,
          1908
        ],
        "period_length": 2,
        "skipped": "first 0s"
      }
    }
  },
  "switches": {
    "s12": {
      "port_1": {
        "queue_7": {
          "queueLength": {
            "min": 0,
            "max": 1,
            "mean": 0.49999710649822626,
            "median": 0,
            "variance": 0.25000144675088687,
            "std_deviation": 0.5000014467487938,
            "interval_size": 1,
            "jitter": 0.5000028935017737
          },
          "queueingTime": {
            "min": 8.2476e-05,
            "max": 9.0476e-05,
            "mean": 8.646973842592593e-05,
            "median": 8.6476e-05,
            "variance": 2.9963727877455273e-12,
            "std_deviation": 1.731003404891373e-06,
            "interval_size": 8.000000000000005e-06,
            "jitter": 4.006261574074075e-06
          }
        }
      }
    },
    "s22": {
      "port_2": {
        "queue_7": {
          "queueLength": {
            "min": 0,
            "max": 1,
            "mean": 0.499998553244927,
            "median": 0,
            "variance": 0.25000072337753654,
            "std_deviation": 0.5000007233770133,
            "interval_size": 1,
            "jitter": 0.5000014467550731
          },
          "queueingTime": {
            "min": 0.0,
            "max": 9.0476e-05,
            "mean": 4.3239226851851855e-05,
            "median": 4.1238e-05,
            "variance": 1.871149677573987e-09,
            "std_deviation": 4.325678764742e-05,
            "interval_size": 9.0476e-05,
            "jitter": 4.723677314814815e-05
          }
        }
      }
    },
    "s11": {
      "port_1": {
        "queue_7": {
          "queueLength": {
            "min": 0,
            "max": 1,
            "mean": 0.49999710649822626,
            "median": 0,
            "variance": 0.25000144675088687,
            "std_deviation": 0.5000014467487938,
            "interval_size": 1,
            "jitter": 0.5000028935017737
          },
          "queueingTime": {
            "min": 8.2476e-05,
            "max": 9.0476e-05,
            "mean": 8.647766666666667e-05,
            "median": 8.6476e-05,
            "variance": 2.9916522181969683e-12,
            "std_deviation": 1.7296393318252705e-06,
            "interval_size": 8.000000000000005e-06,
            "jitter": 4.001666666666673e-06
          }
        }
      },
      "port_2": {
        "queue_7": {
          "queueLength": {
            "min": 0,
            "max": 1,
            "mean": 0.49999710649822626,
            "median": 0,
            "variance": 0.25000144675088687,
            "std_deviation": 0.5000014467487938,
            "interval_size": 1,
            "jitter": 0.5000028935017737
          },
          "queueingTime": {
            "min": 8.2476e-05,
            "max": 9.0476e-05,
            "mean": 8.647730787037037e-05,
            "median": 8.6476e-05,
            "variance": 2.988840752909733e-12,
            "std_deviation": 1.7288264091312734e-06,
            "interval_size": 8.000000000000005e-06,
            "jitter": 4.0013078703703695e-06
          }
        }
      }
    },
    "s21": {
      "port_1": {
        "queue_7": {
          "queueLength": {
            "min": 0,
            "max": 1,
            "mean": 0.49999710649822626,
            "median": 0,
            "variance": 0.25000144675088687,
            "std_deviation": 0.5000014467487938,
            "interval_size": 1,
            "jitter": 0.5000028935017737
          },
          "queueingTime": {
            "min": 8.2476e-05,
            "max": 9.0476e-05,
            "mean": 8.647758564814815e-05,
            "median": 8.6476e-05,
            "variance": 3.0007613834211456e-12,
            "std_deviation": 1.732270586086696e-06,
            "interval_size": 8.000000000000005e-06,
            "jitter": 4.001585648148146e-06
          }
        }
      }
    }
  }
}