{
  "general": {
    "validation": {
      "valid": false,
      "errors": [
        "Host h2: No periodicity found in the streams received",
        "Stream 1---2---6001 (-> vid 1908): max latency (354.3270765240013) higher than allowed (0.01)",
        "Stream 1---2---6000 (-> vid 1907): max latency (424.3270790480019) higher than allowed (0.01)"
      ]
    }
  },
  "sim_parameters": {
    "**.displayAddresses": "false",
    "**.verbose": "false",
    "**.promiscuous": "true",
    "**.registerProtocol": "true",
    "**.*.clock.clockRate": "\"1us\"",
    "**.h1.eth.address": "\"12:23:34:45:56:67\"",
    "**.h2.eth.address": "\"aa:bb:cc:dd:ee:aa\"",
    "**.*.processingDelay[*].delay": "5us",
    "**.filteringDatabase.database": "xmldoc(\"xml/routing.xml\", \"/filteringDatabases/\")",
    "**.filteringDatabase.cycle": "xmldoc(\"xml/tas.xml\", \"/schedule/\")",
    "**.gateController.initialSchedule": "xmldoc(\"xml/tas.xml\")",
    "**.gateController.enableHoldAndRelease": "false",
    "**.*.eth[*].queuing.tsAlgorithms[*].typename": "\"StrictPriority\"",
    "**.s11.eth[1].queuing.queuingFrames.tciToQueueMapping": "xmldoc(\"xml/tci-maps/tci-map-s11-1.xml\")",
    "**.s22.eth[2].queuing.queuingFrames.tciToQueueMapping": "xmldoc(\"xml/tci-maps/tci-map-s22-2.xml\")",
    "**.s11.eth[2].queuing.queuingFrames.tciToQueueMapping": "xmldoc(\"xml/tci-maps/tci-map-s11-2.xml\")",
    "**.s21.eth[1].queuing.queuingFrames.tciToQueueMapping": "xmldoc(\"xml/tci-maps/tci-map-s21-1.xml\")",
    "**.s12.eth[1].queuing.queuingFrames.tciToQueueMapping": "xmldoc(\"xml/tci-maps/tci-map-s12-1.xml\")",
    "**.*.eth[*].queuing.queues[*].bufferCapacity": "365280b",
    "**.*.eth[*].queuing.queues[*].expressQueue": "true",
    "**.*.eth[*].mac.enablePreemptingFrames": "false",
    "**.*.trafGenSchedApp.jitter": "0.000011",
    "**.*.eth[*].queuing.gateController.jitter": "0.000011",
    "**.*.trafGenSchedApp.initialSchedule": "xmldoc(\"xml/traf-gen.xml\")"
  },
  "streams": {
    "1908": {
      "latency_stats": {
        "min": 2.6214095240138704,
        "max": 354.3270765240013,
        "mean": 128.46577251870877,
        "median": 107.74531202400067,
        "variance": 7624.176103666924,
        "std_deviation": 87.3165282387414,
        "interval_size": 351.70566699998744,
        "jitter": 225.86130400529254,
        "packages_received": 378
      },
      "udp_dest_port": 6001,
      "name": "1---2---6001",
      "max_allowed_latency": 10000000,
      "talker": "h1",
      "listener": "h2"
    },
    "1907": {
      "latency_stats": {
        "min": 1.065443047998997,
        "max": 424.3270790480019,
        "mean": 131.56789328457464,
        "median": 107.09814852399904,
        "variance": 10778.023894840548,
        "std_deviation": 103.81726202727823,
        "interval_size": 423.2616360000029,
        "jitter": 292.75918576342724,
        "packages_received": 369
      },
      "udp_dest_port": 6000,
      "name": "1---2---6000",
      "max_allowed_latency": 10000000,
      "talker": "h1",
      "listener": "h2"
    }
  },
  "hosts": {
    "h2": {
      "received_periodically": {
        "is_periodic": false,
        "max-period-length": 250,
        "skipped": "first 0s"
      }
    }
  },
  "switches": {
    "s12": {
      "port_1": {
        "queue_7": {
          "queueLength": {
            "min": 0,
            "max": 14,
            "mean": 3.7744063324538257,
            "median": 3.0,
            "variance": 11.47215783731784,
            "std_deviation": 3.38705740094818,
            "interval_size": 14,
            "jitter": 10.225593667546175
          },
          "queueingTime": {
            "min": 0.999995476,
            "max": 92.999997476,
            "mean": 30.09258904742857,
            "median": 23.999996976,
            "variance": 598.8004233918857,
            "std_deviation": 24.470398921797038,
            "interval_size": 92.00000200000001,
            "jitter": 62.90740842857143
          }
        }
      }
    },
    "s22": {
      "port_2": {
        "queue_7": {
          "queueLength": {
            "min": 0,
            "max": 2,
            "mean": 0.5411371237458193,
            "median": 1,
            "variance": 0.2899732710104633,
            "std_deviation": 0.5384916628978236,
            "interval_size": 2,
            "jitter": 1.4588628762541807
          },
          "queueingTime": {
            "min": 0.0,
            "max": 1.999997476,
            "mean": 0.5488586629504686,
            "median": 0.999986476,
            "variance": 0.25062046907523267,
            "std_deviation": 0.5006200845703582,
            "interval_size": 1.999997476,
            "jitter": 1.4511388130495315
          }
        }
      }
    },
    "s11": {
      "port_1": {
        "queue_7": {
          "queueLength": {
            "min": 0,
            "max": 44,
            "mean": 13.341176470588236,
            "median": 11,
            "variance": 122.08894364028333,
            "std_deviation": 11.049386573031253,
            "interval_size": 44,
            "jitter": 30.658823529411762
          },
          "queueingTime": {
            "min": 0.261619476,
            "max": 302.065396476,
            "mean": 97.40290710681793,
            "median": 79.065399476,
            "variance": 5468.385120250314,
            "std_deviation": 73.94853021020981,
            "interval_size": 301.80377699999997,
            "jitter": 204.66248936918205
          }
        }
      },
      "port_2": {
        "queue_7": {
          "queueLength": {
            "min": 0,
            "max": 44,
            "mean": 13.541501976284586,
            "median": 10,
            "variance": 134.24860512895387,
            "std_deviation": 11.58657003297153,
            "interval_size": 44,
            "jitter": 30.458498023715414
          },
          "queueingTime": {
            "min": 0.032697476,
            "max": 379.555963476,
            "mean": 111.62230451094624,
            "median": 85.99055047600001,
            "variance": 8943.52188053382,
            "std_deviation": 94.57019551916883,
            "interval_size": 379.523266,
            "jitter": 267.9336589650537
          }
        }
      }
    },
    "s21": {
      "port_1": {
        "queue_7": {
          "queueLength": {
            "min": 0,
            "max": 12,
            "mean": 2.184636118598383,
            "median": 2.0,
            "variance": 4.450343929489907,
            "std_deviation": 2.109583828505022,
            "interval_size": 12,
            "jitter": 9.815363881401616
          },
          "queueingTime": {
            "min": 0.999995476,
            "max": 95.999996476,
            "mean": 19.67479328087805,
            "median": 12.999996476,
            "variance": 380.66025910167065,
            "std_deviation": 19.510516628261556,
            "interval_size": 95.00000100000001,
            "jitter": 76.32520319512196
          }
        }
      }
    }
  }
}