{
  "general": {
    "validation": {
      "valid": false,
      "errors": [
        "Host h3: No periodicity found in the streams received",
        "Stream 1---2---6000 (-> vid 1907): max latency (8.000147523998749) higher than allowed (0.01)",
        "Stream 1---2---6001 (-> vid 1908): max latency (8.000155048001034) higher than allowed (0.01)"
      ]
    }
  },
  "sim_parameters": {
    "**.displayAddresses": "false",
    "**.verbose": "false",
    "**.promiscuous": "true",
    "**.registerProtocol": "true",
    "**.*.clock.clockRate": "\"1us\"",
    "**.h1.eth.address": "\"12:23:34:45:56:67\"",
    "**.h3.eth.address": "\"aa:aa:aa:aa:aa:bb\"",
    "**.h2.eth.address": "\"aa:bb:cc:dd:ee:aa\"",
    "**.*.processingDelay[*].delay": "5us",
    "**.filteringDatabase.database": "xmldoc(\"xml/routing.xml\", \"/filteringDatabases/\")",
    "**.filteringDatabase.cycle": "xmldoc(\"xml/tas.xml\", \"/schedule/\")",
    "**.gateController.initialSchedule": "xmldoc(\"xml/tas.xml\")",
    "**.gateController.enableHoldAndRelease": "false",
    "**.*.eth[*].queuing.tsAlgorithms[*].typename": "\"StrictPriority\"",
    "**.s5.eth[1].queuing.queuingFrames.tciToQueueMapping": "xmldoc(\"xml/tci-maps/tci-map-s5-1.xml\")",
    "**.s3.eth[2].queuing.queuingFrames.tciToQueueMapping": "xmldoc(\"xml/tci-maps/tci-map-s3-2.xml\")",
    "**.s2.eth[1].queuing.queuingFrames.tciToQueueMapping": "xmldoc(\"xml/tci-maps/tci-map-s2-1.xml\")",
    "**.s7.eth[0].queuing.queuingFrames.tciToQueueMapping": "xmldoc(\"xml/tci-maps/tci-map-s7-0.xml\")",
    "**.s4.eth[2].queuing.queuingFrames.tciToQueueMapping": "xmldoc(\"xml/tci-maps/tci-map-s4-2.xml\")",
    "**.s1.eth[1].queuing.queuingFrames.tciToQueueMapping": "xmldoc(\"xml/tci-maps/tci-map-s1-1.xml\")",
    "**.s6.eth[1].queuing.queuingFrames.tciToQueueMapping": "xmldoc(\"xml/tci-maps/tci-map-s6-1.xml\")",
    "**.s4.eth[1].queuing.queuingFrames.tciToQueueMapping": "xmldoc(\"xml/tci-maps/tci-map-s4-1.xml\")",
    "**.*.eth[*].queuing.queues[*].bufferCapacity": "365280b",
    "**.*.eth[*].queuing.queues[*].expressQueue": "true",
    "**.*.eth[*].mac.enablePreemptingFrames": "false",
    "**.*.trafGenSchedApp.jitter": "0.000018",
    "**.*.eth[*].queuing.gateController.jitter": "0.000018",
    "**.*.trafGenSchedApp.initialSchedule": "xmldoc(\"xml/traf-gen.xml\")"
  },
  "streams": {
    "1907": {
      "latency_stats": {
        "min": 0.00011552398791536689,
        "max": 8.000147523998749,
        "mean": 0.9691856220338378,
        "median": 1.0001305240002694,
        "variance": 1.0173288467864967,
        "std_deviation": 1.0086272090254638,
        "interval_size": 8.000032000010833,
        "jitter": 7.03096190196491,
        "packages_received": 86399
      },
      "udp_dest_port": 6000,
      "name": "1---2---6000",
      "max_allowed_latency": 10000000,
      "talker": "h1",
      "listener": "h3"
    },
    "1908": {
      "latency_stats": {
        "min": 0.0001290479995077476,
        "max": 8.000155048001034,
        "mean": 0.9485048879307771,
        "median": 1.0001450440031476,
        "variance": 1.016777193569348,
        "std_deviation": 1.0083537045944484,
        "interval_size": 8.000026000001526,
        "jitter": 7.051650160070256,
        "packages_received": 86399
      },
      "udp_dest_port": 6001,
      "name": "1---2---6001",
      "max_allowed_latency": 10000000,
      "talker": "h2",
      "listener": "h3"
    }
  },
  "hosts": {
    "h3": {
      "received_periodically": {
        "is_periodic": false,
        "max-period-length": 250,
        "skipped": "first 0s"
      }
    }
  },
  "switches": {
    "s5": {
      "port_1": {
        "queue_7": {
          "queueLength": {
            "min": 0,
            "max": 9,
            "mean": 1.0001851851851853,
            "median": 1.0,
            "variance": 0.8541715754956573,
            "std_deviation": 0.9242140312155281,
            "interval_size": 9,
            "jitter": 7.9998148148148145
          },
          "queueingTime": {
            "min": 0.0,
            "max": 8.000011476,
            "mean": 0.4085349166308406,
            "median": 1.5996e-05,
            "variance": 0.5095569627366126,
            "std_deviation": 0.7138325873316604,
            "interval_size": 8.000011476,
            "jitter": 7.591476559369158
          }
        }
      }
    },
    "s6": {
      "port_1": {
        "queue_7": {
          "queueLength": {
            "min": 0,
            "max": 8,
            "mean": 0.9970370198901614,
            "median": 1,
            "variance": 0.8595845030277189,
            "std_deviation": 0.9271378015309908,
            "interval_size": 8,
            "jitter": 7.002962980109839
          },
          "queueingTime": {
            "min": 0.0,
            "max": 7.000019476,
            "mean": 0.405814344571164,
            "median": 1.5432e-05,
            "variance": 0.5123389844622349,
            "std_deviation": 0.7157785861998353,
            "interval_size": 7.000019476,
            "jitter": 6.594205131428836
          }
        }
      }
    },
    "s7": {
      "port_0": {
        "queue_7": {
          "queueLength": {
            "min": 0,
            "max": 3,
            "mean": 0.6209428901292546,
            "median": 1,
            "variance": 0.3640150335936252,
            "std_deviation": 0.6033365840006929,
            "interval_size": 3,
            "jitter": 2.3790571098707454
          },
          "queueingTime": {
            "min": 0.0,
            "max": 0.999993956,
            "mean": 0.0013963141553490202,
            "median": 5.476e-06,
            "variance": 0.001386915693542462,
            "std_deviation": 0.0372413170221256,
            "interval_size": 0.999993956,
            "jitter": 0.9985976418446509
          }
        }
      }
    },
    "s1": {
      "port_1": {
        "queue_7": {
          "queueLength": {
            "min": 0,
            "max": 5,
            "mean": 0.7001736111111111,
            "median": 1.0,
            "variance": 0.49290791492813424,
            "std_deviation": 0.7020740095802822,
            "interval_size": 5,
            "jitter": 4.299826388888889
          },
          "queueingTime": {
            "min": 0.0,
            "max": 4.000021476,
            "mean": 0.2120854019496985,
            "median": 1.3476e-05,
            "variance": 0.255065668650847,
            "std_deviation": 0.5050402643857685,
            "interval_size": 4.000021476,
            "jitter": 3.787936074050301
          }
        }
      }
    },
    "s2": {
      "port_1": {
        "queue_7": {
          "queueLength": {
            "min": 0,
            "max": 7,
            "mean": 0.6998570610123784,
            "median": 1,
            "variance": 0.4914472596609202,
            "std_deviation": 0.7010329947020469,
            "interval_size": 7,
            "jitter": 6.300142938987621
          },
          "queueingTime": {
            "min": 0.0,
            "max": 6.000010476,
            "mean": 0.2113653740625463,
            "median": 1.3476e-05,
            "variance": 0.25321420198641925,
            "std_deviation": 0.5032039367755575,
            "interval_size": 6.000010476,
            "jitter": 5.788645101937454
          }
        }
      }
    },
    "s3": {
      "port_2": {
        "queue_7": {
          "queueLength": {
            "min": 0,
            "max": 4,
            "mean": 1.042465400652201,
            "median": 1,
            "variance": 0.6416610564298065,
            "std_deviation": 0.8010374875308937,
            "interval_size": 4,
            "jitter": 2.957534599347799
          },
          "queueingTime": {
            "min": 0.0,
            "max": 1.000016956,
            "mean": 0.0003234276814796382,
            "median": 1.6476e-05,
            "variance": 0.0003066162711574372,
            "std_deviation": 0.017510461763112852,
            "interval_size": 1.000016956,
            "jitter": 0.9996935283185204
          }
        }
      }
    },
    "s4": {
      "port_1": {
        "queue_7": {
          "queueLength": {
            "min": 0,
            "max": 7,
            "mean": 0.8967887917315294,
            "median": 1,
            "variance": 0.7266679866928926,
            "std_deviation": 0.852448231092594,
            "interval_size": 7,
            "jitter": 6.103211208268471
          },
          "queueingTime": {
            "min": 1.436e-06,
            "max": 6.000048952,
            "mean": 0.3254246974063889,
            "median": 3.5476e-05,
            "variance": 0.4080117881054063,
            "std_deviation": 0.6387580043376414,
            "interval_size": 6.000047516,
            "jitter": 5.674624254593612
          }
        }
      },
      "port_2": {
        "queue_7": {
          "queueLength": {
            "min": 0,
            "max": 7,
            "mean": 0.8158554158299527,
            "median": 1,
            "variance": 0.6450336192068722,
            "std_deviation": 0.80313985034169,
            "interval_size": 7,
            "jitter": 6.184144584170047
          },
          "queueingTime": {
            "min": 0.0,
            "max": 6.000025476,
            "mean": 0.350867787682913,
            "median": 1.1956e-05,
            "variance": 0.40621141835179364,
            "std_deviation": 0.6373471725455394,
            "interval_size": 6.000025476,
            "jitter": 5.6491576883170875
          }
        }
      }
    }
  }
}