{
  "general": {
    "validation": {
      "valid": false,
      "errors": [
        "Host h2: No periodicity found in the streams received",
        "Stream 1---2---6000 (-> vid 1907): max latency (14.000822524001705) higher than allowed (0.01)",
        "Stream 1---2---6001 (-> vid 1908): max latency (14.000811047997558) higher than allowed (0.01)"
      ]
    }
  },
  "sim_parameters": {
    "**.displayAddresses": "false",
    "**.verbose": "false",
    "**.promiscuous": "true",
    "**.registerProtocol": "true",
    "**.*.clock.clockRate": "\"1us\"",
    "**.h1.eth.address": "\"12:23:34:45:56:67\"",
    "**.h2.eth.address": "\"aa:bb:cc:dd:ee:aa\"",
    "**.*.processingDelay[*].delay": "5us",
    "**.filteringDatabase.database": "xmldoc(\"xml/routing.xml\", \"/filteringDatabases/\")",
    "**.filteringDatabase.cycle": "xmldoc(\"xml/tas.xml\", \"/schedule/\")",
    "**.gateController.initialSchedule": "xmldoc(\"xml/tas.xml\")",
    "**.gateController.enableHoldAndRelease": "false",
    "**.*.eth[*].queuing.tsAlgorithms[*].typename": "\"StrictPriority\"",
    "**.s17.eth[1].queuing.queuingFrames.tciToQueueMapping": "xmldoc(\"xml/tci-maps/tci-map-s17-1.xml\")",
    "**.s62.eth[2].queuing.queuingFrames.tciToQueueMapping": "xmldoc(\"xml/tci-maps/tci-map-s62-2.xml\")",
    "**.s11.eth[1].queuing.queuingFrames.tciToQueueMapping": "xmldoc(\"xml/tci-maps/tci-map-s11-1.xml\")",
    "**.s53.eth[1].queuing.queuingFrames.tciToQueueMapping": "xmldoc(\"xml/tci-maps/tci-map-s53-1.xml\")",
    "**.s51.eth[1].queuing.queuingFrames.tciToQueueMapping": "xmldoc(\"xml/tci-maps/tci-map-s51-1.xml\")",
    "**.s45.eth[1].queuing.queuingFrames.tciToQueueMapping": "xmldoc(\"xml/tci-maps/tci-map-s45-1.xml\")",
    "**.s42.eth[1].queuing.queuingFrames.tciToQueueMapping": "xmldoc(\"xml/tci-maps/tci-map-s42-1.xml\")",
    "**.s5.eth[1].queuing.queuingFrames.tciToQueueMapping": "xmldoc(\"xml/tci-maps/tci-map-s5-1.xml\")",
    "**.s36.eth[1].queuing.queuingFrames.tciToQueueMapping": "xmldoc(\"xml/tci-maps/tci-map-s36-1.xml\")",
    "**.s15.eth[1].queuing.queuingFrames.tciToQueueMapping": "xmldoc(\"xml/tci-maps/tci-map-s15-1.xml\")",
    "**.s16.eth[1].queuing.queuingFrames.tciToQueueMapping": "xmldoc(\"xml/tci-maps/tci-map-s16-1.xml\")",
    "**.s43.eth[1].queuing.queuingFrames.tciToQueueMapping": "xmldoc(\"xml/tci-maps/tci-map-s43-1.xml\")",
    "**.s52.eth[1].queuing.queuingFrames.tciToQueueMapping": "xmldoc(\"xml/tci-maps/tci-map-s52-1.xml\")",
    "**.s49.eth[1].queuing.queuingFrames.tciToQueueMapping": "xmldoc(\"xml/tci-maps/tci-map-s49-1.xml\")",
    "**.s13.eth[1].queuing.queuingFrames.tciToQueueMapping": "xmldoc(\"xml/tci-maps/tci-map-s13-1.xml\")",
    "**.s9.eth[1].queuing.queuingFrames.tciToQueueMapping": "xmldoc(\"xml/tci-maps/tci-map-s9-1.xml\")",
    "**.s47.eth[1].queuing.queuingFrames.tciToQueueMapping": "xmldoc(\"xml/tci-maps/tci-map-s47-1.xml\")",
    "**.s48.eth[1].queuing.queuingFrames.tciToQueueMapping": "xmldoc(\"xml/tci-maps/tci-map-s48-1.xml\")",
    "**.s2.eth[1].queuing.queuingFrames.tciToQueueMapping": "xmldoc(\"xml/tci-maps/tci-map-s2-1.xml\")",
    "**.s57.eth[1].queuing.queuingFrames.tciToQueueMapping": "xmldoc(\"xml/tci-maps/tci-map-s57-1.xml\")",
    "**.s22.eth[1].queuing.queuingFrames.tciToQueueMapping": "xmldoc(\"xml/tci-maps/tci-map-s22-1.xml\")",
    "**.s38.eth[1].queuing.queuingFrames.tciToQueueMapping": "xmldoc(\"xml/tci-maps/tci-map-s38-1.xml\")",
    "**.s37.eth[1].queuing.queuingFrames.tciToQueueMapping": "xmldoc(\"xml/tci-maps/tci-map-s37-1.xml\")",
    "**.s39.eth[1].queuing.queuingFrames.tciToQueueMapping": "xmldoc(\"xml/tci-maps/tci-map-s39-1.xml\")",
    "**.s61.eth[1].queuing.queuingFrames.tciToQueueMapping": "xmldoc(\"xml/tci-maps/tci-map-s61-1.xml\")",
    "**.s60.eth[1].queuing.queuingFrames.tciToQueueMapping": "xmldoc(\"xml/tci-maps/tci-map-s60-1.xml\")",
    "**.s56.eth[1].queuing.queuingFrames.tciToQueueMapping": "xmldoc(\"xml/tci-maps/tci-map-s56-1.xml\")",
    "**.s23.eth[1].queuing.queuingFrames.tciToQueueMapping": "xmldoc(\"xml/tci-maps/tci-map-s23-1.xml\")",
    "**.s30.eth[1].queuing.queuingFrames.tciToQueueMapping": "xmldoc(\"xml/tci-maps/tci-map-s30-1.xml\")",
    "**.s34.eth[1].queuing.queuingFrames.tciToQueueMapping": "xmldoc(\"xml/tci-maps/tci-map-s34-1.xml\")",
    "**.s10.eth[1].queuing.queuingFrames.tciToQueueMapping": "xmldoc(\"xml/tci-maps/tci-map-s10-1.xml\")",
    "**.s54.eth[1].queuing.queuingFrames.tciToQueueMapping": "xmldoc(\"xml/tci-maps/tci-map-s54-1.xml\")",
    "**.s25.eth[1].queuing.queuingFrames.tciToQueueMapping": "xmldoc(\"xml/tci-maps/tci-map-s25-1.xml\")",
    "**.s24.eth[1].queuing.queuingFrames.tciToQueueMapping": "xmldoc(\"xml/tci-maps/tci-map-s24-1.xml\")",
    "**.s27.eth[1].queuing.queuingFrames.tciToQueueMapping": "xmldoc(\"xml/tci-maps/tci-map-s27-1.xml\")",
    "**.s21.eth[1].queuing.queuingFrames.tciToQueueMapping": "xmldoc(\"xml/tci-maps/tci-map-s21-1.xml\")",
    "**.s12.eth[1].queuing.queuingFrames.tciToQueueMapping": "xmldoc(\"xml/tci-maps/tci-map-s12-1.xml\")",
    "**.s46.eth[1].queuing.queuingFrames.tciToQueueMapping": "xmldoc(\"xml/tci-maps/tci-map-s46-1.xml\")",
    "**.s32.eth[1].queuing.queuingFrames.tciToQueueMapping": "xmldoc(\"xml/tci-maps/tci-map-s32-1.xml\")",
    "**.s14.eth[1].queuing.queuingFrames.tciToQueueMapping": "xmldoc(\"xml/tci-maps/tci-map-s14-1.xml\")",
    "**.s1.eth[1].queuing.queuingFrames.tciToQueueMapping": "xmldoc(\"xml/tci-maps/tci-map-s1-1.xml\")",
    "**.s41.eth[1].queuing.queuingFrames.tciToQueueMapping": "xmldoc(\"xml/tci-maps/tci-map-s41-1.xml\")",
    "**.s29.eth[1].queuing.queuingFrames.tciToQueueMapping": "xmldoc(\"xml/tci-maps/tci-map-s29-1.xml\")",
    "**.s55.eth[1].queuing.queuingFrames.tciToQueueMapping": "xmldoc(\"xml/tci-maps/tci-map-s55-1.xml\")",
    "**.s35.eth[1].queuing.queuingFrames.tciToQueueMapping": "xmldoc(\"xml/tci-maps/tci-map-s35-1.xml\")",
    "**.s18.eth[1].queuing.queuingFrames.tciToQueueMapping": "xmldoc(\"xml/tci-maps/tci-map-s18-1.xml\")",
    "**.s19.eth[1].queuing.queuingFrames.tciToQueueMapping": "xmldoc(\"xml/tci-maps/tci-map-s19-1.xml\")",
    "**.s59.eth[1].queuing.queuingFrames.tciToQueueMapping": "xmldoc(\"xml/tci-maps/tci-map-s59-1.xml\")",
    "**.s50.eth[1].queuing.queuingFrames.tciToQueueMapping": "xmldoc(\"xml/tci-maps/tci-map-s50-1.xml\")",
    "**.s7.eth[1].queuing.queuingFrames.tciToQueueMapping": "xmldoc(\"xml/tci-maps/tci-map-s7-1.xml\")",
    "**.s31.eth[1].queuing.queuingFrames.tciToQueueMapping": "xmldoc(\"xml/tci-maps/tci-map-s31-1.xml\")",
    "**.s3.eth[1].queuing.queuingFrames.tciToQueueMapping": "xmldoc(\"xml/tci-maps/tci-map-s3-1.xml\")",
    "**.s26.eth[1].queuing.queuingFrames.tciToQueueMapping": "xmldoc(\"xml/tci-maps/tci-map-s26-1.xml\")",
    "**.s28.eth[1].queuing.queuingFrames.tciToQueueMapping": "xmldoc(\"xml/tci-maps/tci-map-s28-1.xml\")",
    "**.s1.eth[2].queuing.queuingFrames.tciToQueueMapping": "xmldoc(\"xml/tci-maps/tci-map-s1-2.xml\")",
    "**.s20.eth[1].queuing.queuingFrames.tciToQueueMapping": "xmldoc(\"xml/tci-maps/tci-map-s20-1.xml\")",
    "**.s8.eth[1].queuing.queuingFrames.tciToQueueMapping": "xmldoc(\"xml/tci-maps/tci-map-s8-1.xml\")",
    "**.s6.eth[1].queuing.queuingFrames.tciToQueueMapping": "xmldoc(\"xml/tci-maps/tci-map-s6-1.xml\")",
    "**.s58.eth[1].queuing.queuingFrames.tciToQueueMapping": "xmldoc(\"xml/tci-maps/tci-map-s58-1.xml\")",
    "**.s33.eth[1].queuing.queuingFrames.tciToQueueMapping": "xmldoc(\"xml/tci-maps/tci-map-s33-1.xml\")",
    "**.s44.eth[1].queuing.queuingFrames.tciToQueueMapping": "xmldoc(\"xml/tci-maps/tci-map-s44-1.xml\")",
    "**.s40.eth[1].queuing.queuingFrames.tciToQueueMapping": "xmldoc(\"xml/tci-maps/tci-map-s40-1.xml\")",
    "**.s4.eth[1].queuing.queuingFrames.tciToQueueMapping": "xmldoc(\"xml/tci-maps/tci-map-s4-1.xml\")",
    "**.*.eth[*].queuing.queues[*].bufferCapacity": "365280b",
    "**.*.eth[*].queuing.queues[*].expressQueue": "true",
    "**.*.eth[*].mac.enablePreemptingFrames": "false",
    "**.*.trafGenSchedApp.jitter": "0.000017",
    "**.*.eth[*].queuing.gateController.jitter": "0.000017",
    "**.*.trafGenSchedApp.initialSchedule": "xmldoc(\"xml/traf-gen.xml\")"
  },
  "streams": {
    "1907": {
      "latency_stats": {
        "min": 1.0008055240000004,
        "max": 14.000822524001705,
        "mean": 6.262960655582293,
        "median": 6.00081252399832,
        "variance": 2.642197514386608,
        "std_deviation": 1.6254837785676632,
        "interval_size": 13.000017000001705,
        "jitter": 7.7378618684194125,
        "packages_received": 86393
      },
      "udp_dest_port": 6000,
      "name": "1---2---6000",
      "max_allowed_latency": 10000000,
      "talker": "h1",
      "listener": "h2"
    },
    "1908": {
      "latency_stats": {
        "min": 1.000794044,
        "max": 14.000811047997558,
        "mean": 6.256725534929032,
        "median": 6.000801048008725,
        "variance": 2.600518773816975,
        "std_deviation": 1.612612406567981,
        "interval_size": 13.00001700399756,
        "jitter": 7.744085513068526,
        "packages_received": 86392
      },
      "udp_dest_port": 6001,
      "name": "1---2---6001",
      "max_allowed_latency": 10000000,
      "talker": "h1",
      "listener": "h2"
    }
  },
  "hosts": {
    "h2": {
      "received_periodically": {
        "is_periodic": false,
        "max-period-length": 250,
        "skipped": "first 0s"
      }
    }
  },
  "switches": {
    "s60": {
      "port_1": {
        "queue_7": {
          "queueLength": {
            "min": 0,
            "max": 9,
            "mean": 0.8376729730824657,
            "median": 1,
            "variance": 0.6360298377705196,
            "std_deviation": 0.7975147884337441,
            "interval_size": 9,
            "jitter": 8.162327026917534
          },
          "queueingTime": {
            "min": 0.0,
            "max": 6.000009476,
            "mean": 0.22704375810072575,
            "median": 1.3476e-05,
            "variance": 0.2509135953725015,
            "std_deviation": 0.5009127622375992,
            "interval_size": 6.000009476,
            "jitter": 5.772965717899274
          }
        }
      }
    },
    "s62": {
      "port_2": {
        "queue_7": {
          "queueLength": {
            "min": 0,
            "max": 3,
            "mean": 0.5874480208119316,
            "median": 1,
            "variance": 0.33317161366748804,
            "std_deviation": 0.5772101988595558,
            "interval_size": 3,
            "jitter": 2.4125519791880685
          },
          "queueingTime": {
            "min": 0.0,
            "max": 0.999994956,
            "mean": 0.00027895929148942327,
            "median": 4.476e-06,
            "variance": 0.0002719285241136912,
            "std_deviation": 0.016490255429000827,
            "interval_size": 0.999994956,
            "jitter": 0.9997159967085105
          }
        }
      }
    },
    "s61": {
      "port_1": {
        "queue_7": {
          "queueLength": {
            "min": 0,
            "max": 7,
            "mean": 0.8383135110107938,
            "median": 1,
            "variance": 0.631562902566838,
            "std_deviation": 0.7947093195419556,
            "interval_size": 7,
            "jitter": 6.161686488989206
          },
          "queueingTime": {
            "min": 0.0,
            "max": 5.000014956,
            "mean": 0.22781034374895823,
            "median": 1.3476e-05,
            "variance": 0.24890160726291355,
            "std_deviation": 0.4989003981386601,
            "interval_size": 5.000014956,
            "jitter": 4.772204612251042
          }
        }
      }
    },
    "s20": {
      "port_1": {
        "queue_7": {
          "queueLength": {
            "min": 0,
            "max": 6,
            "mean": 0.8070557188823816,
            "median": 1.0,
            "variance": 0.5772460873725431,
            "std_deviation": 0.7597671270675924,
            "interval_size": 6,
            "jitter": 5.192944281117619
          },
          "queueingTime": {
            "min": 0.0,
            "max": 5.000025476,
            "mean": 0.20742852658692532,
            "median": 1.3476e-05,
            "variance": 0.22298774603030222,
            "std_deviation": 0.47221578333459185,
            "interval_size": 5.000025476,
            "jitter": 4.792596949413075
          }
        }
      }
    },
    "s22": {
      "port_1": {
        "queue_7": {
          "queueLength": {
            "min": 0,
            "max": 8,
            "mean": 0.8139797329752941,
            "median": 1,
            "variance": 0.5869123024041906,
            "std_deviation": 0.7661020182744531,
            "interval_size": 8,
            "jitter": 7.1860202670247055
          },
          "queueingTime": {
            "min": 0.0,
            "max": 7.000001956,
            "mean": 0.2140144102431131,
            "median": 1.3476e-05,
            "variance": 0.2346228984150185,
            "std_deviation": 0.4843788789935194,
            "interval_size": 7.000001956,
            "jitter": 6.785987545756887
          }
        }
      }
    },
    "s21": {
      "port_1": {
        "queue_7": {
          "queueLength": {
            "min": 0,
            "max": 7,
            "mean": 0.8040417368357089,
            "median": 1,
            "variance": 0.5759141256220859,
            "std_deviation": 0.7588900616176798,
            "interval_size": 7,
            "jitter": 6.195958263164291
          },
          "queueingTime": {
            "min": 0.0,
            "max": 5.000004956,
            "mean": 0.20489127023794806,
            "median": 1.3476e-05,
            "variance": 0.21767640416469,
            "std_deviation": 0.4665580394384926,
            "interval_size": 5.000004956,
            "jitter": 4.795113685762051
          }
        }
      }
    },
    "s24": {
      "port_1": {
        "queue_7": {
          "queueLength": {
            "min": 0,
            "max": 7,
            "mean": 0.8144542892362537,
            "median": 1,
            "variance": 0.5880146011806306,
            "std_deviation": 0.7668211011576498,
            "interval_size": 7,
            "jitter": 6.185545710763746
          },
          "queueingTime": {
            "min": 0.0,
            "max": 4.000018476,
            "mean": 0.21228985630922728,
            "median": 1.3476e-05,
            "variance": 0.2273830599447342,
            "std_deviation": 0.47684699846463774,
            "interval_size": 4.000018476,
            "jitter": 3.787728619690773
          }
        }
      }
    },
    "s23": {
      "port_1": {
        "queue_7": {
          "queueLength": {
            "min": 0,
            "max": 7,
            "mean": 0.8114065800515061,
            "median": 1,
            "variance": 0.586224739462704,
            "std_deviation": 0.7656531456623842,
            "interval_size": 7,
            "jitter": 6.188593419948494
          },
          "queueingTime": {
            "min": 0.0,
            "max": 5.000019952,
            "mean": 0.21006507219519197,
            "median": 1.3476e-05,
            "variance": 0.22656015428368276,
            "std_deviation": 0.4759833550489794,
            "interval_size": 5.000019952,
            "jitter": 4.7899548798048075
          }
        }
      }
    },
    "s26": {
      "port_1": {
        "queue_7": {
          "queueLength": {
            "min": 0,
            "max": 8,
            "mean": 0.8189799355297958,
            "median": 1,
            "variance": 0.5994656778290458,
            "std_deviation": 0.7742516889416812,
            "interval_size": 8,
            "jitter": 7.1810200644702045
          },
          "queueingTime": {
            "min": 0.0,
            "max": 5.000014476,
            "mean": 0.21649140364961342,
            "median": 1.3476e-05,
            "variance": 0.23385749715624282,
            "std_deviation": 0.48358814827934193,
            "interval_size": 5.000014476,
            "jitter": 4.783523072350386
          }
        }
      }
    },
    "s25": {
      "port_1": {
        "queue_7": {
          "queueLength": {
            "min": 0,
            "max": 7,
            "mean": 0.8220666107236899,
            "median": 1,
            "variance": 0.6149939234771495,
            "std_deviation": 0.7842154828088703,
            "interval_size": 7,
            "jitter": 6.17793338927631
          },
          "queueingTime": {
            "min": 0.0,
            "max": 6.000014956,
            "mean": 0.2191163060057641,
            "median": 1.3476e-05,
            "variance": 0.24707500974696459,
            "std_deviation": 0.4970664037600656,
            "interval_size": 6.000014956,
            "jitter": 5.780898649994236
          }
        }
      }
    },
    "s28": {
      "port_1": {
        "queue_7": {
          "queueLength": {
            "min": 0,
            "max": 7,
            "mean": 0.8269084974507069,
            "median": 1,
            "variance": 0.6112088884338002,
            "std_deviation": 0.7817984960549619,
            "interval_size": 7,
            "jitter": 6.173091502549293
          },
          "queueingTime": {
            "min": 0.0,
            "max": 5.000020476,
            "mean": 0.22025315144270569,
            "median": 1.3476e-05,
            "variance": 0.24106930926408085,
            "std_deviation": 0.4909880948292747,
            "interval_size": 5.000020476,
            "jitter": 4.7797673245572945
          }
        }
      }
    },
    "s27": {
      "port_1": {
        "queue_7": {
          "queueLength": {
            "min": 0,
            "max": 6,
            "mean": 0.8145200960675946,
            "median": 1,
            "variance": 0.5937553912691783,
            "std_deviation": 0.7705552486805721,
            "interval_size": 6,
            "jitter": 5.185479903932405
          },
          "queueingTime": {
            "min": 0.0,
            "max": 4.000018476,
            "mean": 0.21190543818313134,
            "median": 1.3476e-05,
            "variance": 0.22848049627928768,
            "std_deviation": 0.477996335006125,
            "interval_size": 4.000018476,
            "jitter": 3.788113037816869
          }
        }
      }
    },
    "s29": {
      "port_1": {
        "queue_7": {
          "queueLength": {
            "min": 0,
            "max": 6,
            "mean": 0.8173605565008044,
            "median": 1.0,
            "variance": 0.5979471494945332,
            "std_deviation": 0.7732704245569807,
            "interval_size": 6,
            "jitter": 5.182639443499196
          },
          "queueingTime": {
            "min": 0.0,
            "max": 4.000023476,
            "mean": 0.2154265441572758,
            "median": 1.3476e-05,
            "variance": 0.23353032215759648,
            "std_deviation": 0.4832497513269888,
            "interval_size": 4.000023476,
            "jitter": 3.7845969318427244
          }
        }
      }
    },
    "s31": {
      "port_1": {
        "queue_7": {
          "queueLength": {
            "min": 0,
            "max": 8,
            "mean": 0.8239617574887727,
            "median": 1.0,
            "variance": 0.6197849930800416,
            "std_deviation": 0.7872642460318147,
            "interval_size": 8,
            "jitter": 7.176038242511227
          },
          "queueingTime": {
            "min": 0.0,
            "max": 7.000014956,
            "mean": 0.22077655772922045,
            "median": 1.3476e-05,
            "variance": 0.24654828173777757,
            "std_deviation": 0.49653628441210373,
            "interval_size": 7.000014956,
            "jitter": 6.779238398270779
          }
        }
      }
    },
    "s30": {
      "port_1": {
        "queue_7": {
          "queueLength": {
            "min": 0,
            "max": 7,
            "mean": 0.8235750290810392,
            "median": 1,
            "variance": 0.6060389645442814,
            "std_deviation": 0.7784850445219108,
            "interval_size": 7,
            "jitter": 6.176424970918961
          },
          "queueingTime": {
            "min": 0.0,
            "max": 5.999997956,
            "mean": 0.21943134492078337,
            "median": 1.3476e-05,
            "variance": 0.24125699705723347,
            "std_deviation": 0.49117919037478924,
            "interval_size": 5.999997956,
            "jitter": 5.780566611079216
          }
        }
      }
    },
    "s33": {
      "port_1": {
        "queue_7": {
          "queueLength": {
            "min": 0,
            "max": 6,
            "mean": 0.8202568420808954,
            "median": 1,
            "variance": 0.6046966664815583,
            "std_deviation": 0.7776224446873677,
            "interval_size": 6,
            "jitter": 5.179743157919105
          },
          "queueingTime": {
            "min": 0.0,
            "max": 5.000004956,
            "mean": 0.21792922632416228,
            "median": 1.3476e-05,
            "variance": 0.23807450547233105,
            "std_deviation": 0.4879287913951492,
            "interval_size": 5.000004956,
            "jitter": 4.782075729675838
          }
        }
      }
    },
    "s32": {
      "port_1": {
        "queue_7": {
          "queueLength": {
            "min": 0,
            "max": 7,
            "mean": 0.8322597820488336,
            "median": 1,
            "variance": 0.6164605447242514,
            "std_deviation": 0.7851500141528697,
            "interval_size": 7,
            "jitter": 6.167740217951167
          },
          "queueingTime": {
            "min": 0.0,
            "max": 6.000023476,
            "mean": 0.224934545175915,
            "median": 1.3476e-05,
            "variance": 0.24371460412368623,
            "std_deviation": 0.49367459335445474,
            "interval_size": 6.000023476,
            "jitter": 5.775088930824085
          }
        }
      }
    },
    "s35": {
      "port_1": {
        "queue_7": {
          "queueLength": {
            "min": 0,
            "max": 8,
            "mean": 0.8171432539889231,
            "median": 1,
            "variance": 0.6065539571331329,
            "std_deviation": 0.7788157401678094,
            "interval_size": 8,
            "jitter": 7.182856746011077
          },
          "queueingTime": {
            "min": 0.0,
            "max": 6.000002956,
            "mean": 0.21400530129609352,
            "median": 1.3476e-05,
            "variance": 0.23718806748712454,
            "std_deviation": 0.48701957608203444,
            "interval_size": 6.000002956,
            "jitter": 5.785997654703907
          }
        }
      }
    },
    "s34": {
      "port_1": {
        "queue_7": {
          "queueLength": {
            "min": 0,
            "max": 6,
            "mean": 0.8308862253962925,
            "median": 1,
            "variance": 0.6179904066966749,
            "std_deviation": 0.786123658654715,
            "interval_size": 6,
            "jitter": 5.169113774603708
          },
          "queueingTime": {
            "min": 0.0,
            "max": 5.000019476,
            "mean": 0.22463352368414474,
            "median": 1.3476e-05,
            "variance": 0.24618810453362097,
            "std_deviation": 0.4961734621416395,
            "interval_size": 5.000019476,
            "jitter": 4.7753859523158555
          }
        }
      }
    },
    "s37": {
      "port_1": {
        "queue_7": {
          "queueLength": {
            "min": 0,
            "max": 9,
            "mean": 0.8238912906343502,
            "median": 1,
            "variance": 0.6163378203252693,
            "std_deviation": 0.7850718567910006,
            "interval_size": 9,
            "jitter": 8.17610870936565
          },
          "queueingTime": {
            "min": 0.0,
            "max": 6.000011956,
            "mean": 0.22051033425670466,
            "median": 1.3476e-05,
            "variance": 0.2477885127199216,
            "std_deviation": 0.49778360029225716,
            "interval_size": 6.000011956,
            "jitter": 5.779501621743295
          }
        }
      }
    },
    "s36": {
      "port_1": {
        "queue_7": {
          "queueLength": {
            "min": 0,
            "max": 6,
            "mean": 0.8236798851772114,
            "median": 1.0,
            "variance": 0.6129293950459752,
            "std_deviation": 0.7828980744937205,
            "interval_size": 6,
            "jitter": 5.176320114822788
          },
          "queueingTime": {
            "min": 0.0,
            "max": 5.000024476,
            "mean": 0.2171586990458486,
            "median": 1.3476e-05,
            "variance": 0.23984006087554932,
            "std_deviation": 0.48973468416638544,
            "interval_size": 5.000024476,
            "jitter": 4.782865776954152
          }
        }
      }
    },
    "s39": {
      "port_1": {
        "queue_7": {
          "queueLength": {
            "min": 0,
            "max": 8,
            "mean": 0.8330121360487526,
            "median": 1,
            "variance": 0.6306020728835622,
            "std_deviation": 0.7941045730151427,
            "interval_size": 8,
            "jitter": 7.166987863951247
          },
          "queueingTime": {
            "min": 0.0,
            "max": 5.000018476,
            "mean": 0.2261241334101742,
            "median": 1.3476e-05,
            "variance": 0.2571918874376015,
            "std_deviation": 0.5071408950554092,
            "interval_size": 5.000018476,
            "jitter": 4.773894342589826
          }
        }
      }
    },
    "s38": {
      "port_1": {
        "queue_7": {
          "queueLength": {
            "min": 0,
            "max": 7,
            "mean": 0.8272207978609502,
            "median": 1,
            "variance": 0.6229431186516315,
            "std_deviation": 0.7892674569825058,
            "interval_size": 7,
            "jitter": 6.17277920213905
          },
          "queueingTime": {
            "min": 0.0,
            "max": 5.000019476,
            "mean": 0.21926534353324922,
            "median": 1.3476e-05,
            "variance": 0.2485974896918955,
            "std_deviation": 0.49859551711973454,
            "interval_size": 5.000019476,
            "jitter": 4.780754132466751
          }
        }
      }
    },
    "s40": {
      "port_1": {
        "queue_7": {
          "queueLength": {
            "min": 0,
            "max": 7,
            "mean": 0.8342236395099168,
            "median": 1,
            "variance": 0.6279993861199522,
            "std_deviation": 0.7924641229228944,
            "interval_size": 7,
            "jitter": 6.165776360490083
          },
          "queueingTime": {
            "min": 0.0,
            "max": 5.000011476,
            "mean": 0.22689329036213582,
            "median": 1.3476e-05,
            "variance": 0.25235934863988113,
            "std_deviation": 0.5023538082267129,
            "interval_size": 5.000011476,
            "jitter": 4.773118185637864
          }
        }
      }
    },
    "s42": {
      "port_1": {
        "queue_7": {
          "queueLength": {
            "min": 0,
            "max": 6,
            "mean": 0.8357746821230764,
            "median": 1,
            "variance": 0.6278861851071522,
            "std_deviation": 0.7923926962732255,
            "interval_size": 6,
            "jitter": 5.164225317876924
          },
          "queueingTime": {
            "min": 0.0,
            "max": 5.000018476,
            "mean": 0.22793502637315524,
            "median": 1.3476e-05,
            "variance": 0.2540848586571369,
            "std_deviation": 0.5040683075309704,
            "interval_size": 5.000018476,
            "jitter": 4.7720834496268445
          }
        }
      }
    },
    "s41": {
      "port_1": {
        "queue_7": {
          "queueLength": {
            "min": 0,
            "max": 6,
            "mean": 0.837074847648315,
            "median": 1,
            "variance": 0.6233771115862918,
            "std_deviation": 0.7895423431243519,
            "interval_size": 6,
            "jitter": 5.162925152351685
          },
          "queueingTime": {
            "min": 0.0,
            "max": 4.000019476,
            "mean": 0.23002476631670815,
            "median": 1.3476e-05,
            "variance": 0.2503543794303103,
            "std_deviation": 0.5003542539344602,
            "interval_size": 4.000019476,
            "jitter": 3.769994709683292
          }
        }
      }
    },
    "s44": {
      "port_1": {
        "queue_7": {
          "queueLength": {
            "min": 0,
            "max": 9,
            "mean": 0.8310868294489747,
            "median": 1,
            "variance": 0.6327833285352851,
            "std_deviation": 0.7954767932097612,
            "interval_size": 9,
            "jitter": 8.168913170551026
          },
          "queueingTime": {
            "min": 0.0,
            "max": 6.000019952,
            "mean": 0.22380275704017685,
            "median": 1.3476e-05,
            "variance": 0.25394899523090153,
            "std_deviation": 0.503933522630616,
            "interval_size": 6.000019952,
            "jitter": 5.776217194959822
          }
        }
      }
    },
    "s43": {
      "port_1": {
        "queue_7": {
          "queueLength": {
            "min": 0,
            "max": 7,
            "mean": 0.8287758042953626,
            "median": 1,
            "variance": 0.6086125409218276,
            "std_deviation": 0.7801362322837131,
            "interval_size": 7,
            "jitter": 6.171224195704637
          },
          "queueingTime": {
            "min": 0.0,
            "max": 5.000010476,
            "mean": 0.22163312364896118,
            "median": 1.3476e-05,
            "variance": 0.23809001634594673,
            "std_deviation": 0.4879446857441392,
            "interval_size": 5.000010476,
            "jitter": 4.778377352351039
          }
        }
      }
    },
    "s46": {
      "port_1": {
        "queue_7": {
          "queueLength": {
            "min": 0,
            "max": 7,
            "mean": 0.8377771475863346,
            "median": 1,
            "variance": 0.6292112407651369,
            "std_deviation": 0.7932283660870537,
            "interval_size": 7,
            "jitter": 6.162222852413666
          },
          "queueingTime": {
            "min": 0.0,
            "max": 5.000015476,
            "mean": 0.22734473504487632,
            "median": 1.3476e-05,
            "variance": 0.24996661878914067,
            "std_deviation": 0.499966617674761,
            "interval_size": 5.000015476,
            "jitter": 4.772670740955124
          }
        }
      }
    },
    "s45": {
      "port_1": {
        "queue_7": {
          "queueLength": {
            "min": 0,
            "max": 8,
            "mean": 0.8368549287868002,
            "median": 1,
            "variance": 0.6286297843769889,
            "std_deviation": 0.7928617687699344,
            "interval_size": 8,
            "jitter": 7.1631450712132
          },
          "queueingTime": {
            "min": 0.0,
            "max": 5.999996956,
            "mean": 0.22753620242527925,
            "median": 1.3476e-05,
            "variance": 0.24949058479009736,
            "std_deviation": 0.4994903250215137,
            "interval_size": 5.999996956,
            "jitter": 5.772460753574721
          }
        }
      }
    },
    "s48": {
      "port_1": {
        "queue_7": {
          "queueLength": {
            "min": 0,
            "max": 7,
            "mean": 0.834513013131775,
            "median": 1,
            "variance": 0.6299703974713806,
            "std_deviation": 0.7937067452600995,
            "interval_size": 7,
            "jitter": 6.165486986868225
          },
          "queueingTime": {
            "min": 0.0,
            "max": 5.000002956,
            "mean": 0.2278308278930932,
            "median": 1.3476e-05,
            "variance": 0.2530327478176131,
            "std_deviation": 0.5030236056266277,
            "interval_size": 5.000002956,
            "jitter": 4.772172128106907
          }
        }
      }
    },
    "s47": {
      "port_1": {
        "queue_7": {
          "queueLength": {
            "min": 0,
            "max": 7,
            "mean": 0.8341233050332483,
            "median": 1,
            "variance": 0.624258592330939,
            "std_deviation": 0.7901003685171518,
            "interval_size": 7,
            "jitter": 6.165876694966752
          },
          "queueingTime": {
            "min": 0.0,
            "max": 6.000011956,
            "mean": 0.2238322885104462,
            "median": 1.3476e-05,
            "variance": 0.24507389637710436,
            "std_deviation": 0.4950493878161091,
            "interval_size": 6.000011956,
            "jitter": 5.776179667489553
          }
        }
      }
    },
    "s49": {
      "port_1": {
        "queue_7": {
          "queueLength": {
            "min": 0,
            "max": 7,
            "mean": 0.8460567969396554,
            "median": 1,
            "variance": 0.6476364997893097,
            "std_deviation": 0.8047586593440978,
            "interval_size": 7,
            "jitter": 6.1539432030603445
          },
          "queueingTime": {
            "min": 0.0,
            "max": 5.000019476,
            "mean": 0.23464313123254818,
            "median": 1.3476e-05,
            "variance": 0.2603042526560974,
            "std_deviation": 0.5102002084046001,
            "interval_size": 5.000019476,
            "jitter": 4.765376344767452
          }
        }
      }
    },
    "s9": {
      "port_1": {
        "queue_7": {
          "queueLength": {
            "min": 0,
            "max": 7,
            "mean": 0.7335748470766613,
            "median": 1,
            "variance": 0.4948802579295787,
            "std_deviation": 0.7034772618426118,
            "interval_size": 7,
            "jitter": 6.266425152923339
          },
          "queueingTime": {
            "min": 0.0,
            "max": 4.000008476,
            "mean": 0.16193468635521244,
            "median": 1.3476e-05,
            "variance": 0.17146988007176026,
            "std_deviation": 0.41408921752656186,
            "interval_size": 4.000008476,
            "jitter": 3.8380737896447874
          }
        }
      }
    },
    "s51": {
      "port_1": {
        "queue_7": {
          "queueLength": {
            "min": 0,
            "max": 8,
            "mean": 0.8403196962769621,
            "median": 1,
            "variance": 0.6375747201193234,
            "std_deviation": 0.7984827613163126,
            "interval_size": 8,
            "jitter": 7.159680303723038
          },
          "queueingTime": {
            "min": 0.0,
            "max": 5.000013476,
            "mean": 0.2302615642920607,
            "median": 1.3476e-05,
            "variance": 0.2557621533102732,
            "std_deviation": 0.5057293281096847,
            "interval_size": 5.000013476,
            "jitter": 4.76975191170794
          }
        }
      }
    },
    "s50": {
      "port_1": {
        "queue_7": {
          "queueLength": {
            "min": 0,
            "max": 8,
            "mean": 0.841990427520589,
            "median": 1,
            "variance": 0.6468812441526924,
            "std_deviation": 0.8042892788995092,
            "interval_size": 8,
            "jitter": 7.158009572479411
          },
          "queueingTime": {
            "min": 0.0,
            "max": 5.000016476,
            "mean": 0.23134970193515678,
            "median": 1.3476e-05,
            "variance": 0.2639181512024023,
            "std_deviation": 0.5137296479690483,
            "interval_size": 5.000016476,
            "jitter": 4.768666774064843
          }
        }
      }
    },
    "s53": {
      "port_1": {
        "queue_7": {
          "queueLength": {
            "min": 0,
            "max": 8,
            "mean": 0.8453703114238919,
            "median": 1,
            "variance": 0.6433542299759444,
            "std_deviation": 0.8020936541177373,
            "interval_size": 8,
            "jitter": 7.154629688576108
          },
          "queueingTime": {
            "min": 0.0,
            "max": 6.000015956,
            "mean": 0.23467173265908117,
            "median": 1.3476e-05,
            "variance": 0.2589554016491393,
            "std_deviation": 0.5088766074886321,
            "interval_size": 6.000015956,
            "jitter": 5.765344223340919
          }
        }
      }
    },
    "s5": {
      "port_1": {
        "queue_7": {
          "queueLength": {
            "min": 0,
            "max": 6,
            "mean": 0.6653665198696767,
            "median": 1,
            "variance": 0.4262663137237503,
            "std_deviation": 0.6528907364358528,
            "interval_size": 6,
            "jitter": 5.334633480130323
          },
          "queueingTime": {
            "min": 0.0,
            "max": 4.000022476,
            "mean": 0.12482640667037037,
            "median": 1.2476e-05,
            "variance": 0.13328829772315184,
            "std_deviation": 0.36508669891294565,
            "interval_size": 4.000022476,
            "jitter": 3.8751960693296295
          }
        }
      }
    },
    "s6": {
      "port_1": {
        "queue_7": {
          "queueLength": {
            "min": 0,
            "max": 6,
            "mean": 0.7016070694853558,
            "median": 1,
            "variance": 0.45594430327205127,
            "std_deviation": 0.6752364795181398,
            "interval_size": 6,
            "jitter": 5.298392930514645
          },
          "queueingTime": {
            "min": 0.0,
            "max": 4.000021476,
            "mean": 0.14299932574562205,
            "median": 1.2952e-05,
            "variance": 0.1500207772486479,
            "std_deviation": 0.38732515700461273,
            "interval_size": 4.000021476,
            "jitter": 3.8570221502543776
          }
        }
      }
    },
    "s52": {
      "port_1": {
        "queue_7": {
          "queueLength": {
            "min": 0,
            "max": 7,
            "mean": 0.8432520965118904,
            "median": 1,
            "variance": 0.6513990704219557,
            "std_deviation": 0.8070929750790522,
            "interval_size": 7,
            "jitter": 6.156747903488109
          },
          "queueingTime": {
            "min": 0.0,
            "max": 5.000021476,
            "mean": 0.23181265295012327,
            "median": 1.3476e-05,
            "variance": 0.26342591893397094,
            "std_deviation": 0.5132503472321971,
            "interval_size": 5.000021476,
            "jitter": 4.768208823049877
          }
        }
      }
    },
    "s55": {
      "port_1": {
        "queue_7": {
          "queueLength": {
            "min": 0,
            "max": 9,
            "mean": 0.8481019984142325,
            "median": 1,
            "variance": 0.6514375299525422,
            "std_deviation": 0.80711680068782,
            "interval_size": 9,
            "jitter": 8.151898001585767
          },
          "queueingTime": {
            "min": 0.0,
            "max": 6.000004956,
            "mean": 0.23681307120488929,
            "median": 1.3476e-05,
            "variance": 0.2656201289356657,
            "std_deviation": 0.5153834775540109,
            "interval_size": 6.000004956,
            "jitter": 5.76319188479511
          }
        }
      }
    },
    "s11": {
      "port_1": {
        "queue_7": {
          "queueLength": {
            "min": 0,
            "max": 6,
            "mean": 0.7597439799998843,
            "median": 1,
            "variance": 0.520130621151143,
            "std_deviation": 0.721200818878586,
            "interval_size": 6,
            "jitter": 5.240256020000116
          },
          "queueingTime": {
            "min": 0.0,
            "max": 4.000017476,
            "mean": 0.17862471028937835,
            "median": 1.3476e-05,
            "variance": 0.18858762098559329,
            "std_deviation": 0.43426676246932977,
            "interval_size": 4.000017476,
            "jitter": 3.8213927657106215
          }
        }
      }
    },
    "s7": {
      "port_1": {
        "queue_7": {
          "queueLength": {
            "min": 0,
            "max": 5,
            "mean": 0.7019791666666667,
            "median": 1.0,
            "variance": 0.45833901310192765,
            "std_deviation": 0.6770073951604426,
            "interval_size": 5,
            "jitter": 4.298020833333333
          },
          "queueingTime": {
            "min": 0.0,
            "max": 4.000012476,
            "mean": 0.14385580443509763,
            "median": 1.2476e-05,
            "variance": 0.15090940665840707,
            "std_deviation": 0.3884705994774985,
            "interval_size": 4.000012476,
            "jitter": 3.8561566715649027
          }
        }
      }
    },
    "s10": {
      "port_1": {
        "queue_7": {
          "queueLength": {
            "min": 0,
            "max": 6,
            "mean": 0.7585171210481542,
            "median": 1,
            "variance": 0.5222711051464565,
            "std_deviation": 0.7226832675152072,
            "interval_size": 6,
            "jitter": 5.241482878951846
          },
          "queueingTime": {
            "min": 0.0,
            "max": 5.000009476,
            "mean": 0.17865941922869477,
            "median": 1.3476e-05,
            "variance": 0.1938184308068031,
            "std_deviation": 0.4402481468522078,
            "interval_size": 5.000009476,
            "jitter": 4.821350056771305
          }
        }
      }
    },
    "s8": {
      "port_1": {
        "queue_7": {
          "queueLength": {
            "min": 0,
            "max": 5,
            "mean": 0.7382276517803923,
            "median": 1,
            "variance": 0.49321745390938704,
            "std_deviation": 0.7022944211008564,
            "interval_size": 5,
            "jitter": 4.2617723482196075
          },
          "queueingTime": {
            "min": 0.0,
            "max": 4.000025476,
            "mean": 0.16686533184041483,
            "median": 1.3476e-05,
            "variance": 0.17461742043014045,
            "std_deviation": 0.417872493028843,
            "interval_size": 4.000025476,
            "jitter": 3.8331601441595855
          }
        }
      }
    },
    "s54": {
      "port_1": {
        "queue_7": {
          "queueLength": {
            "min": 0,
            "max": 7,
            "mean": 0.839108266246882,
            "median": 1,
            "variance": 0.6284143958518823,
            "std_deviation": 0.7927259273241177,
            "interval_size": 7,
            "jitter": 6.160891733753118
          },
          "queueingTime": {
            "min": 0.0,
            "max": 5.000006476,
            "mean": 0.22932402187334622,
            "median": 1.3476e-05,
            "variance": 0.24724546708679201,
            "std_deviation": 0.4972378375453662,
            "interval_size": 5.000006476,
            "jitter": 4.770682454126654
          }
        }
      }
    },
    "s13": {
      "port_1": {
        "queue_7": {
          "queueLength": {
            "min": 0,
            "max": 6,
            "mean": 0.7797788181644569,
            "median": 1,
            "variance": 0.5431990135674617,
            "std_deviation": 0.7370203617047915,
            "interval_size": 6,
            "jitter": 5.220221181835543
          },
          "queueingTime": {
            "min": 0.0,
            "max": 5.000003476,
            "mean": 0.19222438261706734,
            "median": 1.3476e-05,
            "variance": 0.20374164838593342,
            "std_deviation": 0.4513775009744431,
            "interval_size": 5.000003476,
            "jitter": 4.8077790933829325
          }
        }
      }
    },
    "s57": {
      "port_1": {
        "queue_7": {
          "queueLength": {
            "min": 0,
            "max": 8,
            "mean": 0.8389047723773917,
            "median": 1.0,
            "variance": 0.6370976319653019,
            "std_deviation": 0.7981839587246174,
            "interval_size": 8,
            "jitter": 7.161095227622608
          },
          "queueingTime": {
            "min": 0.0,
            "max": 5.000002956,
            "mean": 0.228539541500926,
            "median": 1.3476e-05,
            "variance": 0.2519372682454267,
            "std_deviation": 0.5019335297082939,
            "interval_size": 5.000002956,
            "jitter": 4.771463414499074
          }
        }
      }
    },
    "s1": {
      "port_1": {
        "queue_7": {
          "queueLength": {
            "min": 0,
            "max": 5,
            "mean": 0.5585963044195346,
            "median": 1,
            "variance": 0.31151002962731483,
            "std_deviation": 0.5581308355818686,
            "interval_size": 5,
            "jitter": 4.441403695580465
          },
          "queueingTime": {
            "min": 0.0,
            "max": 4.000022476,
            "mean": 0.061435060178194445,
            "median": 1.1476e-05,
            "variance": 0.06452647219565673,
            "std_deviation": 0.2540206137219118,
            "interval_size": 4.000022476,
            "jitter": 3.9385874158218055
          }
        }
      },
      "port_2": {
        "queue_7": {
          "queueLength": {
            "min": 0,
            "max": 5,
            "mean": 0.5589782466536652,
            "median": 1,
            "variance": 0.3126109560140577,
            "std_deviation": 0.559116227643285,
            "interval_size": 5,
            "jitter": 4.441021753346335
          },
          "queueingTime": {
            "min": 0.0,
            "max": 4.000003476,
            "mean": 0.06168970706689815,
            "median": 1.1476e-05,
            "variance": 0.06546737942771284,
            "std_deviation": 0.2558659403432056,
            "interval_size": 4.000003476,
            "jitter": 3.9383137689331016
          }
        }
      }
    },
    "s12": {
      "port_1": {
        "queue_7": {
          "queueLength": {
            "min": 0,
            "max": 6,
            "mean": 0.7708088588475628,
            "median": 1,
            "variance": 0.5312973185210412,
            "std_deviation": 0.7289014463705236,
            "interval_size": 6,
            "jitter": 5.229191141152437
          },
          "queueingTime": {
            "min": 0.0,
            "max": 4.000021476,
            "mean": 0.18467796197173578,
            "median": 1.3476e-05,
            "variance": 0.19471047867372757,
            "std_deviation": 0.4412601031973405,
            "interval_size": 4.000021476,
            "jitter": 3.815343514028264
          }
        }
      }
    },
    "s56": {
      "port_1": {
        "queue_7": {
          "queueLength": {
            "min": 0,
            "max": 9,
            "mean": 0.8453355865892689,
            "median": 1,
            "variance": 0.6590392058153531,
            "std_deviation": 0.8118122971570172,
            "interval_size": 9,
            "jitter": 8.154664413410732
          },
          "queueingTime": {
            "min": 0.0,
            "max": 6.000021476,
            "mean": 0.23279654141483686,
            "median": 1.3476e-05,
            "variance": 0.26596676241624506,
            "std_deviation": 0.5157196548671041,
            "interval_size": 6.000021476,
            "jitter": 5.767224934585163
          }
        }
      }
    },
    "s2": {
      "port_1": {
        "queue_7": {
          "queueLength": {
            "min": 0,
            "max": 5,
            "mean": 0.6155324074074074,
            "median": 1.0,
            "variance": 0.37068218576796463,
            "std_deviation": 0.6088367480433196,
            "interval_size": 5,
            "jitter": 4.384467592592593
          },
          "queueingTime": {
            "min": 0.0,
            "max": 4.000003476,
            "mean": 0.0950589701482656,
            "median": 1.2476e-05,
            "variance": 0.10034325587649442,
            "std_deviation": 0.31677003626683886,
            "interval_size": 4.000003476,
            "jitter": 3.9049445058517342
          }
        }
      }
    },
    "s59": {
      "port_1": {
        "queue_7": {
          "queueLength": {
            "min": 0,
            "max": 7,
            "mean": 0.845536360216454,
            "median": 1,
            "variance": 0.6564874057656781,
            "std_deviation": 0.8102391040709391,
            "interval_size": 7,
            "jitter": 6.154463639783546
          },
          "queueingTime": {
            "min": 0.0,
            "max": 6.000009956,
            "mean": 0.23408412141466803,
            "median": 1.3476e-05,
            "variance": 0.26753393732994835,
            "std_deviation": 0.5172368290541078,
            "interval_size": 6.000009956,
            "jitter": 5.765925834585333
          }
        }
      }
    },
    "s15": {
      "port_1": {
        "queue_7": {
          "queueLength": {
            "min": 0,
            "max": 8,
            "mean": 0.7865381165400263,
            "median": 1,
            "variance": 0.5507601069844292,
            "std_deviation": 0.742132135798221,
            "interval_size": 8,
            "jitter": 7.213461883459974
          },
          "queueingTime": {
            "min": 0.0,
            "max": 5.000014476,
            "mean": 0.19511788699781246,
            "median": 1.3476e-05,
            "variance": 0.206046869132349,
            "std_deviation": 0.4539238582982271,
            "interval_size": 5.000014476,
            "jitter": 4.804896589002187
          }
        }
      }
    },
    "s3": {
      "port_1": {
        "queue_7": {
          "queueLength": {
            "min": 0,
            "max": 5,
            "mean": 0.6146144987586878,
            "median": 1,
            "variance": 0.3716681281529792,
            "std_deviation": 0.6096459039089652,
            "interval_size": 5,
            "jitter": 4.385385501241312
          },
          "queueingTime": {
            "min": 0.0,
            "max": 4.000000476,
            "mean": 0.09457173869694445,
            "median": 1.2476e-05,
            "variance": 0.10147608018138522,
            "std_deviation": 0.31855310417791444,
            "interval_size": 4.000000476,
            "jitter": 3.905428737303056
          }
        }
      }
    },
    "s14": {
      "port_1": {
        "queue_7": {
          "queueLength": {
            "min": 0,
            "max": 7,
            "mean": 0.7917117575911897,
            "median": 1,
            "variance": 0.559354214627612,
            "std_deviation": 0.7478998693860108,
            "interval_size": 7,
            "jitter": 6.20828824240881
          },
          "queueingTime": {
            "min": 0.0,
            "max": 5.000019476,
            "mean": 0.20041890573789048,
            "median": 1.3476e-05,
            "variance": 0.2166357544023505,
            "std_deviation": 0.46544146184278695,
            "interval_size": 5.000019476,
            "jitter": 4.799600570262109
          }
        }
      }
    },
    "s58": {
      "port_1": {
        "queue_7": {
          "queueLength": {
            "min": 0,
            "max": 8,
            "mean": 0.8448957386840446,
            "median": 1,
            "variance": 0.653416398300397,
            "std_deviation": 0.8083417583549652,
            "interval_size": 8,
            "jitter": 7.155104261315955
          },
          "queueingTime": {
            "min": 0.0,
            "max": 6.000004956,
            "mean": 0.23444019196800667,
            "median": 1.3476e-05,
            "variance": 0.2642959751336637,
            "std_deviation": 0.5140972428769325,
            "interval_size": 6.000004956,
            "jitter": 5.765564764031993
          }
        }
      }
    },
    "s4": {
      "port_1": {
        "queue_7": {
          "queueLength": {
            "min": 0,
            "max": 5,
            "mean": 0.6623823054531566,
            "median": 1,
            "variance": 0.41789478871362606,
            "std_deviation": 0.6464478236591303,
            "interval_size": 5,
            "jitter": 4.337617694546843
          },
          "queueingTime": {
            "min": 0.0,
            "max": 3.000024476,
            "mean": 0.12104302960413894,
            "median": 1.2476e-05,
            "variance": 0.1278657968181603,
            "std_deviation": 0.35758327256481154,
            "interval_size": 3.000024476,
            "jitter": 2.878981446395861
          }
        }
      }
    },
    "s17": {
      "port_1": {
        "queue_7": {
          "queueLength": {
            "min": 0,
            "max": 5,
            "mean": 0.8006122720617597,
            "median": 1,
            "variance": 0.568005967786756,
            "std_deviation": 0.7536617064616963,
            "interval_size": 5,
            "jitter": 4.19938772793824
          },
          "queueingTime": {
            "min": 0.0,
            "max": 4.000021952,
            "mean": 0.20530325334478408,
            "median": 1.3476e-05,
            "variance": 0.22053392368125677,
            "std_deviation": 0.4696103956273293,
            "interval_size": 4.000021952,
            "jitter": 3.794718698655216
          }
        }
      }
    },
    "s16": {
      "port_1": {
        "queue_7": {
          "queueLength": {
            "min": 0,
            "max": 7,
            "mean": 0.8037951608516253,
            "median": 1,
            "variance": 0.5741262695952123,
            "std_deviation": 0.757711204612425,
            "interval_size": 7,
            "jitter": 6.196204839148375
          },
          "queueingTime": {
            "min": 0.0,
            "max": 5.000010956,
            "mean": 0.20693521449461222,
            "median": 1.3476e-05,
            "variance": 0.2217940912512138,
            "std_deviation": 0.47095020039406904,
            "interval_size": 5.000010956,
            "jitter": 4.793075741505388
          }
        }
      }
    },
    "s19": {
      "port_1": {
        "queue_7": {
          "queueLength": {
            "min": 0,
            "max": 7,
            "mean": 0.8030428416831116,
            "median": 1,
            "variance": 0.5777888637243661,
            "std_deviation": 0.7601242422948804,
            "interval_size": 7,
            "jitter": 6.196957158316889
          },
          "queueingTime": {
            "min": 0.0,
            "max": 5.000007956,
            "mean": 0.20702773466711422,
            "median": 1.3476e-05,
            "variance": 0.2227048326821512,
            "std_deviation": 0.4719161288641777,
            "interval_size": 5.000007956,
            "jitter": 4.792980221332886
          }
        }
      }
    },
    "s18": {
      "port_1": {
        "queue_7": {
          "queueLength": {
            "min": 0,
            "max": 7,
            "mean": 0.806156285626653,
            "median": 1,
            "variance": 0.5771768825064547,
            "std_deviation": 0.7597215822302633,
            "interval_size": 7,
            "jitter": 6.193843714373347
          },
          "queueingTime": {
            "min": 0.0,
            "max": 4.000018476,
            "mean": 0.20799997058178915,
            "median": 1.3476e-05,
            "variance": 0.22209306502970455,
            "std_deviation": 0.47126750899006875,
            "interval_size": 4.000018476,
            "jitter": 3.792018505418211
          }
        }
      }
    }
  }
}