{
  "switches": {
    "s60": {
      "num_ports": 2
    },
    "s62": {
      "num_ports": 3
    },
    "s61": {
      "num_ports": 2
    },
    "s20": {
      "num_ports": 2
    },
    "s22": {
      "num_ports": 2
    },
    "s21": {
      "num_ports": 2
    },
    "s24": {
      "num_ports": 2
    },
    "s23": {
      "num_ports": 2
    },
    "s26": {
      "num_ports": 2
    },
    "s25": {
      "num_ports": 2
    },
    "s28": {
      "num_ports": 2
    },
    "s27": {
      "num_ports": 2
    },
    "s29": {
      "num_ports": 2
    },
    "s31": {
      "num_ports": 2
    },
    "s30": {
      "num_ports": 2
    },
    "s33": {
      "num_ports": 2
    },
    "s32": {
      "num_ports": 2
    },
    "s35": {
      "num_ports": 2
    },
    "s34": {
      "num_ports": 2
    },
    "s37": {
      "num_ports": 2
    },
    "s36": {
      "num_ports": 2
    },
    "s39": {
      "num_ports": 2
    },
    "s38": {
      "num_ports": 2
    },
    "s40": {
      "num_ports": 2
    },
    "s42": {
      "num_ports": 2
    },
    "s41": {
      "num_ports": 2
    },
    "s44": {
      "num_ports": 2
    },
    "s43": {
      "num_ports": 2
    },
    "s46": {
      "num_ports": 2
    },
    "s45": {
      "num_ports": 2
    },
    "s48": {
      "num_ports": 2
    },
    "s47": {
      "num_ports": 2
    },
    "s49": {
      "num_ports": 2
    },
    "s9": {
      "num_ports": 2
    },
    "s51": {
      "num_ports": 2
    },
    "s50": {
      "num_ports": 2
    },
    "s53": {
      "num_ports": 2
    },
    "s5": {
      "num_ports": 2
    },
    "s52": {
      "num_ports": 2
    },
    "s6": {
      "num_ports": 2
    },
    "s7": {
      "num_ports": 2
    },
    "s55": {
      "num_ports": 2
    },
    "s11": {
      "num_ports": 2
    },
    "s8": {
      "num_ports": 2
    },
    "s54": {
      "num_ports": 2
    },
    "s10": {
      "num_ports": 2
    },
    "s1": {
      "num_ports": 3
    },
    "s13": {
      "num_ports": 2
    },
    "s57": {
      "num_ports": 2
    },
    "s12": {
      "num_ports": 2
    },
    "s2": {
      "num_ports": 2
    },
    "s56": {
      "num_ports": 2
    },
    "s15": {
      "num_ports": 2
    },
    "s3": {
      "num_ports": 2
    },
    "s59": {
      "num_ports": 2
    },
    "s58": {
      "num_ports": 2
    },
    "s4": {
      "num_ports": 2
    },
    "s14": {
      "num_ports": 2
    },
    "s17": {
      "num_ports": 2
    },
    "s16": {
      "num_ports": 2
    },
    "s19": {
      "num_ports": 2
    },
    "s18": {
      "num_ports": 2
    }
  },
  "hosts": {
    "h1": {
      "mac": "12:23:34:45:56:67"
    },
    "h2": {
      "mac": "aa:bb:cc:dd:ee:aa"
    }
  },
  "links": [
    {
      "A": {
        "node": "s18",
        "port": 0
      },
      "B": {
        "node": "s16",
        "port": 1
      }
    },
    {
      "A": {
        "node": "s32",
        "port": 1
      },
      "B": {
        "node": "s34",
        "port": 0
      }
    },
    {
      "A": {
        "node": "s15",
        "port": 0
      },
      "B": {
        "node": "s13",
        "port": 1
      }
    },
    {
      "A": {
        "node": "s49",
        "port": 1
      },
      "B": {
        "node": "s51",
        "port": 0
      }
    },
    {
      "A": {
        "node": "s59",
        "port": 1
      },
      "B": {
        "node": "s61",
        "port": 0
      }
    },
    {
      "A": {
        "node": "s53",
        "port": 1
      },
      "B": {
        "node": "s55",
        "port": 0
      }
    },
    {
      "A": {
        "node": "s5",
        "port": 0
      },
      "B": {
        "node": "s3",
        "port": 1
      }
    },
    {
      "A": {
        "node": "s15",
        "port": 1
      },
      "B": {
        "node": "s17",
        "port": 0
      }
    },
    {
      "A": {
        "node": "s59",
        "port": 0
      },
      "B": {
        "node": "s57",
        "port": 1
      }
    },
    {
      "A": {
        "node": "s58",
        "port": 1
      },
      "B": {
        "node": "s60",
        "port": 0
      }
    },
    {
      "A": {
        "node": "s9",
        "port": 0
      },
      "B": {
        "node": "s7",
        "port": 1
      }
    },
    {
      "A": {
        "node": "s53",
        "port": 0
      },
      "B": {
        "node": "s51",
        "port": 1
      }
    },
    {
      "A": {
        "node": "s44",
        "port": 0
      },
      "B": {
        "node": "s42",
        "port": 1
      }
    },
    {
      "A": {
        "node": "s2",
        "port": 0
      },
      "B": {
        "node": "s1",
        "port": 1
      }
    },
    {
      "A": {
        "node": "s58",
        "port": 0
      },
      "B": {
        "node": "s56",
        "port": 1
      }
    },
    {
      "A": {
        "node": "s18",
        "port": 1
      },
      "B": {
        "node": "s20",
        "port": 0
      }
    },
    {
      "A": {
        "node": "s32",
        "port": 0
      },
      "B": {
        "node": "s30",
        "port": 1
      }
    },
    {
      "A": {
        "node": "s44",
        "port": 1
      },
      "B": {
        "node": "s46",
        "port": 0
      }
    },
    {
      "A": {
        "node": "s2",
        "port": 1
      },
      "B": {
        "node": "s4",
        "port": 0
      }
    },
    {
      "A": {
        "node": "s11",
        "port": 0
      },
      "B": {
        "node": "s9",
        "port": 1
      }
    },
    {
      "A": {
        "node": "s25",
        "port": 1
      },
      "B": {
        "node": "s27",
        "port": 0
      }
    },
    {
      "A": {
        "node": "s56",
        "port": 0
      },
      "B": {
        "node": "s54",
        "port": 1
      }
    },
    {
      "A": {
        "node": "s43",
        "port": 1
      },
      "B": {
        "node": "s45",
        "port": 0
      }
    },
    {
      "A": {
        "node": "s11",
        "port": 1
      },
      "B": {
        "node": "s13",
        "port": 0
      }
    },
    {
      "A": {
        "node": "s50",
        "port": 1
      },
      "B": {
        "node": "s52",
        "port": 0
      }
    },
    {
      "A": {
        "node": "s34",
        "port": 1
      },
      "B": {
        "node": "s36",
        "port": 0
      }
    },
    {
      "A": {
        "node": "s43",
        "port": 0
      },
      "B": {
        "node": "s41",
        "port": 1
      }
    },
    {
      "A": {
        "node": "s50",
        "port": 0
      },
      "B": {
        "node": "s48",
        "port": 1
      }
    },
    {
      "A": {
        "node": "s46",
        "port": 1
      },
      "B": {
        "node": "s48",
        "port": 0
      }
    },
    {
      "A": {
        "node": "s49",
        "port": 0
      },
      "B": {
        "node": "s47",
        "port": 1
      }
    },
    {
      "A": {
        "node": "s25",
        "port": 0
      },
      "B": {
        "node": "s23",
        "port": 1
      }
    },
    {
      "A": {
        "node": "s36",
        "port": 1
      },
      "B": {
        "node": "s38",
        "port": 0
      }
    },
    {
      "A": {
        "node": "s55",
        "port": 1
      },
      "B": {
        "node": "s57",
        "port": 0
      }
    },
    {
      "A": {
        "node": "s12",
        "port": 0
      },
      "B": {
        "node": "s10",
        "port": 1
      }
    },
    {
      "A": {
        "node": "s7",
        "port": 0
      },
      "B": {
        "node": "s5",
        "port": 1
      }
    },
    {
      "A": {
        "node": "s29",
        "port": 0
      },
      "B": {
        "node": "s27",
        "port": 1
      }
    },
    {
      "A": {
        "node": "s39",
        "port": 0
      },
      "B": {
        "node": "s37",
        "port": 1
      }
    },
    {
      "A": {
        "node": "s47",
        "port": 0
      },
      "B": {
        "node": "s45",
        "port": 1
      }
    },
    {
      "A": {
        "node": "s60",
        "port": 1
      },
      "B": {
        "node": "s62",
        "port": 0
      }
    },
    {
      "A": {
        "node": "s29",
        "port": 1
      },
      "B": {
        "node": "s31",
        "port": 0
      }
    },
    {
      "A": {
        "node": "s42",
        "port": 0
      },
      "B": {
        "node": "s40",
        "port": 1
      }
    },
    {
      "A": {
        "node": "s39",
        "port": 1
      },
      "B": {
        "node": "s41",
        "port": 0
      }
    },
    {
      "A": {
        "node": "s17",
        "port": 1
      },
      "B": {
        "node": "s19",
        "port": 0
      }
    },
    {
      "A": {
        "node": "s54",
        "port": 0
      },
      "B": {
        "node": "s52",
        "port": 1
      }
    },
    {
      "A": {
        "node": "s21",
        "port": 0
      },
      "B": {
        "node": "s19",
        "port": 1
      }
    },
    {
      "A": {
        "node": "s16",
        "port": 0
      },
      "B": {
        "node": "s14",
        "port": 1
      }
    },
    {
      "A": {
        "node": "s1",
        "port": 0
      },
      "B": {
        "node": "h1"
      }
    },
    {
      "A": {
        "node": "s21",
        "port": 1
      },
      "B": {
        "node": "s23",
        "port": 0
      }
    },
    {
      "A": {
        "node": "s30",
        "port": 0
      },
      "B": {
        "node": "s28",
        "port": 1
      }
    },
    {
      "A": {
        "node": "s62",
        "port": 1
      },
      "B": {
        "node": "s61",
        "port": 1
      }
    },
    {
      "A": {
        "node": "s22",
        "port": 0
      },
      "B": {
        "node": "s20",
        "port": 1
      }
    },
    {
      "A": {
        "node": "s22",
        "port": 1
      },
      "B": {
        "node": "s24",
        "port": 0
      }
    },
    {
      "A": {
        "node": "s10",
        "port": 0
      },
      "B": {
        "node": "s8",
        "port": 1
      }
    },
    {
      "A": {
        "node": "s31",
        "port": 1
      },
      "B": {
        "node": "s33",
        "port": 0
      }
    },
    {
      "A": {
        "node": "s24",
        "port": 1
      },
      "B": {
        "node": "s26",
        "port": 0
      }
    },
    {
      "A": {
        "node": "s6",
        "port": 0
      },
      "B": {
        "node": "s4",
        "port": 1
      }
    },
    {
      "A": {
        "node": "s37",
        "port": 0
      },
      "B": {
        "node": "s35",
        "port": 1
      }
    },
    {
      "A": {
        "node": "s40",
        "port": 0
      },
      "B": {
        "node": "s38",
        "port": 1
      }
    },
    {
      "A": {
        "node": "s6",
        "port": 1
      },
      "B": {
        "node": "s8",
        "port": 0
      }
    },
    {
      "A": {
        "node": "h2"
      },
      "B": {
        "node": "s62",
        "port": 2
      }
    },
    {
      "A": {
        "node": "s12",
        "port": 1
      },
      "B": {
        "node": "s14",
        "port": 0
      }
    },
    {
      "A": {
        "node": "s3",
        "port": 0
      },
      "B": {
        "node": "s1",
        "port": 2
      }
    },
    {
      "A": {
        "node": "s26",
        "port": 1
      },
      "B": {
        "node": "s28",
        "port": 0
      }
    },
    {
      "A": {
        "node": "s35",
        "port": 0
      },
      "B": {
        "node": "s33",
        "port": 1
      }
    }
  ]
}