{
  "general": {
    "validation": {
      "valid": false,
      "errors": [
        "Host h2: No periodicity found in the streams received",
        "Stream 1---2---6000 (-> vid 1907): max latency (186.00066052400507) higher than allowed (0.01)",
        "Stream 1---2---6001 (-> vid 1908): max latency (206.00064956400092) higher than allowed (0.01)"
      ]
    }
  },
  "sim_parameters": {
    "**.displayAddresses": "false",
    "**.verbose": "false",
    "**.promiscuous": "true",
    "**.registerProtocol": "true",
    "**.*.clock.clockRate": "\"1us\"",
    "**.h1.eth.address": "\"12:23:34:45:56:67\"",
    "**.h2.eth.address": "\"aa:bb:cc:dd:ee:aa\"",
    "**.*.processingDelay[*].delay": "5us",
    "**.filteringDatabase.database": "xmldoc(\"xml/routing.xml\", \"/filteringDatabases/\")",
    "**.filteringDatabase.cycle": "xmldoc(\"xml/tas.xml\", \"/schedule/\")",
    "**.gateController.initialSchedule": "xmldoc(\"xml/tas.xml\")",
    "**.gateController.enableHoldAndRelease": "false",
    "**.*.eth[*].queuing.tsAlgorithms[*].typename": "\"StrictPriority\"",
    "**.s17.eth[1].queuing.queuingFrames.tciToQueueMapping": "xmldoc(\"xml/tci-maps/tci-map-s17-1.xml\")",
    "**.s62.eth[2].queuing.queuingFrames.tciToQueueMapping": "xmldoc(\"xml/tci-maps/tci-map-s62-2.xml\")",
    "**.s11.eth[1].queuing.queuingFrames.tciToQueueMapping": "xmldoc(\"xml/tci-maps/tci-map-s11-1.xml\")",
    "**.s53.eth[1].queuing.queuingFrames.tciToQueueMapping": "xmldoc(\"xml/tci-maps/tci-map-s53-1.xml\")",
    "**.s51.eth[1].queuing.queuingFrames.tciToQueueMapping": "xmldoc(\"xml/tci-maps/tci-map-s51-1.xml\")",
    "**.s45.eth[1].queuing.queuingFrames.tciToQueueMapping": "xmldoc(\"xml/tci-maps/tci-map-s45-1.xml\")",
    "**.s42.eth[1].queuing.queuingFrames.tciToQueueMapping": "xmldoc(\"xml/tci-maps/tci-map-s42-1.xml\")",
    "**.s5.eth[1].queuing.queuingFrames.tciToQueueMapping": "xmldoc(\"xml/tci-maps/tci-map-s5-1.xml\")",
    "**.s36.eth[1].queuing.queuingFrames.tciToQueueMapping": "xmldoc(\"xml/tci-maps/tci-map-s36-1.xml\")",
    "**.s15.eth[1].queuing.queuingFrames.tciToQueueMapping": "xmldoc(\"xml/tci-maps/tci-map-s15-1.xml\")",
    "**.s16.eth[1].queuing.queuingFrames.tciToQueueMapping": "xmldoc(\"xml/tci-maps/tci-map-s16-1.xml\")",
    "**.s43.eth[1].queuing.queuingFrames.tciToQueueMapping": "xmldoc(\"xml/tci-maps/tci-map-s43-1.xml\")",
    "**.s52.eth[1].queuing.queuingFrames.tciToQueueMapping": "xmldoc(\"xml/tci-maps/tci-map-s52-1.xml\")",
    "**.s49.eth[1].queuing.queuingFrames.tciToQueueMapping": "xmldoc(\"xml/tci-maps/tci-map-s49-1.xml\")",
    "**.s13.eth[1].queuing.queuingFrames.tciToQueueMapping": "xmldoc(\"xml/tci-maps/tci-map-s13-1.xml\")",
    "**.s9.eth[1].queuing.queuingFrames.tciToQueueMapping": "xmldoc(\"xml/tci-maps/tci-map-s9-1.xml\")",
    "**.s47.eth[1].queuing.queuingFrames.tciToQueueMapping": "xmldoc(\"xml/tci-maps/tci-map-s47-1.xml\")",
    "**.s48.eth[1].queuing.queuingFrames.tciToQueueMapping": "xmldoc(\"xml/tci-maps/tci-map-s48-1.xml\")",
    "**.s2.eth[1].queuing.queuingFrames.tciToQueueMapping": "xmldoc(\"xml/tci-maps/tci-map-s2-1.xml\")",
    "**.s57.eth[1].queuing.queuingFrames.tciToQueueMapping": "xmldoc(\"xml/tci-maps/tci-map-s57-1.xml\")",
    "**.s22.eth[1].queuing.queuingFrames.tciToQueueMapping": "xmldoc(\"xml/tci-maps/tci-map-s22-1.xml\")",
    "**.s38.eth[1].queuing.queuingFrames.tciToQueueMapping": "xmldoc(\"xml/tci-maps/tci-map-s38-1.xml\")",
    "**.s37.eth[1].queuing.queuingFrames.tciToQueueMapping": "xmldoc(\"xml/tci-maps/tci-map-s37-1.xml\")",
    "**.s39.eth[1].queuing.queuingFrames.tciToQueueMapping": "xmldoc(\"xml/tci-maps/tci-map-s39-1.xml\")",
    "**.s61.eth[1].queuing.queuingFrames.tciToQueueMapping": "xmldoc(\"xml/tci-maps/tci-map-s61-1.xml\")",
    "**.s60.eth[1].queuing.queuingFrames.tciToQueueMapping": "xmldoc(\"xml/tci-maps/tci-map-s60-1.xml\")",
    "**.s56.eth[1].queuing.queuingFrames.tciToQueueMapping": "xmldoc(\"xml/tci-maps/tci-map-s56-1.xml\")",
    "**.s23.eth[1].queuing.queuingFrames.tciToQueueMapping": "xmldoc(\"xml/tci-maps/tci-map-s23-1.xml\")",
    "**.s30.eth[1].queuing.queuingFrames.tciToQueueMapping": "xmldoc(\"xml/tci-maps/tci-map-s30-1.xml\")",
    "**.s34.eth[1].queuing.queuingFrames.tciToQueueMapping": "xmldoc(\"xml/tci-maps/tci-map-s34-1.xml\")",
    "**.s10.eth[1].queuing.queuingFrames.tciToQueueMapping": "xmldoc(\"xml/tci-maps/tci-map-s10-1.xml\")",
    "**.s54.eth[1].queuing.queuingFrames.tciToQueueMapping": "xmldoc(\"xml/tci-maps/tci-map-s54-1.xml\")",
    "**.s25.eth[1].queuing.queuingFrames.tciToQueueMapping": "xmldoc(\"xml/tci-maps/tci-map-s25-1.xml\")",
    "**.s24.eth[1].queuing.queuingFrames.tciToQueueMapping": "xmldoc(\"xml/tci-maps/tci-map-s24-1.xml\")",
    "**.s27.eth[1].queuing.queuingFrames.tciToQueueMapping": "xmldoc(\"xml/tci-maps/tci-map-s27-1.xml\")",
    "**.s21.eth[1].queuing.queuingFrames.tciToQueueMapping": "xmldoc(\"xml/tci-maps/tci-map-s21-1.xml\")",
    "**.s12.eth[1].queuing.queuingFrames.tciToQueueMapping": "xmldoc(\"xml/tci-maps/tci-map-s12-1.xml\")",
    "**.s46.eth[1].queuing.queuingFrames.tciToQueueMapping": "xmldoc(\"xml/tci-maps/tci-map-s46-1.xml\")",
    "**.s32.eth[1].queuing.queuingFrames.tciToQueueMapping": "xmldoc(\"xml/tci-maps/tci-map-s32-1.xml\")",
    "**.s14.eth[1].queuing.queuingFrames.tciToQueueMapping": "xmldoc(\"xml/tci-maps/tci-map-s14-1.xml\")",
    "**.s1.eth[1].queuing.queuingFrames.tciToQueueMapping": "xmldoc(\"xml/tci-maps/tci-map-s1-1.xml\")",
    "**.s41.eth[1].queuing.queuingFrames.tciToQueueMapping": "xmldoc(\"xml/tci-maps/tci-map-s41-1.xml\")",
    "**.s29.eth[1].queuing.queuingFrames.tciToQueueMapping": "xmldoc(\"xml/tci-maps/tci-map-s29-1.xml\")",
    "**.s55.eth[1].queuing.queuingFrames.tciToQueueMapping": "xmldoc(\"xml/tci-maps/tci-map-s55-1.xml\")",
    "**.s35.eth[1].queuing.queuingFrames.tciToQueueMapping": "xmldoc(\"xml/tci-maps/tci-map-s35-1.xml\")",
    "**.s18.eth[1].queuing.queuingFrames.tciToQueueMapping": "xmldoc(\"xml/tci-maps/tci-map-s18-1.xml\")",
    "**.s19.eth[1].queuing.queuingFrames.tciToQueueMapping": "xmldoc(\"xml/tci-maps/tci-map-s19-1.xml\")",
    "**.s59.eth[1].queuing.queuingFrames.tciToQueueMapping": "xmldoc(\"xml/tci-maps/tci-map-s59-1.xml\")",
    "**.s50.eth[1].queuing.queuingFrames.tciToQueueMapping": "xmldoc(\"xml/tci-maps/tci-map-s50-1.xml\")",
    "**.s7.eth[1].queuing.queuingFrames.tciToQueueMapping": "xmldoc(\"xml/tci-maps/tci-map-s7-1.xml\")",
    "**.s31.eth[1].queuing.queuingFrames.tciToQueueMapping": "xmldoc(\"xml/tci-maps/tci-map-s31-1.xml\")",
    "**.s3.eth[1].queuing.queuingFrames.tciToQueueMapping": "xmldoc(\"xml/tci-maps/tci-map-s3-1.xml\")",
    "**.s26.eth[1].queuing.queuingFrames.tciToQueueMapping": "xmldoc(\"xml/tci-maps/tci-map-s26-1.xml\")",
    "**.s28.eth[1].queuing.queuingFrames.tciToQueueMapping": "xmldoc(\"xml/tci-maps/tci-map-s28-1.xml\")",
    "**.s1.eth[2].queuing.queuingFrames.tciToQueueMapping": "xmldoc(\"xml/tci-maps/tci-map-s1-2.xml\")",
    "**.s20.eth[1].queuing.queuingFrames.tciToQueueMapping": "xmldoc(\"xml/tci-maps/tci-map-s20-1.xml\")",
    "**.s8.eth[1].queuing.queuingFrames.tciToQueueMapping": "xmldoc(\"xml/tci-maps/tci-map-s8-1.xml\")",
    "**.s6.eth[1].queuing.queuingFrames.tciToQueueMapping": "xmldoc(\"xml/tci-maps/tci-map-s6-1.xml\")",
    "**.s58.eth[1].queuing.queuingFrames.tciToQueueMapping": "xmldoc(\"xml/tci-maps/tci-map-s58-1.xml\")",
    "**.s33.eth[1].queuing.queuingFrames.tciToQueueMapping": "xmldoc(\"xml/tci-maps/tci-map-s33-1.xml\")",
    "**.s44.eth[1].queuing.queuingFrames.tciToQueueMapping": "xmldoc(\"xml/tci-maps/tci-map-s44-1.xml\")",
    "**.s40.eth[1].queuing.queuingFrames.tciToQueueMapping": "xmldoc(\"xml/tci-maps/tci-map-s40-1.xml\")",
    "**.s4.eth[1].queuing.queuingFrames.tciToQueueMapping": "xmldoc(\"xml/tci-maps/tci-map-s4-1.xml\")",
    "**.*.eth[*].queuing.queues[*].bufferCapacity": "365280b",
    "**.*.eth[*].queuing.queues[*].expressQueue": "true",
    "**.*.eth[*].mac.enablePreemptingFrames": "false",
    "**.*.trafGenSchedApp.jitter": "0.000014",
    "**.*.eth[*].queuing.gateController.jitter": "0.000014",
    "**.*.trafGenSchedApp.initialSchedule": "xmldoc(\"xml/traf-gen.xml\")"
  },
  "streams": {
    "1907": {
      "latency_stats": {
        "min": 3.0006415239999997,
        "max": 186.00066052400507,
        "mean": 149.59686517391228,
        "median": 150.00064352399932,
        "variance": 182.3351507926987,
        "std_deviation": 13.503153364777381,
        "interval_size": 183.00001900000507,
        "jitter": 146.59622364991228,
        "packages_received": 86224
      },
      "udp_dest_port": 6000,
      "name": "1---2---6000",
      "max_allowed_latency": 10000000,
      "talker": "h1",
      "listener": "h2"
    },
    "1908": {
      "latency_stats": {
        "min": 5.000641048,
        "max": 206.00064956400092,
        "mean": 154.32342672275746,
        "median": 153.0006583239974,
        "variance": 256.0549112474,
        "std_deviation": 16.00171588447314,
        "interval_size": 201.00000851600092,
        "jitter": 149.32278567475745,
        "packages_received": 86228
      },
      "udp_dest_port": 6001,
      "name": "1---2---6001",
      "max_allowed_latency": 10000000,
      "talker": "h1",
      "listener": "h2"
    }
  },
  "hosts": {
    "h2": {
      "received_periodically": {
        "is_periodic": false,
        "max-period-length": 250,
        "skipped": "first 0s"
      }
    }
  },
  "switches": {
    "s60": {
      "port_1": {
        "queue_7": {
          "queueLength": {
            "min": 0,
            "max": 36,
            "mean": 5.572012595028095,
            "median": 4,
            "variance": 29.07267095929581,
            "std_deviation": 5.391907914578643,
            "interval_size": 36,
            "jitter": 30.427987404971905
          },
          "queueingTime": {
            "min": 0.0,
            "max": 42.000008476,
            "mean": 4.975477333522314,
            "median": 3.000013476,
            "variance": 26.85741594162066,
            "std_deviation": 5.182414103641339,
            "interval_size": 42.000008476,
            "jitter": 37.024531142477684
          }
        }
      }
    },
    "s62": {
      "port_2": {
        "queue_7": {
          "queueLength": {
            "min": 0,
            "max": 4,
            "mean": 0.6218071010652177,
            "median": 1.0,
            "variance": 0.3648573957178008,
            "std_deviation": 0.604034267006269,
            "interval_size": 4,
            "jitter": 3.378192898934782
          },
          "queueingTime": {
            "min": 0.0,
            "max": 1.000009956,
            "mean": 0.014432246604179714,
            "median": 3.996e-06,
            "variance": 0.01421854430715728,
            "std_deviation": 0.11924153767524671,
            "interval_size": 1.000009956,
            "jitter": 0.9855777093958202
          }
        }
      }
    },
    "s61": {
      "port_1": {
        "queue_7": {
          "queueLength": {
            "min": 0,
            "max": 39,
            "mean": 6.267195092252206,
            "median": 4.0,
            "variance": 38.35407647499392,
            "std_deviation": 6.193066806921585,
            "interval_size": 39,
            "jitter": 32.73280490774779
          },
          "queueingTime": {
            "min": 0.0,
            "max": 40.000005956,
            "mean": 5.679325501960547,
            "median": 4.000002476,
            "variance": 36.06137659640538,
            "std_deviation": 6.005112538196547,
            "interval_size": 40.000005956,
            "jitter": 34.320680454039454
          }
        }
      }
    },
    "s20": {
      "port_1": {
        "queue_7": {
          "queueLength": {
            "min": 0,
            "max": 41,
            "mean": 5.789527316519605,
            "median": 4.0,
            "variance": 30.547959916684253,
            "std_deviation": 5.5270208898360655,
            "interval_size": 41,
            "jitter": 35.2104726834804
          },
          "queueingTime": {
            "min": 0.0,
            "max": 37.000008956,
            "mean": 5.209641135611511,
            "median": 4.000000476,
            "variance": 28.441784138725247,
            "std_deviation": 5.333083923840431,
            "interval_size": 37.000008956,
            "jitter": 31.79036782038849
          }
        }
      }
    },
    "s22": {
      "port_1": {
        "queue_7": {
          "queueLength": {
            "min": 0,
            "max": 44,
            "mean": 5.684011511757859,
            "median": 4,
            "variance": 31.308142960792132,
            "std_deviation": 5.595367991543731,
            "interval_size": 44,
            "jitter": 38.31598848824214
          },
          "queueingTime": {
            "min": 0.0,
            "max": 48.000002476,
            "mean": 5.099164424738687,
            "median": 3.999996956,
            "variance": 29.27742733822433,
            "std_deviation": 5.410861977377018,
            "interval_size": 48.000002476,
            "jitter": 42.90083805126131
          }
        }
      }
    },
    "s21": {
      "port_1": {
        "queue_7": {
          "queueLength": {
            "min": 0,
            "max": 38,
            "mean": 5.201282006740089,
            "median": 4.0,
            "variance": 23.942258615747278,
            "std_deviation": 4.893082731340977,
            "interval_size": 38,
            "jitter": 32.79871799325991
          },
          "queueingTime": {
            "min": 0.0,
            "max": 35.999998956,
            "mean": 4.6228610326087605,
            "median": 3.000009476,
            "variance": 22.084928089871607,
            "std_deviation": 4.699460404117861,
            "interval_size": 35.999998956,
            "jitter": 31.37713792339124
          }
        }
      }
    },
    "s24": {
      "port_1": {
        "queue_7": {
          "queueLength": {
            "min": 0,
            "max": 37,
            "mean": 5.593586758863523,
            "median": 4.0,
            "variance": 27.21620715442927,
            "std_deviation": 5.216915482776127,
            "interval_size": 37,
            "jitter": 31.406413241136477
          },
          "queueingTime": {
            "min": 0.0,
            "max": 35.999998956,
            "mean": 5.022824316664891,
            "median": 3.999997956,
            "variance": 25.587199920060176,
            "std_deviation": 5.058379179150193,
            "interval_size": 35.999998956,
            "jitter": 30.977174639335107
          }
        }
      }
    },
    "s23": {
      "port_1": {
        "queue_7": {
          "queueLength": {
            "min": 0,
            "max": 34,
            "mean": 5.211295908085383,
            "median": 4.0,
            "variance": 21.99363824741395,
            "std_deviation": 4.689737545685681,
            "interval_size": 34,
            "jitter": 28.788704091914617
          },
          "queueingTime": {
            "min": 0.0,
            "max": 35.000000956,
            "mean": 4.656101919065964,
            "median": 3.000011996,
            "variance": 20.965482282987924,
            "std_deviation": 4.5788079543684646,
            "interval_size": 35.000000956,
            "jitter": 30.343899036934037
          }
        }
      }
    },
    "s26": {
      "port_1": {
        "queue_7": {
          "queueLength": {
            "min": 0,
            "max": 34,
            "mean": 5.75755890734691,
            "median": 4.0,
            "variance": 29.532772169308412,
            "std_deviation": 5.434406330898382,
            "interval_size": 34,
            "jitter": 28.242441092653088
          },
          "queueingTime": {
            "min": 0.0,
            "max": 34.000011476,
            "mean": 5.177871536203367,
            "median": 3.999998956,
            "variance": 27.662114362092392,
            "std_deviation": 5.259478525680316,
            "interval_size": 34.000011476,
            "jitter": 28.82213993979663
          }
        }
      }
    },
    "s25": {
      "port_1": {
        "queue_7": {
          "queueLength": {
            "min": 0,
            "max": 36,
            "mean": 5.737544087242064,
            "median": 4,
            "variance": 30.903329064711677,
            "std_deviation": 5.559076278008036,
            "interval_size": 36,
            "jitter": 30.262455912757936
          },
          "queueingTime": {
            "min": 0.0,
            "max": 35.999997956,
            "mean": 5.162887404987247,
            "median": 3.000015996,
            "variance": 29.335280506881237,
            "std_deviation": 5.41620536047898,
            "interval_size": 35.999997956,
            "jitter": 30.837110551012756
          }
        }
      }
    },
    "s28": {
      "port_1": {
        "queue_7": {
          "queueLength": {
            "min": 0,
            "max": 37,
            "mean": 5.767511514063089,
            "median": 4,
            "variance": 33.04900532153166,
            "std_deviation": 5.748826429936084,
            "interval_size": 37,
            "jitter": 31.232488485936912
          },
          "queueingTime": {
            "min": 0.0,
            "max": 36.000007476,
            "mean": 5.1915552443837925,
            "median": 3.000016476,
            "variance": 31.097109853123367,
            "std_deviation": 5.57647826617511,
            "interval_size": 36.000007476,
            "jitter": 30.808452231616208
          }
        }
      }
    },
    "s27": {
      "port_1": {
        "queue_7": {
          "queueLength": {
            "min": 0,
            "max": 38,
            "mean": 6.021017942569876,
            "median": 4.0,
            "variance": 35.87410431936809,
            "std_deviation": 5.989499504914253,
            "interval_size": 38,
            "jitter": 31.978982057430123
          },
          "queueingTime": {
            "min": 0.0,
            "max": 36.000004956,
            "mean": 5.424712264201974,
            "median": 3.999997956,
            "variance": 33.3064794805758,
            "std_deviation": 5.771176611452452,
            "interval_size": 36.000004956,
            "jitter": 30.575292691798026
          }
        }
      }
    },
    "s29": {
      "port_1": {
        "queue_7": {
          "queueLength": {
            "min": 0,
            "max": 42,
            "mean": 5.497660032898548,
            "median": 4.0,
            "variance": 28.662388602749424,
            "std_deviation": 5.3537266088911775,
            "interval_size": 42,
            "jitter": 36.50233996710145
          },
          "queueingTime": {
            "min": 0.0,
            "max": 41.000005476,
            "mean": 4.91852182752351,
            "median": 3.000013476,
            "variance": 26.72677527193047,
            "std_deviation": 5.169794509642571,
            "interval_size": 41.000005476,
            "jitter": 36.081483648476485
          }
        }
      }
    },
    "s31": {
      "port_1": {
        "queue_7": {
          "queueLength": {
            "min": 0,
            "max": 44,
            "mean": 5.686198527580355,
            "median": 4,
            "variance": 28.710048686467015,
            "std_deviation": 5.358175873043644,
            "interval_size": 44,
            "jitter": 38.31380147241965
          },
          "queueingTime": {
            "min": 0.0,
            "max": 44.000006956,
            "mean": 5.102570269595004,
            "median": 3.999997956,
            "variance": 26.86163473379946,
            "std_deviation": 5.182821117287327,
            "interval_size": 44.000006956,
            "jitter": 38.897436686404994
          }
        }
      }
    },
    "s30": {
      "port_1": {
        "queue_7": {
          "queueLength": {
            "min": 0,
            "max": 38,
            "mean": 5.5749533641535445,
            "median": 4.0,
            "variance": 28.423686242488003,
            "std_deviation": 5.3313868967172136,
            "interval_size": 38,
            "jitter": 32.425046635846456
          },
          "queueingTime": {
            "min": 0.0,
            "max": 36.000002956,
            "mean": 4.991629298899034,
            "median": 3.000011996,
            "variance": 26.333385042205556,
            "std_deviation": 5.131606477722698,
            "interval_size": 36.000002956,
            "jitter": 31.008373657100968
          }
        }
      }
    },
    "s33": {
      "port_1": {
        "queue_7": {
          "queueLength": {
            "min": 0,
            "max": 40,
            "mean": 6.177325177255665,
            "median": 4.0,
            "variance": 34.10888960658196,
            "std_deviation": 5.840281637608067,
            "interval_size": 40,
            "jitter": 33.82267482274433
          },
          "queueingTime": {
            "min": 0.0,
            "max": 36.000015476,
            "mean": 5.595251764201173,
            "median": 4.000005476,
            "variance": 31.973484211137627,
            "std_deviation": 5.654510077021494,
            "interval_size": 36.000015476,
            "jitter": 30.40476371179883
          }
        }
      }
    },
    "s32": {
      "port_1": {
        "queue_7": {
          "queueLength": {
            "min": 0,
            "max": 38,
            "mean": 5.714084596800825,
            "median": 4,
            "variance": 29.212824519059115,
            "std_deviation": 5.404888946043121,
            "interval_size": 38,
            "jitter": 32.285915403199176
          },
          "queueingTime": {
            "min": 0.0,
            "max": 39.000003476,
            "mean": 5.143668141165052,
            "median": 3.999998956,
            "variance": 27.569806292696125,
            "std_deviation": 5.250695791292438,
            "interval_size": 39.000003476,
            "jitter": 33.85633533483495
          }
        }
      }
    },
    "s35": {
      "port_1": {
        "queue_7": {
          "queueLength": {
            "min": 0,
            "max": 38,
            "mean": 5.876931186894287,
            "median": 4,
            "variance": 30.728756983684786,
            "std_deviation": 5.543352504007371,
            "interval_size": 38,
            "jitter": 32.12306881310571
          },
          "queueingTime": {
            "min": 0.0,
            "max": 36.000007476,
            "mean": 5.283489636741218,
            "median": 4.000000476,
            "variance": 28.490987057028942,
            "std_deviation": 5.337694919815944,
            "interval_size": 36.000007476,
            "jitter": 30.71651783925878
          }
        }
      }
    },
    "s34": {
      "port_1": {
        "queue_7": {
          "queueLength": {
            "min": 0,
            "max": 40,
            "mean": 5.326351347436366,
            "median": 4,
            "variance": 24.665109491540417,
            "std_deviation": 4.966398039982339,
            "interval_size": 40,
            "jitter": 34.673648652563635
          },
          "queueingTime": {
            "min": 0.0,
            "max": 37.000007476,
            "mean": 4.768091663224718,
            "median": 3.000011476,
            "variance": 23.21328159145973,
            "std_deviation": 4.818016354420118,
            "interval_size": 37.000007476,
            "jitter": 32.231915812775284
          }
        }
      }
    },
    "s37": {
      "port_1": {
        "queue_7": {
          "queueLength": {
            "min": 0,
            "max": 38,
            "mean": 6.040990823987395,
            "median": 4.0,
            "variance": 34.194527663923495,
            "std_deviation": 5.8476087133052514,
            "interval_size": 38,
            "jitter": 31.959009176012607
          },
          "queueingTime": {
            "min": 0.0,
            "max": 36.000005956,
            "mean": 5.443912816079387,
            "median": 4.000001476,
            "variance": 31.92346224144285,
            "std_deviation": 5.650085153468295,
            "interval_size": 36.000005956,
            "jitter": 30.556093139920616
          }
        }
      }
    },
    "s36": {
      "port_1": {
        "queue_7": {
          "queueLength": {
            "min": 0,
            "max": 39,
            "mean": 5.537978791215159,
            "median": 4.0,
            "variance": 26.03846337987921,
            "std_deviation": 5.102789764420949,
            "interval_size": 39,
            "jitter": 33.46202120878484
          },
          "queueingTime": {
            "min": 0.0,
            "max": 40.000005476,
            "mean": 4.959592964329845,
            "median": 3.999995956,
            "variance": 24.42660025560883,
            "std_deviation": 4.942327412829792,
            "interval_size": 40.000005476,
            "jitter": 35.040412511670155
          }
        }
      }
    },
    "s39": {
      "port_1": {
        "queue_7": {
          "queueLength": {
            "min": 0,
            "max": 44,
            "mean": 6.039167410119455,
            "median": 4.0,
            "variance": 34.155941704120586,
            "std_deviation": 5.844308488103668,
            "interval_size": 44,
            "jitter": 37.960832589880546
          },
          "queueingTime": {
            "min": 0.0,
            "max": 41.000015476,
            "mean": 5.463114494782194,
            "median": 4.000002476,
            "variance": 32.16197064451116,
            "std_deviation": 5.671152497024847,
            "interval_size": 41.000015476,
            "jitter": 35.536900981217805
          }
        }
      }
    },
    "s38": {
      "port_1": {
        "queue_7": {
          "queueLength": {
            "min": 0,
            "max": 44,
            "mean": 5.4510002781770135,
            "median": 4.0,
            "variance": 27.730837302316342,
            "std_deviation": 5.266007719545836,
            "interval_size": 44,
            "jitter": 38.54899972182299
          },
          "queueingTime": {
            "min": 0.0,
            "max": 48.999994956,
            "mean": 4.880205369597765,
            "median": 3.000013476,
            "variance": 26.20894096331331,
            "std_deviation": 5.119466863191255,
            "interval_size": 48.999994956,
            "jitter": 44.119789586402234
          }
        }
      }
    },
    "s40": {
      "port_1": {
        "queue_7": {
          "queueLength": {
            "min": 0,
            "max": 44,
            "mean": 5.453485810998794,
            "median": 4.0,
            "variance": 29.473118547434694,
            "std_deviation": 5.428915043306047,
            "interval_size": 44,
            "jitter": 38.54651418900121
          },
          "queueingTime": {
            "min": 0.0,
            "max": 47.000005956,
            "mean": 4.88422726748439,
            "median": 3.000011476,
            "variance": 27.698330340552726,
            "std_deviation": 5.26292032435916,
            "interval_size": 47.000005956,
            "jitter": 42.11577868851561
          }
        }
      }
    },
    "s42": {
      "port_1": {
        "queue_7": {
          "queueLength": {
            "min": 0,
            "max": 39,
            "mean": 5.468110758814971,
            "median": 4,
            "variance": 26.737153869970786,
            "std_deviation": 5.170798184997244,
            "interval_size": 39,
            "jitter": 33.53188924118503
          },
          "queueingTime": {
            "min": 0.0,
            "max": 37.000000476,
            "mean": 4.881317404444151,
            "median": 3.000012996,
            "variance": 24.526985432289255,
            "std_deviation": 4.9524726584090555,
            "interval_size": 37.000000476,
            "jitter": 32.11868307155584
          }
        }
      }
    },
    "s41": {
      "port_1": {
        "queue_7": {
          "queueLength": {
            "min": 0,
            "max": 44,
            "mean": 5.813197763680079,
            "median": 4,
            "variance": 33.772403510314575,
            "std_deviation": 5.811402886594129,
            "interval_size": 44,
            "jitter": 38.18680223631992
          },
          "queueingTime": {
            "min": 0.0,
            "max": 48.000001956,
            "mean": 5.221993065686528,
            "median": 3.000017476,
            "variance": 31.294346760337024,
            "std_deviation": 5.594135032365328,
            "interval_size": 48.000001956,
            "jitter": 42.77800889031347
          }
        }
      }
    },
    "s44": {
      "port_1": {
        "queue_7": {
          "queueLength": {
            "min": 0,
            "max": 40,
            "mean": 5.693929838391801,
            "median": 4.0,
            "variance": 30.38896839884511,
            "std_deviation": 5.512619014483507,
            "interval_size": 40,
            "jitter": 34.3060701616082
          },
          "queueingTime": {
            "min": 0.0,
            "max": 37.000001956,
            "mean": 5.110816170094324,
            "median": 3.000014996,
            "variance": 28.30334168608525,
            "std_deviation": 5.320088503595147,
            "interval_size": 37.000001956,
            "jitter": 31.889185785905674
          }
        }
      }
    },
    "s43": {
      "port_1": {
        "queue_7": {
          "queueLength": {
            "min": 0,
            "max": 36,
            "mean": 5.8777365706669755,
            "median": 4.0,
            "variance": 29.285314070919473,
            "std_deviation": 5.411590715392238,
            "interval_size": 36,
            "jitter": 30.122263429333024
          },
          "queueingTime": {
            "min": 0.0,
            "max": 32.999997956,
            "mean": 5.297719500080491,
            "median": 4.000003956,
            "variance": 27.537120687599568,
            "std_deviation": 5.247582365966214,
            "interval_size": 32.999997956,
            "jitter": 27.70227845591951
          }
        }
      }
    },
    "s46": {
      "port_1": {
        "queue_7": {
          "queueLength": {
            "min": 0,
            "max": 33,
            "mean": 5.707454640310707,
            "median": 4.0,
            "variance": 29.24894998714595,
            "std_deviation": 5.408229838602086,
            "interval_size": 33,
            "jitter": 27.292545359689292
          },
          "queueingTime": {
            "min": 0.0,
            "max": 33.000005476,
            "mean": 5.1269933757659905,
            "median": 3.999997956,
            "variance": 27.41884188230051,
            "std_deviation": 5.236300400311322,
            "interval_size": 33.000005476,
            "jitter": 27.873012100234007
          }
        }
      }
    },
    "s45": {
      "port_1": {
        "queue_7": {
          "queueLength": {
            "min": 0,
            "max": 42,
            "mean": 6.384498577133286,
            "median": 4,
            "variance": 36.30725393765084,
            "std_deviation": 6.02555009419479,
            "interval_size": 42,
            "jitter": 35.615501422866714
          },
          "queueingTime": {
            "min": 0.0,
            "max": 47.000008476,
            "mean": 5.794365844233693,
            "median": 4.000005476,
            "variance": 34.49551148316177,
            "std_deviation": 5.8732879618797655,
            "interval_size": 47.000008476,
            "jitter": 41.2056426317663
          }
        }
      }
    },
    "s48": {
      "port_1": {
        "queue_7": {
          "queueLength": {
            "min": 0,
            "max": 37,
            "mean": 5.396018712284139,
            "median": 4,
            "variance": 27.12204552683151,
            "std_deviation": 5.207883017775218,
            "interval_size": 37,
            "jitter": 31.60398128771586
          },
          "queueingTime": {
            "min": 0.0,
            "max": 32.000010476,
            "mean": 4.81777511221314,
            "median": 3.000010476,
            "variance": 25.22167065994517,
            "std_deviation": 5.0221181447617464,
            "interval_size": 32.000010476,
            "jitter": 27.18223536378686
          }
        }
      }
    },
    "s47": {
      "port_1": {
        "queue_7": {
          "queueLength": {
            "min": 0,
            "max": 44,
            "mean": 5.851515450113898,
            "median": 4,
            "variance": 34.962875872558676,
            "std_deviation": 5.912941389237566,
            "interval_size": 44,
            "jitter": 38.1484845498861
          },
          "queueingTime": {
            "min": 0.0,
            "max": 40.000005476,
            "mean": 5.265463548932955,
            "median": 3.000014476,
            "variance": 32.9116642162477,
            "std_deviation": 5.736868851233023,
            "interval_size": 40.000005476,
            "jitter": 34.73454192706704
          }
        }
      }
    },
    "s49": {
      "port_1": {
        "queue_7": {
          "queueLength": {
            "min": 0,
            "max": 44,
            "mean": 5.8224027084529,
            "median": 4,
            "variance": 36.08690234540775,
            "std_deviation": 6.007237497003739,
            "interval_size": 44,
            "jitter": 38.1775972915471
          },
          "queueingTime": {
            "min": 0.0,
            "max": 43.000008476,
            "mean": 5.246652512458112,
            "median": 3.000015476,
            "variance": 34.27938829819333,
            "std_deviation": 5.854860228749558,
            "interval_size": 43.000008476,
            "jitter": 37.753355963541885
          }
        }
      }
    },
    "s9": {
      "port_1": {
        "queue_7": {
          "queueLength": {
            "min": 0,
            "max": 44,
            "mean": 5.203018007327958,
            "median": 4,
            "variance": 24.748667799695415,
            "std_deviation": 4.974803292562974,
            "interval_size": 44,
            "jitter": 38.796981992672045
          },
          "queueingTime": {
            "min": 0.0,
            "max": 44.000007476,
            "mean": 4.656304224823246,
            "median": 3.000010996,
            "variance": 23.60035044620566,
            "std_deviation": 4.858019189567458,
            "interval_size": 44.000007476,
            "jitter": 39.343703251176755
          }
        }
      }
    },
    "s51": {
      "port_1": {
        "queue_7": {
          "queueLength": {
            "min": 0,
            "max": 44,
            "mean": 5.411926020408163,
            "median": 4.0,
            "variance": 27.743238702543618,
            "std_deviation": 5.267185083376472,
            "interval_size": 44,
            "jitter": 38.58807397959184
          },
          "queueingTime": {
            "min": 0.0,
            "max": 41.000013476,
            "mean": 4.83005817209105,
            "median": 3.000012476,
            "variance": 25.71799913342111,
            "std_deviation": 5.071291663217677,
            "interval_size": 41.000013476,
            "jitter": 36.16995530390895
          }
        }
      }
    },
    "s50": {
      "port_1": {
        "queue_7": {
          "queueLength": {
            "min": 0,
            "max": 39,
            "mean": 6.0720298694371655,
            "median": 4.0,
            "variance": 33.20199150584181,
            "std_deviation": 5.76211692920595,
            "interval_size": 39,
            "jitter": 32.927970130562834
          },
          "queueingTime": {
            "min": 0.0,
            "max": 41.000001956,
            "mean": 5.507637250913696,
            "median": 4.000002476,
            "variance": 32.09136549706965,
            "std_deviation": 5.664924138686206,
            "interval_size": 41.000001956,
            "jitter": 35.4923647050863
          }
        }
      }
    },
    "s53": {
      "port_1": {
        "queue_7": {
          "queueLength": {
            "min": 0,
            "max": 42,
            "mean": 5.801492372896096,
            "median": 4,
            "variance": 32.29046067779411,
            "std_deviation": 5.682469593213334,
            "interval_size": 42,
            "jitter": 36.19850762710391
          },
          "queueingTime": {
            "min": 0.0,
            "max": 39.000003476,
            "mean": 5.211270678338644,
            "median": 3.000015476,
            "variance": 29.894868933589102,
            "std_deviation": 5.467620042906155,
            "interval_size": 39.000003476,
            "jitter": 33.78873279766136
          }
        }
      }
    },
    "s5": {
      "port_1": {
        "queue_7": {
          "queueLength": {
            "min": 0,
            "max": 28,
            "mean": 4.706806646333347,
            "median": 4,
            "variance": 16.99168233944444,
            "std_deviation": 4.12209683770826,
            "interval_size": 28,
            "jitter": 23.293193353666652
          },
          "queueingTime": {
            "min": 0.0,
            "max": 28.000014476,
            "mean": 4.1816847348707356,
            "median": 3.000007476,
            "variance": 16.259242169624883,
            "std_deviation": 4.032275061255728,
            "interval_size": 28.000014476,
            "jitter": 23.818329741129265
          }
        }
      }
    },
    "s52": {
      "port_1": {
        "queue_7": {
          "queueLength": {
            "min": 0,
            "max": 43,
            "mean": 5.567148514736665,
            "median": 4,
            "variance": 24.98836621028118,
            "std_deviation": 4.998836485651554,
            "interval_size": 43,
            "jitter": 37.432851485263335
          },
          "queueingTime": {
            "min": 0.0,
            "max": 40.000004476,
            "mean": 4.9822052440877185,
            "median": 4.000000956,
            "variance": 23.107417764343694,
            "std_deviation": 4.807017553987472,
            "interval_size": 40.000004476,
            "jitter": 35.017799231912285
          }
        }
      }
    },
    "s6": {
      "port_1": {
        "queue_7": {
          "queueLength": {
            "min": 0,
            "max": 39,
            "mean": 4.802948565077968,
            "median": 4.0,
            "variance": 20.085787753028455,
            "std_deviation": 4.4817170541019715,
            "interval_size": 39,
            "jitter": 34.19705143492203
          },
          "queueingTime": {
            "min": 0.0,
            "max": 34.000013476,
            "mean": 4.257798369101422,
            "median": 3.000006476,
            "variance": 18.822426932840457,
            "std_deviation": 4.338482100094509,
            "interval_size": 34.000013476,
            "jitter": 29.742215106898577
          }
        }
      }
    },
    "s55": {
      "port_1": {
        "queue_7": {
          "queueLength": {
            "min": 0,
            "max": 43,
            "mean": 5.863749949268598,
            "median": 4,
            "variance": 33.28375034096229,
            "std_deviation": 5.7692070807834845,
            "interval_size": 43,
            "jitter": 37.136250050731405
          },
          "queueingTime": {
            "min": 0.0,
            "max": 38.000007956,
            "mean": 5.267811854047218,
            "median": 3.999996956,
            "variance": 30.77259044622015,
            "std_deviation": 5.547304791177437,
            "interval_size": 38.000007956,
            "jitter": 32.73219610195278
          }
        }
      }
    },
    "s11": {
      "port_1": {
        "queue_7": {
          "queueLength": {
            "min": 0,
            "max": 37,
            "mean": 5.41611045182205,
            "median": 4,
            "variance": 26.668726928938657,
            "std_deviation": 5.164177275127051,
            "interval_size": 37,
            "jitter": 31.58388954817795
          },
          "queueingTime": {
            "min": 0.0,
            "max": 35.000008476,
            "mean": 4.855073410357001,
            "median": 3.000012476,
            "variance": 25.10129043005701,
            "std_deviation": 5.010118803986289,
            "interval_size": 35.000008476,
            "jitter": 30.144935065642997
          }
        }
      }
    },
    "s7": {
      "port_1": {
        "queue_7": {
          "queueLength": {
            "min": 0,
            "max": 44,
            "mean": 5.247875813210474,
            "median": 4.0,
            "variance": 24.850654741961606,
            "std_deviation": 4.985043103320332,
            "interval_size": 44,
            "jitter": 38.75212418678953
          },
          "queueingTime": {
            "min": 0.0,
            "max": 43.000001476,
            "mean": 4.70944823594911,
            "median": 3.000010476,
            "variance": 23.980390720885083,
            "std_deviation": 4.896977712925094,
            "interval_size": 43.000001476,
            "jitter": 38.29055324005089
          }
        }
      }
    },
    "s10": {
      "port_1": {
        "queue_7": {
          "queueLength": {
            "min": 0,
            "max": 31,
            "mean": 5.401346524565679,
            "median": 4,
            "variance": 23.585608699770674,
            "std_deviation": 4.856501693582601,
            "interval_size": 31,
            "jitter": 25.598653475434322
          },
          "queueingTime": {
            "min": 0.0,
            "max": 28.000003956,
            "mean": 4.837693167146278,
            "median": 3.000015996,
            "variance": 21.95601886747861,
            "std_deviation": 4.68572500980143,
            "interval_size": 28.000003956,
            "jitter": 23.162310788853723
          }
        }
      }
    },
    "s8": {
      "port_1": {
        "queue_7": {
          "queueLength": {
            "min": 0,
            "max": 43,
            "mean": 4.95709232790909,
            "median": 4,
            "variance": 21.22641840626172,
            "std_deviation": 4.6072137356825245,
            "interval_size": 43,
            "jitter": 38.04290767209091
          },
          "queueingTime": {
            "min": 0.0,
            "max": 41.000006956,
            "mean": 4.404753504605025,
            "median": 3.000008476,
            "variance": 20.09418523059131,
            "std_deviation": 4.482653815608709,
            "interval_size": 41.000006956,
            "jitter": 36.595253451394974
          }
        }
      }
    },
    "s54": {
      "port_1": {
        "queue_7": {
          "queueLength": {
            "min": 0,
            "max": 35,
            "mean": 5.481923449359566,
            "median": 4,
            "variance": 26.190240614364942,
            "std_deviation": 5.1176401411553885,
            "interval_size": 35,
            "jitter": 29.518076550640433
          },
          "queueingTime": {
            "min": 0.0,
            "max": 36.000011476,
            "mean": 4.920069084559248,
            "median": 3.000015476,
            "variance": 24.79643564736019,
            "std_deviation": 4.97960195671905,
            "interval_size": 36.000011476,
            "jitter": 31.07994239144075
          }
        }
      }
    },
    "s13": {
      "port_1": {
        "queue_7": {
          "queueLength": {
            "min": 0,
            "max": 37,
            "mean": 5.429543257122676,
            "median": 4,
            "variance": 25.36180293574388,
            "std_deviation": 5.036050330938312,
            "interval_size": 37,
            "jitter": 31.570456742877326
          },
          "queueingTime": {
            "min": 0.0,
            "max": 33.000004956,
            "mean": 4.879091211077978,
            "median": 3.000014996,
            "variance": 23.978753838508055,
            "std_deviation": 4.896810578173109,
            "interval_size": 33.000004956,
            "jitter": 28.12091374492202
          }
        }
      }
    },
    "s1": {
      "port_1": {
        "queue_7": {
          "queueLength": {
            "min": 0,
            "max": 24,
            "mean": 2.8896778823338773,
            "median": 2.0,
            "variance": 8.607836714860733,
            "std_deviation": 2.933911504265378,
            "interval_size": 24,
            "jitter": 21.110322117666122
          },
          "queueingTime": {
            "min": 0.0,
            "max": 23.999994476,
            "mean": 2.4920483004287384,
            "median": 1.999998476,
            "variance": 8.468570411932228,
            "std_deviation": 2.910080825670007,
            "interval_size": 23.999994476,
            "jitter": 21.507946175571263
          }
        }
      },
      "port_2": {
        "queue_7": {
          "queueLength": {
            "min": 0,
            "max": 26,
            "mean": 3.1024722508362363,
            "median": 2.0,
            "variance": 10.859103594706175,
            "std_deviation": 3.2953154014003236,
            "interval_size": 26,
            "jitter": 22.897527749163764
          },
          "queueingTime": {
            "min": 0.0,
            "max": 25.000009476,
            "mean": 2.705042172809843,
            "median": 2.000000476,
            "variance": 10.730879858491491,
            "std_deviation": 3.275802170231208,
            "interval_size": 25.000009476,
            "jitter": 22.294967303190155
          }
        }
      }
    },
    "s57": {
      "port_1": {
        "queue_7": {
          "queueLength": {
            "min": 0,
            "max": 41,
            "mean": 5.362440933468618,
            "median": 4,
            "variance": 26.31175187197496,
            "std_deviation": 5.129498208594575,
            "interval_size": 41,
            "jitter": 35.63755906653138
          },
          "queueingTime": {
            "min": 0.0,
            "max": 38.000008476,
            "mean": 4.797341681246486,
            "median": 3.000010476,
            "variance": 24.727348271082334,
            "std_deviation": 4.9726600799855945,
            "interval_size": 38.000008476,
            "jitter": 33.20266679475351
          }
        }
      }
    },
    "s12": {
      "port_1": {
        "queue_7": {
          "queueLength": {
            "min": 0,
            "max": 38,
            "mean": 5.3276792330492775,
            "median": 4.0,
            "variance": 27.20014299389785,
            "std_deviation": 5.21537563305826,
            "interval_size": 38,
            "jitter": 32.67232076695072
          },
          "queueingTime": {
            "min": 0.0,
            "max": 34.000000476,
            "mean": 4.751943025601343,
            "median": 3.000009476,
            "variance": 25.203595694684033,
            "std_deviation": 5.020318286193021,
            "interval_size": 34.000000476,
            "jitter": 29.248057450398655
          }
        }
      }
    },
    "s2": {
      "port_1": {
        "queue_7": {
          "queueLength": {
            "min": 0,
            "max": 28,
            "mean": 4.571997407167331,
            "median": 3.0,
            "variance": 15.973865208121392,
            "std_deviation": 3.9967318158867493,
            "interval_size": 28,
            "jitter": 23.42800259283267
          },
          "queueingTime": {
            "min": 0.0,
            "max": 26.999995956,
            "mean": 4.075640267354555,
            "median": 3.000005996,
            "variance": 15.517828350997313,
            "std_deviation": 3.939267489140248,
            "interval_size": 26.999995956,
            "jitter": 22.924355688645445
          }
        }
      }
    },
    "s56": {
      "port_1": {
        "queue_7": {
          "queueLength": {
            "min": 0,
            "max": 36,
            "mean": 5.406181143453554,
            "median": 4.0,
            "variance": 25.44164706336624,
            "std_deviation": 5.043971358301536,
            "interval_size": 36,
            "jitter": 30.593818856546445
          },
          "queueingTime": {
            "min": 0.0,
            "max": 35.999996956,
            "mean": 4.827952995710817,
            "median": 3.000012996,
            "variance": 23.562152166539153,
            "std_deviation": 4.854086130935374,
            "interval_size": 35.999996956,
            "jitter": 31.17204396028918
          }
        }
      }
    },
    "s15": {
      "port_1": {
        "queue_7": {
          "queueLength": {
            "min": 0,
            "max": 35,
            "mean": 5.579136607339301,
            "median": 4.0,
            "variance": 27.827279132728204,
            "std_deviation": 5.275156787501979,
            "interval_size": 35,
            "jitter": 29.4208633926607
          },
          "queueingTime": {
            "min": 0.0,
            "max": 35.999997956,
            "mean": 5.016403899614753,
            "median": 3.000014476,
            "variance": 26.649751232150606,
            "std_deviation": 5.162339705225781,
            "interval_size": 35.999997956,
            "jitter": 30.98359405638525
          }
        }
      }
    },
    "s3": {
      "port_1": {
        "queue_7": {
          "queueLength": {
            "min": 0,
            "max": 29,
            "mean": 4.28381029543679,
            "median": 3,
            "variance": 14.430956279161801,
            "std_deviation": 3.7988098503560033,
            "interval_size": 29,
            "jitter": 24.71618970456321
          },
          "queueingTime": {
            "min": 0.0,
            "max": 26.000000476,
            "mean": 3.7755195536929294,
            "median": 3.000003476,
            "variance": 13.802432254038601,
            "std_deviation": 3.715162480166729,
            "interval_size": 26.000000476,
            "jitter": 22.22448092230707
          }
        }
      }
    },
    "s59": {
      "port_1": {
        "queue_7": {
          "queueLength": {
            "min": 0,
            "max": 34,
            "mean": 5.778974772277917,
            "median": 4,
            "variance": 29.21400212398378,
            "std_deviation": 5.404997883809371,
            "interval_size": 34,
            "jitter": 28.221025227722084
          },
          "queueingTime": {
            "min": 0.0,
            "max": 32.000007476,
            "mean": 5.209615451093283,
            "median": 3.999999956,
            "variance": 27.460358628906565,
            "std_deviation": 5.240263221337891,
            "interval_size": 32.000007476,
            "jitter": 26.790392024906716
          }
        }
      }
    },
    "s14": {
      "port_1": {
        "queue_7": {
          "queueLength": {
            "min": 0,
            "max": 36,
            "mean": 5.402124703294159,
            "median": 4.0,
            "variance": 25.224703554318562,
            "std_deviation": 5.0224200893910265,
            "interval_size": 36,
            "jitter": 30.59787529670584
          },
          "queueingTime": {
            "min": 0.0,
            "max": 33.000006956,
            "mean": 4.8333513757888475,
            "median": 3.000011476,
            "variance": 23.606453734159103,
            "std_deviation": 4.8586473152678105,
            "interval_size": 33.000006956,
            "jitter": 28.166655580211152
          }
        }
      }
    },
    "s58": {
      "port_1": {
        "queue_7": {
          "queueLength": {
            "min": 0,
            "max": 42,
            "mean": 5.714677537198325,
            "median": 4.0,
            "variance": 31.819960848566527,
            "std_deviation": 5.640918440162606,
            "interval_size": 42,
            "jitter": 36.28532246280167
          },
          "queueingTime": {
            "min": 0.0,
            "max": 41.000006476,
            "mean": 5.1505794131287805,
            "median": 3.000016476,
            "variance": 30.091506428905962,
            "std_deviation": 5.48557257074464,
            "interval_size": 41.000006476,
            "jitter": 35.84942706287122
          }
        }
      }
    },
    "s4": {
      "port_1": {
        "queue_7": {
          "queueLength": {
            "min": 0,
            "max": 42,
            "mean": 5.016494964694988,
            "median": 4.0,
            "variance": 24.91258190723768,
            "std_deviation": 4.991250535410708,
            "interval_size": 42,
            "jitter": 36.983505035305015
          },
          "queueingTime": {
            "min": 0.0,
            "max": 40.999999956,
            "mean": 4.487695867186841,
            "median": 3.000006476,
            "variance": 24.10874224829639,
            "std_deviation": 4.910065401631265,
            "interval_size": 40.999999956,
            "jitter": 36.51230408881316
          }
        }
      }
    },
    "s17": {
      "port_1": {
        "queue_7": {
          "queueLength": {
            "min": 0,
            "max": 42,
            "mean": 5.624198806098049,
            "median": 4,
            "variance": 27.51902972329219,
            "std_deviation": 5.245858339994723,
            "interval_size": 42,
            "jitter": 36.37580119390195
          },
          "queueingTime": {
            "min": 0.0,
            "max": 41.000002956,
            "mean": 5.062944370609739,
            "median": 4.000000476,
            "variance": 25.998827699755196,
            "std_deviation": 5.09890455880037,
            "interval_size": 41.000002956,
            "jitter": 35.93705858539026
          }
        }
      }
    },
    "s16": {
      "port_1": {
        "queue_7": {
          "queueLength": {
            "min": 0,
            "max": 31,
            "mean": 5.505294420740003,
            "median": 4,
            "variance": 24.056964755292906,
            "std_deviation": 4.904789980752785,
            "interval_size": 31,
            "jitter": 25.494705579259996
          },
          "queueingTime": {
            "min": 0.0,
            "max": 31.000004956,
            "mean": 4.937237287424575,
            "median": 3.999998956,
            "variance": 22.580810891351526,
            "std_deviation": 4.751927071341849,
            "interval_size": 31.000004956,
            "jitter": 26.062767668575425
          }
        }
      }
    },
    "s19": {
      "port_1": {
        "queue_7": {
          "queueLength": {
            "min": 0,
            "max": 40,
            "mean": 5.519457810048232,
            "median": 4,
            "variance": 30.149614732721115,
            "std_deviation": 5.490866482871453,
            "interval_size": 40,
            "jitter": 34.48054218995177
          },
          "queueingTime": {
            "min": 0.0,
            "max": 37.000009476,
            "mean": 4.952236315596392,
            "median": 3.000010996,
            "variance": 28.250767828586056,
            "std_deviation": 5.315145137113949,
            "interval_size": 37.000009476,
            "jitter": 32.04777316040361
          }
        }
      }
    },
    "s18": {
      "port_1": {
        "queue_7": {
          "queueLength": {
            "min": 0,
            "max": 42,
            "mean": 5.442466348241425,
            "median": 4,
            "variance": 28.781313015768795,
            "std_deviation": 5.364821806525245,
            "interval_size": 42,
            "jitter": 36.557533651758575
          },
          "queueingTime": {
            "min": 0.0,
            "max": 39.000007956,
            "mean": 4.8813519848739695,
            "median": 3.000011476,
            "variance": 27.23620018874109,
            "std_deviation": 5.218831304874789,
            "interval_size": 39.000007956,
            "jitter": 34.11865597112603
          }
        }
      }
    }
  }
}