{
  "general": {
    "validation": {
      "valid": true,
      "errors": []
    }
  },
  "sim_parameters": {
    "**.displayAddresses": "false",
    "**.verbose": "false",
    "**.promiscuous": "true",
    "**.registerProtocol": "true",
    "**.*.clock.clockRate": "\"1us\"",
    "**.h1.eth.address": "\"12:23:34:45:56:67\"",
    "**.h2.eth.address": "\"aa:bb:cc:dd:ee:aa\"",
    "**.*.processingDelay[*].delay": "5us",
    "**.filteringDatabase.database": "xmldoc(\"xml/routing.xml\", \"/filteringDatabases/\")",
    "**.filteringDatabase.cycle": "xmldoc(\"xml/tas.xml\", \"/schedule/\")",
    "**.gateController.initialSchedule": "xmldoc(\"xml/tas.xml\")",
    "**.gateController.enableHoldAndRelease": "false",
    "**.*.eth[*].queuing.tsAlgorithms[*].typename": "\"StrictPriority\"",
    "**.s11.eth[1].queuing.queuingFrames.tciToQueueMapping": "xmldoc(\"xml/tci-maps/tci-map-s11-1.xml\")",
    "**.s22.eth[2].queuing.queuingFrames.tciToQueueMapping": "xmldoc(\"xml/tci-maps/tci-map-s22-2.xml\")",
    "**.s11.eth[2].queuing.queuingFrames.tciToQueueMapping": "xmldoc(\"xml/tci-maps/tci-map-s11-2.xml\")",
    "**.s21.eth[1].queuing.queuingFrames.tciToQueueMapping": "xmldoc(\"xml/tci-maps/tci-map-s21-1.xml\")",
    "**.s12.eth[1].queuing.queuingFrames.tciToQueueMapping": "xmldoc(\"xml/tci-maps/tci-map-s12-1.xml\")",
    "**.*.eth[*].queuing.queues[*].bufferCapacity": "365280b",
    "**.*.eth[*].queuing.queues[*].expressQueue": "true",
    "**.*.eth[*].mac.enablePreemptingFrames": "false",
    "**.*.trafGenSchedApp.jitter": "0.000002",
    "**.*.eth[*].queuing.gateController.jitter": "0.000002",
    "**.*.trafGenSchedApp.initialSchedule": "xmldoc(\"xml/traf-gen.xml\")"
  },
  "streams": {
    "1907": {
      "latency_stats": {
        "min": 0.00015652399451937526,
        "max": 0.0001605240031494759,
        "mean": 0.00015852629290187523,
        "median": 0.0001585240024724044,
        "variance": 9.991966567879167e-13,
        "std_deviation": 9.995982476914997e-07,
        "interval_size": 4.000008630100638e-06,
        "jitter": 2.0022983824999677e-06,
        "packages_received": 86400
      },
      "udp_dest_port": 6000,
      "name": "1---2---6000",
      "max_allowed_latency": 10000000,
      "talker": "h1",
      "listener": "h2"
    },
    "1908": {
      "latency_stats": {
        "min": 0.00012004799646092579,
        "max": 0.00012404800145304762,
        "mean": 0.0001220451982741638,
        "median": 0.0001220479998664814,
        "variance": 9.940534016080778e-13,
        "std_deviation": 9.97022267358196e-07,
        "interval_size": 4.000004992121831e-06,
        "jitter": 2.0028031788838196e-06,
        "packages_received": 86400
      },
      "udp_dest_port": 6001,
      "name": "1---2---6001",
      "max_allowed_latency": 10000000,
      "talker": "h1",
      "listener": "h2"
    }
  },
  "hosts": {
    "h2": {
      "received_periodically": {
        "is_periodic": true,
        "max-period-length": 250,
        "period": [
          1907,
          1908
        ],
        "period_length": 2,
        "skipped": "first 0s"
      }
    }
  },
  "switches": {
    "s12": {
      "port_1": {
        "queue_7": {
          "queueLength": {
            "min": 0,
            "max": 1,
            "mean": 0.49999710649822626,
            "median": 0,
            "variance": 0.25000144675088687,
            "std_deviation": 0.5000014467487938,
            "interval_size": 1,
            "jitter": 0.5000028935017737
          },
          "queueingTime": {
            "min": 3.4476e-05,
            "max": 3.8476e-05,
            "mean": 3.647281712962963e-05,
            "median": 3.6476e-05,
            "variance": 9.975129886995017e-13,
            "std_deviation": 9.987557202336824e-07,
            "interval_size": 4.000000000000002e-06,
            "jitter": 2.0031828703703707e-06
          }
        }
      }
    },
    "s11": {
      "port_1": {
        "queue_7": {
          "queueLength": {
            "min": 0,
            "max": 1,
            "mean": 0.49999710649822626,
            "median": 0,
            "variance": 0.25000144675088687,
            "std_deviation": 0.5000014467487938,
            "interval_size": 1,
            "jitter": 0.5000028935017737
          },
          "queueingTime": {
            "min": 3.4476e-05,
            "max": 3.8476e-05,
            "mean": 3.647638194444444e-05,
            "median": 3.6476e-05,
            "variance": 9.992822532185956e-13,
            "std_deviation": 9.996410621911224e-07,
            "interval_size": 4.000000000000002e-06,
            "jitter": 2.0003819444444434e-06
          }
        }
      },
      "port_2": {
        "queue_7": {
          "queueLength": {
            "min": 0,
            "max": 1,
            "mean": 0.49999710649822626,
            "median": 0,
            "variance": 0.25000144675088687,
            "std_deviation": 0.5000014467487938,
            "interval_size": 1,
            "jitter": 0.5000028935017737
          },
          "queueingTime": {
            "min": 3.4476e-05,
            "max": 3.8476e-05,
            "mean": 3.647721527777778e-05,
            "median": 3.6476e-05,
            "variance": 1.0009707565577546e-12,
            "std_deviation": 1.0004852605399815e-06,
            "interval_size": 4.000000000000002e-06,
            "jitter": 2.0012152777777785e-06
          }
        }
      }
    },
    "s22": {
      "port_2": {
        "queue_7": {
          "queueLength": {
            "min": 0,
            "max": 1,
            "mean": 0.499998553244927,
            "median": 0,
            "variance": 0.25000072337753654,
            "std_deviation": 0.5000007233770133,
            "interval_size": 1,
            "jitter": 0.5000014467550731
          },
          "queueingTime": {
            "min": 0.0,
            "max": 3.8476e-05,
            "mean": 1.8239799768518517e-05,
            "median": 1.7238e-05,
            "variance": 3.3319482728182446e-10,
            "std_deviation": 1.825362504495544e-05,
            "interval_size": 3.8476e-05,
            "jitter": 2.0236200231481485e-05
          }
        }
      }
    },
    "s21": {
      "port_1": {
        "queue_7": {
          "queueLength": {
            "min": 0,
            "max": 1,
            "mean": 0.49999710649822626,
            "median": 0,
            "variance": 0.25000144675088687,
            "std_deviation": 0.5000014467487938,
            "interval_size": 1,
            "jitter": 0.5000028935017737
          },
          "queueingTime": {
            "min": 3.4476e-05,
            "max": 3.8476e-05,
            "mean": 3.647347685185185e-05,
            "median": 3.6476e-05,
            "variance": 1.0043571100788645e-12,
            "std_deviation": 1.002176187144189e-06,
            "interval_size": 4.000000000000002e-06,
            "jitter": 2.0025231481481524e-06
          }
        }
      }
    }
  }
}