[
  {
    "switch": "s12",
    "controls": [
      {
        "port": "0",
        "entries": [
          {
            "gate-status": "11111111"
          }
        ]
      },
      {
        "port": "1",
        "entries": [
          {
            "gate-status": "11111110",
            "length": 30
          },
          {
            "gate-status": "11111111",
            "length": 10
          },
          {
            "gate-status": "11111110",
            "length": 999960
          }
        ]
      }
    ]
  },
  {
    "switch": "s22",
    "controls": [
      {
        "port": "0",
        "entries": [
          {
            "gate-status": "11111111"
          }
        ]
      },
      {
        "port": "2",
        "entries": [
          {
            "gate-status": "11111110",
            "length": 30
          },
          {
            "gate-status": "11111111",
            "length": 20
          },
          {
            "gate-status": "11111110",
            "length": 999950
          }
        ]
      },
      {
        "port": "1",
        "entries": [
          {
            "gate-status": "11111111"
          }
        ]
      }
    ]
  },
  {
    "switch": "s21",
    "controls": [
      {
        "port": "1",
        "entries": [
          {
            "gate-status": "11111110",
            "length": 20
          },
          {
            "gate-status": "11111111",
            "length": 10
          },
          {
            "gate-status": "11111110",
            "length": 999970
          }
        ]
      },
      {
        "port": "0",
        "entries": [
          {
            "gate-status": "11111111"
          }
        ]
      }
    ]
  },
  {
    "switch": "s11",
    "controls": [
      {
        "port": "2",
        "entries": [
          {
            "gate-status": "11111110",
            "length": 10
          },
          {
            "gate-status": "11111111",
            "length": 10
          },
          {
            "gate-status": "11111110",
            "length": 999980
          }
        ]
      },
      {
        "port": "1",
        "entries": [
          {
            "gate-status": "11111110",
            "length": 20
          },
          {
            "gate-status": "11111111",
            "length": 10
          },
          {
            "gate-status": "11111110",
            "length": 999970
          }
        ]
      },
      {
        "port": "0",
        "entries": [
          {
            "gate-status": "11111111"
          }
        ]
      }
    ]
  }
]