[
  {
    "switch": "s50",
    "controls": [
      {
        "port": "1",
        "entries": [
          {
            "gate-status": "11111110",
            "length": 520
          },
          {
            "gate-status": "11111111",
            "length": 20
          },
          {
            "gate-status": "11111110",
            "length": 999460
          }
        ]
      },
      {
        "port": "0",
        "entries": [
          {
            "gate-status": "11111111"
          }
        ]
      }
    ]
  },
  {
    "switch": "s29",
    "controls": [
      {
        "port": "1",
        "entries": [
          {
            "gate-status": "11111110",
            "length": 320
          },
          {
            "gate-status": "11111111",
            "length": 20
          },
          {
            "gate-status": "11111110",
            "length": 999660
          }
        ]
      },
      {
        "port": "0",
        "entries": [
          {
            "gate-status": "11111111"
          }
        ]
      }
    ]
  },
  {
    "switch": "s28",
    "controls": [
      {
        "port": "1",
        "entries": [
          {
            "gate-status": "11111110",
            "length": 300
          },
          {
            "gate-status": "11111111",
            "length": 20
          },
          {
            "gate-status": "11111110",
            "length": 999680
          }
        ]
      },
      {
        "port": "0",
        "entries": [
          {
            "gate-status": "11111111"
          }
        ]
      }
    ]
  },
  {
    "switch": "s27",
    "controls": [
      {
        "port": "0",
        "entries": [
          {
            "gate-status": "11111111"
          }
        ]
      },
      {
        "port": "1",
        "entries": [
          {
            "gate-status": "11111110",
            "length": 300
          },
          {
            "gate-status": "11111111",
            "length": 20
          },
          {
            "gate-status": "11111110",
            "length": 999680
          }
        ]
      }
    ]
  },
  {
    "switch": "s26",
    "controls": [
      {
        "port": "0",
        "entries": [
          {
            "gate-status": "11111111"
          }
        ]
      },
      {
        "port": "1",
        "entries": [
          {
            "gate-status": "11111110",
            "length": 280
          },
          {
            "gate-status": "11111111",
            "length": 20
          },
          {
            "gate-status": "11111110",
            "length": 999700
          }
        ]
      }
    ]
  },
  {
    "switch": "s25",
    "controls": [
      {
        "port": "1",
        "entries": [
          {
            "gate-status": "11111110",
            "length": 280
          },
          {
            "gate-status": "11111111",
            "length": 20
          },
          {
            "gate-status": "11111110",
            "length": 999700
          }
        ]
      },
      {
        "port": "0",
        "entries": [
          {
            "gate-status": "11111111"
          }
        ]
      }
    ]
  },
  {
    "switch": "s24",
    "controls": [
      {
        "port": "1",
        "entries": [
          {
            "gate-status": "11111110",
            "length": 260
          },
          {
            "gate-status": "11111111",
            "length": 20
          },
          {
            "gate-status": "11111110",
            "length": 999720
          }
        ]
      },
      {
        "port": "0",
        "entries": [
          {
            "gate-status": "11111111"
          }
        ]
      }
    ]
  },
  {
    "switch": "s23",
    "controls": [
      {
        "port": "0",
        "entries": [
          {
            "gate-status": "11111111"
          }
        ]
      },
      {
        "port": "1",
        "entries": [
          {
            "gate-status": "11111110",
            "length": 260
          },
          {
            "gate-status": "11111111",
            "length": 20
          },
          {
            "gate-status": "11111110",
            "length": 999720
          }
        ]
      }
    ]
  },
  {
    "switch": "s22",
    "controls": [
      {
        "port": "0",
        "entries": [
          {
            "gate-status": "11111111"
          }
        ]
      },
      {
        "port": "1",
        "entries": [
          {
            "gate-status": "11111110",
            "length": 240
          },
          {
            "gate-status": "11111111",
            "length": 20
          },
          {
            "gate-status": "11111110",
            "length": 999740
          }
        ]
      }
    ]
  },
  {
    "switch": "s21",
    "controls": [
      {
        "port": "1",
        "entries": [
          {
            "gate-status": "11111110",
            "length": 240
          },
          {
            "gate-status": "11111111",
            "length": 20
          },
          {
            "gate-status": "11111110",
            "length": 999740
          }
        ]
      },
      {
        "port": "0",
        "entries": [
          {
            "gate-status": "11111111"
          }
        ]
      }
    ]
  },
  {
    "switch": "s20",
    "controls": [
      {
        "port": "1",
        "entries": [
          {
            "gate-status": "11111110",
            "length": 220
          },
          {
            "gate-status": "11111111",
            "length": 20
          },
          {
            "gate-status": "11111110",
            "length": 999760
          }
        ]
      },
      {
        "port": "0",
        "entries": [
          {
            "gate-status": "11111111"
          }
        ]
      }
    ]
  },
  {
    "switch": "s45",
    "controls": [
      {
        "port": "0",
        "entries": [
          {
            "gate-status": "11111111"
          }
        ]
      },
      {
        "port": "1",
        "entries": [
          {
            "gate-status": "11111110",
            "length": 480
          },
          {
            "gate-status": "11111111",
            "length": 20
          },
          {
            "gate-status": "11111110",
            "length": 999500
          }
        ]
      }
    ]
  },
  {
    "switch": "s44",
    "controls": [
      {
        "port": "0",
        "entries": [
          {
            "gate-status": "11111111"
          }
        ]
      },
      {
        "port": "1",
        "entries": [
          {
            "gate-status": "11111110",
            "length": 460
          },
          {
            "gate-status": "11111111",
            "length": 20
          },
          {
            "gate-status": "11111110",
            "length": 999520
          }
        ]
      }
    ]
  },
  {
    "switch": "s47",
    "controls": [
      {
        "port": "1",
        "entries": [
          {
            "gate-status": "11111110",
            "length": 500
          },
          {
            "gate-status": "11111111",
            "length": 20
          },
          {
            "gate-status": "11111110",
            "length": 999480
          }
        ]
      },
      {
        "port": "0",
        "entries": [
          {
            "gate-status": "11111111"
          }
        ]
      }
    ]
  },
  {
    "switch": "s46",
    "controls": [
      {
        "port": "1",
        "entries": [
          {
            "gate-status": "11111110",
            "length": 480
          },
          {
            "gate-status": "11111111",
            "length": 20
          },
          {
            "gate-status": "11111110",
            "length": 999500
          }
        ]
      },
      {
        "port": "0",
        "entries": [
          {
            "gate-status": "11111111"
          }
        ]
      }
    ]
  },
  {
    "switch": "s41",
    "controls": [
      {
        "port": "0",
        "entries": [
          {
            "gate-status": "11111111"
          }
        ]
      },
      {
        "port": "1",
        "entries": [
          {
            "gate-status": "11111110",
            "length": 440
          },
          {
            "gate-status": "11111111",
            "length": 20
          },
          {
            "gate-status": "11111110",
            "length": 999540
          }
        ]
      }
    ]
  },
  {
    "switch": "s40",
    "controls": [
      {
        "port": "0",
        "entries": [
          {
            "gate-status": "11111111"
          }
        ]
      },
      {
        "port": "1",
        "entries": [
          {
            "gate-status": "11111110",
            "length": 420
          },
          {
            "gate-status": "11111111",
            "length": 20
          },
          {
            "gate-status": "11111110",
            "length": 999560
          }
        ]
      }
    ]
  },
  {
    "switch": "s43",
    "controls": [
      {
        "port": "1",
        "entries": [
          {
            "gate-status": "11111110",
            "length": 460
          },
          {
            "gate-status": "11111111",
            "length": 20
          },
          {
            "gate-status": "11111110",
            "length": 999520
          }
        ]
      },
      {
        "port": "0",
        "entries": [
          {
            "gate-status": "11111111"
          }
        ]
      }
    ]
  },
  {
    "switch": "s42",
    "controls": [
      {
        "port": "1",
        "entries": [
          {
            "gate-status": "11111110",
            "length": 440
          },
          {
            "gate-status": "11111111",
            "length": 20
          },
          {
            "gate-status": "11111110",
            "length": 999540
          }
        ]
      },
      {
        "port": "0",
        "entries": [
          {
            "gate-status": "11111111"
          }
        ]
      }
    ]
  },
  {
    "switch": "s38",
    "controls": [
      {
        "port": "0",
        "entries": [
          {
            "gate-status": "11111111"
          }
        ]
      },
      {
        "port": "1",
        "entries": [
          {
            "gate-status": "11111110",
            "length": 400
          },
          {
            "gate-status": "11111111",
            "length": 20
          },
          {
            "gate-status": "11111110",
            "length": 999580
          }
        ]
      }
    ]
  },
  {
    "switch": "s49",
    "controls": [
      {
        "port": "0",
        "entries": [
          {
            "gate-status": "11111111"
          }
        ]
      },
      {
        "port": "1",
        "entries": [
          {
            "gate-status": "11111110",
            "length": 520
          },
          {
            "gate-status": "11111111",
            "length": 20
          },
          {
            "gate-status": "11111110",
            "length": 999460
          }
        ]
      }
    ]
  },
  {
    "switch": "s48",
    "controls": [
      {
        "port": "0",
        "entries": [
          {
            "gate-status": "11111111"
          }
        ]
      },
      {
        "port": "1",
        "entries": [
          {
            "gate-status": "11111110",
            "length": 500
          },
          {
            "gate-status": "11111111",
            "length": 20
          },
          {
            "gate-status": "11111110",
            "length": 999480
          }
        ]
      }
    ]
  },
  {
    "switch": "s39",
    "controls": [
      {
        "port": "0",
        "entries": [
          {
            "gate-status": "11111111"
          }
        ]
      },
      {
        "port": "1",
        "entries": [
          {
            "gate-status": "11111110",
            "length": 420
          },
          {
            "gate-status": "11111111",
            "length": 20
          },
          {
            "gate-status": "11111110",
            "length": 999560
          }
        ]
      }
    ]
  },
  {
    "switch": "s55",
    "controls": [
      {
        "port": "1",
        "entries": [
          {
            "gate-status": "11111110",
            "length": 580
          },
          {
            "gate-status": "11111111",
            "length": 20
          },
          {
            "gate-status": "11111110",
            "length": 999400
          }
        ]
      },
      {
        "port": "0",
        "entries": [
          {
            "gate-status": "11111111"
          }
        ]
      }
    ]
  },
  {
    "switch": "s4",
    "controls": [
      {
        "port": "0",
        "entries": [
          {
            "gate-status": "11111111"
          }
        ]
      },
      {
        "port": "1",
        "entries": [
          {
            "gate-status": "11111110",
            "length": 60
          },
          {
            "gate-status": "11111111",
            "length": 20
          },
          {
            "gate-status": "11111110",
            "length": 999920
          }
        ]
      }
    ]
  },
  {
    "switch": "s5",
    "controls": [
      {
        "port": "0",
        "entries": [
          {
            "gate-status": "11111111"
          }
        ]
      },
      {
        "port": "1",
        "entries": [
          {
            "gate-status": "11111110",
            "length": 80
          },
          {
            "gate-status": "11111111",
            "length": 20
          },
          {
            "gate-status": "11111110",
            "length": 999900
          }
        ]
      }
    ]
  },
  {
    "switch": "s6",
    "controls": [
      {
        "port": "1",
        "entries": [
          {
            "gate-status": "11111110",
            "length": 80
          },
          {
            "gate-status": "11111111",
            "length": 20
          },
          {
            "gate-status": "11111110",
            "length": 999900
          }
        ]
      },
      {
        "port": "0",
        "entries": [
          {
            "gate-status": "11111111"
          }
        ]
      }
    ]
  },
  {
    "switch": "s7",
    "controls": [
      {
        "port": "1",
        "entries": [
          {
            "gate-status": "11111110",
            "length": 100
          },
          {
            "gate-status": "11111111",
            "length": 20
          },
          {
            "gate-status": "11111110",
            "length": 999880
          }
        ]
      },
      {
        "port": "0",
        "entries": [
          {
            "gate-status": "11111111"
          }
        ]
      }
    ]
  },
  {
    "switch": "s1",
    "controls": [
      {
        "port": "0",
        "entries": [
          {
            "gate-status": "11111111"
          }
        ]
      },
      {
        "port": "2",
        "entries": [
          {
            "gate-status": "11111110",
            "length": 40
          },
          {
            "gate-status": "11111111",
            "length": 20
          },
          {
            "gate-status": "11111110",
            "length": 999940
          }
        ]
      },
      {
        "port": "1",
        "entries": [
          {
            "gate-status": "11111110",
            "length": 20
          },
          {
            "gate-status": "11111111",
            "length": 20
          },
          {
            "gate-status": "11111110",
            "length": 999960
          }
        ]
      }
    ]
  },
  {
    "switch": "s2",
    "controls": [
      {
        "port": "1",
        "entries": [
          {
            "gate-status": "11111110",
            "length": 40
          },
          {
            "gate-status": "11111111",
            "length": 20
          },
          {
            "gate-status": "11111110",
            "length": 999940
          }
        ]
      },
      {
        "port": "0",
        "entries": [
          {
            "gate-status": "11111111"
          }
        ]
      }
    ]
  },
  {
    "switch": "s35",
    "controls": [
      {
        "port": "0",
        "entries": [
          {
            "gate-status": "11111111"
          }
        ]
      },
      {
        "port": "1",
        "entries": [
          {
            "gate-status": "11111110",
            "length": 380
          },
          {
            "gate-status": "11111111",
            "length": 20
          },
          {
            "gate-status": "11111110",
            "length": 999600
          }
        ]
      }
    ]
  },
  {
    "switch": "s59",
    "controls": [
      {
        "port": "1",
        "entries": [
          {
            "gate-status": "11111110",
            "length": 620
          },
          {
            "gate-status": "11111111",
            "length": 20
          },
          {
            "gate-status": "11111110",
            "length": 999360
          }
        ]
      },
      {
        "port": "0",
        "entries": [
          {
            "gate-status": "11111111"
          }
        ]
      }
    ]
  },
  {
    "switch": "s8",
    "controls": [
      {
        "port": "0",
        "entries": [
          {
            "gate-status": "11111111"
          }
        ]
      },
      {
        "port": "1",
        "entries": [
          {
            "gate-status": "11111110",
            "length": 100
          },
          {
            "gate-status": "11111111",
            "length": 20
          },
          {
            "gate-status": "11111110",
            "length": 999880
          }
        ]
      }
    ]
  },
  {
    "switch": "s9",
    "controls": [
      {
        "port": "0",
        "entries": [
          {
            "gate-status": "11111111"
          }
        ]
      },
      {
        "port": "1",
        "entries": [
          {
            "gate-status": "11111110",
            "length": 120
          },
          {
            "gate-status": "11111111",
            "length": 20
          },
          {
            "gate-status": "11111110",
            "length": 999860
          }
        ]
      }
    ]
  },
  {
    "switch": "s16",
    "controls": [
      {
        "port": "0",
        "entries": [
          {
            "gate-status": "11111111"
          }
        ]
      },
      {
        "port": "1",
        "entries": [
          {
            "gate-status": "11111110",
            "length": 180
          },
          {
            "gate-status": "11111111",
            "length": 20
          },
          {
            "gate-status": "11111110",
            "length": 999800
          }
        ]
      }
    ]
  },
  {
    "switch": "s17",
    "controls": [
      {
        "port": "0",
        "entries": [
          {
            "gate-status": "11111111"
          }
        ]
      },
      {
        "port": "1",
        "entries": [
          {
            "gate-status": "11111110",
            "length": 200
          },
          {
            "gate-status": "11111111",
            "length": 20
          },
          {
            "gate-status": "11111110",
            "length": 999780
          }
        ]
      }
    ]
  },
  {
    "switch": "s14",
    "controls": [
      {
        "port": "1",
        "entries": [
          {
            "gate-status": "11111110",
            "length": 160
          },
          {
            "gate-status": "11111111",
            "length": 20
          },
          {
            "gate-status": "11111110",
            "length": 999820
          }
        ]
      },
      {
        "port": "0",
        "entries": [
          {
            "gate-status": "11111111"
          }
        ]
      }
    ]
  },
  {
    "switch": "s15",
    "controls": [
      {
        "port": "1",
        "entries": [
          {
            "gate-status": "11111110",
            "length": 180
          },
          {
            "gate-status": "11111111",
            "length": 20
          },
          {
            "gate-status": "11111110",
            "length": 999800
          }
        ]
      },
      {
        "port": "0",
        "entries": [
          {
            "gate-status": "11111111"
          }
        ]
      }
    ]
  },
  {
    "switch": "s12",
    "controls": [
      {
        "port": "0",
        "entries": [
          {
            "gate-status": "11111111"
          }
        ]
      },
      {
        "port": "1",
        "entries": [
          {
            "gate-status": "11111110",
            "length": 140
          },
          {
            "gate-status": "11111111",
            "length": 20
          },
          {
            "gate-status": "11111110",
            "length": 999840
          }
        ]
      }
    ]
  },
  {
    "switch": "s13",
    "controls": [
      {
        "port": "0",
        "entries": [
          {
            "gate-status": "11111111"
          }
        ]
      },
      {
        "port": "1",
        "entries": [
          {
            "gate-status": "11111110",
            "length": 160
          },
          {
            "gate-status": "11111111",
            "length": 20
          },
          {
            "gate-status": "11111110",
            "length": 999820
          }
        ]
      }
    ]
  },
  {
    "switch": "s10",
    "controls": [
      {
        "port": "1",
        "entries": [
          {
            "gate-status": "11111110",
            "length": 120
          },
          {
            "gate-status": "11111111",
            "length": 20
          },
          {
            "gate-status": "11111110",
            "length": 999860
          }
        ]
      },
      {
        "port": "0",
        "entries": [
          {
            "gate-status": "11111111"
          }
        ]
      }
    ]
  },
  {
    "switch": "s11",
    "controls": [
      {
        "port": "1",
        "entries": [
          {
            "gate-status": "11111110",
            "length": 140
          },
          {
            "gate-status": "11111111",
            "length": 20
          },
          {
            "gate-status": "11111110",
            "length": 999840
          }
        ]
      },
      {
        "port": "0",
        "entries": [
          {
            "gate-status": "11111111"
          }
        ]
      }
    ]
  },
  {
    "switch": "s34",
    "controls": [
      {
        "port": "0",
        "entries": [
          {
            "gate-status": "11111111"
          }
        ]
      },
      {
        "port": "1",
        "entries": [
          {
            "gate-status": "11111110",
            "length": 360
          },
          {
            "gate-status": "11111111",
            "length": 20
          },
          {
            "gate-status": "11111110",
            "length": 999620
          }
        ]
      }
    ]
  },
  {
    "switch": "s53",
    "controls": [
      {
        "port": "0",
        "entries": [
          {
            "gate-status": "11111111"
          }
        ]
      },
      {
        "port": "1",
        "entries": [
          {
            "gate-status": "11111110",
            "length": 560
          },
          {
            "gate-status": "11111111",
            "length": 20
          },
          {
            "gate-status": "11111110",
            "length": 999420
          }
        ]
      }
    ]
  },
  {
    "switch": "s36",
    "controls": [
      {
        "port": "1",
        "entries": [
          {
            "gate-status": "11111110",
            "length": 380
          },
          {
            "gate-status": "11111111",
            "length": 20
          },
          {
            "gate-status": "11111110",
            "length": 999600
          }
        ]
      },
      {
        "port": "0",
        "entries": [
          {
            "gate-status": "11111111"
          }
        ]
      }
    ]
  },
  {
    "switch": "s51",
    "controls": [
      {
        "port": "1",
        "entries": [
          {
            "gate-status": "11111110",
            "length": 540
          },
          {
            "gate-status": "11111111",
            "length": 20
          },
          {
            "gate-status": "11111110",
            "length": 999440
          }
        ]
      },
      {
        "port": "0",
        "entries": [
          {
            "gate-status": "11111111"
          }
        ]
      }
    ]
  },
  {
    "switch": "s56",
    "controls": [
      {
        "port": "0",
        "entries": [
          {
            "gate-status": "11111111"
          }
        ]
      },
      {
        "port": "1",
        "entries": [
          {
            "gate-status": "11111110",
            "length": 580
          },
          {
            "gate-status": "11111111",
            "length": 20
          },
          {
            "gate-status": "11111110",
            "length": 999400
          }
        ]
      }
    ]
  },
  {
    "switch": "s31",
    "controls": [
      {
        "port": "0",
        "entries": [
          {
            "gate-status": "11111111"
          }
        ]
      },
      {
        "port": "1",
        "entries": [
          {
            "gate-status": "11111110",
            "length": 340
          },
          {
            "gate-status": "11111111",
            "length": 20
          },
          {
            "gate-status": "11111110",
            "length": 999640
          }
        ]
      }
    ]
  },
  {
    "switch": "s32",
    "controls": [
      {
        "port": "1",
        "entries": [
          {
            "gate-status": "11111110",
            "length": 340
          },
          {
            "gate-status": "11111111",
            "length": 20
          },
          {
            "gate-status": "11111110",
            "length": 999640
          }
        ]
      },
      {
        "port": "0",
        "entries": [
          {
            "gate-status": "11111111"
          }
        ]
      }
    ]
  },
  {
    "switch": "s33",
    "controls": [
      {
        "port": "1",
        "entries": [
          {
            "gate-status": "11111110",
            "length": 360
          },
          {
            "gate-status": "11111111",
            "length": 20
          },
          {
            "gate-status": "11111110",
            "length": 999620
          }
        ]
      },
      {
        "port": "0",
        "entries": [
          {
            "gate-status": "11111111"
          }
        ]
      }
    ]
  },
  {
    "switch": "s52",
    "controls": [
      {
        "port": "0",
        "entries": [
          {
            "gate-status": "11111111"
          }
        ]
      },
      {
        "port": "1",
        "entries": [
          {
            "gate-status": "11111110",
            "length": 540
          },
          {
            "gate-status": "11111111",
            "length": 20
          },
          {
            "gate-status": "11111110",
            "length": 999440
          }
        ]
      }
    ]
  },
  {
    "switch": "s58",
    "controls": [
      {
        "port": "1",
        "entries": [
          {
            "gate-status": "11111110",
            "length": 600
          },
          {
            "gate-status": "11111111",
            "length": 20
          },
          {
            "gate-status": "11111110",
            "length": 999380
          }
        ]
      },
      {
        "port": "0",
        "entries": [
          {
            "gate-status": "11111111"
          }
        ]
      }
    ]
  },
  {
    "switch": "s54",
    "controls": [
      {
        "port": "1",
        "entries": [
          {
            "gate-status": "11111110",
            "length": 560
          },
          {
            "gate-status": "11111111",
            "length": 20
          },
          {
            "gate-status": "11111110",
            "length": 999420
          }
        ]
      },
      {
        "port": "0",
        "entries": [
          {
            "gate-status": "11111111"
          }
        ]
      }
    ]
  },
  {
    "switch": "s19",
    "controls": [
      {
        "port": "1",
        "entries": [
          {
            "gate-status": "11111110",
            "length": 220
          },
          {
            "gate-status": "11111111",
            "length": 20
          },
          {
            "gate-status": "11111110",
            "length": 999760
          }
        ]
      },
      {
        "port": "0",
        "entries": [
          {
            "gate-status": "11111111"
          }
        ]
      }
    ]
  },
  {
    "switch": "s57",
    "controls": [
      {
        "port": "0",
        "entries": [
          {
            "gate-status": "11111111"
          }
        ]
      },
      {
        "port": "1",
        "entries": [
          {
            "gate-status": "11111110",
            "length": 600
          },
          {
            "gate-status": "11111111",
            "length": 20
          },
          {
            "gate-status": "11111110",
            "length": 999380
          }
        ]
      }
    ]
  },
  {
    "switch": "s62",
    "controls": [
      {
        "port": "0",
        "entries": [
          {
            "gate-status": "11111111"
          }
        ]
      },
      {
        "port": "2",
        "entries": [
          {
            "gate-status": "11111110",
            "length": 640
          },
          {
            "gate-status": "11111111",
            "length": 40
          },
          {
            "gate-status": "11111110",
            "length": 999320
          }
        ]
      },
      {
        "port": "1",
        "entries": [
          {
            "gate-status": "11111111"
          }
        ]
      }
    ]
  },
  {
    "switch": "s18",
    "controls": [
      {
        "port": "1",
        "entries": [
          {
            "gate-status": "11111110",
            "length": 200
          },
          {
            "gate-status": "11111111",
            "length": 20
          },
          {
            "gate-status": "11111110",
            "length": 999780
          }
        ]
      },
      {
        "port": "0",
        "entries": [
          {
            "gate-status": "11111111"
          }
        ]
      }
    ]
  },
  {
    "switch": "s30",
    "controls": [
      {
        "port": "0",
        "entries": [
          {
            "gate-status": "11111111"
          }
        ]
      },
      {
        "port": "1",
        "entries": [
          {
            "gate-status": "11111110",
            "length": 320
          },
          {
            "gate-status": "11111111",
            "length": 20
          },
          {
            "gate-status": "11111110",
            "length": 999660
          }
        ]
      }
    ]
  },
  {
    "switch": "s61",
    "controls": [
      {
        "port": "1",
        "entries": [
          {
            "gate-status": "11111110",
            "length": 640
          },
          {
            "gate-status": "11111111",
            "length": 20
          },
          {
            "gate-status": "11111110",
            "length": 999340
          }
        ]
      },
      {
        "port": "0",
        "entries": [
          {
            "gate-status": "11111111"
          }
        ]
      }
    ]
  },
  {
    "switch": "s37",
    "controls": [
      {
        "port": "1",
        "entries": [
          {
            "gate-status": "11111110",
            "length": 400
          },
          {
            "gate-status": "11111111",
            "length": 20
          },
          {
            "gate-status": "11111110",
            "length": 999580
          }
        ]
      },
      {
        "port": "0",
        "entries": [
          {
            "gate-status": "11111111"
          }
        ]
      }
    ]
  },
  {
    "switch": "s60",
    "controls": [
      {
        "port": "1",
        "entries": [
          {
            "gate-status": "11111110",
            "length": 620
          },
          {
            "gate-status": "11111111",
            "length": 20
          },
          {
            "gate-status": "11111110",
            "length": 999360
          }
        ]
      },
      {
        "port": "0",
        "entries": [
          {
            "gate-status": "11111111"
          }
        ]
      }
    ]
  },
  {
    "switch": "s3",
    "controls": [
      {
        "port": "1",
        "entries": [
          {
            "gate-status": "11111110",
            "length": 60
          },
          {
            "gate-status": "11111111",
            "length": 20
          },
          {
            "gate-status": "11111110",
            "length": 999920
          }
        ]
      },
      {
        "port": "0",
        "entries": [
          {
            "gate-status": "11111111"
          }
        ]
      }
    ]
  }
]