[
  {
    "switch": "s29",
    "controls": [
      {
        "port": "1",
        "entries": [
          {
            "gate-status": "11111110",
            "length": 800
          },
          {
            "gate-status": "11111111",
            "length": 50
          },
          {
            "gate-status": "11111110",
            "length": 999150
          }
        ]
      },
      {
        "port": "0",
        "entries": [
          {
            "gate-status": "11111111"
          }
        ]
      }
    ]
  },
  {
    "switch": "s28",
    "controls": [
      {
        "port": "1",
        "entries": [
          {
            "gate-status": "11111110",
            "length": 750
          },
          {
            "gate-status": "11111111",
            "length": 50
          },
          {
            "gate-status": "11111110",
            "length": 999200
          }
        ]
      },
      {
        "port": "0",
        "entries": [
          {
            "gate-status": "11111111"
          }
        ]
      }
    ]
  },
  {
    "switch": "s27",
    "controls": [
      {
        "port": "0",
        "entries": [
          {
            "gate-status": "11111111"
          }
        ]
      },
      {
        "port": "1",
        "entries": [
          {
            "gate-status": "11111110",
            "length": 750
          },
          {
            "gate-status": "11111111",
            "length": 50
          },
          {
            "gate-status": "11111110",
            "length": 999200
          }
        ]
      }
    ]
  },
  {
    "switch": "s26",
    "controls": [
      {
        "port": "0",
        "entries": [
          {
            "gate-status": "11111111"
          }
        ]
      },
      {
        "port": "1",
        "entries": [
          {
            "gate-status": "11111110",
            "length": 700
          },
          {
            "gate-status": "11111111",
            "length": 50
          },
          {
            "gate-status": "11111110",
            "length": 999250
          }
        ]
      }
    ]
  },
  {
    "switch": "s25",
    "controls": [
      {
        "port": "1",
        "entries": [
          {
            "gate-status": "11111110",
            "length": 700
          },
          {
            "gate-status": "11111111",
            "length": 50
          },
          {
            "gate-status": "11111110",
            "length": 999250
          }
        ]
      },
      {
        "port": "0",
        "entries": [
          {
            "gate-status": "11111111"
          }
        ]
      }
    ]
  },
  {
    "switch": "s24",
    "controls": [
      {
        "port": "1",
        "entries": [
          {
            "gate-status": "11111110",
            "length": 650
          },
          {
            "gate-status": "11111111",
            "length": 50
          },
          {
            "gate-status": "11111110",
            "length": 999300
          }
        ]
      },
      {
        "port": "0",
        "entries": [
          {
            "gate-status": "11111111"
          }
        ]
      }
    ]
  },
  {
    "switch": "s23",
    "controls": [
      {
        "port": "0",
        "entries": [
          {
            "gate-status": "11111111"
          }
        ]
      },
      {
        "port": "1",
        "entries": [
          {
            "gate-status": "11111110",
            "length": 650
          },
          {
            "gate-status": "11111111",
            "length": 50
          },
          {
            "gate-status": "11111110",
            "length": 999300
          }
        ]
      }
    ]
  },
  {
    "switch": "s22",
    "controls": [
      {
        "port": "0",
        "entries": [
          {
            "gate-status": "11111111"
          }
        ]
      },
      {
        "port": "1",
        "entries": [
          {
            "gate-status": "11111110",
            "length": 600
          },
          {
            "gate-status": "11111111",
            "length": 50
          },
          {
            "gate-status": "11111110",
            "length": 999350
          }
        ]
      }
    ]
  },
  {
    "switch": "s21",
    "controls": [
      {
        "port": "1",
        "entries": [
          {
            "gate-status": "11111110",
            "length": 600
          },
          {
            "gate-status": "11111111",
            "length": 50
          },
          {
            "gate-status": "11111110",
            "length": 999350
          }
        ]
      },
      {
        "port": "0",
        "entries": [
          {
            "gate-status": "11111111"
          }
        ]
      }
    ]
  },
  {
    "switch": "s20",
    "controls": [
      {
        "port": "1",
        "entries": [
          {
            "gate-status": "11111110",
            "length": 550
          },
          {
            "gate-status": "11111111",
            "length": 50
          },
          {
            "gate-status": "11111110",
            "length": 999400
          }
        ]
      },
      {
        "port": "0",
        "entries": [
          {
            "gate-status": "11111111"
          }
        ]
      }
    ]
  },
  {
    "switch": "s45",
    "controls": [
      {
        "port": "0",
        "entries": [
          {
            "gate-status": "11111111"
          }
        ]
      },
      {
        "port": "1",
        "entries": [
          {
            "gate-status": "11111110",
            "length": 1200
          },
          {
            "gate-status": "11111111",
            "length": 50
          },
          {
            "gate-status": "11111110",
            "length": 998750
          }
        ]
      }
    ]
  },
  {
    "switch": "s44",
    "controls": [
      {
        "port": "0",
        "entries": [
          {
            "gate-status": "11111111"
          }
        ]
      },
      {
        "port": "1",
        "entries": [
          {
            "gate-status": "11111110",
            "length": 1150
          },
          {
            "gate-status": "11111111",
            "length": 50
          },
          {
            "gate-status": "11111110",
            "length": 998800
          }
        ]
      }
    ]
  },
  {
    "switch": "s47",
    "controls": [
      {
        "port": "1",
        "entries": [
          {
            "gate-status": "11111110",
            "length": 1250
          },
          {
            "gate-status": "11111111",
            "length": 50
          },
          {
            "gate-status": "11111110",
            "length": 998700
          }
        ]
      },
      {
        "port": "0",
        "entries": [
          {
            "gate-status": "11111111"
          }
        ]
      }
    ]
  },
  {
    "switch": "s46",
    "controls": [
      {
        "port": "1",
        "entries": [
          {
            "gate-status": "11111110",
            "length": 1200
          },
          {
            "gate-status": "11111111",
            "length": 50
          },
          {
            "gate-status": "11111110",
            "length": 998750
          }
        ]
      },
      {
        "port": "0",
        "entries": [
          {
            "gate-status": "11111111"
          }
        ]
      }
    ]
  },
  {
    "switch": "s41",
    "controls": [
      {
        "port": "0",
        "entries": [
          {
            "gate-status": "11111111"
          }
        ]
      },
      {
        "port": "1",
        "entries": [
          {
            "gate-status": "11111110",
            "length": 1100
          },
          {
            "gate-status": "11111111",
            "length": 50
          },
          {
            "gate-status": "11111110",
            "length": 998850
          }
        ]
      }
    ]
  },
  {
    "switch": "s40",
    "controls": [
      {
        "port": "0",
        "entries": [
          {
            "gate-status": "11111111"
          }
        ]
      },
      {
        "port": "1",
        "entries": [
          {
            "gate-status": "11111110",
            "length": 1050
          },
          {
            "gate-status": "11111111",
            "length": 50
          },
          {
            "gate-status": "11111110",
            "length": 998900
          }
        ]
      }
    ]
  },
  {
    "switch": "s43",
    "controls": [
      {
        "port": "1",
        "entries": [
          {
            "gate-status": "11111110",
            "length": 1150
          },
          {
            "gate-status": "11111111",
            "length": 50
          },
          {
            "gate-status": "11111110",
            "length": 998800
          }
        ]
      },
      {
        "port": "0",
        "entries": [
          {
            "gate-status": "11111111"
          }
        ]
      }
    ]
  },
  {
    "switch": "s42",
    "controls": [
      {
        "port": "1",
        "entries": [
          {
            "gate-status": "11111110",
            "length": 1100
          },
          {
            "gate-status": "11111111",
            "length": 50
          },
          {
            "gate-status": "11111110",
            "length": 998850
          }
        ]
      },
      {
        "port": "0",
        "entries": [
          {
            "gate-status": "11111111"
          }
        ]
      }
    ]
  },
  {
    "switch": "s12",
    "controls": [
      {
        "port": "0",
        "entries": [
          {
            "gate-status": "11111111"
          }
        ]
      },
      {
        "port": "1",
        "entries": [
          {
            "gate-status": "11111110",
            "length": 350
          },
          {
            "gate-status": "11111111",
            "length": 50
          },
          {
            "gate-status": "11111110",
            "length": 999600
          }
        ]
      }
    ]
  },
  {
    "switch": "s49",
    "controls": [
      {
        "port": "0",
        "entries": [
          {
            "gate-status": "11111111"
          }
        ]
      },
      {
        "port": "1",
        "entries": [
          {
            "gate-status": "11111110",
            "length": 1300
          },
          {
            "gate-status": "11111111",
            "length": 50
          },
          {
            "gate-status": "11111110",
            "length": 998650
          }
        ]
      }
    ]
  },
  {
    "switch": "s48",
    "controls": [
      {
        "port": "0",
        "entries": [
          {
            "gate-status": "11111111"
          }
        ]
      },
      {
        "port": "1",
        "entries": [
          {
            "gate-status": "11111110",
            "length": 1250
          },
          {
            "gate-status": "11111111",
            "length": 50
          },
          {
            "gate-status": "11111110",
            "length": 998700
          }
        ]
      }
    ]
  },
  {
    "switch": "s13",
    "controls": [
      {
        "port": "0",
        "entries": [
          {
            "gate-status": "11111111"
          }
        ]
      },
      {
        "port": "1",
        "entries": [
          {
            "gate-status": "11111110",
            "length": 400
          },
          {
            "gate-status": "11111111",
            "length": 50
          },
          {
            "gate-status": "11111110",
            "length": 999550
          }
        ]
      }
    ]
  },
  {
    "switch": "s32",
    "controls": [
      {
        "port": "1",
        "entries": [
          {
            "gate-status": "11111110",
            "length": 850
          },
          {
            "gate-status": "11111111",
            "length": 50
          },
          {
            "gate-status": "11111110",
            "length": 999100
          }
        ]
      },
      {
        "port": "0",
        "entries": [
          {
            "gate-status": "11111111"
          }
        ]
      }
    ]
  },
  {
    "switch": "s34",
    "controls": [
      {
        "port": "0",
        "entries": [
          {
            "gate-status": "11111111"
          }
        ]
      },
      {
        "port": "1",
        "entries": [
          {
            "gate-status": "11111110",
            "length": 900
          },
          {
            "gate-status": "11111111",
            "length": 50
          },
          {
            "gate-status": "11111110",
            "length": 999050
          }
        ]
      }
    ]
  },
  {
    "switch": "s4",
    "controls": [
      {
        "port": "0",
        "entries": [
          {
            "gate-status": "11111111"
          }
        ]
      },
      {
        "port": "1",
        "entries": [
          {
            "gate-status": "11111110",
            "length": 150
          },
          {
            "gate-status": "11111111",
            "length": 50
          },
          {
            "gate-status": "11111110",
            "length": 999800
          }
        ]
      }
    ]
  },
  {
    "switch": "s5",
    "controls": [
      {
        "port": "0",
        "entries": [
          {
            "gate-status": "11111111"
          }
        ]
      },
      {
        "port": "1",
        "entries": [
          {
            "gate-status": "11111110",
            "length": 200
          },
          {
            "gate-status": "11111111",
            "length": 50
          },
          {
            "gate-status": "11111110",
            "length": 999750
          }
        ]
      }
    ]
  },
  {
    "switch": "s6",
    "controls": [
      {
        "port": "1",
        "entries": [
          {
            "gate-status": "11111110",
            "length": 200
          },
          {
            "gate-status": "11111111",
            "length": 50
          },
          {
            "gate-status": "11111110",
            "length": 999750
          }
        ]
      },
      {
        "port": "0",
        "entries": [
          {
            "gate-status": "11111111"
          }
        ]
      }
    ]
  },
  {
    "switch": "s7",
    "controls": [
      {
        "port": "1",
        "entries": [
          {
            "gate-status": "11111110",
            "length": 250
          },
          {
            "gate-status": "11111111",
            "length": 50
          },
          {
            "gate-status": "11111110",
            "length": 999700
          }
        ]
      },
      {
        "port": "0",
        "entries": [
          {
            "gate-status": "11111111"
          }
        ]
      }
    ]
  },
  {
    "switch": "s1",
    "controls": [
      {
        "port": "0",
        "entries": [
          {
            "gate-status": "11111111"
          }
        ]
      },
      {
        "port": "2",
        "entries": [
          {
            "gate-status": "11111110",
            "length": 100
          },
          {
            "gate-status": "11111111",
            "length": 50
          },
          {
            "gate-status": "11111110",
            "length": 999850
          }
        ]
      },
      {
        "port": "1",
        "entries": [
          {
            "gate-status": "11111110",
            "length": 50
          },
          {
            "gate-status": "11111111",
            "length": 50
          },
          {
            "gate-status": "11111110",
            "length": 999900
          }
        ]
      }
    ]
  },
  {
    "switch": "s2",
    "controls": [
      {
        "port": "1",
        "entries": [
          {
            "gate-status": "11111110",
            "length": 100
          },
          {
            "gate-status": "11111111",
            "length": 50
          },
          {
            "gate-status": "11111110",
            "length": 999850
          }
        ]
      },
      {
        "port": "0",
        "entries": [
          {
            "gate-status": "11111111"
          }
        ]
      }
    ]
  },
  {
    "switch": "s3",
    "controls": [
      {
        "port": "1",
        "entries": [
          {
            "gate-status": "11111110",
            "length": 150
          },
          {
            "gate-status": "11111111",
            "length": 50
          },
          {
            "gate-status": "11111110",
            "length": 999800
          }
        ]
      },
      {
        "port": "0",
        "entries": [
          {
            "gate-status": "11111111"
          }
        ]
      }
    ]
  },
  {
    "switch": "s59",
    "controls": [
      {
        "port": "1",
        "entries": [
          {
            "gate-status": "11111110",
            "length": 1550
          },
          {
            "gate-status": "11111111",
            "length": 50
          },
          {
            "gate-status": "11111110",
            "length": 998400
          }
        ]
      },
      {
        "port": "0",
        "entries": [
          {
            "gate-status": "11111111"
          }
        ]
      }
    ]
  },
  {
    "switch": "s8",
    "controls": [
      {
        "port": "0",
        "entries": [
          {
            "gate-status": "11111111"
          }
        ]
      },
      {
        "port": "1",
        "entries": [
          {
            "gate-status": "11111110",
            "length": 250
          },
          {
            "gate-status": "11111111",
            "length": 50
          },
          {
            "gate-status": "11111110",
            "length": 999700
          }
        ]
      }
    ]
  },
  {
    "switch": "s9",
    "controls": [
      {
        "port": "0",
        "entries": [
          {
            "gate-status": "11111111"
          }
        ]
      },
      {
        "port": "1",
        "entries": [
          {
            "gate-status": "11111110",
            "length": 300
          },
          {
            "gate-status": "11111111",
            "length": 50
          },
          {
            "gate-status": "11111110",
            "length": 999650
          }
        ]
      }
    ]
  },
  {
    "switch": "s16",
    "controls": [
      {
        "port": "0",
        "entries": [
          {
            "gate-status": "11111111"
          }
        ]
      },
      {
        "port": "1",
        "entries": [
          {
            "gate-status": "11111110",
            "length": 450
          },
          {
            "gate-status": "11111111",
            "length": 50
          },
          {
            "gate-status": "11111110",
            "length": 999500
          }
        ]
      }
    ]
  },
  {
    "switch": "s17",
    "controls": [
      {
        "port": "0",
        "entries": [
          {
            "gate-status": "11111111"
          }
        ]
      },
      {
        "port": "1",
        "entries": [
          {
            "gate-status": "11111110",
            "length": 500
          },
          {
            "gate-status": "11111111",
            "length": 50
          },
          {
            "gate-status": "11111110",
            "length": 999450
          }
        ]
      }
    ]
  },
  {
    "switch": "s14",
    "controls": [
      {
        "port": "1",
        "entries": [
          {
            "gate-status": "11111110",
            "length": 400
          },
          {
            "gate-status": "11111111",
            "length": 50
          },
          {
            "gate-status": "11111110",
            "length": 999550
          }
        ]
      },
      {
        "port": "0",
        "entries": [
          {
            "gate-status": "11111111"
          }
        ]
      }
    ]
  },
  {
    "switch": "s15",
    "controls": [
      {
        "port": "1",
        "entries": [
          {
            "gate-status": "11111110",
            "length": 450
          },
          {
            "gate-status": "11111111",
            "length": 50
          },
          {
            "gate-status": "11111110",
            "length": 999500
          }
        ]
      },
      {
        "port": "0",
        "entries": [
          {
            "gate-status": "11111111"
          }
        ]
      }
    ]
  },
  {
    "switch": "s38",
    "controls": [
      {
        "port": "0",
        "entries": [
          {
            "gate-status": "11111111"
          }
        ]
      },
      {
        "port": "1",
        "entries": [
          {
            "gate-status": "11111110",
            "length": 1000
          },
          {
            "gate-status": "11111111",
            "length": 50
          },
          {
            "gate-status": "11111110",
            "length": 998950
          }
        ]
      }
    ]
  },
  {
    "switch": "s39",
    "controls": [
      {
        "port": "0",
        "entries": [
          {
            "gate-status": "11111111"
          }
        ]
      },
      {
        "port": "1",
        "entries": [
          {
            "gate-status": "11111110",
            "length": 1050
          },
          {
            "gate-status": "11111111",
            "length": 50
          },
          {
            "gate-status": "11111110",
            "length": 998900
          }
        ]
      }
    ]
  },
  {
    "switch": "s10",
    "controls": [
      {
        "port": "1",
        "entries": [
          {
            "gate-status": "11111110",
            "length": 300
          },
          {
            "gate-status": "11111111",
            "length": 50
          },
          {
            "gate-status": "11111110",
            "length": 999650
          }
        ]
      },
      {
        "port": "0",
        "entries": [
          {
            "gate-status": "11111111"
          }
        ]
      }
    ]
  },
  {
    "switch": "s11",
    "controls": [
      {
        "port": "1",
        "entries": [
          {
            "gate-status": "11111110",
            "length": 350
          },
          {
            "gate-status": "11111111",
            "length": 50
          },
          {
            "gate-status": "11111110",
            "length": 999600
          }
        ]
      },
      {
        "port": "0",
        "entries": [
          {
            "gate-status": "11111111"
          }
        ]
      }
    ]
  },
  {
    "switch": "s52",
    "controls": [
      {
        "port": "0",
        "entries": [
          {
            "gate-status": "11111111"
          }
        ]
      },
      {
        "port": "1",
        "entries": [
          {
            "gate-status": "11111110",
            "length": 1350
          },
          {
            "gate-status": "11111111",
            "length": 50
          },
          {
            "gate-status": "11111110",
            "length": 998600
          }
        ]
      }
    ]
  },
  {
    "switch": "s35",
    "controls": [
      {
        "port": "0",
        "entries": [
          {
            "gate-status": "11111111"
          }
        ]
      },
      {
        "port": "1",
        "entries": [
          {
            "gate-status": "11111110",
            "length": 950
          },
          {
            "gate-status": "11111111",
            "length": 50
          },
          {
            "gate-status": "11111110",
            "length": 999000
          }
        ]
      }
    ]
  },
  {
    "switch": "s50",
    "controls": [
      {
        "port": "1",
        "entries": [
          {
            "gate-status": "11111110",
            "length": 1300
          },
          {
            "gate-status": "11111111",
            "length": 50
          },
          {
            "gate-status": "11111110",
            "length": 998650
          }
        ]
      },
      {
        "port": "0",
        "entries": [
          {
            "gate-status": "11111111"
          }
        ]
      }
    ]
  },
  {
    "switch": "s51",
    "controls": [
      {
        "port": "1",
        "entries": [
          {
            "gate-status": "11111110",
            "length": 1350
          },
          {
            "gate-status": "11111111",
            "length": 50
          },
          {
            "gate-status": "11111110",
            "length": 998600
          }
        ]
      },
      {
        "port": "0",
        "entries": [
          {
            "gate-status": "11111111"
          }
        ]
      }
    ]
  },
  {
    "switch": "s56",
    "controls": [
      {
        "port": "0",
        "entries": [
          {
            "gate-status": "11111111"
          }
        ]
      },
      {
        "port": "1",
        "entries": [
          {
            "gate-status": "11111110",
            "length": 1450
          },
          {
            "gate-status": "11111111",
            "length": 50
          },
          {
            "gate-status": "11111110",
            "length": 998500
          }
        ]
      }
    ]
  },
  {
    "switch": "s31",
    "controls": [
      {
        "port": "0",
        "entries": [
          {
            "gate-status": "11111111"
          }
        ]
      },
      {
        "port": "1",
        "entries": [
          {
            "gate-status": "11111110",
            "length": 850
          },
          {
            "gate-status": "11111111",
            "length": 50
          },
          {
            "gate-status": "11111110",
            "length": 999100
          }
        ]
      }
    ]
  },
  {
    "switch": "s54",
    "controls": [
      {
        "port": "1",
        "entries": [
          {
            "gate-status": "11111110",
            "length": 1400
          },
          {
            "gate-status": "11111111",
            "length": 50
          },
          {
            "gate-status": "11111110",
            "length": 998550
          }
        ]
      },
      {
        "port": "0",
        "entries": [
          {
            "gate-status": "11111111"
          }
        ]
      }
    ]
  },
  {
    "switch": "s55",
    "controls": [
      {
        "port": "1",
        "entries": [
          {
            "gate-status": "11111110",
            "length": 1450
          },
          {
            "gate-status": "11111111",
            "length": 50
          },
          {
            "gate-status": "11111110",
            "length": 998500
          }
        ]
      },
      {
        "port": "0",
        "entries": [
          {
            "gate-status": "11111111"
          }
        ]
      }
    ]
  },
  {
    "switch": "s58",
    "controls": [
      {
        "port": "1",
        "entries": [
          {
            "gate-status": "11111110",
            "length": 1500
          },
          {
            "gate-status": "11111111",
            "length": 50
          },
          {
            "gate-status": "11111110",
            "length": 998450
          }
        ]
      },
      {
        "port": "0",
        "entries": [
          {
            "gate-status": "11111111"
          }
        ]
      }
    ]
  },
  {
    "switch": "s18",
    "controls": [
      {
        "port": "1",
        "entries": [
          {
            "gate-status": "11111110",
            "length": 500
          },
          {
            "gate-status": "11111111",
            "length": 50
          },
          {
            "gate-status": "11111110",
            "length": 999450
          }
        ]
      },
      {
        "port": "0",
        "entries": [
          {
            "gate-status": "11111111"
          }
        ]
      }
    ]
  },
  {
    "switch": "s36",
    "controls": [
      {
        "port": "1",
        "entries": [
          {
            "gate-status": "11111110",
            "length": 950
          },
          {
            "gate-status": "11111111",
            "length": 50
          },
          {
            "gate-status": "11111110",
            "length": 999000
          }
        ]
      },
      {
        "port": "0",
        "entries": [
          {
            "gate-status": "11111111"
          }
        ]
      }
    ]
  },
  {
    "switch": "s19",
    "controls": [
      {
        "port": "1",
        "entries": [
          {
            "gate-status": "11111110",
            "length": 550
          },
          {
            "gate-status": "11111111",
            "length": 50
          },
          {
            "gate-status": "11111110",
            "length": 999400
          }
        ]
      },
      {
        "port": "0",
        "entries": [
          {
            "gate-status": "11111111"
          }
        ]
      }
    ]
  },
  {
    "switch": "s37",
    "controls": [
      {
        "port": "1",
        "entries": [
          {
            "gate-status": "11111110",
            "length": 1000
          },
          {
            "gate-status": "11111111",
            "length": 50
          },
          {
            "gate-status": "11111110",
            "length": 998950
          }
        ]
      },
      {
        "port": "0",
        "entries": [
          {
            "gate-status": "11111111"
          }
        ]
      }
    ]
  },
  {
    "switch": "s57",
    "controls": [
      {
        "port": "0",
        "entries": [
          {
            "gate-status": "11111111"
          }
        ]
      },
      {
        "port": "1",
        "entries": [
          {
            "gate-status": "11111110",
            "length": 1500
          },
          {
            "gate-status": "11111111",
            "length": 50
          },
          {
            "gate-status": "11111110",
            "length": 998450
          }
        ]
      }
    ]
  },
  {
    "switch": "s62",
    "controls": [
      {
        "port": "0",
        "entries": [
          {
            "gate-status": "11111111"
          }
        ]
      },
      {
        "port": "2",
        "entries": [
          {
            "gate-status": "11111110",
            "length": 1600
          },
          {
            "gate-status": "11111111",
            "length": 100
          },
          {
            "gate-status": "11111110",
            "length": 998300
          }
        ]
      },
      {
        "port": "1",
        "entries": [
          {
            "gate-status": "11111111"
          }
        ]
      }
    ]
  },
  {
    "switch": "s30",
    "controls": [
      {
        "port": "0",
        "entries": [
          {
            "gate-status": "11111111"
          }
        ]
      },
      {
        "port": "1",
        "entries": [
          {
            "gate-status": "11111110",
            "length": 800
          },
          {
            "gate-status": "11111111",
            "length": 50
          },
          {
            "gate-status": "11111110",
            "length": 999150
          }
        ]
      }
    ]
  },
  {
    "switch": "s61",
    "controls": [
      {
        "port": "1",
        "entries": [
          {
            "gate-status": "11111110",
            "length": 1600
          },
          {
            "gate-status": "11111111",
            "length": 50
          },
          {
            "gate-status": "11111110",
            "length": 998350
          }
        ]
      },
      {
        "port": "0",
        "entries": [
          {
            "gate-status": "11111111"
          }
        ]
      }
    ]
  },
  {
    "switch": "s33",
    "controls": [
      {
        "port": "1",
        "entries": [
          {
            "gate-status": "11111110",
            "length": 900
          },
          {
            "gate-status": "11111111",
            "length": 50
          },
          {
            "gate-status": "11111110",
            "length": 999050
          }
        ]
      },
      {
        "port": "0",
        "entries": [
          {
            "gate-status": "11111111"
          }
        ]
      }
    ]
  },
  {
    "switch": "s60",
    "controls": [
      {
        "port": "1",
        "entries": [
          {
            "gate-status": "11111110",
            "length": 1550
          },
          {
            "gate-status": "11111111",
            "length": 50
          },
          {
            "gate-status": "11111110",
            "length": 998400
          }
        ]
      },
      {
        "port": "0",
        "entries": [
          {
            "gate-status": "11111111"
          }
        ]
      }
    ]
  },
  {
    "switch": "s53",
    "controls": [
      {
        "port": "0",
        "entries": [
          {
            "gate-status": "11111111"
          }
        ]
      },
      {
        "port": "1",
        "entries": [
          {
            "gate-status": "11111110",
            "length": 1400
          },
          {
            "gate-status": "11111111",
            "length": 50
          },
          {
            "gate-status": "11111110",
            "length": 998550
          }
        ]
      }
    ]
  }
]