{
  "s2": [
    {
      "mac": "aa:aa:aa:aa:aa:bb",
      "vid": 1908,
      "port": 1
    }
  ],
  "s1": [
    {
      "mac": "aa:aa:aa:aa:aa:bb",
      "vid": 1907,
      "port": 1
    }
  ],
  "s7": [
    {
      "mac": "aa:aa:aa:aa:aa:bb",
      "vid": 1907,
      "port": 0
    },
    {
      "mac": "aa:aa:aa:aa:aa:bb",
      "vid": 1908,
      "port": 0
    }
  ],
  "s4": [
    {
      "mac": "aa:aa:aa:aa:aa:bb",
      "vid": 1907,
      "port": 1
    },
    {
      "mac": "aa:aa:aa:aa:aa:bb",
      "vid": 1908,
      "port": 2
    }
  ],
  "s3": [
    {
      "mac": "aa:aa:aa:aa:aa:bb",
      "vid": 1907,
      "port": 2
    },
    {
      "mac": "aa:aa:aa:aa:aa:bb",
      "vid": 1908,
      "port": 2
    }
  ],
  "s6": [
    {
      "mac": "aa:aa:aa:aa:aa:bb",
      "vid": 1908,
      "port": 1
    }
  ],
  "s5": [
    {
      "mac": "aa:aa:aa:aa:aa:bb",
      "vid": 1907,
      "port": 1
    }
  ]
}