{
  "general": {
    "validation": {
      "valid": false,
      "errors": [
        "Host h3: No periodicity found in the streams received"
      ]
    }
  },
  "sim_parameters": {
    "**.displayAddresses": "false",
    "**.verbose": "false",
    "**.promiscuous": "true",
    "**.registerProtocol": "true",
    "**.*.clock.clockRate": "\"1us\"",
    "**.h3.eth.address": "\"aa:aa:aa:aa:aa:bb\"",
    "**.h1.eth.address": "\"12:23:34:45:56:67\"",
    "**.h2.eth.address": "\"aa:bb:cc:dd:ee:aa\"",
    "**.*.processingDelay[*].delay": "5us",
    "**.filteringDatabase.database": "xmldoc(\"xml/routing.xml\", \"/filteringDatabases/\")",
    "**.filteringDatabase.cycle": "xmldoc(\"xml/tas.xml\", \"/schedule/\")",
    "**.gateController.initialSchedule": "xmldoc(\"xml/tas.xml\")",
    "**.gateController.enableHoldAndRelease": "false",
    "**.*.eth[*].queuing.tsAlgorithms[*].typename": "\"StrictPriority\"",
    "**.s2.eth[1].queuing.queuingFrames.tciToQueueMapping": "xmldoc(\"xml/tci-maps/tci-map-s2-1.xml\")",
    "**.s3.eth[0].queuing.queuingFrames.tciToQueueMapping": "xmldoc(\"xml/tci-maps/tci-map-s3-0.xml\")",
    "**.s1.eth[1].queuing.queuingFrames.tciToQueueMapping": "xmldoc(\"xml/tci-maps/tci-map-s1-1.xml\")",
    "**.*.eth[*].queuing.queues[*].bufferCapacity": "365280b",
    "**.*.eth[*].queuing.queues[*].expressQueue": "true",
    "**.*.eth[*].mac.enablePreemptingFrames": "false",
    "**.*.trafGenSchedApp.jitter": "0.000002",
    "**.*.eth[*].queuing.gateController.jitter": "0.000002",
    "**.*.trafGenSchedApp.initialSchedule": "xmldoc(\"xml/traf-gen.xml\")"
  },
  "streams": {
    "1907": {
      "latency_stats": {
        "min": 0.0001065239921445027,
        "max": 0.00011904400162165985,
        "mean": 0.00011119687019520825,
        "median": 0.00010952400043606758,
        "variance": 1.6606787924833424e-11,
        "std_deviation": 4.075142687665479e-06,
        "interval_size": 1.2520009477157146e-05,
        "jitter": 7.847131426451598e-06,
        "packages_received": 86400
      },
      "udp_dest_port": 6000,
      "name": "1---2---6000",
      "max_allowed_latency": 10000000,
      "talker": "h1",
      "listener": "h3"
    },
    "1908": {
      "latency_stats": {
        "min": 0.0001065239921445027,
        "max": 0.00011904400162165985,
        "mean": 0.00011437857273152186,
        "median": 0.00011604400060605258,
        "variance": 1.662860604295557e-11,
        "std_deviation": 4.077818784957906e-06,
        "interval_size": 1.2520009477157146e-05,
        "jitter": 7.854580587019158e-06,
        "packages_received": 86400
      },
      "udp_dest_port": 6001,
      "name": "1---2---6001",
      "max_allowed_latency": 10000000,
      "talker": "h2",
      "listener": "h3"
    }
  },
  "hosts": {
    "h3": {
      "received_periodically": {
        "is_periodic": false,
        "max-period-length": 250,
        "skipped": "first 0s"
      }
    }
  },
  "switches": {
    "s1": {
      "port_1": {
        "queue_7": {
          "queueLength": {
            "min": 0,
            "max": 1,
            "mean": 0.49999710649822626,
            "median": 0,
            "variance": 0.25000144675088687,
            "std_deviation": 0.5000014467487938,
            "interval_size": 1,
            "jitter": 0.5000028935017737
          },
          "queueingTime": {
            "min": 3.4476e-05,
            "max": 3.8476e-05,
            "mean": 3.647578009259259e-05,
            "median": 3.6476e-05,
            "variance": 9.956480494190831e-13,
            "std_deviation": 9.97821652109776e-07,
            "interval_size": 4.000000000000002e-06,
            "jitter": 2.0002199074074095e-06
          }
        }
      }
    },
    "s2": {
      "port_1": {
        "queue_7": {
          "queueLength": {
            "min": 0,
            "max": 1,
            "mean": 0.49999710649822626,
            "median": 0,
            "variance": 0.25000144675088687,
            "std_deviation": 0.5000014467487938,
            "interval_size": 1,
            "jitter": 0.5000028935017737
          },
          "queueingTime": {
            "min": 3.4476e-05,
            "max": 3.8476e-05,
            "mean": 3.647517824074074e-05,
            "median": 3.6476e-05,
            "variance": 1.001064151843108e-12,
            "std_deviation": 1.0005319344444274e-06,
            "interval_size": 4.000000000000002e-06,
            "jitter": 2.00082175925926e-06
          }
        }
      }
    },
    "s3": {
      "port_0": {
        "queue_7": {
          "queueLength": {
            "min": 0,
            "max": 2,
            "mean": 0.999997106489854,
            "median": 1,
            "variance": 0.5000028935101462,
            "std_deviation": 0.7071088272042332,
            "interval_size": 2,
            "jitter": 1.0000028935101462
          },
          "queueingTime": {
            "min": 3.4476e-05,
            "max": 4.6996e-05,
            "mean": 4.0740241898148145e-05,
            "median": 4.0736e-05,
            "variance": 1.5951421539989566e-11,
            "std_deviation": 3.9939230763736e-06,
            "interval_size": 1.2520000000000002e-05,
            "jitter": 6.2642418981481455e-06
          }
        }
      }
    }
  }
}