{
  "general": {
    "validation": {
      "valid": true,
      "errors": []
    }
  },
  "sim_parameters": {
    "**.displayAddresses": "false",
    "**.verbose": "false",
    "**.promiscuous": "true",
    "**.registerProtocol": "true",
    "**.*.clock.clockRate": "\"1us\"",
    "**.h1.eth.address": "\"12:23:34:45:56:67\"",
    "**.h2.eth.address": "\"aa:bb:cc:dd:ee:aa\"",
    "**.*.processingDelay[*].delay": "5us",
    "**.filteringDatabase.database": "xmldoc(\"xml/routing.xml\", \"/filteringDatabases/\")",
    "**.filteringDatabase.cycle": "xmldoc(\"xml/tas.xml\", \"/schedule/\")",
    "**.gateController.initialSchedule": "xmldoc(\"xml/tas.xml\")",
    "**.gateController.enableHoldAndRelease": "false",
    "**.*.eth[*].queuing.tsAlgorithms[*].typename": "\"StrictPriority\"",
    "**.s17.eth[1].queuing.queuingFrames.tciToQueueMapping": "xmldoc(\"xml/tci-maps/tci-map-s17-1.xml\")",
    "**.s62.eth[2].queuing.queuingFrames.tciToQueueMapping": "xmldoc(\"xml/tci-maps/tci-map-s62-2.xml\")",
    "**.s11.eth[1].queuing.queuingFrames.tciToQueueMapping": "xmldoc(\"xml/tci-maps/tci-map-s11-1.xml\")",
    "**.s53.eth[1].queuing.queuingFrames.tciToQueueMapping": "xmldoc(\"xml/tci-maps/tci-map-s53-1.xml\")",
    "**.s51.eth[1].queuing.queuingFrames.tciToQueueMapping": "xmldoc(\"xml/tci-maps/tci-map-s51-1.xml\")",
    "**.s45.eth[1].queuing.queuingFrames.tciToQueueMapping": "xmldoc(\"xml/tci-maps/tci-map-s45-1.xml\")",
    "**.s42.eth[1].queuing.queuingFrames.tciToQueueMapping": "xmldoc(\"xml/tci-maps/tci-map-s42-1.xml\")",
    "**.s5.eth[1].queuing.queuingFrames.tciToQueueMapping": "xmldoc(\"xml/tci-maps/tci-map-s5-1.xml\")",
    "**.s36.eth[1].queuing.queuingFrames.tciToQueueMapping": "xmldoc(\"xml/tci-maps/tci-map-s36-1.xml\")",
    "**.s15.eth[1].queuing.queuingFrames.tciToQueueMapping": "xmldoc(\"xml/tci-maps/tci-map-s15-1.xml\")",
    "**.s16.eth[1].queuing.queuingFrames.tciToQueueMapping": "xmldoc(\"xml/tci-maps/tci-map-s16-1.xml\")",
    "**.s43.eth[1].queuing.queuingFrames.tciToQueueMapping": "xmldoc(\"xml/tci-maps/tci-map-s43-1.xml\")",
    "**.s52.eth[1].queuing.queuingFrames.tciToQueueMapping": "xmldoc(\"xml/tci-maps/tci-map-s52-1.xml\")",
    "**.s49.eth[1].queuing.queuingFrames.tciToQueueMapping": "xmldoc(\"xml/tci-maps/tci-map-s49-1.xml\")",
    "**.s13.eth[1].queuing.queuingFrames.tciToQueueMapping": "xmldoc(\"xml/tci-maps/tci-map-s13-1.xml\")",
    "**.s9.eth[1].queuing.queuingFrames.tciToQueueMapping": "xmldoc(\"xml/tci-maps/tci-map-s9-1.xml\")",
    "**.s47.eth[1].queuing.queuingFrames.tciToQueueMapping": "xmldoc(\"xml/tci-maps/tci-map-s47-1.xml\")",
    "**.s48.eth[1].queuing.queuingFrames.tciToQueueMapping": "xmldoc(\"xml/tci-maps/tci-map-s48-1.xml\")",
    "**.s2.eth[1].queuing.queuingFrames.tciToQueueMapping": "xmldoc(\"xml/tci-maps/tci-map-s2-1.xml\")",
    "**.s57.eth[1].queuing.queuingFrames.tciToQueueMapping": "xmldoc(\"xml/tci-maps/tci-map-s57-1.xml\")",
    "**.s22.eth[1].queuing.queuingFrames.tciToQueueMapping": "xmldoc(\"xml/tci-maps/tci-map-s22-1.xml\")",
    "**.s38.eth[1].queuing.queuingFrames.tciToQueueMapping": "xmldoc(\"xml/tci-maps/tci-map-s38-1.xml\")",
    "**.s37.eth[1].queuing.queuingFrames.tciToQueueMapping": "xmldoc(\"xml/tci-maps/tci-map-s37-1.xml\")",
    "**.s39.eth[1].queuing.queuingFrames.tciToQueueMapping": "xmldoc(\"xml/tci-maps/tci-map-s39-1.xml\")",
    "**.s61.eth[1].queuing.queuingFrames.tciToQueueMapping": "xmldoc(\"xml/tci-maps/tci-map-s61-1.xml\")",
    "**.s60.eth[1].queuing.queuingFrames.tciToQueueMapping": "xmldoc(\"xml/tci-maps/tci-map-s60-1.xml\")",
    "**.s56.eth[1].queuing.queuingFrames.tciToQueueMapping": "xmldoc(\"xml/tci-maps/tci-map-s56-1.xml\")",
    "**.s23.eth[1].queuing.queuingFrames.tciToQueueMapping": "xmldoc(\"xml/tci-maps/tci-map-s23-1.xml\")",
    "**.s30.eth[1].queuing.queuingFrames.tciToQueueMapping": "xmldoc(\"xml/tci-maps/tci-map-s30-1.xml\")",
    "**.s34.eth[1].queuing.queuingFrames.tciToQueueMapping": "xmldoc(\"xml/tci-maps/tci-map-s34-1.xml\")",
    "**.s10.eth[1].queuing.queuingFrames.tciToQueueMapping": "xmldoc(\"xml/tci-maps/tci-map-s10-1.xml\")",
    "**.s54.eth[1].queuing.queuingFrames.tciToQueueMapping": "xmldoc(\"xml/tci-maps/tci-map-s54-1.xml\")",
    "**.s25.eth[1].queuing.queuingFrames.tciToQueueMapping": "xmldoc(\"xml/tci-maps/tci-map-s25-1.xml\")",
    "**.s24.eth[1].queuing.queuingFrames.tciToQueueMapping": "xmldoc(\"xml/tci-maps/tci-map-s24-1.xml\")",
    "**.s27.eth[1].queuing.queuingFrames.tciToQueueMapping": "xmldoc(\"xml/tci-maps/tci-map-s27-1.xml\")",
    "**.s21.eth[1].queuing.queuingFrames.tciToQueueMapping": "xmldoc(\"xml/tci-maps/tci-map-s21-1.xml\")",
    "**.s12.eth[1].queuing.queuingFrames.tciToQueueMapping": "xmldoc(\"xml/tci-maps/tci-map-s12-1.xml\")",
    "**.s46.eth[1].queuing.queuingFrames.tciToQueueMapping": "xmldoc(\"xml/tci-maps/tci-map-s46-1.xml\")",
    "**.s32.eth[1].queuing.queuingFrames.tciToQueueMapping": "xmldoc(\"xml/tci-maps/tci-map-s32-1.xml\")",
    "**.s14.eth[1].queuing.queuingFrames.tciToQueueMapping": "xmldoc(\"xml/tci-maps/tci-map-s14-1.xml\")",
    "**.s1.eth[1].queuing.queuingFrames.tciToQueueMapping": "xmldoc(\"xml/tci-maps/tci-map-s1-1.xml\")",
    "**.s41.eth[1].queuing.queuingFrames.tciToQueueMapping": "xmldoc(\"xml/tci-maps/tci-map-s41-1.xml\")",
    "**.s29.eth[1].queuing.queuingFrames.tciToQueueMapping": "xmldoc(\"xml/tci-maps/tci-map-s29-1.xml\")",
    "**.s55.eth[1].queuing.queuingFrames.tciToQueueMapping": "xmldoc(\"xml/tci-maps/tci-map-s55-1.xml\")",
    "**.s35.eth[1].queuing.queuingFrames.tciToQueueMapping": "xmldoc(\"xml/tci-maps/tci-map-s35-1.xml\")",
    "**.s18.eth[1].queuing.queuingFrames.tciToQueueMapping": "xmldoc(\"xml/tci-maps/tci-map-s18-1.xml\")",
    "**.s19.eth[1].queuing.queuingFrames.tciToQueueMapping": "xmldoc(\"xml/tci-maps/tci-map-s19-1.xml\")",
    "**.s59.eth[1].queuing.queuingFrames.tciToQueueMapping": "xmldoc(\"xml/tci-maps/tci-map-s59-1.xml\")",
    "**.s50.eth[1].queuing.queuingFrames.tciToQueueMapping": "xmldoc(\"xml/tci-maps/tci-map-s50-1.xml\")",
    "**.s7.eth[1].queuing.queuingFrames.tciToQueueMapping": "xmldoc(\"xml/tci-maps/tci-map-s7-1.xml\")",
    "**.s31.eth[1].queuing.queuingFrames.tciToQueueMapping": "xmldoc(\"xml/tci-maps/tci-map-s31-1.xml\")",
    "**.s3.eth[1].queuing.queuingFrames.tciToQueueMapping": "xmldoc(\"xml/tci-maps/tci-map-s3-1.xml\")",
    "**.s26.eth[1].queuing.queuingFrames.tciToQueueMapping": "xmldoc(\"xml/tci-maps/tci-map-s26-1.xml\")",
    "**.s28.eth[1].queuing.queuingFrames.tciToQueueMapping": "xmldoc(\"xml/tci-maps/tci-map-s28-1.xml\")",
    "**.s1.eth[2].queuing.queuingFrames.tciToQueueMapping": "xmldoc(\"xml/tci-maps/tci-map-s1-2.xml\")",
    "**.s20.eth[1].queuing.queuingFrames.tciToQueueMapping": "xmldoc(\"xml/tci-maps/tci-map-s20-1.xml\")",
    "**.s8.eth[1].queuing.queuingFrames.tciToQueueMapping": "xmldoc(\"xml/tci-maps/tci-map-s8-1.xml\")",
    "**.s6.eth[1].queuing.queuingFrames.tciToQueueMapping": "xmldoc(\"xml/tci-maps/tci-map-s6-1.xml\")",
    "**.s58.eth[1].queuing.queuingFrames.tciToQueueMapping": "xmldoc(\"xml/tci-maps/tci-map-s58-1.xml\")",
    "**.s33.eth[1].queuing.queuingFrames.tciToQueueMapping": "xmldoc(\"xml/tci-maps/tci-map-s33-1.xml\")",
    "**.s44.eth[1].queuing.queuingFrames.tciToQueueMapping": "xmldoc(\"xml/tci-maps/tci-map-s44-1.xml\")",
    "**.s40.eth[1].queuing.queuingFrames.tciToQueueMapping": "xmldoc(\"xml/tci-maps/tci-map-s40-1.xml\")",
    "**.s4.eth[1].queuing.queuingFrames.tciToQueueMapping": "xmldoc(\"xml/tci-maps/tci-map-s4-1.xml\")",
    "**.*.eth[*].queuing.queues[*].bufferCapacity": "365280b",
    "**.*.eth[*].queuing.queues[*].expressQueue": "true",
    "**.*.eth[*].mac.enablePreemptingFrames": "false",
    "**.*.trafGenSchedApp.jitter": "0.000011",
    "**.*.eth[*].queuing.gateController.jitter": "0.000011",
    "**.*.trafGenSchedApp.initialSchedule": "xmldoc(\"xml/traf-gen.xml\")"
  },
  "streams": {
    "1907": {
      "latency_stats": {
        "min": 0.0007975239996085293,
        "max": 0.000819524000689853,
        "mean": 0.0008085461522912621,
        "median": 0.0008085239969659597,
        "variance": 2.0457618745207567e-11,
        "std_deviation": 4.523009920971605e-06,
        "interval_size": 2.2000001081323717e-05,
        "jitter": 1.1022152682732848e-05,
        "packages_received": 86400
      },
      "udp_dest_port": 6000,
      "name": "1---2---6000",
      "max_allowed_latency": 10000000,
      "talker": "h1",
      "listener": "h2"
    },
    "1908": {
      "latency_stats": {
        "min": 0.0007860479963710532,
        "max": 0.0008080480038188398,
        "mean": 0.0007973751735175656,
        "median": 0.0007970480000949465,
        "variance": 1.8802784112581657e-11,
        "std_deviation": 4.336217719693242e-06,
        "interval_size": 2.200000744778663e-05,
        "jitter": 1.1327177146512406e-05,
        "packages_received": 86400
      },
      "udp_dest_port": 6001,
      "name": "1---2---6001",
      "max_allowed_latency": 10000000,
      "talker": "h1",
      "listener": "h2"
    }
  },
  "hosts": {
    "h2": {
      "received_periodically": {
        "is_periodic": true,
        "max-period-length": 250,
        "period": [
          1907,
          1908
        ],
        "period_length": 2,
        "skipped": "first 0s"
      }
    }
  },
  "switches": {
    "s60": {
      "port_1": {
        "queue_7": {
          "queueLength": {
            "min": 0,
            "max": 1,
            "mean": 0.49999710649822626,
            "median": 0,
            "variance": 0.25000144675088687,
            "std_deviation": 0.5000014467487938,
            "interval_size": 1,
            "jitter": 0.5000028935017737
          },
          "queueingTime": {
            "min": 4.76e-07,
            "max": 2.2476e-05,
            "mean": 1.1475942129629629e-05,
            "median": 1.1476e-05,
            "variance": 2.0561152324802927e-11,
            "std_deviation": 4.5344406848919e-06,
            "interval_size": 2.2e-05,
            "jitter": 1.1000057870370371e-05
          }
        }
      }
    },
    "s62": {
      "port_2": {
        "queue_7": {
          "queueLength": {
            "min": 0,
            "max": 1,
            "mean": 0.499998553244927,
            "median": 0,
            "variance": 0.25000072337753654,
            "std_deviation": 0.5000007233770133,
            "interval_size": 1,
            "jitter": 0.5000014467550731
          },
          "queueingTime": {
            "min": 0.0,
            "max": 2.2476e-05,
            "mean": 5.899682939814815e-06,
            "median": 3.476e-06,
            "variance": 4.2027837430661674e-11,
            "std_deviation": 6.482888047056009e-06,
            "interval_size": 2.2476e-05,
            "jitter": 1.6576317060185186e-05
          }
        }
      }
    },
    "s61": {
      "port_1": {
        "queue_7": {
          "queueLength": {
            "min": 0,
            "max": 1,
            "mean": 0.49999710649822626,
            "median": 0,
            "variance": 0.25000144675088687,
            "std_deviation": 0.5000014467487938,
            "interval_size": 1,
            "jitter": 0.5000028935017737
          },
          "queueingTime": {
            "min": 4.76e-07,
            "max": 2.2476e-05,
            "mean": 1.1467435185185186e-05,
            "median": 1.1476e-05,
            "variance": 2.0474260836780947e-11,
            "std_deviation": 4.5248492612219634e-06,
            "interval_size": 2.2e-05,
            "jitter": 1.1008564814814814e-05
          }
        }
      }
    },
    "s20": {
      "port_1": {
        "queue_7": {
          "queueLength": {
            "min": 0,
            "max": 1,
            "mean": 0.49999710649822626,
            "median": 0,
            "variance": 0.25000144675088687,
            "std_deviation": 0.5000014467487938,
            "interval_size": 1,
            "jitter": 0.5000028935017737
          },
          "queueingTime": {
            "min": 4.76e-07,
            "max": 2.2476e-05,
            "mean": 1.1497886574074073e-05,
            "median": 1.1476e-05,
            "variance": 2.049458457260415e-11,
            "std_deviation": 4.527094495656585e-06,
            "interval_size": 2.2e-05,
            "jitter": 1.1021886574074073e-05
          }
        }
      }
    },
    "s22": {
      "port_1": {
        "queue_7": {
          "queueLength": {
            "min": 0,
            "max": 1,
            "mean": 0.49999710649822626,
            "median": 0,
            "variance": 0.25000144675088687,
            "std_deviation": 0.5000014467487938,
            "interval_size": 1,
            "jitter": 0.5000028935017737
          },
          "queueingTime": {
            "min": 4.76e-07,
            "max": 2.2476e-05,
            "mean": 1.145949537037037e-05,
            "median": 1.1476e-05,
            "variance": 2.0432903903958935e-11,
            "std_deviation": 4.520276972040423e-06,
            "interval_size": 2.2e-05,
            "jitter": 1.101650462962963e-05
          }
        }
      }
    },
    "s21": {
      "port_1": {
        "queue_7": {
          "queueLength": {
            "min": 0,
            "max": 1,
            "mean": 0.49999710649822626,
            "median": 0,
            "variance": 0.25000144675088687,
            "std_deviation": 0.5000014467487938,
            "interval_size": 1,
            "jitter": 0.5000028935017737
          },
          "queueingTime": {
            "min": 4.76e-07,
            "max": 2.2476e-05,
            "mean": 1.1473893518518518e-05,
            "median": 1.1476e-05,
            "variance": 2.051546449172294e-11,
            "std_deviation": 4.529400014540882e-06,
            "interval_size": 2.2e-05,
            "jitter": 1.1002106481481482e-05
          }
        }
      }
    },
    "s24": {
      "port_1": {
        "queue_7": {
          "queueLength": {
            "min": 0,
            "max": 1,
            "mean": 0.49999710649822626,
            "median": 0,
            "variance": 0.25000144675088687,
            "std_deviation": 0.5000014467487938,
            "interval_size": 1,
            "jitter": 0.5000028935017737
          },
          "queueingTime": {
            "min": 4.76e-07,
            "max": 2.2476e-05,
            "mean": 1.1489321759259259e-05,
            "median": 1.1476e-05,
            "variance": 2.0495881510840316e-11,
            "std_deviation": 4.527237735180285e-06,
            "interval_size": 2.2e-05,
            "jitter": 1.1013321759259259e-05
          }
        }
      }
    },
    "s23": {
      "port_1": {
        "queue_7": {
          "queueLength": {
            "min": 0,
            "max": 1,
            "mean": 0.49999710649822626,
            "median": 0,
            "variance": 0.25000144675088687,
            "std_deviation": 0.5000014467487938,
            "interval_size": 1,
            "jitter": 0.5000028935017737
          },
          "queueingTime": {
            "min": 4.76e-07,
            "max": 2.2476e-05,
            "mean": 1.148494675925926e-05,
            "median": 1.1476e-05,
            "variance": 2.0381810948681033e-11,
            "std_deviation": 4.514621905395958e-06,
            "interval_size": 2.2e-05,
            "jitter": 1.100894675925926e-05
          }
        }
      }
    },
    "s26": {
      "port_1": {
        "queue_7": {
          "queueLength": {
            "min": 0,
            "max": 1,
            "mean": 0.49999710649822626,
            "median": 0,
            "variance": 0.25000144675088687,
            "std_deviation": 0.5000014467487938,
            "interval_size": 1,
            "jitter": 0.5000028935017737
          },
          "queueingTime": {
            "min": 4.76e-07,
            "max": 2.2476e-05,
            "mean": 1.1485270833333332e-05,
            "median": 1.1476e-05,
            "variance": 2.0430324124845194e-11,
            "std_deviation": 4.51999160672287e-06,
            "interval_size": 2.2e-05,
            "jitter": 1.1009270833333332e-05
          }
        }
      }
    },
    "s25": {
      "port_1": {
        "queue_7": {
          "queueLength": {
            "min": 0,
            "max": 1,
            "mean": 0.49999710649822626,
            "median": 0,
            "variance": 0.25000144675088687,
            "std_deviation": 0.5000014467487938,
            "interval_size": 1,
            "jitter": 0.5000028935017737
          },
          "queueingTime": {
            "min": 4.76e-07,
            "max": 2.2476e-05,
            "mean": 1.1468766203703704e-05,
            "median": 1.1476e-05,
            "variance": 2.041623721197369e-11,
            "std_deviation": 4.51843304830045e-06,
            "interval_size": 2.2e-05,
            "jitter": 1.1007233796296296e-05
          }
        }
      }
    },
    "s28": {
      "port_1": {
        "queue_7": {
          "queueLength": {
            "min": 0,
            "max": 1,
            "mean": 0.49999710649822626,
            "median": 0,
            "variance": 0.25000144675088687,
            "std_deviation": 0.5000014467487938,
            "interval_size": 1,
            "jitter": 0.5000028935017737
          },
          "queueingTime": {
            "min": 4.76e-07,
            "max": 2.2476e-05,
            "mean": 1.1464020833333333e-05,
            "median": 1.1476e-05,
            "variance": 2.051728146810148e-11,
            "std_deviation": 4.529600585934866e-06,
            "interval_size": 2.2e-05,
            "jitter": 1.1011979166666666e-05
          }
        }
      }
    },
    "s27": {
      "port_1": {
        "queue_7": {
          "queueLength": {
            "min": 0,
            "max": 1,
            "mean": 0.49999710649822626,
            "median": 0,
            "variance": 0.25000144675088687,
            "std_deviation": 0.5000014467487938,
            "interval_size": 1,
            "jitter": 0.5000028935017737
          },
          "queueingTime": {
            "min": 4.76e-07,
            "max": 2.2476e-05,
            "mean": 1.1484298611111111e-05,
            "median": 1.1476e-05,
            "variance": 2.0488327988701643e-11,
            "std_deviation": 4.52640342752407e-06,
            "interval_size": 2.2e-05,
            "jitter": 1.100829861111111e-05
          }
        }
      }
    },
    "s29": {
      "port_1": {
        "queue_7": {
          "queueLength": {
            "min": 0,
            "max": 1,
            "mean": 0.49999710649822626,
            "median": 0,
            "variance": 0.25000144675088687,
            "std_deviation": 0.5000014467487938,
            "interval_size": 1,
            "jitter": 0.5000028935017737
          },
          "queueingTime": {
            "min": 4.76e-07,
            "max": 2.2476e-05,
            "mean": 1.1489159722222222e-05,
            "median": 1.1476e-05,
            "variance": 2.0431440611532926e-11,
            "std_deviation": 4.520115110429481e-06,
            "interval_size": 2.2e-05,
            "jitter": 1.1013159722222222e-05
          }
        }
      }
    },
    "s31": {
      "port_1": {
        "queue_7": {
          "queueLength": {
            "min": 0,
            "max": 1,
            "mean": 0.49999710649822626,
            "median": 0,
            "variance": 0.25000144675088687,
            "std_deviation": 0.5000014467487938,
            "interval_size": 1,
            "jitter": 0.5000028935017737
          },
          "queueingTime": {
            "min": 4.76e-07,
            "max": 2.2476e-05,
            "mean": 1.1464865740740741e-05,
            "median": 1.1476e-05,
            "variance": 2.0503469818430683e-11,
            "std_deviation": 4.528075730200488e-06,
            "interval_size": 2.2e-05,
            "jitter": 1.1011134259259258e-05
          }
        }
      }
    },
    "s30": {
      "port_1": {
        "queue_7": {
          "queueLength": {
            "min": 0,
            "max": 1,
            "mean": 0.49999710649822626,
            "median": 0,
            "variance": 0.25000144675088687,
            "std_deviation": 0.5000014467487938,
            "interval_size": 1,
            "jitter": 0.5000028935017737
          },
          "queueingTime": {
            "min": 4.76e-07,
            "max": 2.2476e-05,
            "mean": 1.146900925925926e-05,
            "median": 1.1476e-05,
            "variance": 2.06337084641326e-11,
            "std_deviation": 4.54243420030853e-06,
            "interval_size": 2.2e-05,
            "jitter": 1.100699074074074e-05
          }
        }
      }
    },
    "s33": {
      "port_1": {
        "queue_7": {
          "queueLength": {
            "min": 0,
            "max": 1,
            "mean": 0.49999710649822626,
            "median": 0,
            "variance": 0.25000144675088687,
            "std_deviation": 0.5000014467487938,
            "interval_size": 1,
            "jitter": 0.5000028935017737
          },
          "queueingTime": {
            "min": 4.76e-07,
            "max": 2.2476e-05,
            "mean": 1.1513581018518518e-05,
            "median": 1.1476e-05,
            "variance": 2.0498003153194716e-11,
            "std_deviation": 4.52747204885847e-06,
            "interval_size": 2.2e-05,
            "jitter": 1.1037581018518518e-05
          }
        }
      }
    },
    "s32": {
      "port_1": {
        "queue_7": {
          "queueLength": {
            "min": 0,
            "max": 1,
            "mean": 0.49999710649822626,
            "median": 0,
            "variance": 0.25000144675088687,
            "std_deviation": 0.5000014467487938,
            "interval_size": 1,
            "jitter": 0.5000028935017737
          },
          "queueingTime": {
            "min": 4.76e-07,
            "max": 2.2476e-05,
            "mean": 1.1503465277777777e-05,
            "median": 1.1476e-05,
            "variance": 2.0520420663385378e-11,
            "std_deviation": 4.529947092779934e-06,
            "interval_size": 2.2e-05,
            "jitter": 1.1027465277777777e-05
          }
        }
      }
    },
    "s35": {
      "port_1": {
        "queue_7": {
          "queueLength": {
            "min": 0,
            "max": 1,
            "mean": 0.49999710649822626,
            "median": 0,
            "variance": 0.25000144675088687,
            "std_deviation": 0.5000014467487938,
            "interval_size": 1,
            "jitter": 0.5000028935017737
          },
          "queueingTime": {
            "min": 4.76e-07,
            "max": 2.2476e-05,
            "mean": 1.144187962962963e-05,
            "median": 1.1476e-05,
            "variance": 2.0539883715646572e-11,
            "std_deviation": 4.532094848483047e-06,
            "interval_size": 2.2e-05,
            "jitter": 1.103412037037037e-05
          }
        }
      }
    },
    "s34": {
      "port_1": {
        "queue_7": {
          "queueLength": {
            "min": 0,
            "max": 1,
            "mean": 0.49999710649822626,
            "median": 0,
            "variance": 0.25000144675088687,
            "std_deviation": 0.5000014467487938,
            "interval_size": 1,
            "jitter": 0.5000028935017737
          },
          "queueingTime": {
            "min": 4.76e-07,
            "max": 2.2476e-05,
            "mean": 1.1451810185185185e-05,
            "median": 1.1476e-05,
            "variance": 2.052745336505095e-11,
            "std_deviation": 4.530723271736087e-06,
            "interval_size": 2.2e-05,
            "jitter": 1.1024189814814814e-05
          }
        }
      }
    },
    "s37": {
      "port_1": {
        "queue_7": {
          "queueLength": {
            "min": 0,
            "max": 1,
            "mean": 0.49999710649822626,
            "median": 0,
            "variance": 0.25000144675088687,
            "std_deviation": 0.5000014467487938,
            "interval_size": 1,
            "jitter": 0.5000028935017737
          },
          "queueingTime": {
            "min": 4.76e-07,
            "max": 2.2476e-05,
            "mean": 1.1475108796296297e-05,
            "median": 1.1476e-05,
            "variance": 2.0403094148975275e-11,
            "std_deviation": 4.516978431316146e-06,
            "interval_size": 2.2e-05,
            "jitter": 1.1000891203703703e-05
          }
        }
      }
    },
    "s36": {
      "port_1": {
        "queue_7": {
          "queueLength": {
            "min": 0,
            "max": 1,
            "mean": 0.49999710649822626,
            "median": 0,
            "variance": 0.25000144675088687,
            "std_deviation": 0.5000014467487938,
            "interval_size": 1,
            "jitter": 0.5000028935017737
          },
          "queueingTime": {
            "min": 4.76e-07,
            "max": 2.2476e-05,
            "mean": 1.147062962962963e-05,
            "median": 1.1476e-05,
            "variance": 2.0465022837627148e-11,
            "std_deviation": 4.523828338656005e-06,
            "interval_size": 2.2e-05,
            "jitter": 1.100537037037037e-05
          }
        }
      }
    },
    "s39": {
      "port_1": {
        "queue_7": {
          "queueLength": {
            "min": 0,
            "max": 1,
            "mean": 0.49999710649822626,
            "median": 0,
            "variance": 0.25000144675088687,
            "std_deviation": 0.5000014467487938,
            "interval_size": 1,
            "jitter": 0.5000028935017737
          },
          "queueingTime": {
            "min": 4.76e-07,
            "max": 2.2476e-05,
            "mean": 1.1485328703703704e-05,
            "median": 1.1476e-05,
            "variance": 2.0482094481010367e-11,
            "std_deviation": 4.525714803322273e-06,
            "interval_size": 2.2e-05,
            "jitter": 1.1009328703703703e-05
          }
        }
      }
    },
    "s38": {
      "port_1": {
        "queue_7": {
          "queueLength": {
            "min": 0,
            "max": 1,
            "mean": 0.49999710649822626,
            "median": 0,
            "variance": 0.25000144675088687,
            "std_deviation": 0.5000014467487938,
            "interval_size": 1,
            "jitter": 0.5000028935017737
          },
          "queueingTime": {
            "min": 4.76e-07,
            "max": 2.2476e-05,
            "mean": 1.1467793981481482e-05,
            "median": 1.1476e-05,
            "variance": 2.0405087812739388e-11,
            "std_deviation": 4.5171991114781945e-06,
            "interval_size": 2.2e-05,
            "jitter": 1.1008206018518517e-05
          }
        }
      }
    },
    "s40": {
      "port_1": {
        "queue_7": {
          "queueLength": {
            "min": 0,
            "max": 1,
            "mean": 0.49999710649822626,
            "median": 0,
            "variance": 0.25000144675088687,
            "std_deviation": 0.5000014467487938,
            "interval_size": 1,
            "jitter": 0.5000028935017737
          },
          "queueingTime": {
            "min": 4.76e-07,
            "max": 2.2476e-05,
            "mean": 1.149480787037037e-05,
            "median": 1.1476e-05,
            "variance": 2.0551492924809872e-11,
            "std_deviation": 4.533375444942749e-06,
            "interval_size": 2.2e-05,
            "jitter": 1.101880787037037e-05
          }
        }
      }
    },
    "s42": {
      "port_1": {
        "queue_7": {
          "queueLength": {
            "min": 0,
            "max": 1,
            "mean": 0.49999710649822626,
            "median": 0,
            "variance": 0.25000144675088687,
            "std_deviation": 0.5000014467487938,
            "interval_size": 1,
            "jitter": 0.5000028935017737
          },
          "queueingTime": {
            "min": 4.76e-07,
            "max": 2.2476e-05,
            "mean": 1.1460282407407408e-05,
            "median": 1.1476e-05,
            "variance": 2.0588764401315515e-11,
            "std_deviation": 4.537484369264044e-06,
            "interval_size": 2.2e-05,
            "jitter": 1.1015717592592592e-05
          }
        }
      }
    },
    "s41": {
      "port_1": {
        "queue_7": {
          "queueLength": {
            "min": 0,
            "max": 1,
            "mean": 0.49999710649822626,
            "median": 0,
            "variance": 0.25000144675088687,
            "std_deviation": 0.5000014467487938,
            "interval_size": 1,
            "jitter": 0.5000028935017737
          },
          "queueingTime": {
            "min": 4.76e-07,
            "max": 2.2476e-05,
            "mean": 1.1457898148148148e-05,
            "median": 1.1476e-05,
            "variance": 2.0438519991014984e-11,
            "std_deviation": 4.520898139862807e-06,
            "interval_size": 2.2e-05,
            "jitter": 1.1018101851851851e-05
          }
        }
      }
    },
    "s44": {
      "port_1": {
        "queue_7": {
          "queueLength": {
            "min": 0,
            "max": 1,
            "mean": 0.49999710649822626,
            "median": 0,
            "variance": 0.25000144675088687,
            "std_deviation": 0.5000014467487938,
            "interval_size": 1,
            "jitter": 0.5000028935017737
          },
          "queueingTime": {
            "min": 4.76e-07,
            "max": 2.2476e-05,
            "mean": 1.1484310185185185e-05,
            "median": 1.1476e-05,
            "variance": 2.0421139518825876e-11,
            "std_deviation": 4.518975494382092e-06,
            "interval_size": 2.2e-05,
            "jitter": 1.1008310185185185e-05
          }
        }
      }
    },
    "s43": {
      "port_1": {
        "queue_7": {
          "queueLength": {
            "min": 0,
            "max": 1,
            "mean": 0.49999710649822626,
            "median": 0,
            "variance": 0.25000144675088687,
            "std_deviation": 0.5000014467487938,
            "interval_size": 1,
            "jitter": 0.5000028935017737
          },
          "queueingTime": {
            "min": 4.76e-07,
            "max": 2.2476e-05,
            "mean": 1.1491474537037038e-05,
            "median": 1.1476e-05,
            "variance": 2.0579848268428818e-11,
            "std_deviation": 4.5365017655048715e-06,
            "interval_size": 2.2e-05,
            "jitter": 1.1015474537037037e-05
          }
        }
      }
    },
    "s46": {
      "port_1": {
        "queue_7": {
          "queueLength": {
            "min": 0,
            "max": 1,
            "mean": 0.49999710649822626,
            "median": 0,
            "variance": 0.25000144675088687,
            "std_deviation": 0.5000014467487938,
            "interval_size": 1,
            "jitter": 0.5000028935017737
          },
          "queueingTime": {
            "min": 4.76e-07,
            "max": 2.2476e-05,
            "mean": 1.1490351851851852e-05,
            "median": 1.1476e-05,
            "variance": 2.0493503439897494e-11,
            "std_deviation": 4.526975087174381e-06,
            "interval_size": 2.2e-05,
            "jitter": 1.1014351851851852e-05
          }
        }
      }
    },
    "s45": {
      "port_1": {
        "queue_7": {
          "queueLength": {
            "min": 0,
            "max": 1,
            "mean": 0.49999710649822626,
            "median": 0,
            "variance": 0.25000144675088687,
            "std_deviation": 0.5000014467487938,
            "interval_size": 1,
            "jitter": 0.5000028935017737
          },
          "queueingTime": {
            "min": 4.76e-07,
            "max": 2.2476e-05,
            "mean": 1.147549074074074e-05,
            "median": 1.1476e-05,
            "variance": 2.059213622371315e-11,
            "std_deviation": 4.537855906010365e-06,
            "interval_size": 2.2e-05,
            "jitter": 1.1000509259259259e-05
          }
        }
      }
    },
    "s48": {
      "port_1": {
        "queue_7": {
          "queueLength": {
            "min": 0,
            "max": 1,
            "mean": 0.49999710649822626,
            "median": 0,
            "variance": 0.25000144675088687,
            "std_deviation": 0.5000014467487938,
            "interval_size": 1,
            "jitter": 0.5000028935017737
          },
          "queueingTime": {
            "min": 4.76e-07,
            "max": 2.2476e-05,
            "mean": 1.1458418981481482e-05,
            "median": 1.1476e-05,
            "variance": 2.0528203965704122e-11,
            "std_deviation": 4.5308061055075094e-06,
            "interval_size": 2.2e-05,
            "jitter": 1.1017581018518518e-05
          }
        }
      }
    },
    "s47": {
      "port_1": {
        "queue_7": {
          "queueLength": {
            "min": 0,
            "max": 1,
            "mean": 0.49999710649822626,
            "median": 0,
            "variance": 0.25000144675088687,
            "std_deviation": 0.5000014467487938,
            "interval_size": 1,
            "jitter": 0.5000028935017737
          },
          "queueingTime": {
            "min": 4.76e-07,
            "max": 2.2476e-05,
            "mean": 1.1457666666666667e-05,
            "median": 1.1476e-05,
            "variance": 2.0517308765147745e-11,
            "std_deviation": 4.529603599118552e-06,
            "interval_size": 2.2e-05,
            "jitter": 1.1018333333333333e-05
          }
        }
      }
    },
    "s49": {
      "port_1": {
        "queue_7": {
          "queueLength": {
            "min": 0,
            "max": 1,
            "mean": 0.49999710649822626,
            "median": 0,
            "variance": 0.25000144675088687,
            "std_deviation": 0.5000014467487938,
            "interval_size": 1,
            "jitter": 0.5000028935017737
          },
          "queueingTime": {
            "min": 4.76e-07,
            "max": 2.2476e-05,
            "mean": 1.1487145833333333e-05,
            "median": 1.1476e-05,
            "variance": 2.057116710335189e-11,
            "std_deviation": 4.5355448518730235e-06,
            "interval_size": 2.2e-05,
            "jitter": 1.1011145833333333e-05
          }
        }
      }
    },
    "s9": {
      "port_1": {
        "queue_7": {
          "queueLength": {
            "min": 0,
            "max": 1,
            "mean": 0.49999710649822626,
            "median": 0,
            "variance": 0.25000144675088687,
            "std_deviation": 0.5000014467487938,
            "interval_size": 1,
            "jitter": 0.5000028935017737
          },
          "queueingTime": {
            "min": 4.76e-07,
            "max": 2.2476e-05,
            "mean": 1.146986574074074e-05,
            "median": 1.1476e-05,
            "variance": 2.0352211817759377e-11,
            "std_deviation": 4.511342573753336e-06,
            "interval_size": 2.2e-05,
            "jitter": 1.100613425925926e-05
          }
        }
      }
    },
    "s51": {
      "port_1": {
        "queue_7": {
          "queueLength": {
            "min": 0,
            "max": 1,
            "mean": 0.49999710649822626,
            "median": 0,
            "variance": 0.25000144675088687,
            "std_deviation": 0.5000014467487938,
            "interval_size": 1,
            "jitter": 0.5000028935017737
          },
          "queueingTime": {
            "min": 4.76e-07,
            "max": 2.2476e-05,
            "mean": 1.1452388888888888e-05,
            "median": 1.1476e-05,
            "variance": 2.0518638333005398e-11,
            "std_deviation": 4.529750361002844e-06,
            "interval_size": 2.2e-05,
            "jitter": 1.1023611111111111e-05
          }
        }
      }
    },
    "s50": {
      "port_1": {
        "queue_7": {
          "queueLength": {
            "min": 0,
            "max": 1,
            "mean": 0.49999710649822626,
            "median": 0,
            "variance": 0.25000144675088687,
            "std_deviation": 0.5000014467487938,
            "interval_size": 1,
            "jitter": 0.5000028935017737
          },
          "queueingTime": {
            "min": 4.76e-07,
            "max": 2.2476e-05,
            "mean": 1.1497701388888889e-05,
            "median": 1.1476e-05,
            "variance": 2.0407415709624338e-11,
            "std_deviation": 4.517456774516425e-06,
            "interval_size": 2.2e-05,
            "jitter": 1.1021701388888888e-05
          }
        }
      }
    },
    "s53": {
      "port_1": {
        "queue_7": {
          "queueLength": {
            "min": 0,
            "max": 1,
            "mean": 0.49999710649822626,
            "median": 0,
            "variance": 0.25000144675088687,
            "std_deviation": 0.5000014467487938,
            "interval_size": 1,
            "jitter": 0.5000028935017737
          },
          "queueingTime": {
            "min": 4.76e-07,
            "max": 2.2476e-05,
            "mean": 1.1506509259259259e-05,
            "median": 1.1476e-05,
            "variance": 2.0572270253042196e-11,
            "std_deviation": 4.535666461838017e-06,
            "interval_size": 2.2e-05,
            "jitter": 1.1030509259259258e-05
          }
        }
      }
    },
    "s5": {
      "port_1": {
        "queue_7": {
          "queueLength": {
            "min": 0,
            "max": 1,
            "mean": 0.49999710649822626,
            "median": 0,
            "variance": 0.25000144675088687,
            "std_deviation": 0.5000014467487938,
            "interval_size": 1,
            "jitter": 0.5000028935017737
          },
          "queueingTime": {
            "min": 4.76e-07,
            "max": 2.2476e-05,
            "mean": 1.14950625e-05,
            "median": 1.1476e-05,
            "variance": 2.0404791769146634e-11,
            "std_deviation": 4.517166342868794e-06,
            "interval_size": 2.2e-05,
            "jitter": 1.10190625e-05
          }
        }
      }
    },
    "s6": {
      "port_1": {
        "queue_7": {
          "queueLength": {
            "min": 0,
            "max": 1,
            "mean": 0.49999710649822626,
            "median": 0,
            "variance": 0.25000144675088687,
            "std_deviation": 0.5000014467487938,
            "interval_size": 1,
            "jitter": 0.5000028935017737
          },
          "queueingTime": {
            "min": 4.76e-07,
            "max": 2.2476e-05,
            "mean": 1.1477400462962964e-05,
            "median": 1.1476e-05,
            "variance": 2.0434690569844343e-11,
            "std_deviation": 4.52047459564196e-06,
            "interval_size": 2.2e-05,
            "jitter": 1.1001400462962963e-05
          }
        }
      }
    },
    "s52": {
      "port_1": {
        "queue_7": {
          "queueLength": {
            "min": 0,
            "max": 1,
            "mean": 0.49999710649822626,
            "median": 0,
            "variance": 0.25000144675088687,
            "std_deviation": 0.5000014467487938,
            "interval_size": 1,
            "jitter": 0.5000028935017737
          },
          "queueingTime": {
            "min": 4.76e-07,
            "max": 2.2476e-05,
            "mean": 1.146836111111111e-05,
            "median": 1.1476e-05,
            "variance": 2.0466335933672073e-11,
            "std_deviation": 4.5239734673925835e-06,
            "interval_size": 2.2e-05,
            "jitter": 1.1007638888888889e-05
          }
        }
      }
    },
    "s55": {
      "port_1": {
        "queue_7": {
          "queueLength": {
            "min": 0,
            "max": 1,
            "mean": 0.49999710649822626,
            "median": 0,
            "variance": 0.25000144675088687,
            "std_deviation": 0.5000014467487938,
            "interval_size": 1,
            "jitter": 0.5000028935017737
          },
          "queueingTime": {
            "min": 4.76e-07,
            "max": 2.2476e-05,
            "mean": 1.1470895833333333e-05,
            "median": 1.1476e-05,
            "variance": 2.0585640447950785e-11,
            "std_deviation": 4.537140117733944e-06,
            "interval_size": 2.2e-05,
            "jitter": 1.1005104166666667e-05
          }
        }
      }
    },
    "s11": {
      "port_1": {
        "queue_7": {
          "queueLength": {
            "min": 0,
            "max": 1,
            "mean": 0.49999710649822626,
            "median": 0,
            "variance": 0.25000144675088687,
            "std_deviation": 0.5000014467487938,
            "interval_size": 1,
            "jitter": 0.5000028935017737
          },
          "queueingTime": {
            "min": 4.76e-07,
            "max": 2.2476e-05,
            "mean": 1.1476509259259259e-05,
            "median": 1.1476e-05,
            "variance": 2.038116155965454e-11,
            "std_deviation": 4.514549984179435e-06,
            "interval_size": 2.2e-05,
            "jitter": 1.1000509259259259e-05
          }
        }
      }
    },
    "s7": {
      "port_1": {
        "queue_7": {
          "queueLength": {
            "min": 0,
            "max": 1,
            "mean": 0.49999710649822626,
            "median": 0,
            "variance": 0.25000144675088687,
            "std_deviation": 0.5000014467487938,
            "interval_size": 1,
            "jitter": 0.5000028935017737
          },
          "queueingTime": {
            "min": 4.76e-07,
            "max": 2.2476e-05,
            "mean": 1.1464703703703704e-05,
            "median": 1.1476e-05,
            "variance": 2.0407816928608142e-11,
            "std_deviation": 4.517501181915523e-06,
            "interval_size": 2.2e-05,
            "jitter": 1.1011296296296296e-05
          }
        }
      }
    },
    "s10": {
      "port_1": {
        "queue_7": {
          "queueLength": {
            "min": 0,
            "max": 1,
            "mean": 0.49999710649822626,
            "median": 0,
            "variance": 0.25000144675088687,
            "std_deviation": 0.5000014467487938,
            "interval_size": 1,
            "jitter": 0.5000028935017737
          },
          "queueingTime": {
            "min": 4.76e-07,
            "max": 2.2476e-05,
            "mean": 1.1475976851851852e-05,
            "median": 1.1476e-05,
            "variance": 2.0559913887356376e-11,
            "std_deviation": 4.534304123827203e-06,
            "interval_size": 2.2e-05,
            "jitter": 1.1000023148148147e-05
          }
        }
      }
    },
    "s8": {
      "port_1": {
        "queue_7": {
          "queueLength": {
            "min": 0,
            "max": 1,
            "mean": 0.49999710649822626,
            "median": 0,
            "variance": 0.25000144675088687,
            "std_deviation": 0.5000014467487938,
            "interval_size": 1,
            "jitter": 0.5000028935017737
          },
          "queueingTime": {
            "min": 4.76e-07,
            "max": 2.2476e-05,
            "mean": 1.1487921296296295e-05,
            "median": 1.1476e-05,
            "variance": 2.0505187803849753e-11,
            "std_deviation": 4.5282654299245485e-06,
            "interval_size": 2.2e-05,
            "jitter": 1.1011921296296295e-05
          }
        }
      }
    },
    "s54": {
      "port_1": {
        "queue_7": {
          "queueLength": {
            "min": 0,
            "max": 1,
            "mean": 0.49999710649822626,
            "median": 0,
            "variance": 0.25000144675088687,
            "std_deviation": 0.5000014467487938,
            "interval_size": 1,
            "jitter": 0.5000028935017737
          },
          "queueingTime": {
            "min": 4.76e-07,
            "max": 2.2476e-05,
            "mean": 1.1469333333333334e-05,
            "median": 1.1476e-05,
            "variance": 2.0488711211935322e-11,
            "std_deviation": 4.526445759305564e-06,
            "interval_size": 2.2e-05,
            "jitter": 1.1006666666666666e-05
          }
        }
      }
    },
    "s13": {
      "port_1": {
        "queue_7": {
          "queueLength": {
            "min": 0,
            "max": 1,
            "mean": 0.49999710649822626,
            "median": 0,
            "variance": 0.25000144675088687,
            "std_deviation": 0.5000014467487938,
            "interval_size": 1,
            "jitter": 0.5000028935017737
          },
          "queueingTime": {
            "min": 4.76e-07,
            "max": 2.2476e-05,
            "mean": 1.1483974537037036e-05,
            "median": 1.1476e-05,
            "variance": 2.034233620231694e-11,
            "std_deviation": 4.510247909186028e-06,
            "interval_size": 2.2e-05,
            "jitter": 1.1007974537037036e-05
          }
        }
      }
    },
    "s57": {
      "port_1": {
        "queue_7": {
          "queueLength": {
            "min": 0,
            "max": 1,
            "mean": 0.49999710649822626,
            "median": 0,
            "variance": 0.25000144675088687,
            "std_deviation": 0.5000014467487938,
            "interval_size": 1,
            "jitter": 0.5000028935017737
          },
          "queueingTime": {
            "min": 4.76e-07,
            "max": 2.2476e-05,
            "mean": 1.1459217592592592e-05,
            "median": 1.1476e-05,
            "variance": 2.0484423031623736e-11,
            "std_deviation": 4.525972053782893e-06,
            "interval_size": 2.2e-05,
            "jitter": 1.1016782407407408e-05
          }
        }
      }
    },
    "s1": {
      "port_1": {
        "queue_7": {
          "queueLength": {
            "min": 0,
            "max": 1,
            "mean": 0.49999710649822626,
            "median": 0,
            "variance": 0.25000144675088687,
            "std_deviation": 0.5000014467487938,
            "interval_size": 1,
            "jitter": 0.5000028935017737
          },
          "queueingTime": {
            "min": 4.76e-07,
            "max": 2.2476e-05,
            "mean": 1.1476775462962962e-05,
            "median": 1.1476e-05,
            "variance": 2.043524749179946e-11,
            "std_deviation": 4.520536195165288e-06,
            "interval_size": 2.2e-05,
            "jitter": 1.1000775462962962e-05
          }
        }
      },
      "port_2": {
        "queue_7": {
          "queueLength": {
            "min": 0,
            "max": 1,
            "mean": 0.49999710649822626,
            "median": 0,
            "variance": 0.25000144675088687,
            "std_deviation": 0.5000014467487938,
            "interval_size": 1,
            "jitter": 0.5000028935017737
          },
          "queueingTime": {
            "min": 4.76e-07,
            "max": 2.2476e-05,
            "mean": 1.1487203703703704e-05,
            "median": 1.1476e-05,
            "variance": 2.0508028505131016e-11,
            "std_deviation": 4.528579082353648e-06,
            "interval_size": 2.2e-05,
            "jitter": 1.1011203703703704e-05
          }
        }
      }
    },
    "s12": {
      "port_1": {
        "queue_7": {
          "queueLength": {
            "min": 0,
            "max": 1,
            "mean": 0.49999710649822626,
            "median": 0,
            "variance": 0.25000144675088687,
            "std_deviation": 0.5000014467487938,
            "interval_size": 1,
            "jitter": 0.5000028935017737
          },
          "queueingTime": {
            "min": 4.76e-07,
            "max": 2.2476e-05,
            "mean": 1.147043287037037e-05,
            "median": 1.1476e-05,
            "variance": 2.0485125084904318e-11,
            "std_deviation": 4.526049611405548e-06,
            "interval_size": 2.2e-05,
            "jitter": 1.1005567129629629e-05
          }
        }
      }
    },
    "s56": {
      "port_1": {
        "queue_7": {
          "queueLength": {
            "min": 0,
            "max": 1,
            "mean": 0.49999710649822626,
            "median": 0,
            "variance": 0.25000144675088687,
            "std_deviation": 0.5000014467487938,
            "interval_size": 1,
            "jitter": 0.5000028935017737
          },
          "queueingTime": {
            "min": 4.76e-07,
            "max": 2.2476e-05,
            "mean": 1.147230787037037e-05,
            "median": 1.1476e-05,
            "variance": 2.0528152203273744e-11,
            "std_deviation": 4.530800393227861e-06,
            "interval_size": 2.2e-05,
            "jitter": 1.100369212962963e-05
          }
        }
      }
    },
    "s2": {
      "port_1": {
        "queue_7": {
          "queueLength": {
            "min": 0,
            "max": 1,
            "mean": 0.49999710649822626,
            "median": 0,
            "variance": 0.25000144675088687,
            "std_deviation": 0.5000014467487938,
            "interval_size": 1,
            "jitter": 0.5000028935017737
          },
          "queueingTime": {
            "min": 4.76e-07,
            "max": 2.2476e-05,
            "mean": 1.1485780092592593e-05,
            "median": 1.1476e-05,
            "variance": 2.0579760597018013e-11,
            "std_deviation": 4.5364921026072574e-06,
            "interval_size": 2.2e-05,
            "jitter": 1.1009780092592593e-05
          }
        }
      }
    },
    "s59": {
      "port_1": {
        "queue_7": {
          "queueLength": {
            "min": 0,
            "max": 1,
            "mean": 0.49999710649822626,
            "median": 0,
            "variance": 0.25000144675088687,
            "std_deviation": 0.5000014467487938,
            "interval_size": 1,
            "jitter": 0.5000028935017737
          },
          "queueingTime": {
            "min": 4.76e-07,
            "max": 2.2476e-05,
            "mean": 1.150744675925926e-05,
            "median": 1.1476e-05,
            "variance": 2.044074073953509e-11,
            "std_deviation": 4.52114374241022e-06,
            "interval_size": 2.2e-05,
            "jitter": 1.103144675925926e-05
          }
        }
      }
    },
    "s15": {
      "port_1": {
        "queue_7": {
          "queueLength": {
            "min": 0,
            "max": 1,
            "mean": 0.49999710649822626,
            "median": 0,
            "variance": 0.25000144675088687,
            "std_deviation": 0.5000014467487938,
            "interval_size": 1,
            "jitter": 0.5000028935017737
          },
          "queueingTime": {
            "min": 4.76e-07,
            "max": 2.2476e-05,
            "mean": 1.146074537037037e-05,
            "median": 1.1476e-05,
            "variance": 2.046028188287073e-11,
            "std_deviation": 4.523304310221758e-06,
            "interval_size": 2.2e-05,
            "jitter": 1.1015254629629629e-05
          }
        }
      }
    },
    "s3": {
      "port_1": {
        "queue_7": {
          "queueLength": {
            "min": 0,
            "max": 1,
            "mean": 0.49999710649822626,
            "median": 0,
            "variance": 0.25000144675088687,
            "std_deviation": 0.5000014467487938,
            "interval_size": 1,
            "jitter": 0.5000028935017737
          },
          "queueingTime": {
            "min": 4.76e-07,
            "max": 2.2476e-05,
            "mean": 1.1473210648148149e-05,
            "median": 1.1476e-05,
            "variance": 2.0540241527867264e-11,
            "std_deviation": 4.532134323678774e-06,
            "interval_size": 2.2e-05,
            "jitter": 1.100278935185185e-05
          }
        }
      }
    },
    "s14": {
      "port_1": {
        "queue_7": {
          "queueLength": {
            "min": 0,
            "max": 1,
            "mean": 0.49999710649822626,
            "median": 0,
            "variance": 0.25000144675088687,
            "std_deviation": 0.5000014467487938,
            "interval_size": 1,
            "jitter": 0.5000028935017737
          },
          "queueingTime": {
            "min": 4.76e-07,
            "max": 2.2476e-05,
            "mean": 1.1470502314814815e-05,
            "median": 1.1476e-05,
            "variance": 2.0684017044173392e-11,
            "std_deviation": 4.547968452416243e-06,
            "interval_size": 2.2e-05,
            "jitter": 1.1005497685185185e-05
          }
        }
      }
    },
    "s58": {
      "port_1": {
        "queue_7": {
          "queueLength": {
            "min": 0,
            "max": 1,
            "mean": 0.49999710649822626,
            "median": 0,
            "variance": 0.25000144675088687,
            "std_deviation": 0.5000014467487938,
            "interval_size": 1,
            "jitter": 0.5000028935017737
          },
          "queueingTime": {
            "min": 4.76e-07,
            "max": 2.2476e-05,
            "mean": 1.148449537037037e-05,
            "median": 1.1476e-05,
            "variance": 2.050018824752773e-11,
            "std_deviation": 4.527713357482751e-06,
            "interval_size": 2.2e-05,
            "jitter": 1.100849537037037e-05
          }
        }
      }
    },
    "s4": {
      "port_1": {
        "queue_7": {
          "queueLength": {
            "min": 0,
            "max": 1,
            "mean": 0.49999710649822626,
            "median": 0,
            "variance": 0.25000144675088687,
            "std_deviation": 0.5000014467487938,
            "interval_size": 1,
            "jitter": 0.5000028935017737
          },
          "queueingTime": {
            "min": 4.76e-07,
            "max": 2.2476e-05,
            "mean": 1.1445814814814816e-05,
            "median": 1.1476e-05,
            "variance": 2.0566294483003703e-11,
            "std_deviation": 4.535007660743662e-06,
            "interval_size": 2.2e-05,
            "jitter": 1.1030185185185184e-05
          }
        }
      }
    },
    "s17": {
      "port_1": {
        "queue_7": {
          "queueLength": {
            "min": 0,
            "max": 1,
            "mean": 0.49999710649822626,
            "median": 0,
            "variance": 0.25000144675088687,
            "std_deviation": 0.5000014467487938,
            "interval_size": 1,
            "jitter": 0.5000028935017737
          },
          "queueingTime": {
            "min": 4.76e-07,
            "max": 2.2476e-05,
            "mean": 1.1508766203703703e-05,
            "median": 1.1476e-05,
            "variance": 2.050070300440184e-11,
            "std_deviation": 4.52777020225208e-06,
            "interval_size": 2.2e-05,
            "jitter": 1.1032766203703703e-05
          }
        }
      }
    },
    "s16": {
      "port_1": {
        "queue_7": {
          "queueLength": {
            "min": 0,
            "max": 1,
            "mean": 0.49999710649822626,
            "median": 0,
            "variance": 0.25000144675088687,
            "std_deviation": 0.5000014467487938,
            "interval_size": 1,
            "jitter": 0.5000028935017737
          },
          "queueingTime": {
            "min": 4.76e-07,
            "max": 2.2476e-05,
            "mean": 1.1502909722222222e-05,
            "median": 1.1476e-05,
            "variance": 2.044709354154369e-11,
            "std_deviation": 4.521846253638406e-06,
            "interval_size": 2.2e-05,
            "jitter": 1.1026909722222221e-05
          }
        }
      }
    },
    "s19": {
      "port_1": {
        "queue_7": {
          "queueLength": {
            "min": 0,
            "max": 1,
            "mean": 0.49999710649822626,
            "median": 0,
            "variance": 0.25000144675088687,
            "std_deviation": 0.5000014467487938,
            "interval_size": 1,
            "jitter": 0.5000028935017737
          },
          "queueingTime": {
            "min": 4.76e-07,
            "max": 2.2476e-05,
            "mean": 1.144418287037037e-05,
            "median": 1.1476e-05,
            "variance": 2.0628890782423963e-11,
            "std_deviation": 4.541903871992885e-06,
            "interval_size": 2.2e-05,
            "jitter": 1.1031817129629629e-05
          }
        }
      }
    },
    "s18": {
      "port_1": {
        "queue_7": {
          "queueLength": {
            "min": 0,
            "max": 1,
            "mean": 0.49999710649822626,
            "median": 0,
            "variance": 0.25000144675088687,
            "std_deviation": 0.5000014467487938,
            "interval_size": 1,
            "jitter": 0.5000028935017737
          },
          "queueingTime": {
            "min": 4.76e-07,
            "max": 2.2476e-05,
            "mean": 1.1449807870370371e-05,
            "median": 1.1476e-05,
            "variance": 2.0614772476656536e-11,
            "std_deviation": 4.540349378258961e-06,
            "interval_size": 2.2e-05,
            "jitter": 1.1026192129629629e-05
          }
        }
      }
    }
  }
}