{
  "general": {
    "validation": {
      "valid": false,
      "errors": [
        "Host h2: No periodicity found in the streams received",
        "Stream 1---2---6001 (-> vid 1908): max latency (13.000051048002206) higher than allowed (0.01)",
        "Stream 1---2---6000 (-> vid 1907): max latency (14.000078523999036) higher than allowed (0.01)"
      ]
    }
  },
  "sim_parameters": {
    "**.displayAddresses": "false",
    "**.verbose": "false",
    "**.promiscuous": "true",
    "**.registerProtocol": "true",
    "**.*.clock.clockRate": "\"1us\"",
    "**.h1.eth.address": "\"12:23:34:45:56:67\"",
    "**.h2.eth.address": "\"aa:bb:cc:dd:ee:aa\"",
    "**.*.processingDelay[*].delay": "5us",
    "**.filteringDatabase.database": "xmldoc(\"xml/routing.xml\", \"/filteringDatabases/\")",
    "**.filteringDatabase.cycle": "xmldoc(\"xml/tas.xml\", \"/schedule/\")",
    "**.gateController.initialSchedule": "xmldoc(\"xml/tas.xml\")",
    "**.gateController.enableHoldAndRelease": "false",
    "**.*.eth[*].queuing.tsAlgorithms[*].typename": "\"StrictPriority\"",
    "**.s11.eth[1].queuing.queuingFrames.tciToQueueMapping": "xmldoc(\"xml/tci-maps/tci-map-s11-1.xml\")",
    "**.s22.eth[2].queuing.queuingFrames.tciToQueueMapping": "xmldoc(\"xml/tci-maps/tci-map-s22-2.xml\")",
    "**.s11.eth[2].queuing.queuingFrames.tciToQueueMapping": "xmldoc(\"xml/tci-maps/tci-map-s11-2.xml\")",
    "**.s21.eth[1].queuing.queuingFrames.tciToQueueMapping": "xmldoc(\"xml/tci-maps/tci-map-s21-1.xml\")",
    "**.s12.eth[1].queuing.queuingFrames.tciToQueueMapping": "xmldoc(\"xml/tci-maps/tci-map-s12-1.xml\")",
    "**.*.eth[*].queuing.queues[*].bufferCapacity": "365280b",
    "**.*.eth[*].queuing.queues[*].expressQueue": "true",
    "**.*.eth[*].mac.enablePreemptingFrames": "false",
    "**.*.trafGenSchedApp.jitter": "0.000013",
    "**.*.eth[*].queuing.gateController.jitter": "0.000013",
    "**.*.trafGenSchedApp.initialSchedule": "xmldoc(\"xml/traf-gen.xml\")"
  },
  "streams": {
    "1908": {
      "latency_stats": {
        "min": 4.909599374514073e-05,
        "max": 13.000051048002206,
        "mean": 2.005086431761066,
        "median": 2.000057048004237,
        "variance": 3.050845071313652,
        "std_deviation": 1.7466668461139496,
        "interval_size": 13.00000195200846,
        "jitter": 10.99496461624114,
        "packages_received": 86396
      },
      "udp_dest_port": 6001,
      "name": "1---2---6001",
      "max_allowed_latency": 10000000,
      "talker": "h1",
      "listener": "h2"
    },
    "1907": {
      "latency_stats": {
        "min": 5.552399670705199e-05,
        "max": 14.000078523999036,
        "mean": 1.9214438335691202,
        "median": 2.0000605240056757,
        "variance": 2.9550416245444,
        "std_deviation": 1.7190234508419016,
        "interval_size": 14.00002300000233,
        "jitter": 12.078634690429917,
        "packages_received": 86396
      },
      "udp_dest_port": 6000,
      "name": "1---2---6000",
      "max_allowed_latency": 10000000,
      "talker": "h1",
      "listener": "h2"
    }
  },
  "hosts": {
    "h2": {
      "received_periodically": {
        "is_periodic": false,
        "max-period-length": 250,
        "skipped": "first 0s"
      }
    }
  },
  "switches": {
    "s12": {
      "port_1": {
        "queue_7": {
          "queueLength": {
            "min": 0,
            "max": 12,
            "mean": 1.7033999826383865,
            "median": 1,
            "variance": 2.3999904655844526,
            "std_deviation": 1.5491902612605246,
            "interval_size": 12,
            "jitter": 10.296600017361614
          },
          "queueingTime": {
            "min": 0.0,
            "max": 11.000014476,
            "mean": 1.1986152952082967,
            "median": 1.000003476,
            "variance": 2.0790438455198417,
            "std_deviation": 1.4418889851579564,
            "interval_size": 11.000014476,
            "jitter": 9.801399180791703
          }
        }
      }
    },
    "s22": {
      "port_2": {
        "queue_7": {
          "queueLength": {
            "min": 0,
            "max": 4,
            "mean": 0.5815009332002257,
            "median": 1,
            "variance": 0.32677072858103684,
            "std_deviation": 0.5716386346119695,
            "interval_size": 4,
            "jitter": 3.4184990667997743
          },
          "queueingTime": {
            "min": 0.0,
            "max": 1.000000956,
            "mean": 0.007394937085351174,
            "median": 2.996e-06,
            "variance": 0.00733549848508012,
            "std_deviation": 0.08564752468740776,
            "interval_size": 1.000000956,
            "jitter": 0.9926060189146488
          }
        }
      }
    },
    "s11": {
      "port_1": {
        "queue_7": {
          "queueLength": {
            "min": 0,
            "max": 12,
            "mean": 1.2379643400714124,
            "median": 1,
            "variance": 1.6072344954007773,
            "std_deviation": 1.2677675241939184,
            "interval_size": 12,
            "jitter": 10.762035659928587
          },
          "queueingTime": {
            "min": 0.0,
            "max": 11.000017476,
            "mean": 0.791679808997199,
            "median": 1.2996e-05,
            "variance": 1.4173328893512787,
            "std_deviation": 1.1905179080346833,
            "interval_size": 11.000017476,
            "jitter": 10.208337667002802
          }
        }
      },
      "port_2": {
        "queue_7": {
          "queueLength": {
            "min": 0,
            "max": 11,
            "mean": 1.1843449980034837,
            "median": 1,
            "variance": 1.4658604750497628,
            "std_deviation": 1.2107272504778948,
            "interval_size": 11,
            "jitter": 9.815655001996516
          },
          "queueingTime": {
            "min": 0.0,
            "max": 10.000009476,
            "mean": 0.7378767633721759,
            "median": 1.2476e-05,
            "variance": 1.2718349401330016,
            "std_deviation": 1.1277565961381035,
            "interval_size": 10.000009476,
            "jitter": 9.262132712627825
          }
        }
      }
    },
    "s21": {
      "port_1": {
        "queue_7": {
          "queueLength": {
            "min": 0,
            "max": 15,
            "mean": 1.6846473029045643,
            "median": 1,
            "variance": 2.4181219520699293,
            "std_deviation": 1.5550311739865312,
            "interval_size": 15,
            "jitter": 13.315352697095436
          },
          "queueingTime": {
            "min": 0.0,
            "max": 14.000009952,
            "mean": 1.1834641357852216,
            "median": 1.000003476,
            "variance": 2.1100076878309673,
            "std_deviation": 1.4525865508915354,
            "interval_size": 14.000009952,
            "jitter": 12.816545816214777
          }
        }
      }
    }
  }
}