{
  "general": {
    "validation": {
      "valid": true,
      "errors": []
    }
  },
  "sim_parameters": {
    "**.displayAddresses": "false",
    "**.verbose": "false",
    "**.promiscuous": "true",
    "**.registerProtocol": "true",
    "**.*.clock.clockRate": "\"1us\"",
    "**.h1.eth.address": "\"12:23:34:45:56:67\"",
    "**.h2.eth.address": "\"aa:bb:cc:dd:ee:aa\"",
    "**.*.processingDelay[*].delay": "5us",
    "**.filteringDatabase.database": "xmldoc(\"xml/routing.xml\", \"/filteringDatabases/\")",
    "**.filteringDatabase.cycle": "xmldoc(\"xml/tas.xml\", \"/schedule/\")",
    "**.gateController.initialSchedule": "xmldoc(\"xml/tas.xml\")",
    "**.gateController.enableHoldAndRelease": "false",
    "**.*.eth[*].queuing.tsAlgorithms[*].typename": "\"StrictPriority\"",
    "**.s11.eth[1].queuing.queuingFrames.tciToQueueMapping": "xmldoc(\"xml/tci-maps/tci-map-s11-1.xml\")",
    "**.s22.eth[2].queuing.queuingFrames.tciToQueueMapping": "xmldoc(\"xml/tci-maps/tci-map-s22-2.xml\")",
    "**.s11.eth[2].queuing.queuingFrames.tciToQueueMapping": "xmldoc(\"xml/tci-maps/tci-map-s11-2.xml\")",
    "**.s21.eth[1].queuing.queuingFrames.tciToQueueMapping": "xmldoc(\"xml/tci-maps/tci-map-s21-1.xml\")",
    "**.s12.eth[1].queuing.queuingFrames.tciToQueueMapping": "xmldoc(\"xml/tci-maps/tci-map-s12-1.xml\")",
    "**.*.eth[*].queuing.queues[*].bufferCapacity": "365280b",
    "**.*.eth[*].queuing.queues[*].expressQueue": "true",
    "**.*.eth[*].mac.enablePreemptingFrames": "false",
    "**.*.trafGenSchedApp.jitter": "0.000005",
    "**.*.eth[*].queuing.gateController.jitter": "0.000005",
    "**.*.trafGenSchedApp.initialSchedule": "xmldoc(\"xml/traf-gen.xml\")"
  },
  "streams": {
    "1907": {
      "latency_stats": {
        "min": 0.0001535239971417468,
        "max": 0.00016352400416508317,
        "mean": 0.00015853008844798382,
        "median": 0.00015852399997129396,
        "variance": 4.49313937922458e-12,
        "std_deviation": 2.119702662928124e-06,
        "interval_size": 1.0000007023336366e-05,
        "jitter": 5.0060913062370115e-06,
        "packages_received": 86400
      },
      "udp_dest_port": 6000,
      "name": "1---2---6000",
      "max_allowed_latency": 10000000,
      "talker": "h1",
      "listener": "h2"
    },
    "1908": {
      "latency_stats": {
        "min": 0.00011704799908329733,
        "max": 0.00012704800246865489,
        "mean": 0.00012204353194766678,
        "median": 0.00012204800003701166,
        "variance": 4.4963723930096884e-12,
        "std_deviation": 2.120465136004289e-06,
        "interval_size": 1.0000003385357559e-05,
        "jitter": 5.004470520988106e-06,
        "packages_received": 86400
      },
      "udp_dest_port": 6001,
      "name": "1---2---6001",
      "max_allowed_latency": 10000000,
      "talker": "h1",
      "listener": "h2"
    }
  },
  "hosts": {
    "h2": {
      "received_periodically": {
        "is_periodic": true,
        "max-period-length": 250,
        "period": [
          1907,
          1908
        ],
        "period_length": 2,
        "skipped": "first 0s"
      }
    }
  },
  "switches": {
    "s12": {
      "port_1": {
        "queue_7": {
          "queueLength": {
            "min": 0,
            "max": 1,
            "mean": 0.49999710649822626,
            "median": 0,
            "variance": 0.25000144675088687,
            "std_deviation": 0.5000014467487938,
            "interval_size": 1,
            "jitter": 0.5000028935017737
          },
          "queueingTime": {
            "min": 3.1476e-05,
            "max": 4.1476e-05,
            "mean": 3.646757407407407e-05,
            "median": 3.6476e-05,
            "variance": 4.506184862393383e-12,
            "std_deviation": 2.122777629049586e-06,
            "interval_size": 9.999999999999999e-06,
            "jitter": 5.008425925925927e-06
          }
        }
      }
    },
    "s11": {
      "port_1": {
        "queue_7": {
          "queueLength": {
            "min": 0,
            "max": 1,
            "mean": 0.49999710649822626,
            "median": 0,
            "variance": 0.25000144675088687,
            "std_deviation": 0.5000014467487938,
            "interval_size": 1,
            "jitter": 0.5000028935017737
          },
          "queueingTime": {
            "min": 3.1476e-05,
            "max": 4.1476e-05,
            "mean": 3.647995833333333e-05,
            "median": 3.6476e-05,
            "variance": 4.495383583722033e-12,
            "std_deviation": 2.120231964602466e-06,
            "interval_size": 9.999999999999999e-06,
            "jitter": 5.00395833333333e-06
          }
        }
      },
      "port_2": {
        "queue_7": {
          "queueLength": {
            "min": 0,
            "max": 1,
            "mean": 0.49999710649822626,
            "median": 0,
            "variance": 0.25000144675088687,
            "std_deviation": 0.5000014467487938,
            "interval_size": 1,
            "jitter": 0.5000028935017737
          },
          "queueingTime": {
            "min": 3.1476e-05,
            "max": 4.1476e-05,
            "mean": 3.647561805555555e-05,
            "median": 3.6476e-05,
            "variance": 4.479901241864296e-12,
            "std_deviation": 2.116577719306403e-06,
            "interval_size": 9.999999999999999e-06,
            "jitter": 5.0003819444444485e-06
          }
        }
      }
    },
    "s22": {
      "port_2": {
        "queue_7": {
          "queueLength": {
            "min": 0,
            "max": 1,
            "mean": 0.499998553244927,
            "median": 0,
            "variance": 0.25000072337753654,
            "std_deviation": 0.5000007233770133,
            "interval_size": 1,
            "jitter": 0.5000014467550731
          },
          "queueingTime": {
            "min": 0.0,
            "max": 4.1476e-05,
            "mean": 1.8241078703703704e-05,
            "median": 1.5738e-05,
            "variance": 3.3500210115411334e-10,
            "std_deviation": 1.8303062616789392e-05,
            "interval_size": 4.1476e-05,
            "jitter": 2.3234921296296297e-05
          }
        }
      }
    },
    "s21": {
      "port_1": {
        "queue_7": {
          "queueLength": {
            "min": 0,
            "max": 1,
            "mean": 0.49999710649822626,
            "median": 0,
            "variance": 0.25000144675088687,
            "std_deviation": 0.5000014467487938,
            "interval_size": 1,
            "jitter": 0.5000028935017737
          },
          "queueingTime": {
            "min": 3.1476e-05,
            "max": 4.1476e-05,
            "mean": 3.64763125e-05,
            "median": 3.6476e-05,
            "variance": 4.5060590002488446e-12,
            "std_deviation": 2.1227479832162942e-06,
            "interval_size": 9.999999999999999e-06,
            "jitter": 5.000312499999998e-06
          }
        }
      }
    }
  }
}