{
  "s22": [
    {
      "mac": "aa:bb:cc:dd:ee:aa",
      "vid": 1908,
      "port": 2
    },
    {
      "mac": "aa:bb:cc:dd:ee:aa",
      "vid": 1907,
      "port": 2
    }
  ],
  "s11": [
    {
      "mac": "aa:bb:cc:dd:ee:aa",
      "vid": 1907,
      "port": 2
    },
    {
      "mac": "aa:bb:cc:dd:ee:aa",
      "vid": 1908,
      "port": 1
    }
  ],
  "s12": [
    {
      "mac": "aa:bb:cc:dd:ee:aa",
      "vid": 1908,
      "port": 1
    }
  ],
  "s21": [
    {
      "mac": "aa:bb:cc:dd:ee:aa",
      "vid": 1907,
      "port": 1
    }
  ]
}