{
  "general": {
    "validation": {
      "valid": false,
      "errors": [
        "Host h3: No periodicity found in the streams received"
      ]
    }
  },
  "sim_parameters": {
    "**.displayAddresses": "false",
    "**.verbose": "false",
    "**.promiscuous": "true",
    "**.registerProtocol": "true",
    "**.*.clock.clockRate": "\"1us\"",
    "**.h3.eth.address": "\"aa:aa:aa:aa:aa:bb\"",
    "**.h1.eth.address": "\"12:23:34:45:56:67\"",
    "**.h2.eth.address": "\"aa:bb:cc:dd:ee:aa\"",
    "**.*.processingDelay[*].delay": "5us",
    "**.filteringDatabase.database": "xmldoc(\"xml/routing.xml\", \"/filteringDatabases/\")",
    "**.filteringDatabase.cycle": "xmldoc(\"xml/tas.xml\", \"/schedule/\")",
    "**.gateController.initialSchedule": "xmldoc(\"xml/tas.xml\")",
    "**.gateController.enableHoldAndRelease": "false",
    "**.*.eth[*].queuing.tsAlgorithms[*].typename": "\"StrictPriority\"",
    "**.s2.eth[1].queuing.queuingFrames.tciToQueueMapping": "xmldoc(\"xml/tci-maps/tci-map-s2-1.xml\")",
    "**.s3.eth[0].queuing.queuingFrames.tciToQueueMapping": "xmldoc(\"xml/tci-maps/tci-map-s3-0.xml\")",
    "**.s1.eth[1].queuing.queuingFrames.tciToQueueMapping": "xmldoc(\"xml/tci-maps/tci-map-s1-1.xml\")",
    "**.*.eth[*].queuing.queues[*].bufferCapacity": "365280b",
    "**.*.eth[*].queuing.queues[*].expressQueue": "true",
    "**.*.eth[*].mac.enablePreemptingFrames": "false",
    "**.*.trafGenSchedApp.jitter": "0.000001",
    "**.*.eth[*].queuing.gateController.jitter": "0.000001",
    "**.*.trafGenSchedApp.initialSchedule": "xmldoc(\"xml/traf-gen.xml\")"
  },
  "streams": {
    "1908": {
      "latency_stats": {
        "min": 0.00020752399723278359,
        "max": 0.00021804400603286922,
        "mean": 0.00021489510555948023,
        "median": 0.00021704399841837585,
        "variance": 1.4210177157935831e-11,
        "std_deviation": 3.7696388630657754e-06,
        "interval_size": 1.0520008800085634e-05,
        "jitter": 7.371108326696647e-06,
        "packages_received": 86400
      },
      "udp_dest_port": 6001,
      "name": "1---2---6001",
      "max_allowed_latency": 10000000,
      "talker": "h2",
      "listener": "h3"
    },
    "1907": {
      "latency_stats": {
        "min": 0.00020752399723278359,
        "max": 0.00021804400603286922,
        "mean": 0.0002106752333036944,
        "median": 0.00020852400120929815,
        "variance": 1.418176035945624e-11,
        "std_deviation": 3.7658678096099233e-06,
        "interval_size": 1.0520008800085634e-05,
        "jitter": 7.368772729174811e-06,
        "packages_received": 86400
      },
      "udp_dest_port": 6000,
      "name": "1---2---6000",
      "max_allowed_latency": 10000000,
      "talker": "h1",
      "listener": "h3"
    }
  },
  "hosts": {
    "h3": {
      "received_periodically": {
        "is_periodic": false,
        "max-period-length": 250,
        "skipped": "first 0s"
      }
    }
  },
  "switches": {
    "s1": {
      "port_1": {
        "queue_7": {
          "queueLength": {
            "min": 0,
            "max": 1,
            "mean": 0.49999710649822626,
            "median": 0,
            "variance": 0.25000144675088687,
            "std_deviation": 0.5000014467487938,
            "interval_size": 1,
            "jitter": 0.5000028935017737
          },
          "queueingTime": {
            "min": 8.5476e-05,
            "max": 8.7476e-05,
            "mean": 8.647706481481482e-05,
            "median": 8.6476e-05,
            "variance": 4.986851935443326e-13,
            "std_deviation": 7.061764606274643e-07,
            "interval_size": 1.9999999999999944e-06,
            "jitter": 1.0010648148148102e-06
          }
        }
      }
    },
    "s2": {
      "port_1": {
        "queue_7": {
          "queueLength": {
            "min": 0,
            "max": 1,
            "mean": 0.49999710649822626,
            "median": 0,
            "variance": 0.25000144675088687,
            "std_deviation": 0.5000014467487938,
            "interval_size": 1,
            "jitter": 0.5000028935017737
          },
          "queueingTime": {
            "min": 8.5476e-05,
            "max": 8.7476e-05,
            "mean": 8.647392824074074e-05,
            "median": 8.6476e-05,
            "variance": 5.020964265222091e-13,
            "std_deviation": 7.085876279770972e-07,
            "interval_size": 1.9999999999999944e-06,
            "jitter": 1.0020717592592622e-06
          }
        }
      }
    },
    "s3": {
      "port_0": {
        "queue_7": {
          "queueLength": {
            "min": 0,
            "max": 2,
            "mean": 0.999997106489854,
            "median": 1,
            "variance": 0.5000028935101462,
            "std_deviation": 0.7071088272042332,
            "interval_size": 2,
            "jitter": 1.0000028935101462
          },
          "queueingTime": {
            "min": 8.5476e-05,
            "max": 9.5996e-05,
            "mean": 9.07376724537037e-05,
            "median": 9.0736e-05,
            "variance": 1.6508381626403365e-11,
            "std_deviation": 4.063050778221134e-06,
            "interval_size": 1.0519999999999987e-05,
            "jitter": 5.261672453703699e-06
          }
        }
      }
    }
  }
}