{
  "general": {
    "validation": {
      "valid": false,
      "errors": [
        "Host h3: No periodicity found in the streams received"
      ]
    }
  },
  "sim_parameters": {
    "**.displayAddresses": "false",
    "**.verbose": "false",
    "**.promiscuous": "true",
    "**.registerProtocol": "true",
    "**.*.clock.clockRate": "\"1us\"",
    "**.h3.eth.address": "\"aa:aa:aa:aa:aa:bb\"",
    "**.h1.eth.address": "\"12:23:34:45:56:67\"",
    "**.h2.eth.address": "\"aa:bb:cc:dd:ee:aa\"",
    "**.*.processingDelay[*].delay": "5us",
    "**.filteringDatabase.database": "xmldoc(\"xml/routing.xml\", \"/filteringDatabases/\")",
    "**.filteringDatabase.cycle": "xmldoc(\"xml/tas.xml\", \"/schedule/\")",
    "**.gateController.initialSchedule": "xmldoc(\"xml/tas.xml\")",
    "**.gateController.enableHoldAndRelease": "false",
    "**.*.eth[*].queuing.tsAlgorithms[*].typename": "\"StrictPriority\"",
    "**.s2.eth[1].queuing.queuingFrames.tciToQueueMapping": "xmldoc(\"xml/tci-maps/tci-map-s2-1.xml\")",
    "**.s3.eth[0].queuing.queuingFrames.tciToQueueMapping": "xmldoc(\"xml/tci-maps/tci-map-s3-0.xml\")",
    "**.s1.eth[1].queuing.queuingFrames.tciToQueueMapping": "xmldoc(\"xml/tci-maps/tci-map-s1-1.xml\")",
    "**.*.eth[*].queuing.queues[*].bufferCapacity": "365280b",
    "**.*.eth[*].queuing.queues[*].expressQueue": "true",
    "**.*.eth[*].mac.enablePreemptingFrames": "false",
    "**.*.trafGenSchedApp.jitter": "0.000004",
    "**.*.eth[*].queuing.gateController.jitter": "0.000004",
    "**.*.trafGenSchedApp.initialSchedule": "xmldoc(\"xml/traf-gen.xml\")"
  },
  "streams": {
    "1907": {
      "latency_stats": {
        "min": 3.6523997550830245e-05,
        "max": 5.30440011061728e-05,
        "mean": 4.3996752656349426e-05,
        "median": 4.252399958204478e-05,
        "variance": 1.9901538081997522e-11,
        "std_deviation": 4.461113995629065e-06,
        "interval_size": 1.6520003555342555e-05,
        "jitter": 9.047248449823374e-06,
        "packages_received": 86400
      },
      "udp_dest_port": 6000,
      "name": "1---2---6000",
      "max_allowed_latency": 10000000,
      "talker": "h1",
      "listener": "h3"
    },
    "1908": {
      "latency_stats": {
        "min": 3.6523997550830245e-05,
        "max": 5.30440011061728e-05,
        "mean": 4.560301495036858e-05,
        "median": 4.7043999074958265e-05,
        "variance": 2.0418411088244374e-11,
        "std_deviation": 4.518673598329976e-06,
        "interval_size": 1.6520003555342555e-05,
        "jitter": 9.079017399538332e-06,
        "packages_received": 86400
      },
      "udp_dest_port": 6001,
      "name": "1---2---6001",
      "max_allowed_latency": 10000000,
      "talker": "h2",
      "listener": "h3"
    }
  },
  "hosts": {
    "h3": {
      "received_periodically": {
        "is_periodic": false,
        "max-period-length": 250,
        "skipped": "first 0s"
      }
    }
  },
  "switches": {
    "s1": {
      "port_1": {
        "queue_7": {
          "queueLength": {
            "min": 0,
            "max": 1,
            "mean": 0.49999710649822626,
            "median": 0,
            "variance": 0.25000144675088687,
            "std_deviation": 0.5000014467487938,
            "interval_size": 1,
            "jitter": 0.5000028935017737
          },
          "queueingTime": {
            "min": 0.0,
            "max": 6.476e-06,
            "mean": 2.538505601851852e-06,
            "median": 2.476e-06,
            "variance": 2.6719774663281832e-12,
            "std_deviation": 1.634618446711092e-06,
            "interval_size": 6.476e-06,
            "jitter": 3.937494398148148e-06
          }
        }
      }
    },
    "s2": {
      "port_1": {
        "queue_7": {
          "queueLength": {
            "min": 0,
            "max": 1,
            "mean": 0.49999710649822626,
            "median": 0,
            "variance": 0.25000144675088687,
            "std_deviation": 0.5000014467487938,
            "interval_size": 1,
            "jitter": 0.5000028935017737
          },
          "queueingTime": {
            "min": 0.0,
            "max": 6.476e-06,
            "mean": 2.5274672685185186e-06,
            "median": 2.476e-06,
            "variance": 2.6749666699780714e-12,
            "std_deviation": 1.6355325340628572e-06,
            "interval_size": 6.476e-06,
            "jitter": 3.948532731481482e-06
          }
        }
      }
    },
    "s3": {
      "port_0": {
        "queue_7": {
          "queueLength": {
            "min": 0,
            "max": 2,
            "mean": 0.9394995963553346,
            "median": 1,
            "variance": 0.4963425840862086,
            "std_deviation": 0.7045158508409932,
            "interval_size": 2,
            "jitter": 1.0605004036446655
          },
          "queueingTime": {
            "min": 0.0,
            "max": 1.4996e-05,
            "mean": 6.694897037037037e-06,
            "median": 6.7359999999999995e-06,
            "variance": 1.5342053147206194e-11,
            "std_deviation": 3.9168933030153115e-06,
            "interval_size": 1.4996e-05,
            "jitter": 8.301102962962963e-06
          }
        }
      }
    }
  }
}