{
  "general": {
    "validation": {
      "valid": true,
      "errors": []
    }
  },
  "sim_parameters": {
    "**.displayAddresses": "false",
    "**.verbose": "false",
    "**.promiscuous": "true",
    "**.registerProtocol": "true",
    "**.*.clock.clockRate": "\"1us\"",
    "**.h1.eth.address": "\"12:23:34:45:56:67\"",
    "**.h2.eth.address": "\"aa:bb:cc:dd:ee:aa\"",
    "**.*.processingDelay[*].delay": "5us",
    "**.filteringDatabase.database": "xmldoc(\"xml/routing.xml\", \"/filteringDatabases/\")",
    "**.filteringDatabase.cycle": "xmldoc(\"xml/tas.xml\", \"/schedule/\")",
    "**.gateController.initialSchedule": "xmldoc(\"xml/tas.xml\")",
    "**.gateController.enableHoldAndRelease": "false",
    "**.*.eth[*].queuing.tsAlgorithms[*].typename": "\"StrictPriority\"",
    "**.s11.eth[1].queuing.queuingFrames.tciToQueueMapping": "xmldoc(\"xml/tci-maps/tci-map-s11-1.xml\")",
    "**.s22.eth[2].queuing.queuingFrames.tciToQueueMapping": "xmldoc(\"xml/tci-maps/tci-map-s22-2.xml\")",
    "**.s11.eth[2].queuing.queuingFrames.tciToQueueMapping": "xmldoc(\"xml/tci-maps/tci-map-s11-2.xml\")",
    "**.s21.eth[1].queuing.queuingFrames.tciToQueueMapping": "xmldoc(\"xml/tci-maps/tci-map-s21-1.xml\")",
    "**.s12.eth[1].queuing.queuingFrames.tciToQueueMapping": "xmldoc(\"xml/tci-maps/tci-map-s12-1.xml\")",
    "**.*.eth[*].queuing.queues[*].bufferCapacity": "365280b",
    "**.*.eth[*].queuing.queues[*].expressQueue": "true",
    "**.*.eth[*].mac.enablePreemptingFrames": "false",
    "**.*.trafGenSchedApp.jitter": "0.000007",
    "**.*.eth[*].queuing.gateController.jitter": "0.000007",
    "**.*.trafGenSchedApp.initialSchedule": "xmldoc(\"xml/traf-gen.xml\")"
  },
  "streams": {
    "1907": {
      "latency_stats": {
        "min": 6.152399873826653e-05,
        "max": 7.552400347776711e-05,
        "mean": 6.853687581948726e-05,
        "median": 6.852400110801682e-05,
        "variance": 8.474055707622238e-12,
        "std_deviation": 2.9110231375965112e-06,
        "interval_size": 1.4000004739500582e-05,
        "jitter": 7.012877081220728e-06,
        "packages_received": 86400
      },
      "udp_dest_port": 6000,
      "name": "1---2---6000",
      "max_allowed_latency": 10000000,
      "talker": "h1",
      "listener": "h2"
    },
    "1908": {
      "latency_stats": {
        "min": 5.50479962839745e-05,
        "max": 6.904800102347508e-05,
        "mean": 6.207492337966683e-05,
        "median": 6.204799865372479e-05,
        "variance": 8.313229257726201e-12,
        "std_deviation": 2.8832671152229723e-06,
        "interval_size": 1.4000004739500582e-05,
        "jitter": 7.026927095692327e-06,
        "packages_received": 86400
      },
      "udp_dest_port": 6001,
      "name": "1---2---6001",
      "max_allowed_latency": 10000000,
      "talker": "h1",
      "listener": "h2"
    }
  },
  "hosts": {
    "h2": {
      "received_periodically": {
        "is_periodic": true,
        "max-period-length": 250,
        "period": [
          1907,
          1908
        ],
        "period_length": 2,
        "skipped": "first 0s"
      }
    }
  },
  "switches": {
    "s12": {
      "port_1": {
        "queue_7": {
          "queueLength": {
            "min": 0,
            "max": 1,
            "mean": 0.49999710649822626,
            "median": 0,
            "variance": 0.25000144675088687,
            "std_deviation": 0.5000014467487938,
            "interval_size": 1,
            "jitter": 0.5000028935017737
          },
          "queueingTime": {
            "min": 0.0,
            "max": 1.3476e-05,
            "mean": 6.461228842592592e-06,
            "median": 6.476e-06,
            "variance": 8.454156793612475e-12,
            "std_deviation": 2.9076032730777553e-06,
            "interval_size": 1.3476e-05,
            "jitter": 7.014771157407407e-06
          }
        }
      }
    },
    "s22": {
      "port_2": {
        "queue_7": {
          "queueLength": {
            "min": 0,
            "max": 1,
            "mean": 0.499998553244927,
            "median": 0,
            "variance": 0.25000072337753654,
            "std_deviation": 0.5000007233770133,
            "interval_size": 1,
            "jitter": 0.5000014467550731
          },
          "queueingTime": {
            "min": 0.0,
            "max": 1.3476e-05,
            "mean": 3.2570277777777776e-06,
            "median": 4.76e-07,
            "variance": 1.4677119337557896e-11,
            "std_deviation": 3.831072870301203e-06,
            "interval_size": 1.3476e-05,
            "jitter": 1.0218972222222223e-05
          }
        }
      }
    },
    "s11": {
      "port_1": {
        "queue_7": {
          "queueLength": {
            "min": 0,
            "max": 1,
            "mean": 0.49999710649822626,
            "median": 0,
            "variance": 0.25000144675088687,
            "std_deviation": 0.5000014467487938,
            "interval_size": 1,
            "jitter": 0.5000028935017737
          },
          "queueingTime": {
            "min": 0.0,
            "max": 1.3476e-05,
            "mean": 6.486857361111111e-06,
            "median": 6.476e-06,
            "variance": 8.448006421302542e-12,
            "std_deviation": 2.9065454445617295e-06,
            "interval_size": 1.3476e-05,
            "jitter": 6.989142638888889e-06
          }
        }
      },
      "port_2": {
        "queue_7": {
          "queueLength": {
            "min": 0,
            "max": 1,
            "mean": 0.49999710649822626,
            "median": 0,
            "variance": 0.25000144675088687,
            "std_deviation": 0.5000014467487938,
            "interval_size": 1,
            "jitter": 0.5000028935017737
          },
          "queueingTime": {
            "min": 0.0,
            "max": 1.3476e-05,
            "mean": 6.482296712962963e-06,
            "median": 6.476e-06,
            "variance": 8.452350249718938e-12,
            "std_deviation": 2.9072925978853483e-06,
            "interval_size": 1.3476e-05,
            "jitter": 6.993703287037037e-06
          }
        }
      }
    },
    "s21": {
      "port_1": {
        "queue_7": {
          "queueLength": {
            "min": 0,
            "max": 1,
            "mean": 0.49999710649822626,
            "median": 0,
            "variance": 0.25000144675088687,
            "std_deviation": 0.5000014467487938,
            "interval_size": 1,
            "jitter": 0.5000028935017737
          },
          "queueingTime": {
            "min": 0.0,
            "max": 1.3476e-05,
            "mean": 6.475360138888889e-06,
            "median": 6.476e-06,
            "variance": 8.480544653733472e-12,
            "std_deviation": 2.9121374716406285e-06,
            "interval_size": 1.3476e-05,
            "jitter": 7.00063986111111e-06
          }
        }
      }
    }
  }
}