{
  "general": {
    "validation": {
      "valid": true,
      "errors": []
    }
  },
  "sim_parameters": {
    "**.displayAddresses": "false",
    "**.verbose": "false",
    "**.promiscuous": "true",
    "**.registerProtocol": "true",
    "**.*.clock.clockRate": "\"1us\"",
    "**.h1.eth.address": "\"12:23:34:45:56:67\"",
    "**.h3.eth.address": "\"aa:aa:aa:aa:aa:bb\"",
    "**.h2.eth.address": "\"aa:bb:cc:dd:ee:aa\"",
    "**.*.processingDelay[*].delay": "5us",
    "**.filteringDatabase.database": "xmldoc(\"xml/routing.xml\", \"/filteringDatabases/\")",
    "**.filteringDatabase.cycle": "xmldoc(\"xml/tas.xml\", \"/schedule/\")",
    "**.gateController.initialSchedule": "xmldoc(\"xml/tas.xml\")",
    "**.gateController.enableHoldAndRelease": "false",
    "**.*.eth[*].queuing.tsAlgorithms[*].typename": "\"StrictPriority\"",
    "**.s5.eth[1].queuing.queuingFrames.tciToQueueMapping": "xmldoc(\"xml/tci-maps/tci-map-s5-1.xml\")",
    "**.s3.eth[2].queuing.queuingFrames.tciToQueueMapping": "xmldoc(\"xml/tci-maps/tci-map-s3-2.xml\")",
    "**.s2.eth[1].queuing.queuingFrames.tciToQueueMapping": "xmldoc(\"xml/tci-maps/tci-map-s2-1.xml\")",
    "**.s7.eth[0].queuing.queuingFrames.tciToQueueMapping": "xmldoc(\"xml/tci-maps/tci-map-s7-0.xml\")",
    "**.s4.eth[2].queuing.queuingFrames.tciToQueueMapping": "xmldoc(\"xml/tci-maps/tci-map-s4-2.xml\")",
    "**.s1.eth[1].queuing.queuingFrames.tciToQueueMapping": "xmldoc(\"xml/tci-maps/tci-map-s1-1.xml\")",
    "**.s6.eth[1].queuing.queuingFrames.tciToQueueMapping": "xmldoc(\"xml/tci-maps/tci-map-s6-1.xml\")",
    "**.s4.eth[1].queuing.queuingFrames.tciToQueueMapping": "xmldoc(\"xml/tci-maps/tci-map-s4-1.xml\")",
    "**.*.eth[*].queuing.queues[*].bufferCapacity": "365280b",
    "**.*.eth[*].queuing.queues[*].expressQueue": "true",
    "**.*.eth[*].mac.enablePreemptingFrames": "false",
    "**.*.trafGenSchedApp.jitter": "0.000014",
    "**.*.eth[*].queuing.gateController.jitter": "0.000014",
    "**.*.trafGenSchedApp.initialSchedule": "xmldoc(\"xml/traf-gen.xml\")"
  },
  "streams": {
    "1907": {
      "latency_stats": {
        "min": 0.00011952398926950991,
        "max": 0.00014752400056750048,
        "mean": 0.00013351794973563043,
        "median": 0.0001335240012849681,
        "variance": 3.259950950273882e-11,
        "std_deviation": 5.70959801586231e-06,
        "interval_size": 2.8000011297990568e-05,
        "jitter": 1.4006050831870046e-05,
        "packages_received": 86400
      }
    },
    "1908": {
      "latency_stats": {
        "min": 0.00010804799967445433,
        "max": 0.00013604800187749788,
        "mean": 0.00012269443692657417,
        "median": 0.00012304400297580287,
        "variance": 2.960348927567131e-11,
        "std_deviation": 5.4409088648562485e-06,
        "interval_size": 2.800000220304355e-05,
        "jitter": 1.4646437252119842e-05,
        "packages_received": 86400
      }
    }
  },
  "hosts": {
    "h3": {
      "received_periodically": {
        "is_periodic": true,
        "max-period-length": 250,
        "period": [
          1907,
          1908
        ],
        "period_length": 2,
        "skipped": "first 0s"
      }
    }
  },
  "switches": {
    "s5": {
      "port_1": {
        "queue_7": {
          "queueLength": {
            "min": 0,
            "max": 1,
            "mean": 0.49999710649822626,
            "median": 0,
            "variance": 0.25000144675088687,
            "std_deviation": 0.5000014467487938,
            "interval_size": 1,
            "jitter": 0.5000028935017737
          },
          "queueingTime": {
            "min": 0.0,
            "max": 2.5476e-05,
            "mean": 1.1507259212962964e-05,
            "median": 1.1476e-05,
            "variance": 3.27966393169674e-11,
            "std_deviation": 5.726835017439161e-06,
            "interval_size": 2.5476e-05,
            "jitter": 1.3968740787037038e-05
          }
        }
      }
    },
    "s6": {
      "port_1": {
        "queue_7": {
          "queueLength": {
            "min": 0,
            "max": 1,
            "mean": 0.49999710649822626,
            "median": 0,
            "variance": 0.25000144675088687,
            "std_deviation": 0.5000014467487938,
            "interval_size": 1,
            "jitter": 0.5000028935017737
          },
          "queueingTime": {
            "min": 0.0,
            "max": 2.5476e-05,
            "mean": 1.1483554166666667e-05,
            "median": 1.1476e-05,
            "variance": 3.2616966935386984e-11,
            "std_deviation": 5.7111265907338265e-06,
            "interval_size": 2.5476e-05,
            "jitter": 1.3992445833333334e-05
          }
        }
      }
    },
    "s7": {
      "port_0": {
        "queue_7": {
          "queueLength": {
            "min": 0,
            "max": 2,
            "mean": 0.5004904499697628,
            "median": 1,
            "variance": 0.2504923809859089,
            "std_deviation": 0.500492138785325,
            "interval_size": 2,
            "jitter": 1.4995095500302371
          },
          "queueingTime": {
            "min": 0.0,
            "max": 2.5476e-05,
            "mean": 6.030635509259259e-06,
            "median": 3.472e-06,
            "variance": 4.6730233802758785e-11,
            "std_deviation": 6.83595156527303e-06,
            "interval_size": 2.5476e-05,
            "jitter": 1.9445364490740742e-05
          }
        }
      }
    },
    "s1": {
      "port_1": {
        "queue_7": {
          "queueLength": {
            "min": 0,
            "max": 1,
            "mean": 0.49999710649822626,
            "median": 0,
            "variance": 0.25000144675088687,
            "std_deviation": 0.5000014467487938,
            "interval_size": 1,
            "jitter": 0.5000028935017737
          },
          "queueingTime": {
            "min": 0.0,
            "max": 2.5476e-05,
            "mean": 1.1490556203703703e-05,
            "median": 1.1476e-05,
            "variance": 3.2611019074839694e-11,
            "std_deviation": 5.710605841313135e-06,
            "interval_size": 2.5476e-05,
            "jitter": 1.3985443796296298e-05
          }
        }
      }
    },
    "s2": {
      "port_1": {
        "queue_7": {
          "queueLength": {
            "min": 0,
            "max": 1,
            "mean": 0.49999710649822626,
            "median": 0,
            "variance": 0.25000144675088687,
            "std_deviation": 0.5000014467487938,
            "interval_size": 1,
            "jitter": 0.5000028935017737
          },
          "queueingTime": {
            "min": 0.0,
            "max": 2.5476e-05,
            "mean": 1.1494353657407408e-05,
            "median": 1.1476e-05,
            "variance": 3.273966253916879e-11,
            "std_deviation": 5.721858311699861e-06,
            "interval_size": 2.5476e-05,
            "jitter": 1.3981646342592593e-05
          }
        }
      }
    },
    "s3": {
      "port_2": {
        "queue_7": {
          "queueLength": {
            "min": 0,
            "max": 2,
            "mean": 0.500496236990055,
            "median": 1,
            "variance": 0.25049816231295197,
            "std_deviation": 0.500497914394208,
            "interval_size": 2,
            "jitter": 1.499503763009945
          },
          "queueingTime": {
            "min": 0.0,
            "max": 2.5476e-05,
            "mean": 6.0401929398148145e-06,
            "median": 2.996e-06,
            "variance": 4.6858870350218385e-11,
            "std_deviation": 6.84535392439415e-06,
            "interval_size": 2.5476e-05,
            "jitter": 1.9435807060185188e-05
          }
        }
      }
    },
    "s4": {
      "port_1": {
        "queue_7": {
          "queueLength": {
            "min": 0,
            "max": 1,
            "mean": 0.49999710649822626,
            "median": 0,
            "variance": 0.25000144675088687,
            "std_deviation": 0.5000014467487938,
            "interval_size": 1,
            "jitter": 0.5000028935017737
          },
          "queueingTime": {
            "min": 8.952e-06,
            "max": 3.6952e-05,
            "mean": 2.2318970462962963e-05,
            "median": 2.1956e-05,
            "variance": 2.963092419612057e-11,
            "std_deviation": 5.443429451744605e-06,
            "interval_size": 2.8000000000000003e-05,
            "jitter": 1.4633029537037038e-05
          }
        }
      },
      "port_2": {
        "queue_7": {
          "queueLength": {
            "min": 0,
            "max": 1,
            "mean": 0.49999710649822626,
            "median": 0,
            "variance": 0.25000144675088687,
            "std_deviation": 0.5000014467487938,
            "interval_size": 1,
            "jitter": 0.5000028935017737
          },
          "queueingTime": {
            "min": 0.0,
            "max": 2.5476e-05,
            "mean": 1.1488035972222223e-05,
            "median": 1.1476e-05,
            "variance": 3.2381235665785465e-11,
            "std_deviation": 5.690451270838322e-06,
            "interval_size": 2.5476e-05,
            "jitter": 1.3987964027777778e-05
          }
        }
      }
    }
  }
}