{
  "general": {
    "validation": {
      "valid": true,
      "errors": []
    }
  },
  "sim_parameters": {
    "**.displayAddresses": "false",
    "**.verbose": "false",
    "**.promiscuous": "true",
    "**.registerProtocol": "true",
    "**.*.clock.clockRate": "\"1us\"",
    "**.h1.eth.address": "\"12:23:34:45:56:67\"",
    "**.h3.eth.address": "\"aa:aa:aa:aa:aa:bb\"",
    "**.h2.eth.address": "\"aa:bb:cc:dd:ee:aa\"",
    "**.*.processingDelay[*].delay": "5us",
    "**.filteringDatabase.database": "xmldoc(\"xml/routing.xml\", \"/filteringDatabases/\")",
    "**.filteringDatabase.cycle": "xmldoc(\"xml/tas.xml\", \"/schedule/\")",
    "**.gateController.initialSchedule": "xmldoc(\"xml/tas.xml\")",
    "**.gateController.enableHoldAndRelease": "false",
    "**.*.eth[*].queuing.tsAlgorithms[*].typename": "\"StrictPriority\"",
    "**.s5.eth[1].queuing.queuingFrames.tciToQueueMapping": "xmldoc(\"xml/tci-maps/tci-map-s5-1.xml\")",
    "**.s3.eth[2].queuing.queuingFrames.tciToQueueMapping": "xmldoc(\"xml/tci-maps/tci-map-s3-2.xml\")",
    "**.s2.eth[1].queuing.queuingFrames.tciToQueueMapping": "xmldoc(\"xml/tci-maps/tci-map-s2-1.xml\")",
    "**.s7.eth[0].queuing.queuingFrames.tciToQueueMapping": "xmldoc(\"xml/tci-maps/tci-map-s7-0.xml\")",
    "**.s4.eth[2].queuing.queuingFrames.tciToQueueMapping": "xmldoc(\"xml/tci-maps/tci-map-s4-2.xml\")",
    "**.s1.eth[1].queuing.queuingFrames.tciToQueueMapping": "xmldoc(\"xml/tci-maps/tci-map-s1-1.xml\")",
    "**.s6.eth[1].queuing.queuingFrames.tciToQueueMapping": "xmldoc(\"xml/tci-maps/tci-map-s6-1.xml\")",
    "**.s4.eth[1].queuing.queuingFrames.tciToQueueMapping": "xmldoc(\"xml/tci-maps/tci-map-s4-1.xml\")",
    "**.*.eth[*].queuing.queues[*].bufferCapacity": "365280b",
    "**.*.eth[*].queuing.queues[*].expressQueue": "true",
    "**.*.eth[*].mac.enablePreemptingFrames": "false",
    "**.*.trafGenSchedApp.jitter": "0.000002",
    "**.*.eth[*].queuing.gateController.jitter": "0.000002",
    "**.*.trafGenSchedApp.initialSchedule": "xmldoc(\"xml/traf-gen.xml\")"
  },
  "streams": {
    "1907": {
      "latency_stats": {
        "min": 0.000506523996591568,
        "max": 0.0005105240015836898,
        "mean": 0.000508520412222605,
        "median": 0.0005085239990876289,
        "variance": 9.915500314292429e-13,
        "std_deviation": 9.957660525591556e-07,
        "interval_size": 4.000004992121831e-06,
        "jitter": 2.0035893610847707e-06,
        "packages_received": 86400
      }
    },
    "1908": {
      "latency_stats": {
        "min": 0.00042004798888228834,
        "max": 0.0004240480047883466,
        "mean": 0.0004220505582838895,
        "median": 0.0004220480041112751,
        "variance": 1.0026325927639367e-12,
        "std_deviation": 1.0013154312023443e-06,
        "interval_size": 4.000015906058252e-06,
        "jitter": 2.0025694016011448e-06,
        "packages_received": 86400
      }
    }
  },
  "hosts": {
    "h3": {
      "received_periodically": {
        "is_periodic": true,
        "max-period-length": 250,
        "period": [
          1907,
          1908
        ],
        "period_length": 2,
        "skipped": "first 0s"
      }
    }
  },
  "switches": {
    "s5": {
      "port_1": {
        "queue_7": {
          "queueLength": {
            "min": 0,
            "max": 1,
            "mean": 0.49999710649822626,
            "median": 0,
            "variance": 0.25000144675088687,
            "std_deviation": 0.5000014467487938,
            "interval_size": 1,
            "jitter": 0.5000028935017737
          },
          "queueingTime": {
            "min": 8.4476e-05,
            "max": 8.8476e-05,
            "mean": 8.647716898148148e-05,
            "median": 8.6476e-05,
            "variance": 1.004720910344682e-12,
            "std_deviation": 1.0023576758546232e-06,
            "interval_size": 4.000000000000002e-06,
            "jitter": 2.001168981481487e-06
          }
        }
      }
    },
    "s6": {
      "port_1": {
        "queue_7": {
          "queueLength": {
            "min": 0,
            "max": 1,
            "mean": 0.49999710649822626,
            "median": 0,
            "variance": 0.25000144675088687,
            "std_deviation": 0.5000014467487938,
            "interval_size": 1,
            "jitter": 0.5000028935017737
          },
          "queueingTime": {
            "min": 8.4476e-05,
            "max": 8.8476e-05,
            "mean": 8.64748425925926e-05,
            "median": 8.6476e-05,
            "variance": 1.0094316399409607e-12,
            "std_deviation": 1.0047047526218638e-06,
            "interval_size": 4.000000000000002e-06,
            "jitter": 2.001157407407404e-06
          }
        }
      }
    },
    "s7": {
      "port_0": {
        "queue_7": {
          "queueLength": {
            "min": 0,
            "max": 1,
            "mean": 0.499998553244927,
            "median": 0,
            "variance": 0.25000072337753654,
            "std_deviation": 0.5000007233770133,
            "interval_size": 1,
            "jitter": 0.5000014467550731
          },
          "queueingTime": {
            "min": 0.0,
            "max": 8.8476e-05,
            "mean": 4.323722453703704e-05,
            "median": 4.2238e-05,
            "variance": 1.8699655935236197e-09,
            "std_deviation": 4.324309879649723e-05,
            "interval_size": 8.8476e-05,
            "jitter": 4.523877546296296e-05
          }
        }
      }
    },
    "s1": {
      "port_1": {
        "queue_7": {
          "queueLength": {
            "min": 0,
            "max": 1,
            "mean": 0.49999710649822626,
            "median": 0,
            "variance": 0.25000144675088687,
            "std_deviation": 0.5000014467487938,
            "interval_size": 1,
            "jitter": 0.5000028935017737
          },
          "queueingTime": {
            "min": 8.4476e-05,
            "max": 8.8476e-05,
            "mean": 8.647316435185185e-05,
            "median": 8.6476e-05,
            "variance": 1.0011030829778529e-12,
            "std_deviation": 1.0005513894737506e-06,
            "interval_size": 4.000000000000002e-06,
            "jitter": 2.0028356481481438e-06
          }
        }
      }
    },
    "s2": {
      "port_1": {
        "queue_7": {
          "queueLength": {
            "min": 0,
            "max": 1,
            "mean": 0.49999710649822626,
            "median": 0,
            "variance": 0.25000144675088687,
            "std_deviation": 0.5000014467487938,
            "interval_size": 1,
            "jitter": 0.5000028935017737
          },
          "queueingTime": {
            "min": 8.4476e-05,
            "max": 8.8476e-05,
            "mean": 8.647427546296297e-05,
            "median": 8.6476e-05,
            "variance": 1.0002748069304191e-12,
            "std_deviation": 1.0001373940266503e-06,
            "interval_size": 4.000000000000002e-06,
            "jitter": 2.0017245370370257e-06
          }
        }
      }
    },
    "s3": {
      "port_2": {
        "queue_7": {
          "queueLength": {
            "min": 0,
            "max": 1,
            "mean": 0.499998553244927,
            "median": 0,
            "variance": 0.25000072337753654,
            "std_deviation": 0.5000007233770133,
            "interval_size": 1,
            "jitter": 0.5000014467550731
          },
          "queueingTime": {
            "min": 0.0,
            "max": 8.8476e-05,
            "mean": 4.32371087962963e-05,
            "median": 4.2238e-05,
            "variance": 1.8699579687495567e-09,
            "std_deviation": 4.324301063466276e-05,
            "interval_size": 8.8476e-05,
            "jitter": 4.52388912037037e-05
          }
        }
      }
    },
    "s4": {
      "port_1": {
        "queue_7": {
          "queueLength": {
            "min": 0,
            "max": 1,
            "mean": 0.49999710649822626,
            "median": 0,
            "variance": 0.25000144675088687,
            "std_deviation": 0.5000014467487938,
            "interval_size": 1,
            "jitter": 0.5000028935017737
          },
          "queueingTime": {
            "min": 0.000170952,
            "max": 0.000174952,
            "mean": 0.00017295511342592593,
            "median": 0.000172952,
            "variance": 1.0080691036751056e-12,
            "std_deviation": 1.004026445705045e-06,
            "interval_size": 3.999999999999989e-06,
            "jitter": 2.00311342592592e-06
          }
        }
      },
      "port_2": {
        "queue_7": {
          "queueLength": {
            "min": 0,
            "max": 1,
            "mean": 0.49999710649822626,
            "median": 0,
            "variance": 0.25000144675088687,
            "std_deviation": 0.5000014467487938,
            "interval_size": 1,
            "jitter": 0.5000028935017737
          },
          "queueingTime": {
            "min": 8.4476e-05,
            "max": 8.8476e-05,
            "mean": 8.647973842592593e-05,
            "median": 8.6476e-05,
            "variance": 1.0032268022595833e-12,
            "std_deviation": 1.001612101693856e-06,
            "interval_size": 4.000000000000002e-06,
            "jitter": 2.0037384259259298e-06
          }
        }
      }
    }
  }
}