{
  "general": {
    "validation": {
      "valid": true,
      "errors": []
    }
  },
  "sim_parameters": {
    "**.displayAddresses": "false",
    "**.verbose": "false",
    "**.promiscuous": "true",
    "**.registerProtocol": "true",
    "**.*.clock.clockRate": "\"1us\"",
    "**.h1.eth.address": "\"12:23:34:45:56:67\"",
    "**.h3.eth.address": "\"aa:aa:aa:aa:aa:bb\"",
    "**.h2.eth.address": "\"aa:bb:cc:dd:ee:aa\"",
    "**.*.processingDelay[*].delay": "5us",
    "**.filteringDatabase.database": "xmldoc(\"xml/routing.xml\", \"/filteringDatabases/\")",
    "**.filteringDatabase.cycle": "xmldoc(\"xml/tas.xml\", \"/schedule/\")",
    "**.gateController.initialSchedule": "xmldoc(\"xml/tas.xml\")",
    "**.gateController.enableHoldAndRelease": "false",
    "**.*.eth[*].queuing.tsAlgorithms[*].typename": "\"StrictPriority\"",
    "**.s5.eth[1].queuing.queuingFrames.tciToQueueMapping": "xmldoc(\"xml/tci-maps/tci-map-s5-1.xml\")",
    "**.s3.eth[2].queuing.queuingFrames.tciToQueueMapping": "xmldoc(\"xml/tci-maps/tci-map-s3-2.xml\")",
    "**.s2.eth[1].queuing.queuingFrames.tciToQueueMapping": "xmldoc(\"xml/tci-maps/tci-map-s2-1.xml\")",
    "**.s7.eth[0].queuing.queuingFrames.tciToQueueMapping": "xmldoc(\"xml/tci-maps/tci-map-s7-0.xml\")",
    "**.s4.eth[2].queuing.queuingFrames.tciToQueueMapping": "xmldoc(\"xml/tci-maps/tci-map-s4-2.xml\")",
    "**.s1.eth[1].queuing.queuingFrames.tciToQueueMapping": "xmldoc(\"xml/tci-maps/tci-map-s1-1.xml\")",
    "**.s6.eth[1].queuing.queuingFrames.tciToQueueMapping": "xmldoc(\"xml/tci-maps/tci-map-s6-1.xml\")",
    "**.s4.eth[1].queuing.queuingFrames.tciToQueueMapping": "xmldoc(\"xml/tci-maps/tci-map-s4-1.xml\")",
    "**.*.eth[*].queuing.queues[*].bufferCapacity": "365280b",
    "**.*.eth[*].queuing.queues[*].expressQueue": "true",
    "**.*.eth[*].mac.enablePreemptingFrames": "false",
    "**.*.trafGenSchedApp.jitter": "0.000019",
    "**.*.eth[*].queuing.gateController.jitter": "0.000019",
    "**.*.trafGenSchedApp.initialSchedule": "xmldoc(\"xml/traf-gen.xml\")"
  },
  "streams": {
    "1907": {
      "latency_stats": {
        "min": 0.00023952399988047546,
        "max": 0.00027752400001190836,
        "mean": 0.00025849121060236494,
        "median": 0.0002585239999461919,
        "variance": 6.005238488596415e-11,
        "std_deviation": 7.749347384519818e-06,
        "interval_size": 3.80000001314329e-05,
        "jitter": 1.903278940954342e-05,
        "packages_received": 86400
      }
    },
    "1908": {
      "latency_stats": {
        "min": 0.00020304799545556307,
        "max": 0.00024104800104396418,
        "mean": 0.00022333616696081145,
        "median": 0.00022304800222627819,
        "variance": 5.2957482715403584e-11,
        "std_deviation": 7.27718920431533e-06,
        "interval_size": 3.800000558840111e-05,
        "jitter": 2.0288171505248377e-05,
        "packages_received": 86400
      }
    }
  },
  "hosts": {
    "h3": {
      "received_periodically": {
        "is_periodic": true,
        "max-period-length": 250,
        "period": [
          1907,
          1908
        ],
        "period_length": 2,
        "skipped": "first 0s"
      }
    }
  },
  "switches": {
    "s5": {
      "port_1": {
        "queue_7": {
          "queueLength": {
            "min": 0,
            "max": 1,
            "mean": 0.49999710649822626,
            "median": 0,
            "variance": 0.25000144675088687,
            "std_deviation": 0.5000014467487938,
            "interval_size": 1,
            "jitter": 0.5000028935017737
          },
          "queueingTime": {
            "min": 1.7476e-05,
            "max": 5.5476e-05,
            "mean": 3.64815787037037e-05,
            "median": 3.6476e-05,
            "variance": 6.08720854531281e-11,
            "std_deviation": 7.802056488716812e-06,
            "interval_size": 3.8e-05,
            "jitter": 1.9005578703703703e-05
          }
        }
      }
    },
    "s6": {
      "port_1": {
        "queue_7": {
          "queueLength": {
            "min": 0,
            "max": 1,
            "mean": 0.49999710649822626,
            "median": 0,
            "variance": 0.25000144675088687,
            "std_deviation": 0.5000014467487938,
            "interval_size": 1,
            "jitter": 0.5000028935017737
          },
          "queueingTime": {
            "min": 1.7476e-05,
            "max": 5.5476e-05,
            "mean": 3.650168287037037e-05,
            "median": 3.6476e-05,
            "variance": 6.090605226577447e-11,
            "std_deviation": 7.804232971008392e-06,
            "interval_size": 3.8e-05,
            "jitter": 1.9025682870370372e-05
          }
        }
      }
    },
    "s7": {
      "port_0": {
        "queue_7": {
          "queueLength": {
            "min": 0,
            "max": 2,
            "mean": 0.5214741855492316,
            "median": 1,
            "variance": 0.27101527584475227,
            "std_deviation": 0.5205912752291881,
            "interval_size": 2,
            "jitter": 1.4785258144507685
          },
          "queueingTime": {
            "min": 0.0,
            "max": 5.5476e-05,
            "mean": 1.8849884375e-05,
            "median": 1.5736e-05,
            "variance": 3.432445789362775e-10,
            "std_deviation": 1.8526861011414684e-05,
            "interval_size": 5.5476e-05,
            "jitter": 3.6626115625000004e-05
          }
        }
      }
    },
    "s1": {
      "port_1": {
        "queue_7": {
          "queueLength": {
            "min": 0,
            "max": 1,
            "mean": 0.49999710649822626,
            "median": 0,
            "variance": 0.25000144675088687,
            "std_deviation": 0.5000014467487938,
            "interval_size": 1,
            "jitter": 0.5000028935017737
          },
          "queueingTime": {
            "min": 1.7476e-05,
            "max": 5.5476e-05,
            "mean": 3.6471555555555556e-05,
            "median": 3.6476e-05,
            "variance": 6.048530993800082e-11,
            "std_deviation": 7.777230222772168e-06,
            "interval_size": 3.8e-05,
            "jitter": 1.9004444444444446e-05
          }
        }
      }
    },
    "s2": {
      "port_1": {
        "queue_7": {
          "queueLength": {
            "min": 0,
            "max": 1,
            "mean": 0.49999710649822626,
            "median": 0,
            "variance": 0.25000144675088687,
            "std_deviation": 0.5000014467487938,
            "interval_size": 1,
            "jitter": 0.5000028935017737
          },
          "queueingTime": {
            "min": 1.7476e-05,
            "max": 5.5476e-05,
            "mean": 3.647788657407407e-05,
            "median": 3.6476e-05,
            "variance": 6.082883705237822e-11,
            "std_deviation": 7.799284393608058e-06,
            "interval_size": 3.8e-05,
            "jitter": 1.9001886574074073e-05
          }
        }
      }
    },
    "s3": {
      "port_2": {
        "queue_7": {
          "queueLength": {
            "min": 0,
            "max": 2,
            "mean": 0.5212947879201738,
            "median": 1,
            "variance": 0.2708435503712427,
            "std_deviation": 0.5204263159864638,
            "interval_size": 2,
            "jitter": 1.4787052120798263
          },
          "queueingTime": {
            "min": 0.0,
            "max": 5.5476e-05,
            "mean": 1.8868570972222224e-05,
            "median": 1.5736e-05,
            "variance": 3.434947248971672e-10,
            "std_deviation": 1.8533610681601337e-05,
            "interval_size": 5.5476e-05,
            "jitter": 3.660742902777778e-05
          }
        }
      }
    },
    "s4": {
      "port_1": {
        "queue_7": {
          "queueLength": {
            "min": 0,
            "max": 1,
            "mean": 0.49999710649822626,
            "median": 0,
            "variance": 0.25000144675088687,
            "std_deviation": 0.5000014467487938,
            "interval_size": 1,
            "jitter": 0.5000028935017737
          },
          "queueingTime": {
            "min": 1.7476e-05,
            "max": 5.5476e-05,
            "mean": 3.6492527777777776e-05,
            "median": 3.6476e-05,
            "variance": 6.037130520414974e-11,
            "std_deviation": 7.769897374106672e-06,
            "interval_size": 3.8e-05,
            "jitter": 1.9016527777777776e-05
          }
        }
      },
      "port_2": {
        "queue_7": {
          "queueLength": {
            "min": 0,
            "max": 1,
            "mean": 0.49999710649822626,
            "median": 0,
            "variance": 0.25000144675088687,
            "std_deviation": 0.5000014467487938,
            "interval_size": 1,
            "jitter": 0.5000028935017737
          },
          "queueingTime": {
            "min": 5.3952e-05,
            "max": 9.1952e-05,
            "mean": 7.167723537037037e-05,
            "median": 7.1952e-05,
            "variance": 5.296850807714797e-11,
            "std_deviation": 7.277946693755593e-06,
            "interval_size": 3.8e-05,
            "jitter": 2.0274764629629635e-05
          }
        }
      }
    }
  }
}