{
  "general": {
    "validation": {
      "valid": true,
      "errors": []
    }
  },
  "sim_parameters": {
    "**.displayAddresses": "false",
    "**.verbose": "false",
    "**.promiscuous": "true",
    "**.registerProtocol": "true",
    "**.*.clock.clockRate": "\"1us\"",
    "**.h1.eth.address": "\"12:23:34:45:56:67\"",
    "**.h3.eth.address": "\"aa:aa:aa:aa:aa:bb\"",
    "**.h2.eth.address": "\"aa:bb:cc:dd:ee:aa\"",
    "**.*.processingDelay[*].delay": "5us",
    "**.filteringDatabase.database": "xmldoc(\"xml/routing.xml\", \"/filteringDatabases/\")",
    "**.filteringDatabase.cycle": "xmldoc(\"xml/tas.xml\", \"/schedule/\")",
    "**.gateController.initialSchedule": "xmldoc(\"xml/tas.xml\")",
    "**.gateController.enableHoldAndRelease": "false",
    "**.*.eth[*].queuing.tsAlgorithms[*].typename": "\"StrictPriority\"",
    "**.s5.eth[1].queuing.queuingFrames.tciToQueueMapping": "xmldoc(\"xml/tci-maps/tci-map-s5-1.xml\")",
    "**.s3.eth[2].queuing.queuingFrames.tciToQueueMapping": "xmldoc(\"xml/tci-maps/tci-map-s3-2.xml\")",
    "**.s2.eth[1].queuing.queuingFrames.tciToQueueMapping": "xmldoc(\"xml/tci-maps/tci-map-s2-1.xml\")",
    "**.s7.eth[0].queuing.queuingFrames.tciToQueueMapping": "xmldoc(\"xml/tci-maps/tci-map-s7-0.xml\")",
    "**.s4.eth[2].queuing.queuingFrames.tciToQueueMapping": "xmldoc(\"xml/tci-maps/tci-map-s4-2.xml\")",
    "**.s1.eth[1].queuing.queuingFrames.tciToQueueMapping": "xmldoc(\"xml/tci-maps/tci-map-s1-1.xml\")",
    "**.s6.eth[1].queuing.queuingFrames.tciToQueueMapping": "xmldoc(\"xml/tci-maps/tci-map-s6-1.xml\")",
    "**.s4.eth[1].queuing.queuingFrames.tciToQueueMapping": "xmldoc(\"xml/tci-maps/tci-map-s4-1.xml\")",
    "**.*.eth[*].queuing.queues[*].bufferCapacity": "365280b",
    "**.*.eth[*].queuing.queues[*].expressQueue": "true",
    "**.*.eth[*].mac.enablePreemptingFrames": "false",
    "**.*.trafGenSchedApp.jitter": "0.000015",
    "**.*.eth[*].queuing.gateController.jitter": "0.000015",
    "**.*.trafGenSchedApp.initialSchedule": "xmldoc(\"xml/traf-gen.xml\")"
  },
  "streams": {
    "1907": {
      "latency_stats": {
        "min": 0.00011852399620693177,
        "max": 0.00014852400636300445,
        "mean": 0.00013353113588302206,
        "median": 0.0001335240012849681,
        "variance": 3.7221887951660566e-11,
        "std_deviation": 6.100974344451922e-06,
        "interval_size": 3.0000010156072676e-05,
        "jitter": 1.5007139676090288e-05,
        "packages_received": 86400
      },
      "udp_dest_port": 6000,
      "name": "1---2---6000",
      "max_allowed_latency": 10000000,
      "talker": "h1",
      "listener": "h3"
    },
    "1908": {
      "latency_stats": {
        "min": 0.00013204799688537605,
        "max": 0.00016204800340346992,
        "mean": 0.00014781296052267858,
        "median": 0.00014804799866396934,
        "variance": 3.357263730066834e-11,
        "std_deviation": 5.794189960699282e-06,
        "interval_size": 3.000000651809387e-05,
        "jitter": 1.576496363730253e-05,
        "packages_received": 86400
      },
      "udp_dest_port": 6001,
      "name": "1---2---6001",
      "max_allowed_latency": 10000000,
      "talker": "h2",
      "listener": "h3"
    }
  },
  "hosts": {
    "h3": {
      "received_periodically": {
        "is_periodic": true,
        "max-period-length": 250,
        "period": [
          1907,
          1908
        ],
        "period_length": 2,
        "skipped": "first 0s"
      }
    }
  },
  "switches": {
    "s5": {
      "port_1": {
        "queue_7": {
          "queueLength": {
            "min": 0,
            "max": 1,
            "mean": 0.49999710649822626,
            "median": 0,
            "variance": 0.25000144675088687,
            "std_deviation": 0.5000014467487938,
            "interval_size": 1,
            "jitter": 0.5000028935017737
          },
          "queueingTime": {
            "min": 0.0,
            "max": 2.6476e-05,
            "mean": 1.1530904444444445e-05,
            "median": 1.1476e-05,
            "variance": 3.713025985517301e-11,
            "std_deviation": 6.09346041713352e-06,
            "interval_size": 2.6476e-05,
            "jitter": 1.4945095555555554e-05
          }
        }
      }
    },
    "s6": {
      "port_1": {
        "queue_7": {
          "queueLength": {
            "min": 0,
            "max": 1,
            "mean": 0.49999710649822626,
            "median": 0,
            "variance": 0.25000144675088687,
            "std_deviation": 0.5000014467487938,
            "interval_size": 1,
            "jitter": 0.5000028935017737
          },
          "queueingTime": {
            "min": 0.0,
            "max": 2.6476e-05,
            "mean": 1.0879246203703704e-05,
            "median": 1.0476e-05,
            "variance": 3.442320789114173e-11,
            "std_deviation": 5.8671294421669044e-06,
            "interval_size": 2.6476e-05,
            "jitter": 1.5596753796296295e-05
          }
        }
      }
    },
    "s7": {
      "port_0": {
        "queue_7": {
          "queueLength": {
            "min": 0,
            "max": 2,
            "mean": 0.5023654445444313,
            "median": 1,
            "variance": 0.25236202618369485,
            "std_deviation": 0.5023564732176693,
            "interval_size": 2,
            "jitter": 1.4976345554555688
          },
          "queueingTime": {
            "min": 0.0,
            "max": 2.6476e-05,
            "mean": 6.081329467592593e-06,
            "median": 2.996e-06,
            "variance": 4.8501270512183234e-11,
            "std_deviation": 6.964285355453439e-06,
            "interval_size": 2.6476e-05,
            "jitter": 2.0394670532407405e-05
          }
        }
      }
    },
    "s1": {
      "port_1": {
        "queue_7": {
          "queueLength": {
            "min": 0,
            "max": 1,
            "mean": 0.49999710649822626,
            "median": 0,
            "variance": 0.25000144675088687,
            "std_deviation": 0.5000014467487938,
            "interval_size": 1,
            "jitter": 0.5000028935017737
          },
          "queueingTime": {
            "min": 0.0,
            "max": 2.6476e-05,
            "mean": 1.1495213333333333e-05,
            "median": 1.1476e-05,
            "variance": 3.712066415143509e-11,
            "std_deviation": 6.092672989044717e-06,
            "interval_size": 2.6476e-05,
            "jitter": 1.4980786666666665e-05
          }
        }
      }
    },
    "s2": {
      "port_1": {
        "queue_7": {
          "queueLength": {
            "min": 0,
            "max": 1,
            "mean": 0.49999710649822626,
            "median": 0,
            "variance": 0.25000144675088687,
            "std_deviation": 0.5000014467487938,
            "interval_size": 1,
            "jitter": 0.5000028935017737
          },
          "queueingTime": {
            "min": 0.0,
            "max": 2.6476e-05,
            "mean": 1.1502112592592592e-05,
            "median": 1.1476e-05,
            "variance": 3.718830122710563e-11,
            "std_deviation": 6.09822115268917e-06,
            "interval_size": 2.6476e-05,
            "jitter": 1.4973887407407406e-05
          }
        }
      }
    },
    "s3": {
      "port_2": {
        "queue_7": {
          "queueLength": {
            "min": 0,
            "max": 2,
            "mean": 0.9751881504972497,
            "median": 1,
            "variance": 0.4993872638614407,
            "std_deviation": 0.7066733784864411,
            "interval_size": 2,
            "jitter": 1.0248118495027503
          },
          "queueingTime": {
            "min": 0.0,
            "max": 3.4996e-05,
            "mean": 1.570295787037037e-05,
            "median": 1.5476e-05,
            "variance": 3.433267731603364e-11,
            "std_deviation": 5.859409297534491e-06,
            "interval_size": 3.4996e-05,
            "jitter": 1.9293042129629632e-05
          }
        }
      }
    },
    "s4": {
      "port_1": {
        "queue_7": {
          "queueLength": {
            "min": 0,
            "max": 1,
            "mean": 0.49999710649822626,
            "median": 0,
            "variance": 0.25000144675088687,
            "std_deviation": 0.5000014467487938,
            "interval_size": 1,
            "jitter": 0.5000028935017737
          },
          "queueingTime": {
            "min": 1.2956e-05,
            "max": 5.1476e-05,
            "mean": 3.195677986111111e-05,
            "median": 3.1956e-05,
            "variance": 5.603824662800447e-11,
            "std_deviation": 7.485869797692481e-06,
            "interval_size": 3.8520000000000004e-05,
            "jitter": 1.951922013888889e-05
          }
        }
      },
      "port_2": {
        "queue_7": {
          "queueLength": {
            "min": 0,
            "max": 1,
            "mean": 0.49999710649822626,
            "median": 0,
            "variance": 0.25000144675088687,
            "std_deviation": 0.5000014467487938,
            "interval_size": 1,
            "jitter": 0.5000028935017737
          },
          "queueingTime": {
            "min": 0.0,
            "max": 2.6476e-05,
            "mean": 8.123265e-06,
            "median": 7.476e-06,
            "variance": 4.2352666711565645e-11,
            "std_deviation": 6.507892647513913e-06,
            "interval_size": 2.6476e-05,
            "jitter": 1.8352735e-05
          }
        }
      }
    }
  }
}