{
  "general": {
    "validation": {
      "valid": false,
      "errors": [
        "Host h2: No periodicity found in the streams received",
        "Stream 1---2---6000 (-> vid 1907): max latency (4.000091524001618) higher than allowed (0.01)",
        "Stream 1---2---6001 (-> vid 1908): max latency (4.00007204800022) higher than allowed (0.01)"
      ]
    }
  },
  "sim_parameters": {
    "**.displayAddresses": "false",
    "**.verbose": "false",
    "**.promiscuous": "true",
    "**.registerProtocol": "true",
    "**.*.clock.clockRate": "\"1us\"",
    "**.h1.eth.address": "\"12:23:34:45:56:67\"",
    "**.h2.eth.address": "\"aa:bb:cc:dd:ee:aa\"",
    "**.*.processingDelay[*].delay": "5us",
    "**.filteringDatabase.database": "xmldoc(\"xml/routing.xml\", \"/filteringDatabases/\")",
    "**.filteringDatabase.cycle": "xmldoc(\"xml/tas.xml\", \"/schedule/\")",
    "**.gateController.initialSchedule": "xmldoc(\"xml/tas.xml\")",
    "**.gateController.enableHoldAndRelease": "false",
    "**.*.eth[*].queuing.tsAlgorithms[*].typename": "\"StrictPriority\"",
    "**.s11.eth[1].queuing.queuingFrames.tciToQueueMapping": "xmldoc(\"xml/tci-maps/tci-map-s11-1.xml\")",
    "**.s22.eth[2].queuing.queuingFrames.tciToQueueMapping": "xmldoc(\"xml/tci-maps/tci-map-s22-2.xml\")",
    "**.s11.eth[2].queuing.queuingFrames.tciToQueueMapping": "xmldoc(\"xml/tci-maps/tci-map-s11-2.xml\")",
    "**.s21.eth[1].queuing.queuingFrames.tciToQueueMapping": "xmldoc(\"xml/tci-maps/tci-map-s21-1.xml\")",
    "**.s12.eth[1].queuing.queuingFrames.tciToQueueMapping": "xmldoc(\"xml/tci-maps/tci-map-s12-1.xml\")",
    "**.*.eth[*].queuing.queues[*].bufferCapacity": "365280b",
    "**.*.eth[*].queuing.queues[*].expressQueue": "true",
    "**.*.eth[*].mac.enablePreemptingFrames": "false",
    "**.*.trafGenSchedApp.jitter": "0.000017",
    "**.*.eth[*].queuing.gateController.jitter": "0.000017",
    "**.*.trafGenSchedApp.initialSchedule": "xmldoc(\"xml/traf-gen.xml\")"
  },
  "streams": {
    "1907": {
      "latency_stats": {
        "min": 6.652399997619796e-05,
        "max": 4.000091524001618,
        "mean": 0.16336146313232616,
        "median": 8.552399958716705e-05,
        "variance": 0.17064793351707955,
        "std_deviation": 0.41309555010563787,
        "interval_size": 4.000025000001642,
        "jitter": 3.836730060869292,
        "packages_received": 86399
      },
      "udp_dest_port": 6000,
      "name": "1---2---6000",
      "max_allowed_latency": 10000000,
      "talker": "h1",
      "listener": "h2"
    },
    "1908": {
      "latency_stats": {
        "min": 5.5047999921953306e-05,
        "max": 4.00007204800022,
        "mean": 0.1558140512370557,
        "median": 7.504400855395943e-05,
        "variance": 0.15928828023490357,
        "std_deviation": 0.39910935874131487,
        "interval_size": 4.000017000000298,
        "jitter": 3.8442579967631643,
        "packages_received": 86400
      },
      "udp_dest_port": 6001,
      "name": "1---2---6001",
      "max_allowed_latency": 10000000,
      "talker": "h1",
      "listener": "h2"
    }
  },
  "hosts": {
    "h2": {
      "received_periodically": {
        "is_periodic": false,
        "max-period-length": 250,
        "skipped": "first 0s"
      }
    }
  },
  "switches": {
    "s12": {
      "port_1": {
        "queue_7": {
          "queueLength": {
            "min": 0,
            "max": 5,
            "mean": 0.6137233002123831,
            "median": 1,
            "variance": 0.3676702347562289,
            "std_deviation": 0.6063581736533523,
            "interval_size": 5,
            "jitter": 4.386276699787617
          },
          "queueingTime": {
            "min": 0.0,
            "max": 3.999996956,
            "mean": 0.09263885620597222,
            "median": 1.2476e-05,
            "variance": 0.097219759008481,
            "std_deviation": 0.31180083227676125,
            "interval_size": 3.999996956,
            "jitter": 3.9073580997940276
          }
        }
      }
    },
    "s11": {
      "port_1": {
        "queue_7": {
          "queueLength": {
            "min": 0,
            "max": 4,
            "mean": 0.5599041672212545,
            "median": 1,
            "variance": 0.3133110648900994,
            "std_deviation": 0.5597419627740085,
            "interval_size": 4,
            "jitter": 3.4400958327787454
          },
          "queueingTime": {
            "min": 0.0,
            "max": 3.000018476,
            "mean": 0.06310173051564814,
            "median": 1.1476e-05,
            "variance": 0.06637916827105954,
            "std_deviation": 0.2576415499702242,
            "interval_size": 3.000018476,
            "jitter": 2.936916745484352
          }
        }
      },
      "port_2": {
        "queue_7": {
          "queueLength": {
            "min": 0,
            "max": 4,
            "mean": 0.5629018350588249,
            "median": 1,
            "variance": 0.31851006078604227,
            "std_deviation": 0.5643669557885563,
            "interval_size": 4,
            "jitter": 3.437098164941175
          },
          "queueingTime": {
            "min": 0.0,
            "max": 3.000023476,
            "mean": 0.06638875893953704,
            "median": 1.1476e-05,
            "variance": 0.07190275154237112,
            "std_deviation": 0.26814688426750577,
            "interval_size": 3.000023476,
            "jitter": 2.933634717060463
          }
        }
      }
    },
    "s22": {
      "port_2": {
        "queue_7": {
          "queueLength": {
            "min": 0,
            "max": 3,
            "mean": 0.5416248310903677,
            "median": 1,
            "variance": 0.2909708852260416,
            "std_deviation": 0.5394171717938182,
            "interval_size": 3,
            "jitter": 2.4583751689096323
          },
          "queueingTime": {
            "min": 0.0,
            "max": 0.999985956,
            "mean": 1.8184644494470454e-05,
            "median": 3.996e-06,
            "variance": 1.1573558126589261e-05,
            "std_deviation": 0.00340199325786946,
            "interval_size": 0.999985956,
            "jitter": 0.9999677713555055
          }
        }
      }
    },
    "s21": {
      "port_1": {
        "queue_7": {
          "queueLength": {
            "min": 0,
            "max": 5,
            "mean": 0.6183564814814815,
            "median": 1.0,
            "variance": 0.3739337220744376,
            "std_deviation": 0.6115012036573907,
            "interval_size": 5,
            "jitter": 4.381643518518518
          },
          "queueingTime": {
            "min": 0.0,
            "max": 4.000006476,
            "mean": 0.09691083879975462,
            "median": 1.2476e-05,
            "variance": 0.10260363123055358,
            "std_deviation": 0.32031801577581237,
            "interval_size": 4.000006476,
            "jitter": 3.9030956372002454
          }
        }
      }
    }
  }
}