[
  {
    "switch": "s4",
    "controls": [
      {
        "port": "0",
        "entries": [
          {
            "gate-status": "11111111"
          }
        ]
      },
      {
        "port": "1",
        "entries": [
          {
            "gate-status": "11111110",
            "length": 400
          },
          {
            "gate-status": "11111111",
            "length": 100
          },
          {
            "gate-status": "11111110",
            "length": 999500
          }
        ]
      },
      {
        "port": "2",
        "entries": [
          {
            "gate-status": "11111110",
            "length": 300
          },
          {
            "gate-status": "11111111",
            "length": 100
          },
          {
            "gate-status": "11111110",
            "length": 999600
          }
        ]
      }
    ]
  },
  {
    "switch": "s5",
    "controls": [
      {
        "port": "0",
        "entries": [
          {
            "gate-status": "11111111"
          }
        ]
      },
      {
        "port": "1",
        "entries": [
          {
            "gate-status": "11111110",
            "length": 500
          },
          {
            "gate-status": "11111111",
            "length": 100
          },
          {
            "gate-status": "11111110",
            "length": 999400
          }
        ]
      }
    ]
  },
  {
    "switch": "s6",
    "controls": [
      {
        "port": "1",
        "entries": [
          {
            "gate-status": "11111110",
            "length": 400
          },
          {
            "gate-status": "11111111",
            "length": 100
          },
          {
            "gate-status": "11111110",
            "length": 999500
          }
        ]
      },
      {
        "port": "0",
        "entries": [
          {
            "gate-status": "11111111"
          }
        ]
      }
    ]
  },
  {
    "switch": "s7",
    "controls": [
      {
        "port": "2",
        "entries": [
          {
            "gate-status": "11111111"
          }
        ]
      },
      {
        "port": "1",
        "entries": [
          {
            "gate-status": "11111111"
          }
        ]
      },
      {
        "port": "0",
        "entries": [
          {
            "gate-status": "11111110",
            "length": 500
          },
          {
            "gate-status": "11111111",
            "length": 200
          },
          {
            "gate-status": "11111110",
            "length": 999300
          }
        ]
      }
    ]
  },
  {
    "switch": "s1",
    "controls": [
      {
        "port": "0",
        "entries": [
          {
            "gate-status": "11111111"
          }
        ]
      },
      {
        "port": "1",
        "entries": [
          {
            "gate-status": "11111110",
            "length": 100
          },
          {
            "gate-status": "11111111",
            "length": 100
          },
          {
            "gate-status": "11111110",
            "length": 999800
          }
        ]
      }
    ]
  },
  {
    "switch": "s2",
    "controls": [
      {
        "port": "1",
        "entries": [
          {
            "gate-status": "11111110",
            "length": 100
          },
          {
            "gate-status": "11111111",
            "length": 100
          },
          {
            "gate-status": "11111110",
            "length": 999800
          }
        ]
      },
      {
        "port": "0",
        "entries": [
          {
            "gate-status": "11111111"
          }
        ]
      }
    ]
  },
  {
    "switch": "s3",
    "controls": [
      {
        "port": "2",
        "entries": [
          {
            "gate-status": "11111110",
            "length": 200
          },
          {
            "gate-status": "11111111",
            "length": 200
          },
          {
            "gate-status": "11111110",
            "length": 999600
          }
        ]
      },
      {
        "port": "1",
        "entries": [
          {
            "gate-status": "11111111"
          }
        ]
      },
      {
        "port": "0",
        "entries": [
          {
            "gate-status": "11111111"
          }
        ]
      }
    ]
  }
]