{
  "general": {
    "validation": {
      "valid": false,
      "errors": [
        "Host h2: No periodicity found in the streams received",
        "Stream 1---2---6001 (-> vid 1908): max latency (15.000069047993748) higher than allowed (0.01)",
        "Stream 1---2---6000 (-> vid 1907): max latency (12.000099524000689) higher than allowed (0.01)"
      ]
    }
  },
  "sim_parameters": {
    "**.displayAddresses": "false",
    "**.verbose": "false",
    "**.promiscuous": "true",
    "**.registerProtocol": "true",
    "**.*.clock.clockRate": "\"1us\"",
    "**.h1.eth.address": "\"12:23:34:45:56:67\"",
    "**.h2.eth.address": "\"aa:bb:cc:dd:ee:aa\"",
    "**.*.processingDelay[*].delay": "5us",
    "**.filteringDatabase.database": "xmldoc(\"xml/routing.xml\", \"/filteringDatabases/\")",
    "**.filteringDatabase.cycle": "xmldoc(\"xml/tas.xml\", \"/schedule/\")",
    "**.gateController.initialSchedule": "xmldoc(\"xml/tas.xml\")",
    "**.gateController.enableHoldAndRelease": "false",
    "**.*.eth[*].queuing.tsAlgorithms[*].typename": "\"StrictPriority\"",
    "**.s11.eth[1].queuing.queuingFrames.tciToQueueMapping": "xmldoc(\"xml/tci-maps/tci-map-s11-1.xml\")",
    "**.s22.eth[2].queuing.queuingFrames.tciToQueueMapping": "xmldoc(\"xml/tci-maps/tci-map-s22-2.xml\")",
    "**.s11.eth[2].queuing.queuingFrames.tciToQueueMapping": "xmldoc(\"xml/tci-maps/tci-map-s11-2.xml\")",
    "**.s21.eth[1].queuing.queuingFrames.tciToQueueMapping": "xmldoc(\"xml/tci-maps/tci-map-s21-1.xml\")",
    "**.s12.eth[1].queuing.queuingFrames.tciToQueueMapping": "xmldoc(\"xml/tci-maps/tci-map-s12-1.xml\")",
    "**.*.eth[*].queuing.queues[*].bufferCapacity": "365280b",
    "**.*.eth[*].queuing.queues[*].expressQueue": "true",
    "**.*.eth[*].mac.enablePreemptingFrames": "false",
    "**.*.trafGenSchedApp.jitter": "0.000020",
    "**.*.eth[*].queuing.gateController.jitter": "0.000020",
    "**.*.trafGenSchedApp.initialSchedule": "xmldoc(\"xml/traf-gen.xml\")"
  },
  "streams": {
    "1908": {
      "latency_stats": {
        "min": 5.204799890634604e-05,
        "max": 15.000069047993748,
        "mean": 1.7933489709812325,
        "median": 1.000086043997726,
        "variance": 2.799937639377331,
        "std_deviation": 1.6733014191643212,
        "interval_size": 15.000016999994841,
        "jitter": 13.206720077012514,
        "packages_received": 86395
      },
      "udp_dest_port": 6001,
      "name": "1---2---6001",
      "max_allowed_latency": 10000000,
      "talker": "h1",
      "listener": "h2"
    },
    "1907": {
      "latency_stats": {
        "min": 6.352399941533804e-05,
        "max": 12.000099524000689,
        "mean": 1.7677344056846371,
        "median": 1.0000980439999694,
        "variance": 2.790930825783132,
        "std_deviation": 1.6706079210225038,
        "interval_size": 12.000036000001273,
        "jitter": 10.232365118316052,
        "packages_received": 86395
      },
      "udp_dest_port": 6000,
      "name": "1---2---6000",
      "max_allowed_latency": 10000000,
      "talker": "h1",
      "listener": "h2"
    }
  },
  "hosts": {
    "h2": {
      "received_periodically": {
        "is_periodic": false,
        "max-period-length": 250,
        "skipped": "first 0s"
      }
    }
  },
  "switches": {
    "s12": {
      "port_1": {
        "queue_7": {
          "queueLength": {
            "min": 0,
            "max": 13,
            "mean": 1.6537341936977343,
            "median": 1,
            "variance": 2.2500253365945375,
            "std_deviation": 1.500008445507737,
            "interval_size": 13,
            "jitter": 11.346265806302267
          },
          "queueingTime": {
            "min": 0.0,
            "max": 12.000005956,
            "mean": 1.0604896869723017,
            "median": 1.000004476,
            "variance": 1.8688671547604654,
            "std_deviation": 1.3670651611245404,
            "interval_size": 12.000005956,
            "jitter": 10.939516269027699
          }
        }
      }
    },
    "s11": {
      "port_1": {
        "queue_7": {
          "queueLength": {
            "min": 0,
            "max": 11,
            "mean": 1.1835069444444444,
            "median": 1.0,
            "variance": 1.4420742874187158,
            "std_deviation": 1.200863975402175,
            "interval_size": 11,
            "jitter": 9.816493055555556
          },
          "queueingTime": {
            "min": 0.0,
            "max": 9.999998476,
            "mean": 0.7213847335576106,
            "median": 1.9476e-05,
            "variance": 1.231482411311552,
            "std_deviation": 1.1097217720273636,
            "interval_size": 9.999998476,
            "jitter": 9.27861374244239
          }
        }
      },
      "port_2": {
        "queue_7": {
          "queueLength": {
            "min": 0,
            "max": 11,
            "mean": 1.1649816841337723,
            "median": 1,
            "variance": 1.3928561178647585,
            "std_deviation": 1.1801932544565565,
            "interval_size": 11,
            "jitter": 9.835018315866227
          },
          "queueingTime": {
            "min": 0.0,
            "max": 10.000011476,
            "mean": 0.7019203838648611,
            "median": 1.8996e-05,
            "variance": 1.1804728018775714,
            "std_deviation": 1.0864956520288387,
            "interval_size": 10.000011476,
            "jitter": 9.298091092135138
          }
        }
      }
    },
    "s22": {
      "port_2": {
        "queue_7": {
          "queueLength": {
            "min": 0,
            "max": 4,
            "mean": 0.692642245956809,
            "median": 1,
            "variance": 0.4291000099507911,
            "std_deviation": 0.6550572570018526,
            "interval_size": 4,
            "jitter": 3.307357754043191
          },
          "queueingTime": {
            "min": 0.0,
            "max": 1.000000476,
            "mean": 0.005749517187198333,
            "median": 6.996e-06,
            "variance": 0.005707866082958817,
            "std_deviation": 0.07555042079934973,
            "interval_size": 1.000000476,
            "jitter": 0.9942509588128018
          }
        }
      }
    },
    "s21": {
      "port_1": {
        "queue_7": {
          "queueLength": {
            "min": 0,
            "max": 13,
            "mean": 1.6571332669737726,
            "median": 1.0,
            "variance": 2.298449130675819,
            "std_deviation": 1.516063696114322,
            "interval_size": 13,
            "jitter": 11.342866733026227
          },
          "queueingTime": {
            "min": 0.0,
            "max": 12.000017476,
            "mean": 1.0657099024905146,
            "median": 1.000004476,
            "variance": 1.9056765193578757,
            "std_deviation": 1.3804624295350727,
            "interval_size": 12.000017476,
            "jitter": 10.934307573509486
          }
        }
      }
    }
  }
}