{
  "general": {
    "validation": {
      "valid": true,
      "errors": []
    }
  },
  "sim_parameters": {
    "**.displayAddresses": "false",
    "**.verbose": "false",
    "**.promiscuous": "true",
    "**.registerProtocol": "true",
    "**.*.clock.clockRate": "\"1us\"",
    "**.h1.eth.address": "\"12:23:34:45:56:67\"",
    "**.h2.eth.address": "\"aa:bb:cc:dd:ee:aa\"",
    "**.*.processingDelay[*].delay": "5us",
    "**.filteringDatabase.database": "xmldoc(\"xml/routing.xml\", \"/filteringDatabases/\")",
    "**.filteringDatabase.cycle": "xmldoc(\"xml/tas.xml\", \"/schedule/\")",
    "**.gateController.initialSchedule": "xmldoc(\"xml/tas.xml\")",
    "**.gateController.enableHoldAndRelease": "false",
    "**.*.eth[*].queuing.tsAlgorithms[*].typename": "\"StrictPriority\"",
    "**.s17.eth[1].queuing.queuingFrames.tciToQueueMapping": "xmldoc(\"xml/tci-maps/tci-map-s17-1.xml\")",
    "**.s62.eth[2].queuing.queuingFrames.tciToQueueMapping": "xmldoc(\"xml/tci-maps/tci-map-s62-2.xml\")",
    "**.s11.eth[1].queuing.queuingFrames.tciToQueueMapping": "xmldoc(\"xml/tci-maps/tci-map-s11-1.xml\")",
    "**.s53.eth[1].queuing.queuingFrames.tciToQueueMapping": "xmldoc(\"xml/tci-maps/tci-map-s53-1.xml\")",
    "**.s51.eth[1].queuing.queuingFrames.tciToQueueMapping": "xmldoc(\"xml/tci-maps/tci-map-s51-1.xml\")",
    "**.s45.eth[1].queuing.queuingFrames.tciToQueueMapping": "xmldoc(\"xml/tci-maps/tci-map-s45-1.xml\")",
    "**.s42.eth[1].queuing.queuingFrames.tciToQueueMapping": "xmldoc(\"xml/tci-maps/tci-map-s42-1.xml\")",
    "**.s5.eth[1].queuing.queuingFrames.tciToQueueMapping": "xmldoc(\"xml/tci-maps/tci-map-s5-1.xml\")",
    "**.s36.eth[1].queuing.queuingFrames.tciToQueueMapping": "xmldoc(\"xml/tci-maps/tci-map-s36-1.xml\")",
    "**.s15.eth[1].queuing.queuingFrames.tciToQueueMapping": "xmldoc(\"xml/tci-maps/tci-map-s15-1.xml\")",
    "**.s16.eth[1].queuing.queuingFrames.tciToQueueMapping": "xmldoc(\"xml/tci-maps/tci-map-s16-1.xml\")",
    "**.s43.eth[1].queuing.queuingFrames.tciToQueueMapping": "xmldoc(\"xml/tci-maps/tci-map-s43-1.xml\")",
    "**.s52.eth[1].queuing.queuingFrames.tciToQueueMapping": "xmldoc(\"xml/tci-maps/tci-map-s52-1.xml\")",
    "**.s49.eth[1].queuing.queuingFrames.tciToQueueMapping": "xmldoc(\"xml/tci-maps/tci-map-s49-1.xml\")",
    "**.s13.eth[1].queuing.queuingFrames.tciToQueueMapping": "xmldoc(\"xml/tci-maps/tci-map-s13-1.xml\")",
    "**.s9.eth[1].queuing.queuingFrames.tciToQueueMapping": "xmldoc(\"xml/tci-maps/tci-map-s9-1.xml\")",
    "**.s47.eth[1].queuing.queuingFrames.tciToQueueMapping": "xmldoc(\"xml/tci-maps/tci-map-s47-1.xml\")",
    "**.s48.eth[1].queuing.queuingFrames.tciToQueueMapping": "xmldoc(\"xml/tci-maps/tci-map-s48-1.xml\")",
    "**.s2.eth[1].queuing.queuingFrames.tciToQueueMapping": "xmldoc(\"xml/tci-maps/tci-map-s2-1.xml\")",
    "**.s57.eth[1].queuing.queuingFrames.tciToQueueMapping": "xmldoc(\"xml/tci-maps/tci-map-s57-1.xml\")",
    "**.s22.eth[1].queuing.queuingFrames.tciToQueueMapping": "xmldoc(\"xml/tci-maps/tci-map-s22-1.xml\")",
    "**.s38.eth[1].queuing.queuingFrames.tciToQueueMapping": "xmldoc(\"xml/tci-maps/tci-map-s38-1.xml\")",
    "**.s37.eth[1].queuing.queuingFrames.tciToQueueMapping": "xmldoc(\"xml/tci-maps/tci-map-s37-1.xml\")",
    "**.s39.eth[1].queuing.queuingFrames.tciToQueueMapping": "xmldoc(\"xml/tci-maps/tci-map-s39-1.xml\")",
    "**.s61.eth[1].queuing.queuingFrames.tciToQueueMapping": "xmldoc(\"xml/tci-maps/tci-map-s61-1.xml\")",
    "**.s60.eth[1].queuing.queuingFrames.tciToQueueMapping": "xmldoc(\"xml/tci-maps/tci-map-s60-1.xml\")",
    "**.s56.eth[1].queuing.queuingFrames.tciToQueueMapping": "xmldoc(\"xml/tci-maps/tci-map-s56-1.xml\")",
    "**.s23.eth[1].queuing.queuingFrames.tciToQueueMapping": "xmldoc(\"xml/tci-maps/tci-map-s23-1.xml\")",
    "**.s30.eth[1].queuing.queuingFrames.tciToQueueMapping": "xmldoc(\"xml/tci-maps/tci-map-s30-1.xml\")",
    "**.s34.eth[1].queuing.queuingFrames.tciToQueueMapping": "xmldoc(\"xml/tci-maps/tci-map-s34-1.xml\")",
    "**.s10.eth[1].queuing.queuingFrames.tciToQueueMapping": "xmldoc(\"xml/tci-maps/tci-map-s10-1.xml\")",
    "**.s54.eth[1].queuing.queuingFrames.tciToQueueMapping": "xmldoc(\"xml/tci-maps/tci-map-s54-1.xml\")",
    "**.s25.eth[1].queuing.queuingFrames.tciToQueueMapping": "xmldoc(\"xml/tci-maps/tci-map-s25-1.xml\")",
    "**.s24.eth[1].queuing.queuingFrames.tciToQueueMapping": "xmldoc(\"xml/tci-maps/tci-map-s24-1.xml\")",
    "**.s27.eth[1].queuing.queuingFrames.tciToQueueMapping": "xmldoc(\"xml/tci-maps/tci-map-s27-1.xml\")",
    "**.s21.eth[1].queuing.queuingFrames.tciToQueueMapping": "xmldoc(\"xml/tci-maps/tci-map-s21-1.xml\")",
    "**.s12.eth[1].queuing.queuingFrames.tciToQueueMapping": "xmldoc(\"xml/tci-maps/tci-map-s12-1.xml\")",
    "**.s46.eth[1].queuing.queuingFrames.tciToQueueMapping": "xmldoc(\"xml/tci-maps/tci-map-s46-1.xml\")",
    "**.s32.eth[1].queuing.queuingFrames.tciToQueueMapping": "xmldoc(\"xml/tci-maps/tci-map-s32-1.xml\")",
    "**.s14.eth[1].queuing.queuingFrames.tciToQueueMapping": "xmldoc(\"xml/tci-maps/tci-map-s14-1.xml\")",
    "**.s1.eth[1].queuing.queuingFrames.tciToQueueMapping": "xmldoc(\"xml/tci-maps/tci-map-s1-1.xml\")",
    "**.s41.eth[1].queuing.queuingFrames.tciToQueueMapping": "xmldoc(\"xml/tci-maps/tci-map-s41-1.xml\")",
    "**.s29.eth[1].queuing.queuingFrames.tciToQueueMapping": "xmldoc(\"xml/tci-maps/tci-map-s29-1.xml\")",
    "**.s55.eth[1].queuing.queuingFrames.tciToQueueMapping": "xmldoc(\"xml/tci-maps/tci-map-s55-1.xml\")",
    "**.s35.eth[1].queuing.queuingFrames.tciToQueueMapping": "xmldoc(\"xml/tci-maps/tci-map-s35-1.xml\")",
    "**.s18.eth[1].queuing.queuingFrames.tciToQueueMapping": "xmldoc(\"xml/tci-maps/tci-map-s18-1.xml\")",
    "**.s19.eth[1].queuing.queuingFrames.tciToQueueMapping": "xmldoc(\"xml/tci-maps/tci-map-s19-1.xml\")",
    "**.s59.eth[1].queuing.queuingFrames.tciToQueueMapping": "xmldoc(\"xml/tci-maps/tci-map-s59-1.xml\")",
    "**.s50.eth[1].queuing.queuingFrames.tciToQueueMapping": "xmldoc(\"xml/tci-maps/tci-map-s50-1.xml\")",
    "**.s7.eth[1].queuing.queuingFrames.tciToQueueMapping": "xmldoc(\"xml/tci-maps/tci-map-s7-1.xml\")",
    "**.s31.eth[1].queuing.queuingFrames.tciToQueueMapping": "xmldoc(\"xml/tci-maps/tci-map-s31-1.xml\")",
    "**.s3.eth[1].queuing.queuingFrames.tciToQueueMapping": "xmldoc(\"xml/tci-maps/tci-map-s3-1.xml\")",
    "**.s26.eth[1].queuing.queuingFrames.tciToQueueMapping": "xmldoc(\"xml/tci-maps/tci-map-s26-1.xml\")",
    "**.s28.eth[1].queuing.queuingFrames.tciToQueueMapping": "xmldoc(\"xml/tci-maps/tci-map-s28-1.xml\")",
    "**.s1.eth[2].queuing.queuingFrames.tciToQueueMapping": "xmldoc(\"xml/tci-maps/tci-map-s1-2.xml\")",
    "**.s20.eth[1].queuing.queuingFrames.tciToQueueMapping": "xmldoc(\"xml/tci-maps/tci-map-s20-1.xml\")",
    "**.s8.eth[1].queuing.queuingFrames.tciToQueueMapping": "xmldoc(\"xml/tci-maps/tci-map-s8-1.xml\")",
    "**.s6.eth[1].queuing.queuingFrames.tciToQueueMapping": "xmldoc(\"xml/tci-maps/tci-map-s6-1.xml\")",
    "**.s58.eth[1].queuing.queuingFrames.tciToQueueMapping": "xmldoc(\"xml/tci-maps/tci-map-s58-1.xml\")",
    "**.s33.eth[1].queuing.queuingFrames.tciToQueueMapping": "xmldoc(\"xml/tci-maps/tci-map-s33-1.xml\")",
    "**.s44.eth[1].queuing.queuingFrames.tciToQueueMapping": "xmldoc(\"xml/tci-maps/tci-map-s44-1.xml\")",
    "**.s40.eth[1].queuing.queuingFrames.tciToQueueMapping": "xmldoc(\"xml/tci-maps/tci-map-s40-1.xml\")",
    "**.s4.eth[1].queuing.queuingFrames.tciToQueueMapping": "xmldoc(\"xml/tci-maps/tci-map-s4-1.xml\")",
    "**.*.eth[*].queuing.queues[*].bufferCapacity": "365280b",
    "**.*.eth[*].queuing.queues[*].expressQueue": "true",
    "**.*.eth[*].mac.enablePreemptingFrames": "false",
    "**.*.trafGenSchedApp.jitter": "0.000006",
    "**.*.eth[*].queuing.gateController.jitter": "0.000006",
    "**.*.trafGenSchedApp.initialSchedule": "xmldoc(\"xml/traf-gen.xml\")"
  },
  "streams": {
    "1907": {
      "latency_stats": {
        "min": 0.001602523996552918,
        "max": 0.0016145240006153472,
        "mean": 0.0016085378777014544,
        "median": 0.0016085239985841326,
        "variance": 6.323412129327186e-12,
        "std_deviation": 2.514639562507356e-06,
        "interval_size": 1.200000406242907e-05,
        "jitter": 6.0138811485363226e-06,
        "packages_received": 86400
      },
      "udp_dest_port": 6000,
      "name": "1---2---6000",
      "max_allowed_latency": 10000000,
      "talker": "h1",
      "listener": "h2"
    },
    "1908": {
      "latency_stats": {
        "min": 0.0015660479984944686,
        "max": 0.0015780480025568977,
        "mean": 0.0015720675797800923,
        "median": 0.0015720480005256832,
        "variance": 6.276858698703315e-12,
        "std_deviation": 2.5053659809902654e-06,
        "interval_size": 1.200000406242907e-05,
        "jitter": 6.019581285623705e-06,
        "packages_received": 86400
      },
      "udp_dest_port": 6001,
      "name": "1---2---6001",
      "max_allowed_latency": 10000000,
      "talker": "h1",
      "listener": "h2"
    }
  },
  "hosts": {
    "h2": {
      "received_periodically": {
        "is_periodic": true,
        "max-period-length": 250,
        "period": [
          1907,
          1908
        ],
        "period_length": 2,
        "skipped": "first 0s"
      }
    }
  },
  "switches": {
    "s60": {
      "port_1": {
        "queue_7": {
          "queueLength": {
            "min": 0,
            "max": 1,
            "mean": 0.49999710649822626,
            "median": 0,
            "variance": 0.25000144675088687,
            "std_deviation": 0.5000014467487938,
            "interval_size": 1,
            "jitter": 0.5000028935017737
          },
          "queueingTime": {
            "min": 3.0476e-05,
            "max": 4.2476e-05,
            "mean": 3.6475212962962964e-05,
            "median": 3.6476e-05,
            "variance": 6.3455126388208346e-12,
            "std_deviation": 2.5190300988318567e-06,
            "interval_size": 1.1999999999999997e-05,
            "jitter": 6.000787037037034e-06
          }
        }
      }
    },
    "s62": {
      "port_2": {
        "queue_7": {
          "queueLength": {
            "min": 0,
            "max": 1,
            "mean": 0.499998553244927,
            "median": 0,
            "variance": 0.25000072337753654,
            "std_deviation": 0.5000007233770133,
            "interval_size": 1,
            "jitter": 0.5000014467550731
          },
          "queueingTime": {
            "min": 0.0,
            "max": 4.2476e-05,
            "mean": 1.8247217013888888e-05,
            "median": 1.5736e-05,
            "variance": 3.3589989483308343e-10,
            "std_deviation": 1.832757198411954e-05,
            "interval_size": 4.2476e-05,
            "jitter": 2.422878298611111e-05
          }
        }
      }
    },
    "s61": {
      "port_1": {
        "queue_7": {
          "queueLength": {
            "min": 0,
            "max": 1,
            "mean": 0.49999710649822626,
            "median": 0,
            "variance": 0.25000144675088687,
            "std_deviation": 0.5000014467487938,
            "interval_size": 1,
            "jitter": 0.5000028935017737
          },
          "queueingTime": {
            "min": 3.0476e-05,
            "max": 4.2476e-05,
            "mean": 3.647123148148148e-05,
            "median": 3.6476e-05,
            "variance": 6.316740186464777e-12,
            "std_deviation": 2.513312592270364e-06,
            "interval_size": 1.1999999999999997e-05,
            "jitter": 6.004768518518516e-06
          }
        }
      }
    },
    "s20": {
      "port_1": {
        "queue_7": {
          "queueLength": {
            "min": 0,
            "max": 1,
            "mean": 0.49999710649822626,
            "median": 0,
            "variance": 0.25000144675088687,
            "std_deviation": 0.5000014467487938,
            "interval_size": 1,
            "jitter": 0.5000028935017737
          },
          "queueingTime": {
            "min": 3.0476e-05,
            "max": 4.2476e-05,
            "mean": 3.6488916666666666e-05,
            "median": 3.6476e-05,
            "variance": 6.329744383615549e-12,
            "std_deviation": 2.5158983253731757e-06,
            "interval_size": 1.1999999999999997e-05,
            "jitter": 6.012916666666665e-06
          }
        }
      }
    },
    "s22": {
      "port_1": {
        "queue_7": {
          "queueLength": {
            "min": 0,
            "max": 1,
            "mean": 0.49999710649822626,
            "median": 0,
            "variance": 0.25000144675088687,
            "std_deviation": 0.5000014467487938,
            "interval_size": 1,
            "jitter": 0.5000028935017737
          },
          "queueingTime": {
            "min": 3.0476e-05,
            "max": 4.2476e-05,
            "mean": 3.646736574074074e-05,
            "median": 3.6476e-05,
            "variance": 6.300322444039774e-12,
            "std_deviation": 2.5100443111705764e-06,
            "interval_size": 1.1999999999999997e-05,
            "jitter": 6.008634259259257e-06
          }
        }
      }
    },
    "s21": {
      "port_1": {
        "queue_7": {
          "queueLength": {
            "min": 0,
            "max": 1,
            "mean": 0.49999710649822626,
            "median": 0,
            "variance": 0.25000144675088687,
            "std_deviation": 0.5000014467487938,
            "interval_size": 1,
            "jitter": 0.5000028935017737
          },
          "queueingTime": {
            "min": 3.0476e-05,
            "max": 4.2476e-05,
            "mean": 3.6475131944444444e-05,
            "median": 3.6476e-05,
            "variance": 6.338834186690045e-12,
            "std_deviation": 2.5177041499528983e-06,
            "interval_size": 1.1999999999999997e-05,
            "jitter": 6.000868055555554e-06
          }
        }
      }
    },
    "s24": {
      "port_1": {
        "queue_7": {
          "queueLength": {
            "min": 0,
            "max": 1,
            "mean": 0.49999710649822626,
            "median": 0,
            "variance": 0.25000144675088687,
            "std_deviation": 0.5000014467487938,
            "interval_size": 1,
            "jitter": 0.5000028935017737
          },
          "queueingTime": {
            "min": 3.0476e-05,
            "max": 4.2476e-05,
            "mean": 3.648227314814815e-05,
            "median": 3.6476e-05,
            "variance": 6.315774487594805e-12,
            "std_deviation": 2.5131204681818985e-06,
            "interval_size": 1.1999999999999997e-05,
            "jitter": 6.0062731481481494e-06
          }
        }
      }
    },
    "s23": {
      "port_1": {
        "queue_7": {
          "queueLength": {
            "min": 0,
            "max": 1,
            "mean": 0.49999710649822626,
            "median": 0,
            "variance": 0.25000144675088687,
            "std_deviation": 0.5000014467487938,
            "interval_size": 1,
            "jitter": 0.5000028935017737
          },
          "queueingTime": {
            "min": 3.0476e-05,
            "max": 4.2476e-05,
            "mean": 3.648236574074074e-05,
            "median": 3.6476e-05,
            "variance": 6.314893677503125e-12,
            "std_deviation": 2.51294521975771e-06,
            "interval_size": 1.1999999999999997e-05,
            "jitter": 6.006365740740739e-06
          }
        }
      }
    },
    "s26": {
      "port_1": {
        "queue_7": {
          "queueLength": {
            "min": 0,
            "max": 1,
            "mean": 0.49999710649822626,
            "median": 0,
            "variance": 0.25000144675088687,
            "std_deviation": 0.5000014467487938,
            "interval_size": 1,
            "jitter": 0.5000028935017737
          },
          "queueingTime": {
            "min": 3.0476e-05,
            "max": 4.2476e-05,
            "mean": 3.6481706018518515e-05,
            "median": 3.6476e-05,
            "variance": 6.310376126261533e-12,
            "std_deviation": 2.512046203050719e-06,
            "interval_size": 1.1999999999999997e-05,
            "jitter": 6.005706018518514e-06
          }
        }
      }
    },
    "s25": {
      "port_1": {
        "queue_7": {
          "queueLength": {
            "min": 0,
            "max": 1,
            "mean": 0.49999710649822626,
            "median": 0,
            "variance": 0.25000144675088687,
            "std_deviation": 0.5000014467487938,
            "interval_size": 1,
            "jitter": 0.5000028935017737
          },
          "queueingTime": {
            "min": 3.0476e-05,
            "max": 4.2476e-05,
            "mean": 3.646831481481481e-05,
            "median": 3.6476e-05,
            "variance": 6.30631022392663e-12,
            "std_deviation": 2.511236791687839e-06,
            "interval_size": 1.1999999999999997e-05,
            "jitter": 6.007685185185186e-06
          }
        }
      }
    },
    "s28": {
      "port_1": {
        "queue_7": {
          "queueLength": {
            "min": 0,
            "max": 1,
            "mean": 0.49999710649822626,
            "median": 0,
            "variance": 0.25000144675088687,
            "std_deviation": 0.5000014467487938,
            "interval_size": 1,
            "jitter": 0.5000028935017737
          },
          "queueingTime": {
            "min": 3.0476e-05,
            "max": 4.2476e-05,
            "mean": 3.6468939814814815e-05,
            "median": 3.6476e-05,
            "variance": 6.336667013357063e-12,
            "std_deviation": 2.51727372634703e-06,
            "interval_size": 1.1999999999999997e-05,
            "jitter": 6.007060185185183e-06
          }
        }
      }
    },
    "s27": {
      "port_1": {
        "queue_7": {
          "queueLength": {
            "min": 0,
            "max": 1,
            "mean": 0.49999710649822626,
            "median": 0,
            "variance": 0.25000144675088687,
            "std_deviation": 0.5000014467487938,
            "interval_size": 1,
            "jitter": 0.5000028935017737
          },
          "queueingTime": {
            "min": 3.0476e-05,
            "max": 4.2476e-05,
            "mean": 3.6481833333333334e-05,
            "median": 3.6476e-05,
            "variance": 6.3153631407770905e-12,
            "std_deviation": 2.5130386269966266e-06,
            "interval_size": 1.1999999999999997e-05,
            "jitter": 6.005833333333333e-06
          }
        }
      }
    },
    "s29": {
      "port_1": {
        "queue_7": {
          "queueLength": {
            "min": 0,
            "max": 1,
            "mean": 0.49999710649822626,
            "median": 0,
            "variance": 0.25000144675088687,
            "std_deviation": 0.5000014467487938,
            "interval_size": 1,
            "jitter": 0.5000028935017737
          },
          "queueingTime": {
            "min": 3.0476e-05,
            "max": 4.2476e-05,
            "mean": 3.64829212962963e-05,
            "median": 3.6476e-05,
            "variance": 6.309145488545176e-12,
            "std_deviation": 2.5118012438378115e-06,
            "interval_size": 1.1999999999999997e-05,
            "jitter": 6.006921296296298e-06
          }
        }
      }
    },
    "s31": {
      "port_1": {
        "queue_7": {
          "queueLength": {
            "min": 0,
            "max": 1,
            "mean": 0.49999710649822626,
            "median": 0,
            "variance": 0.25000144675088687,
            "std_deviation": 0.5000014467487938,
            "interval_size": 1,
            "jitter": 0.5000028935017737
          },
          "queueingTime": {
            "min": 3.0476e-05,
            "max": 4.2476e-05,
            "mean": 3.64700625e-05,
            "median": 3.6476e-05,
            "variance": 6.339378396306668e-12,
            "std_deviation": 2.5178122241951777e-06,
            "interval_size": 1.1999999999999997e-05,
            "jitter": 6.005937499999995e-06
          }
        }
      }
    },
    "s30": {
      "port_1": {
        "queue_7": {
          "queueLength": {
            "min": 0,
            "max": 1,
            "mean": 0.49999710649822626,
            "median": 0,
            "variance": 0.25000144675088687,
            "std_deviation": 0.5000014467487938,
            "interval_size": 1,
            "jitter": 0.5000028935017737
          },
          "queueingTime": {
            "min": 3.0476e-05,
            "max": 4.2476e-05,
            "mean": 3.647145138888889e-05,
            "median": 3.6476e-05,
            "variance": 6.387819446936112e-12,
            "std_deviation": 2.527413588421197e-06,
            "interval_size": 1.1999999999999997e-05,
            "jitter": 6.004548611111108e-06
          }
        }
      }
    },
    "s33": {
      "port_1": {
        "queue_7": {
          "queueLength": {
            "min": 0,
            "max": 1,
            "mean": 0.49999710649822626,
            "median": 0,
            "variance": 0.25000144675088687,
            "std_deviation": 0.5000014467487938,
            "interval_size": 1,
            "jitter": 0.5000028935017737
          },
          "queueingTime": {
            "min": 3.0476e-05,
            "max": 4.2476e-05,
            "mean": 3.649625462962963e-05,
            "median": 3.6476e-05,
            "variance": 6.324871287840693e-12,
            "std_deviation": 2.514929678508068e-06,
            "interval_size": 1.1999999999999997e-05,
            "jitter": 6.020254629629627e-06
          }
        }
      }
    },
    "s32": {
      "port_1": {
        "queue_7": {
          "queueLength": {
            "min": 0,
            "max": 1,
            "mean": 0.49999710649822626,
            "median": 0,
            "variance": 0.25000144675088687,
            "std_deviation": 0.5000014467487938,
            "interval_size": 1,
            "jitter": 0.5000028935017737
          },
          "queueingTime": {
            "min": 3.0476e-05,
            "max": 4.2476e-05,
            "mean": 3.649365046296296e-05,
            "median": 3.6476e-05,
            "variance": 6.348199435687697e-12,
            "std_deviation": 2.5195633422654205e-06,
            "interval_size": 1.1999999999999997e-05,
            "jitter": 6.017650462962962e-06
          }
        }
      }
    },
    "s35": {
      "port_1": {
        "queue_7": {
          "queueLength": {
            "min": 0,
            "max": 1,
            "mean": 0.49999710649822626,
            "median": 0,
            "variance": 0.25000144675088687,
            "std_deviation": 0.5000014467487938,
            "interval_size": 1,
            "jitter": 0.5000028935017737
          },
          "queueingTime": {
            "min": 3.0476e-05,
            "max": 4.2476e-05,
            "mean": 3.645733101851852e-05,
            "median": 3.6476e-05,
            "variance": 6.354921780725127e-12,
            "std_deviation": 2.520897019063874e-06,
            "interval_size": 1.1999999999999997e-05,
            "jitter": 6.01866898148148e-06
          }
        }
      }
    },
    "s34": {
      "port_1": {
        "queue_7": {
          "queueLength": {
            "min": 0,
            "max": 1,
            "mean": 0.49999710649822626,
            "median": 0,
            "variance": 0.25000144675088687,
            "std_deviation": 0.5000014467487938,
            "interval_size": 1,
            "jitter": 0.5000028935017737
          },
          "queueingTime": {
            "min": 3.0476e-05,
            "max": 4.2476e-05,
            "mean": 3.646177546296296e-05,
            "median": 3.6476e-05,
            "variance": 6.33110936520077e-12,
            "std_deviation": 2.516169581963976e-06,
            "interval_size": 1.1999999999999997e-05,
            "jitter": 6.014224537037035e-06
          }
        }
      }
    },
    "s37": {
      "port_1": {
        "queue_7": {
          "queueLength": {
            "min": 0,
            "max": 1,
            "mean": 0.49999710649822626,
            "median": 0,
            "variance": 0.25000144675088687,
            "std_deviation": 0.5000014467487938,
            "interval_size": 1,
            "jitter": 0.5000028935017737
          },
          "queueingTime": {
            "min": 3.0476e-05,
            "max": 4.2476e-05,
            "mean": 3.647535185185185e-05,
            "median": 3.6476e-05,
            "variance": 6.315906014001361e-12,
            "std_deviation": 2.5131466359926875e-06,
            "interval_size": 1.1999999999999997e-05,
            "jitter": 6.000648148148146e-06
          }
        }
      }
    },
    "s36": {
      "port_1": {
        "queue_7": {
          "queueLength": {
            "min": 0,
            "max": 1,
            "mean": 0.49999710649822626,
            "median": 0,
            "variance": 0.25000144675088687,
            "std_deviation": 0.5000014467487938,
            "interval_size": 1,
            "jitter": 0.5000028935017737
          },
          "queueingTime": {
            "min": 3.0476e-05,
            "max": 4.2476e-05,
            "mean": 3.6471983796296296e-05,
            "median": 3.6476e-05,
            "variance": 6.311897202251353e-12,
            "std_deviation": 2.512348941180614e-06,
            "interval_size": 1.1999999999999997e-05,
            "jitter": 6.0040162037037015e-06
          }
        }
      }
    },
    "s39": {
      "port_1": {
        "queue_7": {
          "queueLength": {
            "min": 0,
            "max": 1,
            "mean": 0.49999710649822626,
            "median": 0,
            "variance": 0.25000144675088687,
            "std_deviation": 0.5000014467487938,
            "interval_size": 1,
            "jitter": 0.5000028935017737
          },
          "queueingTime": {
            "min": 3.0476e-05,
            "max": 4.2476e-05,
            "mean": 3.648242361111111e-05,
            "median": 3.6476e-05,
            "variance": 6.332173229966009e-12,
            "std_deviation": 2.516380978700564e-06,
            "interval_size": 1.1999999999999997e-05,
            "jitter": 6.006423611111107e-06
          }
        }
      }
    },
    "s38": {
      "port_1": {
        "queue_7": {
          "queueLength": {
            "min": 0,
            "max": 1,
            "mean": 0.49999710649822626,
            "median": 0,
            "variance": 0.25000144675088687,
            "std_deviation": 0.5000014467487938,
            "interval_size": 1,
            "jitter": 0.5000028935017737
          },
          "queueingTime": {
            "min": 3.0476e-05,
            "max": 4.2476e-05,
            "mean": 3.6470618055555555e-05,
            "median": 3.6476e-05,
            "variance": 6.304013905205305e-12,
            "std_deviation": 2.510779541338766e-06,
            "interval_size": 1.1999999999999997e-05,
            "jitter": 6.005381944444443e-06
          }
        }
      }
    },
    "s40": {
      "port_1": {
        "queue_7": {
          "queueLength": {
            "min": 0,
            "max": 1,
            "mean": 0.49999710649822626,
            "median": 0,
            "variance": 0.25000144675088687,
            "std_deviation": 0.5000014467487938,
            "interval_size": 1,
            "jitter": 0.5000028935017737
          },
          "queueingTime": {
            "min": 3.0476e-05,
            "max": 4.2476e-05,
            "mean": 3.6486162037037037e-05,
            "median": 3.6476e-05,
            "variance": 6.349067439802328e-12,
            "std_deviation": 2.5197355892637483e-06,
            "interval_size": 1.1999999999999997e-05,
            "jitter": 6.0101620370370356e-06
          }
        }
      }
    },
    "s42": {
      "port_1": {
        "queue_7": {
          "queueLength": {
            "min": 0,
            "max": 1,
            "mean": 0.49999710649822626,
            "median": 0,
            "variance": 0.25000144675088687,
            "std_deviation": 0.5000014467487938,
            "interval_size": 1,
            "jitter": 0.5000028935017737
          },
          "queueingTime": {
            "min": 3.0476e-05,
            "max": 4.2476e-05,
            "mean": 3.646763194444444e-05,
            "median": 3.6476e-05,
            "variance": 6.36425132114762e-12,
            "std_deviation": 2.522746781020168e-06,
            "interval_size": 1.1999999999999997e-05,
            "jitter": 6.008368055555557e-06
          }
        }
      }
    },
    "s41": {
      "port_1": {
        "queue_7": {
          "queueLength": {
            "min": 0,
            "max": 1,
            "mean": 0.49999710649822626,
            "median": 0,
            "variance": 0.25000144675088687,
            "std_deviation": 0.5000014467487938,
            "interval_size": 1,
            "jitter": 0.5000028935017737
          },
          "queueingTime": {
            "min": 3.0476e-05,
            "max": 4.2476e-05,
            "mean": 3.6466752314814814e-05,
            "median": 3.6476e-05,
            "variance": 6.299929525799337e-12,
            "std_deviation": 2.5099660407661567e-06,
            "interval_size": 1.1999999999999997e-05,
            "jitter": 6.0092476851851835e-06
          }
        }
      }
    },
    "s44": {
      "port_1": {
        "queue_7": {
          "queueLength": {
            "min": 0,
            "max": 1,
            "mean": 0.49999710649822626,
            "median": 0,
            "variance": 0.25000144675088687,
            "std_deviation": 0.5000014467487938,
            "interval_size": 1,
            "jitter": 0.5000028935017737
          },
          "queueingTime": {
            "min": 3.0476e-05,
            "max": 4.2476e-05,
            "mean": 3.6481092592592595e-05,
            "median": 3.6476e-05,
            "variance": 6.317570333675842e-12,
            "std_deviation": 2.513477736857011e-06,
            "interval_size": 1.1999999999999997e-05,
            "jitter": 6.005092592592594e-06
          }
        }
      }
    },
    "s43": {
      "port_1": {
        "queue_7": {
          "queueLength": {
            "min": 0,
            "max": 1,
            "mean": 0.49999710649822626,
            "median": 0,
            "variance": 0.25000144675088687,
            "std_deviation": 0.5000014467487938,
            "interval_size": 1,
            "jitter": 0.5000028935017737
          },
          "queueingTime": {
            "min": 3.0476e-05,
            "max": 4.2476e-05,
            "mean": 3.6484148148148146e-05,
            "median": 3.6476e-05,
            "variance": 6.347576519447025e-12,
            "std_deviation": 2.519439723320847e-06,
            "interval_size": 1.1999999999999997e-05,
            "jitter": 6.008148148148145e-06
          }
        }
      }
    },
    "s46": {
      "port_1": {
        "queue_7": {
          "queueLength": {
            "min": 0,
            "max": 1,
            "mean": 0.49999710649822626,
            "median": 0,
            "variance": 0.25000144675088687,
            "std_deviation": 0.5000014467487938,
            "interval_size": 1,
            "jitter": 0.5000028935017737
          },
          "queueingTime": {
            "min": 3.0476e-05,
            "max": 4.2476e-05,
            "mean": 3.648450694444444e-05,
            "median": 3.6476e-05,
            "variance": 6.346725626405782e-12,
            "std_deviation": 2.519270852132772e-06,
            "interval_size": 1.1999999999999997e-05,
            "jitter": 6.0085069444444415e-06
          }
        }
      }
    },
    "s45": {
      "port_1": {
        "queue_7": {
          "queueLength": {
            "min": 0,
            "max": 1,
            "mean": 0.49999710649822626,
            "median": 0,
            "variance": 0.25000144675088687,
            "std_deviation": 0.5000014467487938,
            "interval_size": 1,
            "jitter": 0.5000028935017737
          },
          "queueingTime": {
            "min": 3.0476e-05,
            "max": 4.2476e-05,
            "mean": 3.64741712962963e-05,
            "median": 3.6476e-05,
            "variance": 6.362315664125912e-12,
            "std_deviation": 2.5223631110777673e-06,
            "interval_size": 1.1999999999999997e-05,
            "jitter": 6.001828703703701e-06
          }
        }
      }
    },
    "s48": {
      "port_1": {
        "queue_7": {
          "queueLength": {
            "min": 0,
            "max": 1,
            "mean": 0.49999710649822626,
            "median": 0,
            "variance": 0.25000144675088687,
            "std_deviation": 0.5000014467487938,
            "interval_size": 1,
            "jitter": 0.5000028935017737
          },
          "queueingTime": {
            "min": 3.0476e-05,
            "max": 4.2476e-05,
            "mean": 3.646582638888889e-05,
            "median": 3.6476e-05,
            "variance": 6.3344258312692646e-12,
            "std_deviation": 2.516828526393736e-06,
            "interval_size": 1.1999999999999997e-05,
            "jitter": 6.0101736111111084e-06
          }
        }
      }
    },
    "s47": {
      "port_1": {
        "queue_7": {
          "queueLength": {
            "min": 0,
            "max": 1,
            "mean": 0.49999710649822626,
            "median": 0,
            "variance": 0.25000144675088687,
            "std_deviation": 0.5000014467487938,
            "interval_size": 1,
            "jitter": 0.5000028935017737
          },
          "queueingTime": {
            "min": 3.0476e-05,
            "max": 4.2476e-05,
            "mean": 3.646822222222222e-05,
            "median": 3.6476e-05,
            "variance": 6.34820742524026e-12,
            "std_deviation": 2.519564927768336e-06,
            "interval_size": 1.1999999999999997e-05,
            "jitter": 6.007777777777776e-06
          }
        }
      }
    },
    "s49": {
      "port_1": {
        "queue_7": {
          "queueLength": {
            "min": 0,
            "max": 1,
            "mean": 0.49999710649822626,
            "median": 0,
            "variance": 0.25000144675088687,
            "std_deviation": 0.5000014467487938,
            "interval_size": 1,
            "jitter": 0.5000028935017737
          },
          "queueingTime": {
            "min": 3.0476e-05,
            "max": 4.2476e-05,
            "mean": 3.648086111111111e-05,
            "median": 3.6476e-05,
            "variance": 6.362133338734629e-12,
            "std_deviation": 2.522326969037644e-06,
            "interval_size": 1.1999999999999997e-05,
            "jitter": 6.0048611111111095e-06
          }
        }
      }
    },
    "s9": {
      "port_1": {
        "queue_7": {
          "queueLength": {
            "min": 0,
            "max": 1,
            "mean": 0.49999710649822626,
            "median": 0,
            "variance": 0.25000144675088687,
            "std_deviation": 0.5000014467487938,
            "interval_size": 1,
            "jitter": 0.5000028935017737
          },
          "queueingTime": {
            "min": 3.0476e-05,
            "max": 4.2476e-05,
            "mean": 3.6473118055555553e-05,
            "median": 3.6476e-05,
            "variance": 6.28820104857502e-12,
            "std_deviation": 2.5076285706968286e-06,
            "interval_size": 1.1999999999999997e-05,
            "jitter": 6.002881944444444e-06
          }
        }
      }
    },
    "s51": {
      "port_1": {
        "queue_7": {
          "queueLength": {
            "min": 0,
            "max": 1,
            "mean": 0.49999710649822626,
            "median": 0,
            "variance": 0.25000144675088687,
            "std_deviation": 0.5000014467487938,
            "interval_size": 1,
            "jitter": 0.5000028935017737
          },
          "queueingTime": {
            "min": 3.0476e-05,
            "max": 4.2476e-05,
            "mean": 3.6461983796296295e-05,
            "median": 3.6476e-05,
            "variance": 6.332666192633186e-12,
            "std_deviation": 2.5164789275162203e-06,
            "interval_size": 1.1999999999999997e-05,
            "jitter": 6.014016203703703e-06
          }
        }
      }
    },
    "s50": {
      "port_1": {
        "queue_7": {
          "queueLength": {
            "min": 0,
            "max": 1,
            "mean": 0.49999710649822626,
            "median": 0,
            "variance": 0.25000144675088687,
            "std_deviation": 0.5000014467487938,
            "interval_size": 1,
            "jitter": 0.5000028935017737
          },
          "queueingTime": {
            "min": 3.0476e-05,
            "max": 4.2476e-05,
            "mean": 3.648683333333333e-05,
            "median": 3.6476e-05,
            "variance": 6.30335837220338e-12,
            "std_deviation": 2.510648994225075e-06,
            "interval_size": 1.1999999999999997e-05,
            "jitter": 6.01083333333333e-06
          }
        }
      }
    },
    "s53": {
      "port_1": {
        "queue_7": {
          "queueLength": {
            "min": 0,
            "max": 1,
            "mean": 0.49999710649822626,
            "median": 0,
            "variance": 0.25000144675088687,
            "std_deviation": 0.5000014467487938,
            "interval_size": 1,
            "jitter": 0.5000028935017737
          },
          "queueingTime": {
            "min": 3.0476e-05,
            "max": 4.2476e-05,
            "mean": 3.6494599537037034e-05,
            "median": 3.6476e-05,
            "variance": 6.361892042083604e-12,
            "std_deviation": 2.5222791364326836e-06,
            "interval_size": 1.1999999999999997e-05,
            "jitter": 6.018599537037033e-06
          }
        }
      }
    },
    "s5": {
      "port_1": {
        "queue_7": {
          "queueLength": {
            "min": 0,
            "max": 1,
            "mean": 0.49999710649822626,
            "median": 0,
            "variance": 0.25000144675088687,
            "std_deviation": 0.5000014467487938,
            "interval_size": 1,
            "jitter": 0.5000028935017737
          },
          "queueingTime": {
            "min": 3.0476e-05,
            "max": 4.2476e-05,
            "mean": 3.6486949074074073e-05,
            "median": 3.6476e-05,
            "variance": 6.295531686430697e-12,
            "std_deviation": 2.5090898123484335e-06,
            "interval_size": 1.1999999999999997e-05,
            "jitter": 6.0109490740740724e-06
          }
        }
      }
    },
    "s52": {
      "port_1": {
        "queue_7": {
          "queueLength": {
            "min": 0,
            "max": 1,
            "mean": 0.49999710649822626,
            "median": 0,
            "variance": 0.25000144675088687,
            "std_deviation": 0.5000014467487938,
            "interval_size": 1,
            "jitter": 0.5000028935017737
          },
          "queueingTime": {
            "min": 3.0476e-05,
            "max": 4.2476e-05,
            "mean": 3.6472851851851854e-05,
            "median": 3.6476e-05,
            "variance": 6.324044765607282e-12,
            "std_deviation": 2.514765350009277e-06,
            "interval_size": 1.1999999999999997e-05,
            "jitter": 6.003148148148144e-06
          }
        }
      }
    },
    "s6": {
      "port_1": {
        "queue_7": {
          "queueLength": {
            "min": 0,
            "max": 1,
            "mean": 0.49999710649822626,
            "median": 0,
            "variance": 0.25000144675088687,
            "std_deviation": 0.5000014467487938,
            "interval_size": 1,
            "jitter": 0.5000028935017737
          },
          "queueingTime": {
            "min": 3.0476e-05,
            "max": 4.2476e-05,
            "mean": 3.64769375e-05,
            "median": 3.6476e-05,
            "variance": 6.334204378088865e-12,
            "std_deviation": 2.5167845315181166e-06,
            "interval_size": 1.1999999999999997e-05,
            "jitter": 6.000937500000001e-06
          }
        }
      }
    },
    "s7": {
      "port_1": {
        "queue_7": {
          "queueLength": {
            "min": 0,
            "max": 1,
            "mean": 0.49999710649822626,
            "median": 0,
            "variance": 0.25000144675088687,
            "std_deviation": 0.5000014467487938,
            "interval_size": 1,
            "jitter": 0.5000028935017737
          },
          "queueingTime": {
            "min": 3.0476e-05,
            "max": 4.2476e-05,
            "mean": 3.6469240740740744e-05,
            "median": 3.6476e-05,
            "variance": 6.294980874692906e-12,
            "std_deviation": 2.508980046690867e-06,
            "interval_size": 1.1999999999999997e-05,
            "jitter": 6.006759259259254e-06
          }
        }
      }
    },
    "s55": {
      "port_1": {
        "queue_7": {
          "queueLength": {
            "min": 0,
            "max": 1,
            "mean": 0.49999710649822626,
            "median": 0,
            "variance": 0.25000144675088687,
            "std_deviation": 0.5000014467487938,
            "interval_size": 1,
            "jitter": 0.5000028935017737
          },
          "queueingTime": {
            "min": 3.0476e-05,
            "max": 4.2476e-05,
            "mean": 3.647415972222222e-05,
            "median": 3.6476e-05,
            "variance": 6.3506603941692985e-12,
            "std_deviation": 2.5200516649801643e-06,
            "interval_size": 1.1999999999999997e-05,
            "jitter": 6.001840277777777e-06
          }
        }
      }
    },
    "s11": {
      "port_1": {
        "queue_7": {
          "queueLength": {
            "min": 0,
            "max": 1,
            "mean": 0.49999710649822626,
            "median": 0,
            "variance": 0.25000144675088687,
            "std_deviation": 0.5000014467487938,
            "interval_size": 1,
            "jitter": 0.5000028935017737
          },
          "queueingTime": {
            "min": 3.0476e-05,
            "max": 4.2476e-05,
            "mean": 3.6478256944444446e-05,
            "median": 3.6476e-05,
            "variance": 6.294639520085107e-12,
            "std_deviation": 2.508912019199778e-06,
            "interval_size": 1.1999999999999997e-05,
            "jitter": 6.002256944444445e-06
          }
        }
      }
    },
    "s8": {
      "port_1": {
        "queue_7": {
          "queueLength": {
            "min": 0,
            "max": 1,
            "mean": 0.49999710649822626,
            "median": 0,
            "variance": 0.25000144675088687,
            "std_deviation": 0.5000014467487938,
            "interval_size": 1,
            "jitter": 0.5000028935017737
          },
          "queueingTime": {
            "min": 3.0476e-05,
            "max": 4.2476e-05,
            "mean": 3.6481185185185185e-05,
            "median": 3.6476e-05,
            "variance": 6.347963252318162e-12,
            "std_deviation": 2.5195164719283264e-06,
            "interval_size": 1.1999999999999997e-05,
            "jitter": 6.005185185185184e-06
          }
        }
      }
    },
    "s54": {
      "port_1": {
        "queue_7": {
          "queueLength": {
            "min": 0,
            "max": 1,
            "mean": 0.49999710649822626,
            "median": 0,
            "variance": 0.25000144675088687,
            "std_deviation": 0.5000014467487938,
            "interval_size": 1,
            "jitter": 0.5000028935017737
          },
          "queueingTime": {
            "min": 3.0476e-05,
            "max": 4.2476e-05,
            "mean": 3.647236574074074e-05,
            "median": 3.6476e-05,
            "variance": 6.330222095656112e-12,
            "std_deviation": 2.515993262243783e-06,
            "interval_size": 1.1999999999999997e-05,
            "jitter": 6.003634259259259e-06
          }
        }
      }
    },
    "s10": {
      "port_1": {
        "queue_7": {
          "queueLength": {
            "min": 0,
            "max": 1,
            "mean": 0.49999710649822626,
            "median": 0,
            "variance": 0.25000144675088687,
            "std_deviation": 0.5000014467487938,
            "interval_size": 1,
            "jitter": 0.5000028935017737
          },
          "queueingTime": {
            "min": 3.0476e-05,
            "max": 4.2476e-05,
            "mean": 3.64775162037037e-05,
            "median": 3.6476e-05,
            "variance": 6.355545797721208e-12,
            "std_deviation": 2.5210207848649736e-06,
            "interval_size": 1.1999999999999997e-05,
            "jitter": 6.001516203703699e-06
          }
        }
      }
    },
    "s1": {
      "port_1": {
        "queue_7": {
          "queueLength": {
            "min": 0,
            "max": 1,
            "mean": 0.49999710649822626,
            "median": 0,
            "variance": 0.25000144675088687,
            "std_deviation": 0.5000014467487938,
            "interval_size": 1,
            "jitter": 0.5000028935017737
          },
          "queueingTime": {
            "min": 3.0476e-05,
            "max": 4.2476e-05,
            "mean": 3.64760462962963e-05,
            "median": 3.6476e-05,
            "variance": 6.317249040090912e-12,
            "std_deviation": 2.5134138218946184e-06,
            "interval_size": 1.1999999999999997e-05,
            "jitter": 6.0000462962962984e-06
          }
        }
      },
      "port_2": {
        "queue_7": {
          "queueLength": {
            "min": 0,
            "max": 1,
            "mean": 0.49999710649822626,
            "median": 0,
            "variance": 0.25000144675088687,
            "std_deviation": 0.5000014467487938,
            "interval_size": 1,
            "jitter": 0.5000028935017737
          },
          "queueingTime": {
            "min": 3.0476e-05,
            "max": 4.2476e-05,
            "mean": 3.6482689814814815e-05,
            "median": 3.6476e-05,
            "variance": 6.33218131329109e-12,
            "std_deviation": 2.5163825848410034e-06,
            "interval_size": 1.1999999999999997e-05,
            "jitter": 6.006689814814814e-06
          }
        }
      }
    },
    "s13": {
      "port_1": {
        "queue_7": {
          "queueLength": {
            "min": 0,
            "max": 1,
            "mean": 0.49999710649822626,
            "median": 0,
            "variance": 0.25000144675088687,
            "std_deviation": 0.5000014467487938,
            "interval_size": 1,
            "jitter": 0.5000028935017737
          },
          "queueingTime": {
            "min": 3.0476e-05,
            "max": 4.2476e-05,
            "mean": 3.647964583333333e-05,
            "median": 3.6476e-05,
            "variance": 6.2875247579543725e-12,
            "std_deviation": 2.5074937204217227e-06,
            "interval_size": 1.1999999999999997e-05,
            "jitter": 6.003645833333332e-06
          }
        }
      }
    },
    "s57": {
      "port_1": {
        "queue_7": {
          "queueLength": {
            "min": 0,
            "max": 1,
            "mean": 0.49999710649822626,
            "median": 0,
            "variance": 0.25000144675088687,
            "std_deviation": 0.5000014467487938,
            "interval_size": 1,
            "jitter": 0.5000028935017737
          },
          "queueingTime": {
            "min": 3.0476e-05,
            "max": 4.2476e-05,
            "mean": 3.6467006944444445e-05,
            "median": 3.6476e-05,
            "variance": 6.3255131702430955e-12,
            "std_deviation": 2.5150572896542726e-06,
            "interval_size": 1.1999999999999997e-05,
            "jitter": 6.008993055555553e-06
          }
        }
      }
    },
    "s12": {
      "port_1": {
        "queue_7": {
          "queueLength": {
            "min": 0,
            "max": 1,
            "mean": 0.49999710649822626,
            "median": 0,
            "variance": 0.25000144675088687,
            "std_deviation": 0.5000014467487938,
            "interval_size": 1,
            "jitter": 0.5000028935017737
          },
          "queueingTime": {
            "min": 3.0476e-05,
            "max": 4.2476e-05,
            "mean": 3.647330324074074e-05,
            "median": 3.6476e-05,
            "variance": 6.330702573584098e-12,
            "std_deviation": 2.516088745172574e-06,
            "interval_size": 1.1999999999999997e-05,
            "jitter": 6.002696759259258e-06
          }
        }
      }
    },
    "s2": {
      "port_1": {
        "queue_7": {
          "queueLength": {
            "min": 0,
            "max": 1,
            "mean": 0.49999710649822626,
            "median": 0,
            "variance": 0.25000144675088687,
            "std_deviation": 0.5000014467487938,
            "interval_size": 1,
            "jitter": 0.5000028935017737
          },
          "queueingTime": {
            "min": 3.0476e-05,
            "max": 4.2476e-05,
            "mean": 3.6482516203703705e-05,
            "median": 3.6476e-05,
            "variance": 6.360783474083203e-12,
            "std_deviation": 2.5220593716411998e-06,
            "interval_size": 1.1999999999999997e-05,
            "jitter": 6.0065162037037036e-06
          }
        }
      }
    },
    "s56": {
      "port_1": {
        "queue_7": {
          "queueLength": {
            "min": 0,
            "max": 1,
            "mean": 0.49999710649822626,
            "median": 0,
            "variance": 0.25000144675088687,
            "std_deviation": 0.5000014467487938,
            "interval_size": 1,
            "jitter": 0.5000028935017737
          },
          "queueingTime": {
            "min": 3.0476e-05,
            "max": 4.2476e-05,
            "mean": 3.6471219907407405e-05,
            "median": 3.6476e-05,
            "variance": 6.337562076201798e-12,
            "std_deviation": 2.51745150424031e-06,
            "interval_size": 1.1999999999999997e-05,
            "jitter": 6.004780092592593e-06
          }
        }
      }
    },
    "s15": {
      "port_1": {
        "queue_7": {
          "queueLength": {
            "min": 0,
            "max": 1,
            "mean": 0.49999710649822626,
            "median": 0,
            "variance": 0.25000144675088687,
            "std_deviation": 0.5000014467487938,
            "interval_size": 1,
            "jitter": 0.5000028935017737
          },
          "queueingTime": {
            "min": 3.0476e-05,
            "max": 4.2476e-05,
            "mean": 3.646625462962963e-05,
            "median": 3.6476e-05,
            "variance": 6.330834782788551e-12,
            "std_deviation": 2.5161150177979843e-06,
            "interval_size": 1.1999999999999997e-05,
            "jitter": 6.009745370370368e-06
          }
        }
      }
    },
    "s3": {
      "port_1": {
        "queue_7": {
          "queueLength": {
            "min": 0,
            "max": 1,
            "mean": 0.49999710649822626,
            "median": 0,
            "variance": 0.25000144675088687,
            "std_deviation": 0.5000014467487938,
            "interval_size": 1,
            "jitter": 0.5000028935017737
          },
          "queueingTime": {
            "min": 3.0476e-05,
            "max": 4.2476e-05,
            "mean": 3.6473291666666664e-05,
            "median": 3.6476e-05,
            "variance": 6.341524395536984e-12,
            "std_deviation": 2.518238351613481e-06,
            "interval_size": 1.1999999999999997e-05,
            "jitter": 6.002708333333334e-06
          }
        }
      }
    },
    "s59": {
      "port_1": {
        "queue_7": {
          "queueLength": {
            "min": 0,
            "max": 1,
            "mean": 0.49999710649822626,
            "median": 0,
            "variance": 0.25000144675088687,
            "std_deviation": 0.5000014467487938,
            "interval_size": 1,
            "jitter": 0.5000028935017737
          },
          "queueingTime": {
            "min": 3.0476e-05,
            "max": 4.2476e-05,
            "mean": 3.649108101851852e-05,
            "median": 3.6476e-05,
            "variance": 6.3084914111606645e-12,
            "std_deviation": 2.5116710395990684e-06,
            "interval_size": 1.1999999999999997e-05,
            "jitter": 6.0150810185185195e-06
          }
        }
      }
    },
    "s58": {
      "port_1": {
        "queue_7": {
          "queueLength": {
            "min": 0,
            "max": 1,
            "mean": 0.49999710649822626,
            "median": 0,
            "variance": 0.25000144675088687,
            "std_deviation": 0.5000014467487938,
            "interval_size": 1,
            "jitter": 0.5000028935017737
          },
          "queueingTime": {
            "min": 3.0476e-05,
            "max": 4.2476e-05,
            "mean": 3.648468055555555e-05,
            "median": 3.6476e-05,
            "variance": 6.348007379522138e-12,
            "std_deviation": 2.5195252289909974e-06,
            "interval_size": 1.1999999999999997e-05,
            "jitter": 6.008680555555552e-06
          }
        }
      }
    },
    "s4": {
      "port_1": {
        "queue_7": {
          "queueLength": {
            "min": 0,
            "max": 1,
            "mean": 0.49999710649822626,
            "median": 0,
            "variance": 0.25000144675088687,
            "std_deviation": 0.5000014467487938,
            "interval_size": 1,
            "jitter": 0.5000028935017737
          },
          "queueingTime": {
            "min": 3.0476e-05,
            "max": 4.2476e-05,
            "mean": 3.645899768518519e-05,
            "median": 3.6476e-05,
            "variance": 6.360791486007209e-12,
            "std_deviation": 2.522060960010128e-06,
            "interval_size": 1.1999999999999997e-05,
            "jitter": 6.01700231481481e-06
          }
        }
      }
    },
    "s14": {
      "port_1": {
        "queue_7": {
          "queueLength": {
            "min": 0,
            "max": 1,
            "mean": 0.49999710649822626,
            "median": 0,
            "variance": 0.25000144675088687,
            "std_deviation": 0.5000014467487938,
            "interval_size": 1,
            "jitter": 0.5000028935017737
          },
          "queueingTime": {
            "min": 3.0476e-05,
            "max": 4.2476e-05,
            "mean": 3.647235416666667e-05,
            "median": 3.6476e-05,
            "variance": 6.38414624662901e-12,
            "std_deviation": 2.5266868121373908e-06,
            "interval_size": 1.1999999999999997e-05,
            "jitter": 6.003645833333329e-06
          }
        }
      }
    },
    "s17": {
      "port_1": {
        "queue_7": {
          "queueLength": {
            "min": 0,
            "max": 1,
            "mean": 0.49999710649822626,
            "median": 0,
            "variance": 0.25000144675088687,
            "std_deviation": 0.5000014467487938,
            "interval_size": 1,
            "jitter": 0.5000028935017737
          },
          "queueingTime": {
            "min": 3.0476e-05,
            "max": 4.2476e-05,
            "mean": 3.649424074074074e-05,
            "median": 3.6476e-05,
            "variance": 6.335249859287636e-12,
            "std_deviation": 2.516992224717358e-06,
            "interval_size": 1.1999999999999997e-05,
            "jitter": 6.0182407407407365e-06
          }
        }
      }
    },
    "s16": {
      "port_1": {
        "queue_7": {
          "queueLength": {
            "min": 0,
            "max": 1,
            "mean": 0.49999710649822626,
            "median": 0,
            "variance": 0.25000144675088687,
            "std_deviation": 0.5000014467487938,
            "interval_size": 1,
            "jitter": 0.5000028935017737
          },
          "queueingTime": {
            "min": 3.0476e-05,
            "max": 4.2476e-05,
            "mean": 3.6491011574074076e-05,
            "median": 3.6476e-05,
            "variance": 6.319766779574136e-12,
            "std_deviation": 2.5139146325152204e-06,
            "interval_size": 1.1999999999999997e-05,
            "jitter": 6.0150115740740754e-06
          }
        }
      }
    },
    "s19": {
      "port_1": {
        "queue_7": {
          "queueLength": {
            "min": 0,
            "max": 1,
            "mean": 0.49999710649822626,
            "median": 0,
            "variance": 0.25000144675088687,
            "std_deviation": 0.5000014467487938,
            "interval_size": 1,
            "jitter": 0.5000028935017737
          },
          "queueingTime": {
            "min": 3.0476e-05,
            "max": 4.2476e-05,
            "mean": 3.6459055555555556e-05,
            "median": 3.6476e-05,
            "variance": 6.375573714201937e-12,
            "std_deviation": 2.524989844376e-06,
            "interval_size": 1.1999999999999997e-05,
            "jitter": 6.016944444444442e-06
          }
        }
      }
    },
    "s18": {
      "port_1": {
        "queue_7": {
          "queueLength": {
            "min": 0,
            "max": 1,
            "mean": 0.49999710649822626,
            "median": 0,
            "variance": 0.25000144675088687,
            "std_deviation": 0.5000014467487938,
            "interval_size": 1,
            "jitter": 0.5000028935017737
          },
          "queueingTime": {
            "min": 3.0476e-05,
            "max": 4.2476e-05,
            "mean": 3.646113888888889e-05,
            "median": 3.6476e-05,
            "variance": 6.367862108743541e-12,
            "std_deviation": 2.5234623256041573e-06,
            "interval_size": 1.1999999999999997e-05,
            "jitter": 6.014861111111108e-06
          }
        }
      }
    }
  }
}