{
  "general": {
    "validation": {
      "valid": false,
      "errors": [
        "Host h3: No periodicity found in the streams received",
        "Stream 1---2---6000 (-> vid 1907): max latency (4.000145524012623) higher than allowed (0.01)",
        "Stream 1---2---6001 (-> vid 1908): max latency (5.000147048005601) higher than allowed (0.01)"
      ]
    }
  },
  "sim_parameters": {
    "**.displayAddresses": "false",
    "**.verbose": "false",
    "**.promiscuous": "true",
    "**.registerProtocol": "true",
    "**.*.clock.clockRate": "\"1us\"",
    "**.h1.eth.address": "\"12:23:34:45:56:67\"",
    "**.h3.eth.address": "\"aa:aa:aa:aa:aa:bb\"",
    "**.h2.eth.address": "\"aa:bb:cc:dd:ee:aa\"",
    "**.*.processingDelay[*].delay": "5us",
    "**.filteringDatabase.database": "xmldoc(\"xml/routing.xml\", \"/filteringDatabases/\")",
    "**.filteringDatabase.cycle": "xmldoc(\"xml/tas.xml\", \"/schedule/\")",
    "**.gateController.initialSchedule": "xmldoc(\"xml/tas.xml\")",
    "**.gateController.enableHoldAndRelease": "false",
    "**.*.eth[*].queuing.tsAlgorithms[*].typename": "\"StrictPriority\"",
    "**.s5.eth[1].queuing.queuingFrames.tciToQueueMapping": "xmldoc(\"xml/tci-maps/tci-map-s5-1.xml\")",
    "**.s3.eth[2].queuing.queuingFrames.tciToQueueMapping": "xmldoc(\"xml/tci-maps/tci-map-s3-2.xml\")",
    "**.s2.eth[1].queuing.queuingFrames.tciToQueueMapping": "xmldoc(\"xml/tci-maps/tci-map-s2-1.xml\")",
    "**.s7.eth[0].queuing.queuingFrames.tciToQueueMapping": "xmldoc(\"xml/tci-maps/tci-map-s7-0.xml\")",
    "**.s4.eth[2].queuing.queuingFrames.tciToQueueMapping": "xmldoc(\"xml/tci-maps/tci-map-s4-2.xml\")",
    "**.s1.eth[1].queuing.queuingFrames.tciToQueueMapping": "xmldoc(\"xml/tci-maps/tci-map-s1-1.xml\")",
    "**.s6.eth[1].queuing.queuingFrames.tciToQueueMapping": "xmldoc(\"xml/tci-maps/tci-map-s6-1.xml\")",
    "**.s4.eth[1].queuing.queuingFrames.tciToQueueMapping": "xmldoc(\"xml/tci-maps/tci-map-s4-1.xml\")",
    "**.*.eth[*].queuing.queues[*].bufferCapacity": "365280b",
    "**.*.eth[*].queuing.queues[*].expressQueue": "true",
    "**.*.eth[*].mac.enablePreemptingFrames": "false",
    "**.*.trafGenSchedApp.jitter": "0.000017",
    "**.*.eth[*].queuing.gateController.jitter": "0.000017",
    "**.*.trafGenSchedApp.initialSchedule": "xmldoc(\"xml/traf-gen.xml\")"
  },
  "streams": {
    "1907": {
      "latency_stats": {
        "min": 0.00011652399552986026,
        "max": 4.000145524012623,
        "mean": 0.2873448830379747,
        "median": 0.00013752399900113232,
        "variance": 0.284191431863568,
        "std_deviation": 0.5330960812682531,
        "interval_size": 4.0000290000170935,
        "jitter": 3.7128006409746486,
        "packages_received": 86400
      },
      "udp_dest_port": 6000,
      "name": "1---2---6000",
      "max_allowed_latency": 10000000,
      "talker": "h1",
      "listener": "h3"
    },
    "1908": {
      "latency_stats": {
        "min": 0.00013004799984628335,
        "max": 5.000147048005601,
        "mean": 0.28238230036564443,
        "median": 0.00015156399967963807,
        "variance": 0.29003486197669387,
        "std_deviation": 0.5385488482734819,
        "interval_size": 5.000017000005755,
        "jitter": 4.717764747639957,
        "packages_received": 86400
      },
      "udp_dest_port": 6001,
      "name": "1---2---6001",
      "max_allowed_latency": 10000000,
      "talker": "h2",
      "listener": "h3"
    }
  },
  "hosts": {
    "h3": {
      "received_periodically": {
        "is_periodic": false,
        "max-period-length": 250,
        "skipped": "first 0s"
      }
    }
  },
  "switches": {
    "s5": {
      "port_1": {
        "queue_7": {
          "queueLength": {
            "min": 0,
            "max": 5,
            "mean": 0.6657831841250919,
            "median": 1,
            "variance": 0.42608203838412284,
            "std_deviation": 0.6527495985323337,
            "interval_size": 5,
            "jitter": 4.334216815874909
          },
          "queueingTime": {
            "min": 0.0,
            "max": 4.000017476,
            "mean": 0.12523155824569446,
            "median": 1.2476e-05,
            "variance": 0.1346106244807903,
            "std_deviation": 0.3668932058253332,
            "interval_size": 4.000017476,
            "jitter": 3.8747859177543056
          }
        }
      }
    },
    "s6": {
      "port_1": {
        "queue_7": {
          "queueLength": {
            "min": 0,
            "max": 5,
            "mean": 0.663005422422324,
            "median": 1,
            "variance": 0.41738885858749536,
            "std_deviation": 0.6460563896344462,
            "interval_size": 5,
            "jitter": 4.336994577577676
          },
          "queueingTime": {
            "min": 0.0,
            "max": 3.000025476,
            "mean": 0.12182803905171297,
            "median": 1.1996e-05,
            "variance": 0.1271872440366781,
            "std_deviation": 0.3566332065816055,
            "interval_size": 3.000025476,
            "jitter": 2.878197436948287
          }
        }
      }
    },
    "s7": {
      "port_0": {
        "queue_7": {
          "queueLength": {
            "min": 0,
            "max": 3,
            "mean": 0.5543965439914815,
            "median": 1,
            "variance": 0.30333802711583374,
            "std_deviation": 0.5507613159217283,
            "interval_size": 3,
            "jitter": 2.4456034560085183
          },
          "queueingTime": {
            "min": 0.0,
            "max": 0.999992956,
            "mean": 0.00012818726527777778,
            "median": 3.996e-06,
            "variance": 0.00012150791291843079,
            "std_deviation": 0.01102306277394948,
            "interval_size": 0.999992956,
            "jitter": 0.9998647687347223
          }
        }
      }
    },
    "s1": {
      "port_1": {
        "queue_7": {
          "queueLength": {
            "min": 0,
            "max": 4,
            "mean": 0.5585152863698706,
            "median": 1,
            "variance": 0.3112301659830501,
            "std_deviation": 0.5578800641563114,
            "interval_size": 4,
            "jitter": 3.441484713630129
          },
          "queueingTime": {
            "min": 0.0,
            "max": 3.000023476,
            "mean": 0.061469759965092595,
            "median": 1.1476e-05,
            "variance": 0.06414025899462025,
            "std_deviation": 0.2532592722776804,
            "interval_size": 3.000023476,
            "jitter": 2.9385537160349076
          }
        }
      }
    },
    "s2": {
      "port_1": {
        "queue_7": {
          "queueLength": {
            "min": 0,
            "max": 5,
            "mean": 0.559776853143211,
            "median": 1,
            "variance": 0.31486565390889587,
            "std_deviation": 0.5611289102415735,
            "interval_size": 5,
            "jitter": 4.440223146856789
          },
          "queueingTime": {
            "min": 0.0,
            "max": 4.000009476,
            "mean": 0.06299754512703704,
            "median": 1.1476e-05,
            "variance": 0.06800112390466372,
            "std_deviation": 0.2607702511880213,
            "interval_size": 4.000009476,
            "jitter": 3.9370119308729628
          }
        }
      }
    },
    "s3": {
      "port_2": {
        "queue_7": {
          "queueLength": {
            "min": 0,
            "max": 4,
            "mean": 0.9889728328332383,
            "median": 1,
            "variance": 0.5503442577139105,
            "std_deviation": 0.7418519109053441,
            "interval_size": 4,
            "jitter": 3.0110271671667617
          },
          "queueingTime": {
            "min": 0.0,
            "max": 1.000008956,
            "mean": 2.1818346712962963e-05,
            "median": 1.5996e-05,
            "variance": 5.786998077809455e-06,
            "std_deviation": 0.002405618024086421,
            "interval_size": 1.000008956,
            "jitter": 0.9999871376532871
          }
        }
      }
    },
    "s4": {
      "port_1": {
        "queue_7": {
          "queueLength": {
            "min": 0,
            "max": 5,
            "mean": 0.6217440871291254,
            "median": 1,
            "variance": 0.37917279379063096,
            "std_deviation": 0.6157700819223283,
            "interval_size": 5,
            "jitter": 4.378255912870874
          },
          "queueingTime": {
            "min": 2.436e-06,
            "max": 4.000042476,
            "mean": 0.09381644220916667,
            "median": 3.2956e-05,
            "variance": 0.10230485237813404,
            "std_deviation": 0.3198512972900595,
            "interval_size": 4.00004004,
            "jitter": 3.9062260337908334
          }
        }
      },
      "port_2": {
        "queue_7": {
          "queueLength": {
            "min": 0,
            "max": 5,
            "mean": 0.5948808166619406,
            "median": 1,
            "variance": 0.35278143269918494,
            "std_deviation": 0.5939540661525813,
            "interval_size": 5,
            "jitter": 4.405119183338059
          },
          "queueingTime": {
            "min": 0.0,
            "max": 4.000013476,
            "mean": 0.10393153958069444,
            "median": 8.476e-06,
            "variance": 0.10918889929785781,
            "std_deviation": 0.3304374362838718,
            "interval_size": 4.000013476,
            "jitter": 3.896081936419306
          }
        }
      }
    }
  }
}