{
  "general": {
    "validation": {
      "valid": true,
      "errors": []
    }
  },
  "sim_parameters": {
    "**.displayAddresses": "false",
    "**.verbose": "false",
    "**.promiscuous": "true",
    "**.registerProtocol": "true",
    "**.*.clock.clockRate": "\"1us\"",
    "**.h1.eth.address": "\"12:23:34:45:56:67\"",
    "**.h3.eth.address": "\"aa:aa:aa:aa:aa:bb\"",
    "**.h2.eth.address": "\"aa:bb:cc:dd:ee:aa\"",
    "**.*.processingDelay[*].delay": "5us",
    "**.filteringDatabase.database": "xmldoc(\"xml/routing.xml\", \"/filteringDatabases/\")",
    "**.filteringDatabase.cycle": "xmldoc(\"xml/tas.xml\", \"/schedule/\")",
    "**.gateController.initialSchedule": "xmldoc(\"xml/tas.xml\")",
    "**.gateController.enableHoldAndRelease": "false",
    "**.*.eth[*].queuing.tsAlgorithms[*].typename": "\"StrictPriority\"",
    "**.s5.eth[1].queuing.queuingFrames.tciToQueueMapping": "xmldoc(\"xml/tci-maps/tci-map-s5-1.xml\")",
    "**.s3.eth[2].queuing.queuingFrames.tciToQueueMapping": "xmldoc(\"xml/tci-maps/tci-map-s3-2.xml\")",
    "**.s2.eth[1].queuing.queuingFrames.tciToQueueMapping": "xmldoc(\"xml/tci-maps/tci-map-s2-1.xml\")",
    "**.s7.eth[0].queuing.queuingFrames.tciToQueueMapping": "xmldoc(\"xml/tci-maps/tci-map-s7-0.xml\")",
    "**.s4.eth[2].queuing.queuingFrames.tciToQueueMapping": "xmldoc(\"xml/tci-maps/tci-map-s4-2.xml\")",
    "**.s1.eth[1].queuing.queuingFrames.tciToQueueMapping": "xmldoc(\"xml/tci-maps/tci-map-s1-1.xml\")",
    "**.s6.eth[1].queuing.queuingFrames.tciToQueueMapping": "xmldoc(\"xml/tci-maps/tci-map-s6-1.xml\")",
    "**.s4.eth[1].queuing.queuingFrames.tciToQueueMapping": "xmldoc(\"xml/tci-maps/tci-map-s4-1.xml\")",
    "**.*.eth[*].queuing.queues[*].bufferCapacity": "365280b",
    "**.*.eth[*].queuing.queues[*].expressQueue": "true",
    "**.*.eth[*].mac.enablePreemptingFrames": "false",
    "**.*.trafGenSchedApp.jitter": "0.000001",
    "**.*.eth[*].queuing.gateController.jitter": "0.000001",
    "**.*.trafGenSchedApp.initialSchedule": "xmldoc(\"xml/traf-gen.xml\")"
  },
  "streams": {
    "1907": {
      "latency_stats": {
        "min": 0.0005075239969301037,
        "max": 0.0005095240048831329,
        "mean": 0.0005085205280000704,
        "median": 0.0005085239972686395,
        "variance": 4.981420781454047e-13,
        "std_deviation": 7.057918093498994e-07,
        "interval_size": 2.000007953029126e-06,
        "jitter": 1.003476883062516e-06,
        "packages_received": 86400
      },
      "udp_dest_port": 6000,
      "name": "1---2---6000",
      "max_allowed_latency": 10000000,
      "talker": "h1",
      "listener": "h3"
    },
    "1908": {
      "latency_stats": {
        "min": 0.0005210479994275374,
        "max": 0.0005230480019235983,
        "mean": 0.000522047491656855,
        "median": 0.0005220480015850626,
        "variance": 5.025749841602477e-13,
        "std_deviation": 7.089252317136467e-07,
        "interval_size": 2.0000024960609153e-06,
        "jitter": 1.0005102667433796e-06,
        "packages_received": 86400
      },
      "udp_dest_port": 6001,
      "name": "1---2---6001",
      "max_allowed_latency": 10000000,
      "talker": "h2",
      "listener": "h3"
    }
  },
  "hosts": {
    "h3": {
      "received_periodically": {
        "is_periodic": true,
        "max-period-length": 250,
        "period": [
          1907,
          1908
        ],
        "period_length": 2,
        "skipped": "first 0s"
      }
    }
  },
  "switches": {
    "s5": {
      "port_1": {
        "queue_7": {
          "queueLength": {
            "min": 0,
            "max": 1,
            "mean": 0.49999710649822626,
            "median": 0,
            "variance": 0.25000144675088687,
            "std_deviation": 0.5000014467487938,
            "interval_size": 1,
            "jitter": 0.5000028935017737
          },
          "queueingTime": {
            "min": 8.5476e-05,
            "max": 8.7476e-05,
            "mean": 8.647781712962963e-05,
            "median": 8.6476e-05,
            "variance": 5.008936991243869e-13,
            "std_deviation": 7.077384397673952e-07,
            "interval_size": 1.9999999999999944e-06,
            "jitter": 1.001817129629625e-06
          }
        }
      }
    },
    "s6": {
      "port_1": {
        "queue_7": {
          "queueLength": {
            "min": 0,
            "max": 1,
            "mean": 0.49999710649822626,
            "median": 0,
            "variance": 0.25000144675088687,
            "std_deviation": 0.5000014467487938,
            "interval_size": 1,
            "jitter": 0.5000028935017737
          },
          "queueingTime": {
            "min": 8.5476e-05,
            "max": 8.7476e-05,
            "mean": 8.647370833333334e-05,
            "median": 8.6476e-05,
            "variance": 4.99861644810701e-13,
            "std_deviation": 7.070089425252703e-07,
            "interval_size": 1.9999999999999944e-06,
            "jitter": 1.0022916666666638e-06
          }
        }
      }
    },
    "s7": {
      "port_0": {
        "queue_7": {
          "queueLength": {
            "min": 0,
            "max": 1,
            "mean": 0.499998553244927,
            "median": 0,
            "variance": 0.25000072337753654,
            "std_deviation": 0.5000007233770133,
            "interval_size": 1,
            "jitter": 0.5000014467550731
          },
          "queueingTime": {
            "min": 0.0,
            "max": 8.7476e-05,
            "mean": 4.3236622685185184e-05,
            "median": 4.2738e-05,
            "variance": 1.8696661373468546e-09,
            "std_deviation": 4.323963618425639e-05,
            "interval_size": 8.7476e-05,
            "jitter": 4.423937731481482e-05
          }
        }
      }
    },
    "s1": {
      "port_1": {
        "queue_7": {
          "queueLength": {
            "min": 0,
            "max": 1,
            "mean": 0.49999710649822626,
            "median": 0,
            "variance": 0.25000144675088687,
            "std_deviation": 0.5000014467487938,
            "interval_size": 1,
            "jitter": 0.5000028935017737
          },
          "queueingTime": {
            "min": 8.5476e-05,
            "max": 8.7476e-05,
            "mean": 8.647556018518519e-05,
            "median": 8.6476e-05,
            "variance": 4.98524095036248e-13,
            "std_deviation": 7.060623874957849e-07,
            "interval_size": 1.9999999999999944e-06,
            "jitter": 1.000439814814814e-06
          }
        }
      }
    },
    "s2": {
      "port_1": {
        "queue_7": {
          "queueLength": {
            "min": 0,
            "max": 1,
            "mean": 0.49999710649822626,
            "median": 0,
            "variance": 0.25000144675088687,
            "std_deviation": 0.5000014467487938,
            "interval_size": 1,
            "jitter": 0.5000028935017737
          },
          "queueingTime": {
            "min": 8.5476e-05,
            "max": 8.7476e-05,
            "mean": 8.647414814814815e-05,
            "median": 8.6476e-05,
            "variance": 5.003727323661555e-13,
            "std_deviation": 7.073702936695571e-07,
            "interval_size": 1.9999999999999944e-06,
            "jitter": 1.001851851851847e-06
          }
        }
      }
    },
    "s3": {
      "port_2": {
        "queue_7": {
          "queueLength": {
            "min": 0,
            "max": 2,
            "mean": 0.999997106489854,
            "median": 1,
            "variance": 0.5000028935101462,
            "std_deviation": 0.7071088272042332,
            "interval_size": 2,
            "jitter": 1.0000028935101462
          },
          "queueingTime": {
            "min": 8.5476e-05,
            "max": 9.5996e-05,
            "mean": 9.073602314814815e-05,
            "median": 9.0736e-05,
            "variance": 1.6510725640237518e-11,
            "std_deviation": 4.063339222885226e-06,
            "interval_size": 1.0519999999999987e-05,
            "jitter": 5.2600231481481394e-06
          }
        }
      }
    },
    "s4": {
      "port_1": {
        "queue_7": {
          "queueLength": {
            "min": 0,
            "max": 1,
            "mean": 0.49999710649822626,
            "median": 0,
            "variance": 0.25000144675088687,
            "std_deviation": 0.5000014467487938,
            "interval_size": 1,
            "jitter": 0.5000028935017737
          },
          "queueingTime": {
            "min": 0.000176956,
            "max": 0.000187476,
            "mean": 0.00018009405833333334,
            "median": 0.000177956,
            "variance": 1.4125910390930469e-11,
            "std_deviation": 3.7584452092494934e-06,
            "interval_size": 1.0520000000000001e-05,
            "jitter": 7.38194166666667e-06
          }
        }
      },
      "port_2": {
        "queue_7": {
          "queueLength": {
            "min": 0,
            "max": 1,
            "mean": 0.49999710649822626,
            "median": 0,
            "variance": 0.25000144675088687,
            "std_deviation": 0.5000014467487938,
            "interval_size": 1,
            "jitter": 0.5000028935017737
          },
          "queueingTime": {
            "min": 7.6956e-05,
            "max": 8.7476e-05,
            "mean": 8.433943472222223e-05,
            "median": 8.6476e-05,
            "variance": 1.417104177492604e-11,
            "std_deviation": 3.7644444178292817e-06,
            "interval_size": 1.0520000000000001e-05,
            "jitter": 7.38343472222223e-06
          }
        }
      }
    }
  }
}