[
  {
    "switch": "s4",
    "controls": [
      {
        "port": "0",
        "entries": [
          {
            "gate-status": "11111111"
          }
        ]
      },
      {
        "port": "1",
        "entries": [
          {
            "gate-status": "11111110",
            "length": 100
          },
          {
            "gate-status": "11111111",
            "length": 25
          },
          {
            "gate-status": "11111110",
            "length": 999875
          }
        ]
      },
      {
        "port": "2",
        "entries": [
          {
            "gate-status": "11111110",
            "length": 75
          },
          {
            "gate-status": "11111111",
            "length": 25
          },
          {
            "gate-status": "11111110",
            "length": 999900
          }
        ]
      }
    ]
  },
  {
    "switch": "s5",
    "controls": [
      {
        "port": "0",
        "entries": [
          {
            "gate-status": "11111111"
          }
        ]
      },
      {
        "port": "1",
        "entries": [
          {
            "gate-status": "11111110",
            "length": 125
          },
          {
            "gate-status": "11111111",
            "length": 25
          },
          {
            "gate-status": "11111110",
            "length": 999850
          }
        ]
      }
    ]
  },
  {
    "switch": "s6",
    "controls": [
      {
        "port": "1",
        "entries": [
          {
            "gate-status": "11111110",
            "length": 100
          },
          {
            "gate-status": "11111111",
            "length": 25
          },
          {
            "gate-status": "11111110",
            "length": 999875
          }
        ]
      },
      {
        "port": "0",
        "entries": [
          {
            "gate-status": "11111111"
          }
        ]
      }
    ]
  },
  {
    "switch": "s7",
    "controls": [
      {
        "port": "2",
        "entries": [
          {
            "gate-status": "11111111"
          }
        ]
      },
      {
        "port": "1",
        "entries": [
          {
            "gate-status": "11111111"
          }
        ]
      },
      {
        "port": "0",
        "entries": [
          {
            "gate-status": "11111110",
            "length": 125
          },
          {
            "gate-status": "11111111",
            "length": 50
          },
          {
            "gate-status": "11111110",
            "length": 999825
          }
        ]
      }
    ]
  },
  {
    "switch": "s1",
    "controls": [
      {
        "port": "0",
        "entries": [
          {
            "gate-status": "11111111"
          }
        ]
      },
      {
        "port": "1",
        "entries": [
          {
            "gate-status": "11111110",
            "length": 25
          },
          {
            "gate-status": "11111111",
            "length": 25
          },
          {
            "gate-status": "11111110",
            "length": 999950
          }
        ]
      }
    ]
  },
  {
    "switch": "s2",
    "controls": [
      {
        "port": "1",
        "entries": [
          {
            "gate-status": "11111110",
            "length": 25
          },
          {
            "gate-status": "11111111",
            "length": 25
          },
          {
            "gate-status": "11111110",
            "length": 999950
          }
        ]
      },
      {
        "port": "0",
        "entries": [
          {
            "gate-status": "11111111"
          }
        ]
      }
    ]
  },
  {
    "switch": "s3",
    "controls": [
      {
        "port": "2",
        "entries": [
          {
            "gate-status": "11111110",
            "length": 50
          },
          {
            "gate-status": "11111111",
            "length": 50
          },
          {
            "gate-status": "11111110",
            "length": 999900
          }
        ]
      },
      {
        "port": "1",
        "entries": [
          {
            "gate-status": "11111111"
          }
        ]
      },
      {
        "port": "0",
        "entries": [
          {
            "gate-status": "11111111"
          }
        ]
      }
    ]
  }
]