[
  {
    "sender": "h1",
    "receiver": "h2",
    "vid": 1907,
    "start": 0,
    "size": 1024,
    "repeat": 1000000
  },
  {
    "sender": "h1",
    "receiver": "h2",
    "vid": 1908,
    "start": 20,
    "size": 1024,
    "repeat": 1000000
  }
]