{
  "general": {
    "validation": {
      "valid": true,
      "errors": []
    }
  },
  "sim_parameters": {
    "**.displayAddresses": "false",
    "**.verbose": "false",
    "**.promiscuous": "true",
    "**.registerProtocol": "true",
    "**.*.clock.clockRate": "\"1us\"",
    "**.h1.eth.address": "\"12:23:34:45:56:67\"",
    "**.h2.eth.address": "\"aa:bb:cc:dd:ee:aa\"",
    "**.*.processingDelay[*].delay": "5us",
    "**.filteringDatabase.database": "xmldoc(\"xml/routing.xml\", \"/filteringDatabases/\")",
    "**.filteringDatabase.cycle": "xmldoc(\"xml/tas.xml\", \"/schedule/\")",
    "**.gateController.initialSchedule": "xmldoc(\"xml/tas.xml\")",
    "**.gateController.enableHoldAndRelease": "false",
    "**.*.eth[*].queuing.tsAlgorithms[*].typename": "\"StrictPriority\"",
    "**.s17.eth[1].queuing.queuingFrames.tciToQueueMapping": "xmldoc(\"xml/tci-maps/tci-map-s17-1.xml\")",
    "**.s62.eth[2].queuing.queuingFrames.tciToQueueMapping": "xmldoc(\"xml/tci-maps/tci-map-s62-2.xml\")",
    "**.s11.eth[1].queuing.queuingFrames.tciToQueueMapping": "xmldoc(\"xml/tci-maps/tci-map-s11-1.xml\")",
    "**.s53.eth[1].queuing.queuingFrames.tciToQueueMapping": "xmldoc(\"xml/tci-maps/tci-map-s53-1.xml\")",
    "**.s51.eth[1].queuing.queuingFrames.tciToQueueMapping": "xmldoc(\"xml/tci-maps/tci-map-s51-1.xml\")",
    "**.s45.eth[1].queuing.queuingFrames.tciToQueueMapping": "xmldoc(\"xml/tci-maps/tci-map-s45-1.xml\")",
    "**.s42.eth[1].queuing.queuingFrames.tciToQueueMapping": "xmldoc(\"xml/tci-maps/tci-map-s42-1.xml\")",
    "**.s5.eth[1].queuing.queuingFrames.tciToQueueMapping": "xmldoc(\"xml/tci-maps/tci-map-s5-1.xml\")",
    "**.s36.eth[1].queuing.queuingFrames.tciToQueueMapping": "xmldoc(\"xml/tci-maps/tci-map-s36-1.xml\")",
    "**.s15.eth[1].queuing.queuingFrames.tciToQueueMapping": "xmldoc(\"xml/tci-maps/tci-map-s15-1.xml\")",
    "**.s16.eth[1].queuing.queuingFrames.tciToQueueMapping": "xmldoc(\"xml/tci-maps/tci-map-s16-1.xml\")",
    "**.s43.eth[1].queuing.queuingFrames.tciToQueueMapping": "xmldoc(\"xml/tci-maps/tci-map-s43-1.xml\")",
    "**.s52.eth[1].queuing.queuingFrames.tciToQueueMapping": "xmldoc(\"xml/tci-maps/tci-map-s52-1.xml\")",
    "**.s49.eth[1].queuing.queuingFrames.tciToQueueMapping": "xmldoc(\"xml/tci-maps/tci-map-s49-1.xml\")",
    "**.s13.eth[1].queuing.queuingFrames.tciToQueueMapping": "xmldoc(\"xml/tci-maps/tci-map-s13-1.xml\")",
    "**.s9.eth[1].queuing.queuingFrames.tciToQueueMapping": "xmldoc(\"xml/tci-maps/tci-map-s9-1.xml\")",
    "**.s47.eth[1].queuing.queuingFrames.tciToQueueMapping": "xmldoc(\"xml/tci-maps/tci-map-s47-1.xml\")",
    "**.s48.eth[1].queuing.queuingFrames.tciToQueueMapping": "xmldoc(\"xml/tci-maps/tci-map-s48-1.xml\")",
    "**.s2.eth[1].queuing.queuingFrames.tciToQueueMapping": "xmldoc(\"xml/tci-maps/tci-map-s2-1.xml\")",
    "**.s57.eth[1].queuing.queuingFrames.tciToQueueMapping": "xmldoc(\"xml/tci-maps/tci-map-s57-1.xml\")",
    "**.s22.eth[1].queuing.queuingFrames.tciToQueueMapping": "xmldoc(\"xml/tci-maps/tci-map-s22-1.xml\")",
    "**.s38.eth[1].queuing.queuingFrames.tciToQueueMapping": "xmldoc(\"xml/tci-maps/tci-map-s38-1.xml\")",
    "**.s37.eth[1].queuing.queuingFrames.tciToQueueMapping": "xmldoc(\"xml/tci-maps/tci-map-s37-1.xml\")",
    "**.s39.eth[1].queuing.queuingFrames.tciToQueueMapping": "xmldoc(\"xml/tci-maps/tci-map-s39-1.xml\")",
    "**.s61.eth[1].queuing.queuingFrames.tciToQueueMapping": "xmldoc(\"xml/tci-maps/tci-map-s61-1.xml\")",
    "**.s60.eth[1].queuing.queuingFrames.tciToQueueMapping": "xmldoc(\"xml/tci-maps/tci-map-s60-1.xml\")",
    "**.s56.eth[1].queuing.queuingFrames.tciToQueueMapping": "xmldoc(\"xml/tci-maps/tci-map-s56-1.xml\")",
    "**.s23.eth[1].queuing.queuingFrames.tciToQueueMapping": "xmldoc(\"xml/tci-maps/tci-map-s23-1.xml\")",
    "**.s30.eth[1].queuing.queuingFrames.tciToQueueMapping": "xmldoc(\"xml/tci-maps/tci-map-s30-1.xml\")",
    "**.s34.eth[1].queuing.queuingFrames.tciToQueueMapping": "xmldoc(\"xml/tci-maps/tci-map-s34-1.xml\")",
    "**.s10.eth[1].queuing.queuingFrames.tciToQueueMapping": "xmldoc(\"xml/tci-maps/tci-map-s10-1.xml\")",
    "**.s54.eth[1].queuing.queuingFrames.tciToQueueMapping": "xmldoc(\"xml/tci-maps/tci-map-s54-1.xml\")",
    "**.s25.eth[1].queuing.queuingFrames.tciToQueueMapping": "xmldoc(\"xml/tci-maps/tci-map-s25-1.xml\")",
    "**.s24.eth[1].queuing.queuingFrames.tciToQueueMapping": "xmldoc(\"xml/tci-maps/tci-map-s24-1.xml\")",
    "**.s27.eth[1].queuing.queuingFrames.tciToQueueMapping": "xmldoc(\"xml/tci-maps/tci-map-s27-1.xml\")",
    "**.s21.eth[1].queuing.queuingFrames.tciToQueueMapping": "xmldoc(\"xml/tci-maps/tci-map-s21-1.xml\")",
    "**.s12.eth[1].queuing.queuingFrames.tciToQueueMapping": "xmldoc(\"xml/tci-maps/tci-map-s12-1.xml\")",
    "**.s46.eth[1].queuing.queuingFrames.tciToQueueMapping": "xmldoc(\"xml/tci-maps/tci-map-s46-1.xml\")",
    "**.s32.eth[1].queuing.queuingFrames.tciToQueueMapping": "xmldoc(\"xml/tci-maps/tci-map-s32-1.xml\")",
    "**.s14.eth[1].queuing.queuingFrames.tciToQueueMapping": "xmldoc(\"xml/tci-maps/tci-map-s14-1.xml\")",
    "**.s1.eth[1].queuing.queuingFrames.tciToQueueMapping": "xmldoc(\"xml/tci-maps/tci-map-s1-1.xml\")",
    "**.s41.eth[1].queuing.queuingFrames.tciToQueueMapping": "xmldoc(\"xml/tci-maps/tci-map-s41-1.xml\")",
    "**.s29.eth[1].queuing.queuingFrames.tciToQueueMapping": "xmldoc(\"xml/tci-maps/tci-map-s29-1.xml\")",
    "**.s55.eth[1].queuing.queuingFrames.tciToQueueMapping": "xmldoc(\"xml/tci-maps/tci-map-s55-1.xml\")",
    "**.s35.eth[1].queuing.queuingFrames.tciToQueueMapping": "xmldoc(\"xml/tci-maps/tci-map-s35-1.xml\")",
    "**.s18.eth[1].queuing.queuingFrames.tciToQueueMapping": "xmldoc(\"xml/tci-maps/tci-map-s18-1.xml\")",
    "**.s19.eth[1].queuing.queuingFrames.tciToQueueMapping": "xmldoc(\"xml/tci-maps/tci-map-s19-1.xml\")",
    "**.s59.eth[1].queuing.queuingFrames.tciToQueueMapping": "xmldoc(\"xml/tci-maps/tci-map-s59-1.xml\")",
    "**.s50.eth[1].queuing.queuingFrames.tciToQueueMapping": "xmldoc(\"xml/tci-maps/tci-map-s50-1.xml\")",
    "**.s7.eth[1].queuing.queuingFrames.tciToQueueMapping": "xmldoc(\"xml/tci-maps/tci-map-s7-1.xml\")",
    "**.s31.eth[1].queuing.queuingFrames.tciToQueueMapping": "xmldoc(\"xml/tci-maps/tci-map-s31-1.xml\")",
    "**.s3.eth[1].queuing.queuingFrames.tciToQueueMapping": "xmldoc(\"xml/tci-maps/tci-map-s3-1.xml\")",
    "**.s26.eth[1].queuing.queuingFrames.tciToQueueMapping": "xmldoc(\"xml/tci-maps/tci-map-s26-1.xml\")",
    "**.s28.eth[1].queuing.queuingFrames.tciToQueueMapping": "xmldoc(\"xml/tci-maps/tci-map-s28-1.xml\")",
    "**.s1.eth[2].queuing.queuingFrames.tciToQueueMapping": "xmldoc(\"xml/tci-maps/tci-map-s1-2.xml\")",
    "**.s20.eth[1].queuing.queuingFrames.tciToQueueMapping": "xmldoc(\"xml/tci-maps/tci-map-s20-1.xml\")",
    "**.s8.eth[1].queuing.queuingFrames.tciToQueueMapping": "xmldoc(\"xml/tci-maps/tci-map-s8-1.xml\")",
    "**.s6.eth[1].queuing.queuingFrames.tciToQueueMapping": "xmldoc(\"xml/tci-maps/tci-map-s6-1.xml\")",
    "**.s58.eth[1].queuing.queuingFrames.tciToQueueMapping": "xmldoc(\"xml/tci-maps/tci-map-s58-1.xml\")",
    "**.s33.eth[1].queuing.queuingFrames.tciToQueueMapping": "xmldoc(\"xml/tci-maps/tci-map-s33-1.xml\")",
    "**.s44.eth[1].queuing.queuingFrames.tciToQueueMapping": "xmldoc(\"xml/tci-maps/tci-map-s44-1.xml\")",
    "**.s40.eth[1].queuing.queuingFrames.tciToQueueMapping": "xmldoc(\"xml/tci-maps/tci-map-s40-1.xml\")",
    "**.s4.eth[1].queuing.queuingFrames.tciToQueueMapping": "xmldoc(\"xml/tci-maps/tci-map-s4-1.xml\")",
    "**.*.eth[*].queuing.queues[*].bufferCapacity": "365280b",
    "**.*.eth[*].queuing.queues[*].expressQueue": "true",
    "**.*.eth[*].mac.enablePreemptingFrames": "false",
    "**.*.trafGenSchedApp.jitter": "0.000012",
    "**.*.eth[*].queuing.gateController.jitter": "0.000012",
    "**.*.trafGenSchedApp.initialSchedule": "xmldoc(\"xml/traf-gen.xml\")"
  },
  "streams": {
    "1907": {
      "latency_stats": {
        "min": 0.0007965239929035306,
        "max": 0.0008205240010283887,
        "mean": 0.0008085483931338436,
        "median": 0.0008085239969659597,
        "variance": 2.4247637907998388e-11,
        "std_deviation": 4.924189060951903e-06,
        "interval_size": 2.400000812485814e-05,
        "jitter": 1.2024400230312995e-05,
        "packages_received": 86400
      },
      "udp_dest_port": 6000,
      "name": "1---2---6000",
      "max_allowed_latency": 10000000,
      "talker": "h1",
      "listener": "h2"
    },
    "1908": {
      "latency_stats": {
        "min": 0.0007850479887565598,
        "max": 0.0008090480005193967,
        "mean": 0.0007974779604113444,
        "median": 0.0007970480073709041,
        "variance": 2.203882373764978e-11,
        "std_deviation": 4.6945525598985235e-06,
        "interval_size": 2.4000011762836948e-05,
        "jitter": 1.2429971654784626e-05,
        "packages_received": 86400
      },
      "udp_dest_port": 6001,
      "name": "1---2---6001",
      "max_allowed_latency": 10000000,
      "talker": "h1",
      "listener": "h2"
    }
  },
  "hosts": {
    "h2": {
      "received_periodically": {
        "is_periodic": true,
        "max-period-length": 250,
        "period": [
          1907,
          1908
        ],
        "period_length": 2,
        "skipped": "first 0s"
      }
    }
  },
  "switches": {
    "s60": {
      "port_1": {
        "queue_7": {
          "queueLength": {
            "min": 0,
            "max": 1,
            "mean": 0.49999710649822626,
            "median": 0,
            "variance": 0.25000144675088687,
            "std_deviation": 0.5000014467487938,
            "interval_size": 1,
            "jitter": 0.5000028935017737
          },
          "queueingTime": {
            "min": 0.0,
            "max": 2.3476e-05,
            "mean": 1.1472686481481482e-05,
            "median": 1.1476e-05,
            "variance": 2.4402501777698934e-11,
            "std_deviation": 4.9398888426460506e-06,
            "interval_size": 2.3476e-05,
            "jitter": 1.2003313518518518e-05
          }
        }
      }
    },
    "s62": {
      "port_2": {
        "queue_7": {
          "queueLength": {
            "min": 0,
            "max": 1,
            "mean": 0.499998553244927,
            "median": 0,
            "variance": 0.25000072337753654,
            "std_deviation": 0.5000007233770133,
            "interval_size": 1,
            "jitter": 0.5000014467550731
          },
          "queueingTime": {
            "min": 0.0,
            "max": 2.3476e-05,
            "mean": 5.952349074074074e-06,
            "median": 3.476e-06,
            "variance": 4.3603944791346314e-11,
            "std_deviation": 6.603328311643024e-06,
            "interval_size": 2.3476e-05,
            "jitter": 1.7523650925925928e-05
          }
        }
      }
    },
    "s61": {
      "port_1": {
        "queue_7": {
          "queueLength": {
            "min": 0,
            "max": 1,
            "mean": 0.49999710649822626,
            "median": 0,
            "variance": 0.25000144675088687,
            "std_deviation": 0.5000014467487938,
            "interval_size": 1,
            "jitter": 0.5000028935017737
          },
          "queueingTime": {
            "min": 0.0,
            "max": 2.3476e-05,
            "mean": 1.1470282962962962e-05,
            "median": 1.1476e-05,
            "variance": 2.427601489084505e-11,
            "std_deviation": 4.927069604830547e-06,
            "interval_size": 2.3476e-05,
            "jitter": 1.2005717037037038e-05
          }
        }
      }
    },
    "s20": {
      "port_1": {
        "queue_7": {
          "queueLength": {
            "min": 0,
            "max": 1,
            "mean": 0.49999710649822626,
            "median": 0,
            "variance": 0.25000144675088687,
            "std_deviation": 0.5000014467487938,
            "interval_size": 1,
            "jitter": 0.5000028935017737
          },
          "queueingTime": {
            "min": 0.0,
            "max": 2.3476e-05,
            "mean": 1.150047138888889e-05,
            "median": 1.1476e-05,
            "variance": 2.4292687478712408e-11,
            "std_deviation": 4.928761251948852e-06,
            "interval_size": 2.3476e-05,
            "jitter": 1.1975528611111111e-05
          }
        }
      }
    },
    "s22": {
      "port_1": {
        "queue_7": {
          "queueLength": {
            "min": 0,
            "max": 1,
            "mean": 0.49999710649822626,
            "median": 0,
            "variance": 0.25000144675088687,
            "std_deviation": 0.5000014467487938,
            "interval_size": 1,
            "jitter": 0.5000028935017737
          },
          "queueingTime": {
            "min": 0.0,
            "max": 2.3476e-05,
            "mean": 1.14575625e-05,
            "median": 1.1476e-05,
            "variance": 2.4212864997864558e-11,
            "std_deviation": 4.9206569681155945e-06,
            "interval_size": 2.3476e-05,
            "jitter": 1.2018437500000001e-05
          }
        }
      }
    },
    "s21": {
      "port_1": {
        "queue_7": {
          "queueLength": {
            "min": 0,
            "max": 1,
            "mean": 0.49999710649822626,
            "median": 0,
            "variance": 0.25000144675088687,
            "std_deviation": 0.5000014467487938,
            "interval_size": 1,
            "jitter": 0.5000028935017737
          },
          "queueingTime": {
            "min": 0.0,
            "max": 2.3476e-05,
            "mean": 1.1473126388888889e-05,
            "median": 1.1476e-05,
            "variance": 2.4334759980229323e-11,
            "std_deviation": 4.933027465991784e-06,
            "interval_size": 2.3476e-05,
            "jitter": 1.2002873611111111e-05
          }
        }
      }
    },
    "s24": {
      "port_1": {
        "queue_7": {
          "queueLength": {
            "min": 0,
            "max": 1,
            "mean": 0.49999710649822626,
            "median": 0,
            "variance": 0.25000144675088687,
            "std_deviation": 0.5000014467487938,
            "interval_size": 1,
            "jitter": 0.5000028935017737
          },
          "queueingTime": {
            "min": 0.0,
            "max": 2.3476e-05,
            "mean": 1.1490495185185184e-05,
            "median": 1.1476e-05,
            "variance": 2.4281808696466358e-11,
            "std_deviation": 4.927657526296482e-06,
            "interval_size": 2.3476e-05,
            "jitter": 1.1985504814814816e-05
          }
        }
      }
    },
    "s23": {
      "port_1": {
        "queue_7": {
          "queueLength": {
            "min": 0,
            "max": 1,
            "mean": 0.49999710649822626,
            "median": 0,
            "variance": 0.25000144675088687,
            "std_deviation": 0.5000014467487938,
            "interval_size": 1,
            "jitter": 0.5000028935017737
          },
          "queueingTime": {
            "min": 0.0,
            "max": 2.3476e-05,
            "mean": 1.1482583935185185e-05,
            "median": 1.1476e-05,
            "variance": 2.417180938940615e-11,
            "std_deviation": 4.916483437316366e-06,
            "interval_size": 2.3476e-05,
            "jitter": 1.1993416064814815e-05
          }
        }
      }
    },
    "s26": {
      "port_1": {
        "queue_7": {
          "queueLength": {
            "min": 0,
            "max": 1,
            "mean": 0.49999710649822626,
            "median": 0,
            "variance": 0.25000144675088687,
            "std_deviation": 0.5000014467487938,
            "interval_size": 1,
            "jitter": 0.5000028935017737
          },
          "queueingTime": {
            "min": 0.0,
            "max": 2.3476e-05,
            "mean": 1.1484030185185184e-05,
            "median": 1.1476e-05,
            "variance": 2.419585782596184e-11,
            "std_deviation": 4.918928524176972e-06,
            "interval_size": 2.3476e-05,
            "jitter": 1.1991969814814816e-05
          }
        }
      }
    },
    "s25": {
      "port_1": {
        "queue_7": {
          "queueLength": {
            "min": 0,
            "max": 1,
            "mean": 0.49999710649822626,
            "median": 0,
            "variance": 0.25000144675088687,
            "std_deviation": 0.5000014467487938,
            "interval_size": 1,
            "jitter": 0.5000028935017737
          },
          "queueingTime": {
            "min": 0.0,
            "max": 2.3476e-05,
            "mean": 1.1467936666666667e-05,
            "median": 1.1476e-05,
            "variance": 2.417350508155696e-11,
            "std_deviation": 4.916655883988319e-06,
            "interval_size": 2.3476e-05,
            "jitter": 1.2008063333333333e-05
          }
        }
      }
    },
    "s28": {
      "port_1": {
        "queue_7": {
          "queueLength": {
            "min": 0,
            "max": 1,
            "mean": 0.49999710649822626,
            "median": 0,
            "variance": 0.25000144675088687,
            "std_deviation": 0.5000014467487938,
            "interval_size": 1,
            "jitter": 0.5000028935017737
          },
          "queueingTime": {
            "min": 0.0,
            "max": 2.3476e-05,
            "mean": 1.1464092546296295e-05,
            "median": 1.1476e-05,
            "variance": 2.432897852257549e-11,
            "std_deviation": 4.932441436304692e-06,
            "interval_size": 2.3476e-05,
            "jitter": 1.2011907453703705e-05
          }
        }
      }
    },
    "s27": {
      "port_1": {
        "queue_7": {
          "queueLength": {
            "min": 0,
            "max": 1,
            "mean": 0.49999710649822626,
            "median": 0,
            "variance": 0.25000144675088687,
            "std_deviation": 0.5000014467487938,
            "interval_size": 1,
            "jitter": 0.5000028935017737
          },
          "queueingTime": {
            "min": 0.0,
            "max": 2.3476e-05,
            "mean": 1.148819300925926e-05,
            "median": 1.1476e-05,
            "variance": 2.4276546850002634e-11,
            "std_deviation": 4.927123587855559e-06,
            "interval_size": 2.3476e-05,
            "jitter": 1.198780699074074e-05
          }
        }
      }
    },
    "s29": {
      "port_1": {
        "queue_7": {
          "queueLength": {
            "min": 0,
            "max": 1,
            "mean": 0.49999710649822626,
            "median": 0,
            "variance": 0.25000144675088687,
            "std_deviation": 0.5000014467487938,
            "interval_size": 1,
            "jitter": 0.5000028935017737
          },
          "queueingTime": {
            "min": 0.0,
            "max": 2.3476e-05,
            "mean": 1.148976875e-05,
            "median": 1.1476e-05,
            "variance": 2.4242125661866745e-11,
            "std_deviation": 4.923629318080997e-06,
            "interval_size": 2.3476e-05,
            "jitter": 1.1986231250000001e-05
          }
        }
      }
    },
    "s31": {
      "port_1": {
        "queue_7": {
          "queueLength": {
            "min": 0,
            "max": 1,
            "mean": 0.49999710649822626,
            "median": 0,
            "variance": 0.25000144675088687,
            "std_deviation": 0.5000014467487938,
            "interval_size": 1,
            "jitter": 0.5000028935017737
          },
          "queueingTime": {
            "min": 0.0,
            "max": 2.3476e-05,
            "mean": 1.1467520601851852e-05,
            "median": 1.1476e-05,
            "variance": 2.432475818543419e-11,
            "std_deviation": 4.9320136035329615e-06,
            "interval_size": 2.3476e-05,
            "jitter": 1.2008479398148148e-05
          }
        }
      }
    },
    "s30": {
      "port_1": {
        "queue_7": {
          "queueLength": {
            "min": 0,
            "max": 1,
            "mean": 0.49999710649822626,
            "median": 0,
            "variance": 0.25000144675088687,
            "std_deviation": 0.5000014467487938,
            "interval_size": 1,
            "jitter": 0.5000028935017737
          },
          "queueingTime": {
            "min": 0.0,
            "max": 2.3476e-05,
            "mean": 1.146828e-05,
            "median": 1.1476e-05,
            "variance": 2.4436749904723896e-11,
            "std_deviation": 4.943354114841854e-06,
            "interval_size": 2.3476e-05,
            "jitter": 1.200772e-05
          }
        }
      }
    },
    "s33": {
      "port_1": {
        "queue_7": {
          "queueLength": {
            "min": 0,
            "max": 1,
            "mean": 0.49999710649822626,
            "median": 0,
            "variance": 0.25000144675088687,
            "std_deviation": 0.5000014467487938,
            "interval_size": 1,
            "jitter": 0.5000028935017737
          },
          "queueingTime": {
            "min": 0.0,
            "max": 2.3476e-05,
            "mean": 1.1513872083333333e-05,
            "median": 1.1476e-05,
            "variance": 2.4262741469811744e-11,
            "std_deviation": 4.925722431259372e-06,
            "interval_size": 2.3476e-05,
            "jitter": 1.1962127916666668e-05
          }
        }
      }
    },
    "s32": {
      "port_1": {
        "queue_7": {
          "queueLength": {
            "min": 0,
            "max": 1,
            "mean": 0.49999710649822626,
            "median": 0,
            "variance": 0.25000144675088687,
            "std_deviation": 0.5000014467487938,
            "interval_size": 1,
            "jitter": 0.5000028935017737
          },
          "queueingTime": {
            "min": 0.0,
            "max": 2.3476e-05,
            "mean": 1.1507799490740741e-05,
            "median": 1.1476e-05,
            "variance": 2.431240474096202e-11,
            "std_deviation": 4.930761071169645e-06,
            "interval_size": 2.3476e-05,
            "jitter": 1.1968200509259259e-05
          }
        }
      }
    },
    "s35": {
      "port_1": {
        "queue_7": {
          "queueLength": {
            "min": 0,
            "max": 1,
            "mean": 0.49999710649822626,
            "median": 0,
            "variance": 0.25000144675088687,
            "std_deviation": 0.5000014467487938,
            "interval_size": 1,
            "jitter": 0.5000028935017737
          },
          "queueingTime": {
            "min": 0.0,
            "max": 2.3476e-05,
            "mean": 1.1436508148148148e-05,
            "median": 1.1476e-05,
            "variance": 2.433602667357566e-11,
            "std_deviation": 4.933155853363611e-06,
            "interval_size": 2.3476e-05,
            "jitter": 1.2039491851851852e-05
          }
        }
      }
    },
    "s34": {
      "port_1": {
        "queue_7": {
          "queueLength": {
            "min": 0,
            "max": 1,
            "mean": 0.49999710649822626,
            "median": 0,
            "variance": 0.25000144675088687,
            "std_deviation": 0.5000014467487938,
            "interval_size": 1,
            "jitter": 0.5000028935017737
          },
          "queueingTime": {
            "min": 0.0,
            "max": 2.3476e-05,
            "mean": 1.1448000694444444e-05,
            "median": 1.1476e-05,
            "variance": 2.4351790545908613e-11,
            "std_deviation": 4.934753341952221e-06,
            "interval_size": 2.3476e-05,
            "jitter": 1.2027999305555556e-05
          }
        }
      }
    },
    "s37": {
      "port_1": {
        "queue_7": {
          "queueLength": {
            "min": 0,
            "max": 1,
            "mean": 0.49999710649822626,
            "median": 0,
            "variance": 0.25000144675088687,
            "std_deviation": 0.5000014467487938,
            "interval_size": 1,
            "jitter": 0.5000028935017737
          },
          "queueingTime": {
            "min": 0.0,
            "max": 2.3476e-05,
            "mean": 1.1475576712962963e-05,
            "median": 1.1476e-05,
            "variance": 2.416653763408774e-11,
            "std_deviation": 4.915947277390975e-06,
            "interval_size": 2.3476e-05,
            "jitter": 1.2000423287037037e-05
          }
        }
      }
    },
    "s36": {
      "port_1": {
        "queue_7": {
          "queueLength": {
            "min": 0,
            "max": 1,
            "mean": 0.49999710649822626,
            "median": 0,
            "variance": 0.25000144675088687,
            "std_deviation": 0.5000014467487938,
            "interval_size": 1,
            "jitter": 0.5000028935017737
          },
          "queueingTime": {
            "min": 0.0,
            "max": 2.3476e-05,
            "mean": 1.1470254305555555e-05,
            "median": 1.1476e-05,
            "variance": 2.4277588208895917e-11,
            "std_deviation": 4.927229262871367e-06,
            "interval_size": 2.3476e-05,
            "jitter": 1.2005745694444445e-05
          }
        }
      }
    },
    "s39": {
      "port_1": {
        "queue_7": {
          "queueLength": {
            "min": 0,
            "max": 1,
            "mean": 0.49999710649822626,
            "median": 0,
            "variance": 0.25000144675088687,
            "std_deviation": 0.5000014467487938,
            "interval_size": 1,
            "jitter": 0.5000028935017737
          },
          "queueingTime": {
            "min": 0.0,
            "max": 2.3476e-05,
            "mean": 1.1485754768518518e-05,
            "median": 1.1476e-05,
            "variance": 2.4268868584729396e-11,
            "std_deviation": 4.926344342890517e-06,
            "interval_size": 2.3476e-05,
            "jitter": 1.1990245231481483e-05
          }
        }
      }
    },
    "s38": {
      "port_1": {
        "queue_7": {
          "queueLength": {
            "min": 0,
            "max": 1,
            "mean": 0.49999710649822626,
            "median": 0,
            "variance": 0.25000144675088687,
            "std_deviation": 0.5000014467487938,
            "interval_size": 1,
            "jitter": 0.5000028935017737
          },
          "queueingTime": {
            "min": 0.0,
            "max": 2.3476e-05,
            "mean": 1.1467032222222222e-05,
            "median": 1.1476e-05,
            "variance": 2.4187778466768057e-11,
            "std_deviation": 4.9181072036676936e-06,
            "interval_size": 2.3476e-05,
            "jitter": 1.2008967777777778e-05
          }
        }
      }
    },
    "s40": {
      "port_1": {
        "queue_7": {
          "queueLength": {
            "min": 0,
            "max": 1,
            "mean": 0.49999710649822626,
            "median": 0,
            "variance": 0.25000144675088687,
            "std_deviation": 0.5000014467487938,
            "interval_size": 1,
            "jitter": 0.5000028935017737
          },
          "queueingTime": {
            "min": 0.0,
            "max": 2.3476e-05,
            "mean": 1.1493852222222222e-05,
            "median": 1.1476e-05,
            "variance": 2.434830888173675e-11,
            "std_deviation": 4.934400559514473e-06,
            "interval_size": 2.3476e-05,
            "jitter": 1.1982147777777779e-05
          }
        }
      }
    },
    "s42": {
      "port_1": {
        "queue_7": {
          "queueLength": {
            "min": 0,
            "max": 1,
            "mean": 0.49999710649822626,
            "median": 0,
            "variance": 0.25000144675088687,
            "std_deviation": 0.5000014467487938,
            "interval_size": 1,
            "jitter": 0.5000028935017737
          },
          "queueingTime": {
            "min": 0.0,
            "max": 2.3476e-05,
            "mean": 1.1461191851851852e-05,
            "median": 1.1476e-05,
            "variance": 2.4400217840528985e-11,
            "std_deviation": 4.939657664305188e-06,
            "interval_size": 2.3476e-05,
            "jitter": 1.2014808148148149e-05
          }
        }
      }
    },
    "s41": {
      "port_1": {
        "queue_7": {
          "queueLength": {
            "min": 0,
            "max": 1,
            "mean": 0.49999710649822626,
            "median": 0,
            "variance": 0.25000144675088687,
            "std_deviation": 0.5000014467487938,
            "interval_size": 1,
            "jitter": 0.5000028935017737
          },
          "queueingTime": {
            "min": 0.0,
            "max": 2.3476e-05,
            "mean": 1.145639574074074e-05,
            "median": 1.1476e-05,
            "variance": 2.420768877571306e-11,
            "std_deviation": 4.920130971398329e-06,
            "interval_size": 2.3476e-05,
            "jitter": 1.201960425925926e-05
          }
        }
      }
    },
    "s44": {
      "port_1": {
        "queue_7": {
          "queueLength": {
            "min": 0,
            "max": 1,
            "mean": 0.49999710649822626,
            "median": 0,
            "variance": 0.25000144675088687,
            "std_deviation": 0.5000014467487938,
            "interval_size": 1,
            "jitter": 0.5000028935017737
          },
          "queueingTime": {
            "min": 0.0,
            "max": 2.3476e-05,
            "mean": 1.148580375e-05,
            "median": 1.1476e-05,
            "variance": 2.424134542965063e-11,
            "std_deviation": 4.923550083999413e-06,
            "interval_size": 2.3476e-05,
            "jitter": 1.199019625e-05
          }
        }
      }
    },
    "s43": {
      "port_1": {
        "queue_7": {
          "queueLength": {
            "min": 0,
            "max": 1,
            "mean": 0.49999710649822626,
            "median": 0,
            "variance": 0.25000144675088687,
            "std_deviation": 0.5000014467487938,
            "interval_size": 1,
            "jitter": 0.5000028935017737
          },
          "queueingTime": {
            "min": 0.0,
            "max": 2.3476e-05,
            "mean": 1.1495276851851852e-05,
            "median": 1.1476e-05,
            "variance": 2.437539438523251e-11,
            "std_deviation": 4.937144355316392e-06,
            "interval_size": 2.3476e-05,
            "jitter": 1.1980723148148148e-05
          }
        }
      }
    },
    "s46": {
      "port_1": {
        "queue_7": {
          "queueLength": {
            "min": 0,
            "max": 1,
            "mean": 0.49999710649822626,
            "median": 0,
            "variance": 0.25000144675088687,
            "std_deviation": 0.5000014467487938,
            "interval_size": 1,
            "jitter": 0.5000028935017737
          },
          "queueingTime": {
            "min": 0.0,
            "max": 2.3476e-05,
            "mean": 1.149054699074074e-05,
            "median": 1.1476e-05,
            "variance": 2.4278394960002053e-11,
            "std_deviation": 4.927311128800581e-06,
            "interval_size": 2.3476e-05,
            "jitter": 1.198545300925926e-05
          }
        }
      }
    },
    "s45": {
      "port_1": {
        "queue_7": {
          "queueLength": {
            "min": 0,
            "max": 1,
            "mean": 0.49999710649822626,
            "median": 0,
            "variance": 0.25000144675088687,
            "std_deviation": 0.5000014467487938,
            "interval_size": 1,
            "jitter": 0.5000028935017737
          },
          "queueingTime": {
            "min": 0.0,
            "max": 2.3476e-05,
            "mean": 1.1471515324074073e-05,
            "median": 1.1476e-05,
            "variance": 2.4401021248205546e-11,
            "std_deviation": 4.939738985837769e-06,
            "interval_size": 2.3476e-05,
            "jitter": 1.2004484675925927e-05
          }
        }
      }
    },
    "s48": {
      "port_1": {
        "queue_7": {
          "queueLength": {
            "min": 0,
            "max": 1,
            "mean": 0.49999710649822626,
            "median": 0,
            "variance": 0.25000144675088687,
            "std_deviation": 0.5000014467487938,
            "interval_size": 1,
            "jitter": 0.5000028935017737
          },
          "queueingTime": {
            "min": 0.0,
            "max": 2.3476e-05,
            "mean": 1.1458325277777777e-05,
            "median": 1.1476e-05,
            "variance": 2.4324053554073466e-11,
            "std_deviation": 4.931942168565388e-06,
            "interval_size": 2.3476e-05,
            "jitter": 1.2017674722222223e-05
          }
        }
      }
    },
    "s47": {
      "port_1": {
        "queue_7": {
          "queueLength": {
            "min": 0,
            "max": 1,
            "mean": 0.49999710649822626,
            "median": 0,
            "variance": 0.25000144675088687,
            "std_deviation": 0.5000014467487938,
            "interval_size": 1,
            "jitter": 0.5000028935017737
          },
          "queueingTime": {
            "min": 0.0,
            "max": 2.3476e-05,
            "mean": 1.1460581157407407e-05,
            "median": 1.1476e-05,
            "variance": 2.4353639877717615e-11,
            "std_deviation": 4.934940716737904e-06,
            "interval_size": 2.3476e-05,
            "jitter": 1.2015418842592593e-05
          }
        }
      }
    },
    "s49": {
      "port_1": {
        "queue_7": {
          "queueLength": {
            "min": 0,
            "max": 1,
            "mean": 0.49999710649822626,
            "median": 0,
            "variance": 0.25000144675088687,
            "std_deviation": 0.5000014467487938,
            "interval_size": 1,
            "jitter": 0.5000028935017737
          },
          "queueingTime": {
            "min": 0.0,
            "max": 2.3476e-05,
            "mean": 1.1486321342592592e-05,
            "median": 1.1476e-05,
            "variance": 2.4411936089702938e-11,
            "std_deviation": 4.940843661734597e-06,
            "interval_size": 2.3476e-05,
            "jitter": 1.1989678657407408e-05
          }
        }
      }
    },
    "s9": {
      "port_1": {
        "queue_7": {
          "queueLength": {
            "min": 0,
            "max": 1,
            "mean": 0.49999710649822626,
            "median": 0,
            "variance": 0.25000144675088687,
            "std_deviation": 0.5000014467487938,
            "interval_size": 1,
            "jitter": 0.5000028935017737
          },
          "queueingTime": {
            "min": 0.0,
            "max": 2.3476e-05,
            "mean": 1.1471216018518519e-05,
            "median": 1.1476e-05,
            "variance": 2.412474270100615e-11,
            "std_deviation": 4.9116944836793496e-06,
            "interval_size": 2.3476e-05,
            "jitter": 1.2004783981481482e-05
          }
        }
      }
    },
    "s51": {
      "port_1": {
        "queue_7": {
          "queueLength": {
            "min": 0,
            "max": 1,
            "mean": 0.49999710649822626,
            "median": 0,
            "variance": 0.25000144675088687,
            "std_deviation": 0.5000014467487938,
            "interval_size": 1,
            "jitter": 0.5000028935017737
          },
          "queueingTime": {
            "min": 0.0,
            "max": 2.3476e-05,
            "mean": 1.1449610462962963e-05,
            "median": 1.1476e-05,
            "variance": 2.4325087834184903e-11,
            "std_deviation": 4.932047022706181e-06,
            "interval_size": 2.3476e-05,
            "jitter": 1.2026389537037038e-05
          }
        }
      }
    },
    "s50": {
      "port_1": {
        "queue_7": {
          "queueLength": {
            "min": 0,
            "max": 1,
            "mean": 0.49999710649822626,
            "median": 0,
            "variance": 0.25000144675088687,
            "std_deviation": 0.5000014467487938,
            "interval_size": 1,
            "jitter": 0.5000028935017737
          },
          "queueingTime": {
            "min": 0.0,
            "max": 2.3476e-05,
            "mean": 1.1500993888888889e-05,
            "median": 1.1476e-05,
            "variance": 2.42092568367316e-11,
            "std_deviation": 4.920290320370496e-06,
            "interval_size": 2.3476e-05,
            "jitter": 1.1975006111111112e-05
          }
        }
      }
    },
    "s53": {
      "port_1": {
        "queue_7": {
          "queueLength": {
            "min": 0,
            "max": 1,
            "mean": 0.49999710649822626,
            "median": 0,
            "variance": 0.25000144675088687,
            "std_deviation": 0.5000014467487938,
            "interval_size": 1,
            "jitter": 0.5000028935017737
          },
          "queueingTime": {
            "min": 0.0,
            "max": 2.3476e-05,
            "mean": 1.1512151388888888e-05,
            "median": 1.1476e-05,
            "variance": 2.44186801866206e-11,
            "std_deviation": 4.941526098951679e-06,
            "interval_size": 2.3476e-05,
            "jitter": 1.1963848611111112e-05
          }
        }
      }
    },
    "s5": {
      "port_1": {
        "queue_7": {
          "queueLength": {
            "min": 0,
            "max": 1,
            "mean": 0.49999710649822626,
            "median": 0,
            "variance": 0.25000144675088687,
            "std_deviation": 0.5000014467487938,
            "interval_size": 1,
            "jitter": 0.5000028935017737
          },
          "queueingTime": {
            "min": 0.0,
            "max": 2.3476e-05,
            "mean": 1.1495950972222223e-05,
            "median": 1.1476e-05,
            "variance": 2.418905968745377e-11,
            "std_deviation": 4.91823745740827e-06,
            "interval_size": 2.3476e-05,
            "jitter": 1.1980049027777778e-05
          }
        }
      }
    },
    "s6": {
      "port_1": {
        "queue_7": {
          "queueLength": {
            "min": 0,
            "max": 1,
            "mean": 0.49999710649822626,
            "median": 0,
            "variance": 0.25000144675088687,
            "std_deviation": 0.5000014467487938,
            "interval_size": 1,
            "jitter": 0.5000028935017737
          },
          "queueingTime": {
            "min": 0.0,
            "max": 2.3476e-05,
            "mean": 1.1479279814814815e-05,
            "median": 1.1476e-05,
            "variance": 2.4260189233893876e-11,
            "std_deviation": 4.925463352202905e-06,
            "interval_size": 2.3476e-05,
            "jitter": 1.1996720185185185e-05
          }
        }
      }
    },
    "s52": {
      "port_1": {
        "queue_7": {
          "queueLength": {
            "min": 0,
            "max": 1,
            "mean": 0.49999710649822626,
            "median": 0,
            "variance": 0.25000144675088687,
            "std_deviation": 0.5000014467487938,
            "interval_size": 1,
            "jitter": 0.5000028935017737
          },
          "queueingTime": {
            "min": 0.0,
            "max": 2.3476e-05,
            "mean": 1.1467914722222221e-05,
            "median": 1.1476e-05,
            "variance": 2.4261641646543055e-11,
            "std_deviation": 4.925610789185749e-06,
            "interval_size": 2.3476e-05,
            "jitter": 1.2008085277777779e-05
          }
        }
      }
    },
    "s55": {
      "port_1": {
        "queue_7": {
          "queueLength": {
            "min": 0,
            "max": 1,
            "mean": 0.49999710649822626,
            "median": 0,
            "variance": 0.25000144675088687,
            "std_deviation": 0.5000014467487938,
            "interval_size": 1,
            "jitter": 0.5000028935017737
          },
          "queueingTime": {
            "min": 0.0,
            "max": 2.3476e-05,
            "mean": 1.1469922546296297e-05,
            "median": 1.1476e-05,
            "variance": 2.4396578984405836e-11,
            "std_deviation": 4.939289319771199e-06,
            "interval_size": 2.3476e-05,
            "jitter": 1.2006077453703704e-05
          }
        }
      }
    },
    "s11": {
      "port_1": {
        "queue_7": {
          "queueLength": {
            "min": 0,
            "max": 1,
            "mean": 0.49999710649822626,
            "median": 0,
            "variance": 0.25000144675088687,
            "std_deviation": 0.5000014467487938,
            "interval_size": 1,
            "jitter": 0.5000028935017737
          },
          "queueingTime": {
            "min": 0.0,
            "max": 2.3476e-05,
            "mean": 1.147661837962963e-05,
            "median": 1.1476e-05,
            "variance": 2.4145011043938158e-11,
            "std_deviation": 4.913757324485832e-06,
            "interval_size": 2.3476e-05,
            "jitter": 1.199938162037037e-05
          }
        }
      }
    },
    "s7": {
      "port_1": {
        "queue_7": {
          "queueLength": {
            "min": 0,
            "max": 1,
            "mean": 0.49999710649822626,
            "median": 0,
            "variance": 0.25000144675088687,
            "std_deviation": 0.5000014467487938,
            "interval_size": 1,
            "jitter": 0.5000028935017737
          },
          "queueingTime": {
            "min": 0.0,
            "max": 2.3476e-05,
            "mean": 1.1461943055555555e-05,
            "median": 1.1476e-05,
            "variance": 2.4181066518360553e-11,
            "std_deviation": 4.917424785226567e-06,
            "interval_size": 2.3476e-05,
            "jitter": 1.2014056944444445e-05
          }
        }
      }
    },
    "s10": {
      "port_1": {
        "queue_7": {
          "queueLength": {
            "min": 0,
            "max": 1,
            "mean": 0.49999710649822626,
            "median": 0,
            "variance": 0.25000144675088687,
            "std_deviation": 0.5000014467487938,
            "interval_size": 1,
            "jitter": 0.5000028935017737
          },
          "queueingTime": {
            "min": 0.0,
            "max": 2.3476e-05,
            "mean": 1.14751975e-05,
            "median": 1.1476e-05,
            "variance": 2.437417547635806e-11,
            "std_deviation": 4.937020911071581e-06,
            "interval_size": 2.3476e-05,
            "jitter": 1.20008025e-05
          }
        }
      }
    },
    "s8": {
      "port_1": {
        "queue_7": {
          "queueLength": {
            "min": 0,
            "max": 1,
            "mean": 0.49999710649822626,
            "median": 0,
            "variance": 0.25000144675088687,
            "std_deviation": 0.5000014467487938,
            "interval_size": 1,
            "jitter": 0.5000028935017737
          },
          "queueingTime": {
            "min": 0.0,
            "max": 2.3476e-05,
            "mean": 1.1488666527777777e-05,
            "median": 1.1476e-05,
            "variance": 2.431953482424563e-11,
            "std_deviation": 4.931484038729683e-06,
            "interval_size": 2.3476e-05,
            "jitter": 1.1987333472222223e-05
          }
        }
      }
    },
    "s54": {
      "port_1": {
        "queue_7": {
          "queueLength": {
            "min": 0,
            "max": 1,
            "mean": 0.49999710649822626,
            "median": 0,
            "variance": 0.25000144675088687,
            "std_deviation": 0.5000014467487938,
            "interval_size": 1,
            "jitter": 0.5000028935017737
          },
          "queueingTime": {
            "min": 0.0,
            "max": 2.3476e-05,
            "mean": 1.1469740601851852e-05,
            "median": 1.1476e-05,
            "variance": 2.4290029519535743e-11,
            "std_deviation": 4.928491606925565e-06,
            "interval_size": 2.3476e-05,
            "jitter": 1.2006259398148149e-05
          }
        }
      }
    },
    "s13": {
      "port_1": {
        "queue_7": {
          "queueLength": {
            "min": 0,
            "max": 1,
            "mean": 0.49999710649822626,
            "median": 0,
            "variance": 0.25000144675088687,
            "std_deviation": 0.5000014467487938,
            "interval_size": 1,
            "jitter": 0.5000028935017737
          },
          "queueingTime": {
            "min": 0.0,
            "max": 2.3476e-05,
            "mean": 1.1486487222222221e-05,
            "median": 1.1476e-05,
            "variance": 2.4105989078228835e-11,
            "std_deviation": 4.909785033810425e-06,
            "interval_size": 2.3476e-05,
            "jitter": 1.1989512777777779e-05
          }
        }
      }
    },
    "s57": {
      "port_1": {
        "queue_7": {
          "queueLength": {
            "min": 0,
            "max": 1,
            "mean": 0.49999710649822626,
            "median": 0,
            "variance": 0.25000144675088687,
            "std_deviation": 0.5000014467487938,
            "interval_size": 1,
            "jitter": 0.5000028935017737
          },
          "queueingTime": {
            "min": 0.0,
            "max": 2.3476e-05,
            "mean": 1.1454381805555556e-05,
            "median": 1.1476e-05,
            "variance": 2.4289642825460924e-11,
            "std_deviation": 4.928452376300386e-06,
            "interval_size": 2.3476e-05,
            "jitter": 1.2021618194444444e-05
          }
        }
      }
    },
    "s1": {
      "port_1": {
        "queue_7": {
          "queueLength": {
            "min": 0,
            "max": 1,
            "mean": 0.49999710649822626,
            "median": 0,
            "variance": 0.25000144675088687,
            "std_deviation": 0.5000014467487938,
            "interval_size": 1,
            "jitter": 0.5000028935017737
          },
          "queueingTime": {
            "min": 0.0,
            "max": 2.3476e-05,
            "mean": 1.1476053796296297e-05,
            "median": 1.1476e-05,
            "variance": 2.4213557834025333e-11,
            "std_deviation": 4.9207273683903e-06,
            "interval_size": 2.3476e-05,
            "jitter": 1.1999946203703703e-05
          }
        }
      },
      "port_2": {
        "queue_7": {
          "queueLength": {
            "min": 0,
            "max": 1,
            "mean": 0.49999710649822626,
            "median": 0,
            "variance": 0.25000144675088687,
            "std_deviation": 0.5000014467487938,
            "interval_size": 1,
            "jitter": 0.5000028935017737
          },
          "queueingTime": {
            "min": 0.0,
            "max": 2.3476e-05,
            "mean": 1.1488859166666667e-05,
            "median": 1.1476e-05,
            "variance": 2.4327736129148947e-11,
            "std_deviation": 4.9323154936752525e-06,
            "interval_size": 2.3476e-05,
            "jitter": 1.1987140833333333e-05
          }
        }
      }
    },
    "s12": {
      "port_1": {
        "queue_7": {
          "queueLength": {
            "min": 0,
            "max": 1,
            "mean": 0.49999710649822626,
            "median": 0,
            "variance": 0.25000144675088687,
            "std_deviation": 0.5000014467487938,
            "interval_size": 1,
            "jitter": 0.5000028935017737
          },
          "queueingTime": {
            "min": 0.0,
            "max": 2.3476e-05,
            "mean": 1.147109587962963e-05,
            "median": 1.1476e-05,
            "variance": 2.430933850416941e-11,
            "std_deviation": 4.930450132003102e-06,
            "interval_size": 2.3476e-05,
            "jitter": 1.200490412037037e-05
          }
        }
      }
    },
    "s56": {
      "port_1": {
        "queue_7": {
          "queueLength": {
            "min": 0,
            "max": 1,
            "mean": 0.49999710649822626,
            "median": 0,
            "variance": 0.25000144675088687,
            "std_deviation": 0.5000014467487938,
            "interval_size": 1,
            "jitter": 0.5000028935017737
          },
          "queueingTime": {
            "min": 0.0,
            "max": 2.3476e-05,
            "mean": 1.1468393657407408e-05,
            "median": 1.1476e-05,
            "variance": 2.432229177211454e-11,
            "std_deviation": 4.9317635559822355e-06,
            "interval_size": 2.3476e-05,
            "jitter": 1.2007606342592592e-05
          }
        }
      }
    },
    "s2": {
      "port_1": {
        "queue_7": {
          "queueLength": {
            "min": 0,
            "max": 1,
            "mean": 0.49999710649822626,
            "median": 0,
            "variance": 0.25000144675088687,
            "std_deviation": 0.5000014467487938,
            "interval_size": 1,
            "jitter": 0.5000028935017737
          },
          "queueingTime": {
            "min": 0.0,
            "max": 2.3476e-05,
            "mean": 1.1486703240740741e-05,
            "median": 1.1476e-05,
            "variance": 2.441209203133245e-11,
            "std_deviation": 4.940859442580051e-06,
            "interval_size": 2.3476e-05,
            "jitter": 1.198929675925926e-05
          }
        }
      }
    },
    "s59": {
      "port_1": {
        "queue_7": {
          "queueLength": {
            "min": 0,
            "max": 1,
            "mean": 0.49999710649822626,
            "median": 0,
            "variance": 0.25000144675088687,
            "std_deviation": 0.5000014467487938,
            "interval_size": 1,
            "jitter": 0.5000028935017737
          },
          "queueingTime": {
            "min": 0.0,
            "max": 2.3476e-05,
            "mean": 1.1508375972222223e-05,
            "median": 1.1476e-05,
            "variance": 2.4244126155845764e-11,
            "std_deviation": 4.92383246626505e-06,
            "interval_size": 2.3476e-05,
            "jitter": 1.1967624027777777e-05
          }
        }
      }
    },
    "s15": {
      "port_1": {
        "queue_7": {
          "queueLength": {
            "min": 0,
            "max": 1,
            "mean": 0.49999710649822626,
            "median": 0,
            "variance": 0.25000144675088687,
            "std_deviation": 0.5000014467487938,
            "interval_size": 1,
            "jitter": 0.5000028935017737
          },
          "queueingTime": {
            "min": 0.0,
            "max": 2.3476e-05,
            "mean": 1.145697e-05,
            "median": 1.1476e-05,
            "variance": 2.427688970384194e-11,
            "std_deviation": 4.92715838022708e-06,
            "interval_size": 2.3476e-05,
            "jitter": 1.201903e-05
          }
        }
      }
    },
    "s3": {
      "port_1": {
        "queue_7": {
          "queueLength": {
            "min": 0,
            "max": 1,
            "mean": 0.49999710649822626,
            "median": 0,
            "variance": 0.25000144675088687,
            "std_deviation": 0.5000014467487938,
            "interval_size": 1,
            "jitter": 0.5000028935017737
          },
          "queueingTime": {
            "min": 0.0,
            "max": 2.3476e-05,
            "mean": 1.1473340092592592e-05,
            "median": 1.1476e-05,
            "variance": 2.4312773419399753e-11,
            "std_deviation": 4.9307984565787876e-06,
            "interval_size": 2.3476e-05,
            "jitter": 1.2002659907407408e-05
          }
        }
      }
    },
    "s14": {
      "port_1": {
        "queue_7": {
          "queueLength": {
            "min": 0,
            "max": 1,
            "mean": 0.49999710649822626,
            "median": 0,
            "variance": 0.25000144675088687,
            "std_deviation": 0.5000014467487938,
            "interval_size": 1,
            "jitter": 0.5000028935017737
          },
          "queueingTime": {
            "min": 0.0,
            "max": 2.3476e-05,
            "mean": 1.14690225e-05,
            "median": 1.1476e-05,
            "variance": 2.449761503281589e-11,
            "std_deviation": 4.949506544375499e-06,
            "interval_size": 2.3476e-05,
            "jitter": 1.20069775e-05
          }
        }
      }
    },
    "s58": {
      "port_1": {
        "queue_7": {
          "queueLength": {
            "min": 0,
            "max": 1,
            "mean": 0.49999710649822626,
            "median": 0,
            "variance": 0.25000144675088687,
            "std_deviation": 0.5000014467487938,
            "interval_size": 1,
            "jitter": 0.5000028935017737
          },
          "queueingTime": {
            "min": 0.0,
            "max": 2.3476e-05,
            "mean": 1.1486014351851852e-05,
            "median": 1.1476e-05,
            "variance": 2.4328645656155784e-11,
            "std_deviation": 4.9324076936275034e-06,
            "interval_size": 2.3476e-05,
            "jitter": 1.1989985648148149e-05
          }
        }
      }
    },
    "s4": {
      "port_1": {
        "queue_7": {
          "queueLength": {
            "min": 0,
            "max": 1,
            "mean": 0.49999710649822626,
            "median": 0,
            "variance": 0.25000144675088687,
            "std_deviation": 0.5000014467487938,
            "interval_size": 1,
            "jitter": 0.5000028935017737
          },
          "queueingTime": {
            "min": 0.0,
            "max": 2.3476e-05,
            "mean": 1.1443284537037038e-05,
            "median": 1.1476e-05,
            "variance": 2.4379440442006753e-11,
            "std_deviation": 4.9375540950967566e-06,
            "interval_size": 2.3476e-05,
            "jitter": 1.2032715462962963e-05
          }
        }
      }
    },
    "s17": {
      "port_1": {
        "queue_7": {
          "queueLength": {
            "min": 0,
            "max": 1,
            "mean": 0.49999710649822626,
            "median": 0,
            "variance": 0.25000144675088687,
            "std_deviation": 0.5000014467487938,
            "interval_size": 1,
            "jitter": 0.5000028935017737
          },
          "queueingTime": {
            "min": 0.0,
            "max": 2.3476e-05,
            "mean": 1.1509914768518519e-05,
            "median": 1.1476e-05,
            "variance": 2.433608101108063e-11,
            "std_deviation": 4.9331613607382265e-06,
            "interval_size": 2.3476e-05,
            "jitter": 1.1966085231481481e-05
          }
        }
      }
    },
    "s16": {
      "port_1": {
        "queue_7": {
          "queueLength": {
            "min": 0,
            "max": 1,
            "mean": 0.49999710649822626,
            "median": 0,
            "variance": 0.25000144675088687,
            "std_deviation": 0.5000014467487938,
            "interval_size": 1,
            "jitter": 0.5000028935017737
          },
          "queueingTime": {
            "min": 0.0,
            "max": 2.3476e-05,
            "mean": 1.1505735972222223e-05,
            "median": 1.1476e-05,
            "variance": 2.427106295574021e-11,
            "std_deviation": 4.926567055845298e-06,
            "interval_size": 2.3476e-05,
            "jitter": 1.1970264027777777e-05
          }
        }
      }
    },
    "s19": {
      "port_1": {
        "queue_7": {
          "queueLength": {
            "min": 0,
            "max": 1,
            "mean": 0.49999710649822626,
            "median": 0,
            "variance": 0.25000144675088687,
            "std_deviation": 0.5000014467487938,
            "interval_size": 1,
            "jitter": 0.5000028935017737
          },
          "queueingTime": {
            "min": 0.0,
            "max": 2.3476e-05,
            "mean": 1.1445433472222222e-05,
            "median": 1.1476e-05,
            "variance": 2.4456097175356178e-11,
            "std_deviation": 4.945310624759195e-06,
            "interval_size": 2.3476e-05,
            "jitter": 1.2030566527777778e-05
          }
        }
      }
    },
    "s18": {
      "port_1": {
        "queue_7": {
          "queueLength": {
            "min": 0,
            "max": 1,
            "mean": 0.49999710649822626,
            "median": 0,
            "variance": 0.25000144675088687,
            "std_deviation": 0.5000014467487938,
            "interval_size": 1,
            "jitter": 0.5000028935017737
          },
          "queueingTime": {
            "min": 0.0,
            "max": 2.3476e-05,
            "mean": 1.144674412037037e-05,
            "median": 1.1476e-05,
            "variance": 2.4428029616257285e-11,
            "std_deviation": 4.942472014716653e-06,
            "interval_size": 2.3476e-05,
            "jitter": 1.202925587962963e-05
          }
        }
      }
    }
  }
}