{
  "general": {
    "validation": {
      "valid": false,
      "errors": [
        "Host h3: No periodicity found in the streams received",
        "Stream 1---2---6000 (-> vid 1907): max latency (176.00003104799907) higher than allowed (0.01)",
        "Stream 1---2---6001 (-> vid 1908): max latency (175.00002652399417) higher than allowed (0.01)"
      ]
    }
  },
  "sim_parameters": {
    "**.displayAddresses": "false",
    "**.verbose": "false",
    "**.promiscuous": "true",
    "**.registerProtocol": "true",
    "**.*.clock.clockRate": "\"1us\"",
    "**.h1.eth.address": "\"12:23:34:45:56:67\"",
    "**.h3.eth.address": "\"aa:aa:aa:aa:aa:bb\"",
    "**.h2.eth.address": "\"aa:bb:cc:dd:ee:aa\"",
    "**.*.processingDelay[*].delay": "5us",
    "**.filteringDatabase.database": "xmldoc(\"xml/routing.xml\", \"/filteringDatabases/\")",
    "**.filteringDatabase.cycle": "xmldoc(\"xml/tas.xml\", \"/schedule/\")",
    "**.gateController.initialSchedule": "xmldoc(\"xml/tas.xml\")",
    "**.gateController.enableHoldAndRelease": "false",
    "**.*.eth[*].queuing.tsAlgorithms[*].typename": "\"StrictPriority\"",
    "**.s2.eth[1].queuing.queuingFrames.tciToQueueMapping": "xmldoc(\"xml/tci-maps/tci-map-s2-1.xml\")",
    "**.s3.eth[0].queuing.queuingFrames.tciToQueueMapping": "xmldoc(\"xml/tci-maps/tci-map-s3-0.xml\")",
    "**.s1.eth[1].queuing.queuingFrames.tciToQueueMapping": "xmldoc(\"xml/tci-maps/tci-map-s1-1.xml\")",
    "**.*.eth[*].queuing.queues[*].bufferCapacity": "365280b",
    "**.*.eth[*].queuing.queues[*].expressQueue": "true",
    "**.*.eth[*].mac.enablePreemptingFrames": "false",
    "**.*.trafGenSchedApp.jitter": "0.000004",
    "**.*.eth[*].queuing.gateController.jitter": "0.000004",
    "**.*.trafGenSchedApp.initialSchedule": "xmldoc(\"xml/traf-gen.xml\")"
  },
  "streams": {
    "1907": {
      "latency_stats": {
        "min": 1.000030048,
        "max": 176.00003104799907,
        "mean": 117.78664870460308,
        "median": 117.00003004800237,
        "variance": 196.78424812758144,
        "std_deviation": 14.027980899886535,
        "interval_size": 175.00000099999906,
        "jitter": 116.78661865660308,
        "packages_received": 32266
      },
      "udp_dest_port": 6000,
      "name": "1---2---6000",
      "max_allowed_latency": 10000000,
      "talker": "h1",
      "listener": "h3"
    },
    "1908": {
      "latency_stats": {
        "min": 3.000032048,
        "max": 175.00002652399417,
        "mean": 117.14567930030861,
        "median": 117.00002852399848,
        "variance": 193.00254036162437,
        "std_deviation": 13.892535418764437,
        "interval_size": 171.99999447599416,
        "jitter": 114.14564725230862,
        "packages_received": 32496
      },
      "udp_dest_port": 6001,
      "name": "1---2---6001",
      "max_allowed_latency": 10000000,
      "talker": "h2",
      "listener": "h3"
    }
  },
  "hosts": {
    "h3": {
      "received_periodically": {
        "is_periodic": false,
        "max-period-length": 250,
        "skipped": "first 0s"
      }
    }
  },
  "switches": {
    "s1": {
      "port_1": {
        "queue_7": {
          "queueLength": {
            "min": 0,
            "max": 44,
            "mean": 43.711596315740685,
            "median": 44,
            "variance": 0.65968071991901,
            "std_deviation": 0.812207313386804,
            "interval_size": 44,
            "jitter": 43.711596315740685
          },
          "queueingTime": {
            "min": 0.999994476,
            "max": 175.999995476,
            "mean": 117.68715809519668,
            "median": 116.999994476,
            "variance": 196.73665640195975,
            "std_deviation": 14.026284483139495,
            "interval_size": 175.000001,
            "jitter": 116.68716361919668
          }
        }
      }
    },
    "s2": {
      "port_1": {
        "queue_7": {
          "queueLength": {
            "min": 0,
            "max": 44,
            "mean": 43.70650226666779,
            "median": 44,
            "variance": 0.8062517081957268,
            "std_deviation": 0.8979152010049316,
            "interval_size": 44,
            "jitter": 43.70650226666779
          },
          "queueingTime": {
            "min": 2.999996476,
            "max": 173.999995476,
            "mean": 116.84025239248203,
            "median": 115.999996476,
            "variance": 192.90499397635594,
            "std_deviation": 13.889024226933868,
            "interval_size": 170.999999,
            "jitter": 113.84025591648202
          }
        }
      }
    },
    "s3": {
      "port_0": {
        "queue_7": {
          "queueLength": {
            "min": 0,
            "max": 4,
            "mean": 0.6266435051148427,
            "median": 1,
            "variance": 0.36351450900102433,
            "std_deviation": 0.602921644163671,
            "interval_size": 4,
            "jitter": 3.373356494885157
          },
          "queueingTime": {
            "min": 0.0,
            "max": 1.999999476,
            "mean": 0.20278887443117877,
            "median": 0.0,
            "variance": 0.16271694781670953,
            "std_deviation": 0.4033818883102085,
            "interval_size": 1.999999476,
            "jitter": 1.7972106015688212
          }
        }
      }
    }
  }
}