{
  "general": {
    "validation": {
      "valid": false,
      "errors": [
        "Host h3: No periodicity found in the streams received"
      ]
    }
  },
  "sim_parameters": {
    "**.displayAddresses": "false",
    "**.verbose": "false",
    "**.promiscuous": "true",
    "**.registerProtocol": "true",
    "**.*.clock.clockRate": "\"1us\"",
    "**.h3.eth.address": "\"aa:aa:aa:aa:aa:bb\"",
    "**.h1.eth.address": "\"12:23:34:45:56:67\"",
    "**.h2.eth.address": "\"aa:bb:cc:dd:ee:aa\"",
    "**.*.processingDelay[*].delay": "5us",
    "**.filteringDatabase.database": "xmldoc(\"xml/routing.xml\", \"/filteringDatabases/\")",
    "**.filteringDatabase.cycle": "xmldoc(\"xml/tas.xml\", \"/schedule/\")",
    "**.gateController.initialSchedule": "xmldoc(\"xml/tas.xml\")",
    "**.gateController.enableHoldAndRelease": "false",
    "**.*.eth[*].queuing.tsAlgorithms[*].typename": "\"StrictPriority\"",
    "**.s2.eth[1].queuing.queuingFrames.tciToQueueMapping": "xmldoc(\"xml/tci-maps/tci-map-s2-1.xml\")",
    "**.s3.eth[0].queuing.queuingFrames.tciToQueueMapping": "xmldoc(\"xml/tci-maps/tci-map-s3-0.xml\")",
    "**.s1.eth[1].queuing.queuingFrames.tciToQueueMapping": "xmldoc(\"xml/tci-maps/tci-map-s1-1.xml\")",
    "**.*.eth[*].queuing.queues[*].bufferCapacity": "365280b",
    "**.*.eth[*].queuing.queues[*].expressQueue": "true",
    "**.*.eth[*].mac.enablePreemptingFrames": "false",
    "**.*.trafGenSchedApp.jitter": "0.000007",
    "**.*.eth[*].queuing.gateController.jitter": "0.000007",
    "**.*.trafGenSchedApp.initialSchedule": "xmldoc(\"xml/traf-gen.xml\")"
  },
  "streams": {
    "1908": {
      "latency_stats": {
        "min": 0.00010152399772778153,
        "max": 0.00012404400331433862,
        "mean": 0.0001133337794643159,
        "median": 0.00011404399992898107,
        "variance": 2.6510514330111585e-11,
        "std_deviation": 5.1488362112337175e-06,
        "interval_size": 2.252000558655709e-05,
        "jitter": 1.180978173653436e-05,
        "packages_received": 86400
      },
      "udp_dest_port": 6001,
      "name": "1---2---6001",
      "max_allowed_latency": 10000000,
      "talker": "h2",
      "listener": "h3"
    },
    "1907": {
      "latency_stats": {
        "min": 0.00010152399772778153,
        "max": 0.00012404400331433862,
        "mean": 0.000112253202555712,
        "median": 0.00011152400111313909,
        "variance": 2.6354583534591828e-11,
        "std_deviation": 5.1336715452580165e-06,
        "interval_size": 2.252000558655709e-05,
        "jitter": 1.1790800758626623e-05,
        "packages_received": 86400
      },
      "udp_dest_port": 6000,
      "name": "1---2---6000",
      "max_allowed_latency": 10000000,
      "talker": "h1",
      "listener": "h3"
    }
  },
  "hosts": {
    "h3": {
      "received_periodically": {
        "is_periodic": false,
        "max-period-length": 250,
        "skipped": "first 0s"
      }
    }
  },
  "switches": {
    "s1": {
      "port_1": {
        "queue_7": {
          "queueLength": {
            "min": 0,
            "max": 1,
            "mean": 0.49999710649822626,
            "median": 0,
            "variance": 0.25000144675088687,
            "std_deviation": 0.5000014467487938,
            "interval_size": 1,
            "jitter": 0.5000028935017737
          },
          "queueingTime": {
            "min": 2.9476e-05,
            "max": 4.3476e-05,
            "mean": 3.648290972222222e-05,
            "median": 3.6476e-05,
            "variance": 8.501497411958855e-12,
            "std_deviation": 2.9157327401459235e-06,
            "interval_size": 1.4000000000000001e-05,
            "jitter": 7.006909722222223e-06
          }
        }
      }
    },
    "s2": {
      "port_1": {
        "queue_7": {
          "queueLength": {
            "min": 0,
            "max": 1,
            "mean": 0.49999710649822626,
            "median": 0,
            "variance": 0.25000144675088687,
            "std_deviation": 0.5000014467487938,
            "interval_size": 1,
            "jitter": 0.5000028935017737
          },
          "queueingTime": {
            "min": 2.9476e-05,
            "max": 4.3476e-05,
            "mean": 3.646870833333333e-05,
            "median": 3.6476e-05,
            "variance": 8.519026912927231e-12,
            "std_deviation": 2.918737212036608e-06,
            "interval_size": 1.4000000000000001e-05,
            "jitter": 7.0072916666666715e-06
          }
        }
      }
    },
    "s3": {
      "port_0": {
        "queue_7": {
          "queueLength": {
            "min": 0,
            "max": 2,
            "mean": 0.999997106489854,
            "median": 1,
            "variance": 0.5000028935101462,
            "std_deviation": 0.7071088272042332,
            "interval_size": 2,
            "jitter": 1.0000028935101462
          },
          "queueingTime": {
            "min": 2.9476e-05,
            "max": 5.1996e-05,
            "mean": 4.074568171296296e-05,
            "median": 4.0996e-05,
            "variance": 1.660685005407562e-11,
            "std_deviation": 4.07515031061133e-06,
            "interval_size": 2.252e-05,
            "jitter": 1.126968171296296e-05
          }
        }
      }
    }
  }
}