{
  "general": {
    "validation": {
      "valid": false,
      "errors": [
        "Host h2: No periodicity found in the streams received",
        "Stream 1---2---6001 (-> vid 1908): max latency (284.16403104799974) higher than allowed (0.01)",
        "Stream 1---2---6000 (-> vid 1907): max latency (326.4256725239975) higher than allowed (0.01)"
      ]
    }
  },
  "sim_parameters": {
    "**.displayAddresses": "false",
    "**.verbose": "false",
    "**.promiscuous": "true",
    "**.registerProtocol": "true",
    "**.*.clock.clockRate": "\"1us\"",
    "**.h1.eth.address": "\"12:23:34:45:56:67\"",
    "**.h2.eth.address": "\"aa:bb:cc:dd:ee:aa\"",
    "**.*.processingDelay[*].delay": "5us",
    "**.filteringDatabase.database": "xmldoc(\"xml/routing.xml\", \"/filteringDatabases/\")",
    "**.filteringDatabase.cycle": "xmldoc(\"xml/tas.xml\", \"/schedule/\")",
    "**.gateController.initialSchedule": "xmldoc(\"xml/tas.xml\")",
    "**.gateController.enableHoldAndRelease": "false",
    "**.*.eth[*].queuing.tsAlgorithms[*].typename": "\"StrictPriority\"",
    "**.s17.eth[1].queuing.queuingFrames.tciToQueueMapping": "xmldoc(\"xml/tci-maps/tci-map-s17-1.xml\")",
    "**.s62.eth[2].queuing.queuingFrames.tciToQueueMapping": "xmldoc(\"xml/tci-maps/tci-map-s62-2.xml\")",
    "**.s11.eth[1].queuing.queuingFrames.tciToQueueMapping": "xmldoc(\"xml/tci-maps/tci-map-s11-1.xml\")",
    "**.s53.eth[1].queuing.queuingFrames.tciToQueueMapping": "xmldoc(\"xml/tci-maps/tci-map-s53-1.xml\")",
    "**.s51.eth[1].queuing.queuingFrames.tciToQueueMapping": "xmldoc(\"xml/tci-maps/tci-map-s51-1.xml\")",
    "**.s45.eth[1].queuing.queuingFrames.tciToQueueMapping": "xmldoc(\"xml/tci-maps/tci-map-s45-1.xml\")",
    "**.s42.eth[1].queuing.queuingFrames.tciToQueueMapping": "xmldoc(\"xml/tci-maps/tci-map-s42-1.xml\")",
    "**.s5.eth[1].queuing.queuingFrames.tciToQueueMapping": "xmldoc(\"xml/tci-maps/tci-map-s5-1.xml\")",
    "**.s36.eth[1].queuing.queuingFrames.tciToQueueMapping": "xmldoc(\"xml/tci-maps/tci-map-s36-1.xml\")",
    "**.s15.eth[1].queuing.queuingFrames.tciToQueueMapping": "xmldoc(\"xml/tci-maps/tci-map-s15-1.xml\")",
    "**.s16.eth[1].queuing.queuingFrames.tciToQueueMapping": "xmldoc(\"xml/tci-maps/tci-map-s16-1.xml\")",
    "**.s43.eth[1].queuing.queuingFrames.tciToQueueMapping": "xmldoc(\"xml/tci-maps/tci-map-s43-1.xml\")",
    "**.s52.eth[1].queuing.queuingFrames.tciToQueueMapping": "xmldoc(\"xml/tci-maps/tci-map-s52-1.xml\")",
    "**.s49.eth[1].queuing.queuingFrames.tciToQueueMapping": "xmldoc(\"xml/tci-maps/tci-map-s49-1.xml\")",
    "**.s13.eth[1].queuing.queuingFrames.tciToQueueMapping": "xmldoc(\"xml/tci-maps/tci-map-s13-1.xml\")",
    "**.s9.eth[1].queuing.queuingFrames.tciToQueueMapping": "xmldoc(\"xml/tci-maps/tci-map-s9-1.xml\")",
    "**.s47.eth[1].queuing.queuingFrames.tciToQueueMapping": "xmldoc(\"xml/tci-maps/tci-map-s47-1.xml\")",
    "**.s48.eth[1].queuing.queuingFrames.tciToQueueMapping": "xmldoc(\"xml/tci-maps/tci-map-s48-1.xml\")",
    "**.s2.eth[1].queuing.queuingFrames.tciToQueueMapping": "xmldoc(\"xml/tci-maps/tci-map-s2-1.xml\")",
    "**.s57.eth[1].queuing.queuingFrames.tciToQueueMapping": "xmldoc(\"xml/tci-maps/tci-map-s57-1.xml\")",
    "**.s22.eth[1].queuing.queuingFrames.tciToQueueMapping": "xmldoc(\"xml/tci-maps/tci-map-s22-1.xml\")",
    "**.s38.eth[1].queuing.queuingFrames.tciToQueueMapping": "xmldoc(\"xml/tci-maps/tci-map-s38-1.xml\")",
    "**.s37.eth[1].queuing.queuingFrames.tciToQueueMapping": "xmldoc(\"xml/tci-maps/tci-map-s37-1.xml\")",
    "**.s39.eth[1].queuing.queuingFrames.tciToQueueMapping": "xmldoc(\"xml/tci-maps/tci-map-s39-1.xml\")",
    "**.s61.eth[1].queuing.queuingFrames.tciToQueueMapping": "xmldoc(\"xml/tci-maps/tci-map-s61-1.xml\")",
    "**.s60.eth[1].queuing.queuingFrames.tciToQueueMapping": "xmldoc(\"xml/tci-maps/tci-map-s60-1.xml\")",
    "**.s56.eth[1].queuing.queuingFrames.tciToQueueMapping": "xmldoc(\"xml/tci-maps/tci-map-s56-1.xml\")",
    "**.s23.eth[1].queuing.queuingFrames.tciToQueueMapping": "xmldoc(\"xml/tci-maps/tci-map-s23-1.xml\")",
    "**.s30.eth[1].queuing.queuingFrames.tciToQueueMapping": "xmldoc(\"xml/tci-maps/tci-map-s30-1.xml\")",
    "**.s34.eth[1].queuing.queuingFrames.tciToQueueMapping": "xmldoc(\"xml/tci-maps/tci-map-s34-1.xml\")",
    "**.s10.eth[1].queuing.queuingFrames.tciToQueueMapping": "xmldoc(\"xml/tci-maps/tci-map-s10-1.xml\")",
    "**.s54.eth[1].queuing.queuingFrames.tciToQueueMapping": "xmldoc(\"xml/tci-maps/tci-map-s54-1.xml\")",
    "**.s25.eth[1].queuing.queuingFrames.tciToQueueMapping": "xmldoc(\"xml/tci-maps/tci-map-s25-1.xml\")",
    "**.s24.eth[1].queuing.queuingFrames.tciToQueueMapping": "xmldoc(\"xml/tci-maps/tci-map-s24-1.xml\")",
    "**.s27.eth[1].queuing.queuingFrames.tciToQueueMapping": "xmldoc(\"xml/tci-maps/tci-map-s27-1.xml\")",
    "**.s21.eth[1].queuing.queuingFrames.tciToQueueMapping": "xmldoc(\"xml/tci-maps/tci-map-s21-1.xml\")",
    "**.s12.eth[1].queuing.queuingFrames.tciToQueueMapping": "xmldoc(\"xml/tci-maps/tci-map-s12-1.xml\")",
    "**.s46.eth[1].queuing.queuingFrames.tciToQueueMapping": "xmldoc(\"xml/tci-maps/tci-map-s46-1.xml\")",
    "**.s32.eth[1].queuing.queuingFrames.tciToQueueMapping": "xmldoc(\"xml/tci-maps/tci-map-s32-1.xml\")",
    "**.s14.eth[1].queuing.queuingFrames.tciToQueueMapping": "xmldoc(\"xml/tci-maps/tci-map-s14-1.xml\")",
    "**.s1.eth[1].queuing.queuingFrames.tciToQueueMapping": "xmldoc(\"xml/tci-maps/tci-map-s1-1.xml\")",
    "**.s41.eth[1].queuing.queuingFrames.tciToQueueMapping": "xmldoc(\"xml/tci-maps/tci-map-s41-1.xml\")",
    "**.s29.eth[1].queuing.queuingFrames.tciToQueueMapping": "xmldoc(\"xml/tci-maps/tci-map-s29-1.xml\")",
    "**.s55.eth[1].queuing.queuingFrames.tciToQueueMapping": "xmldoc(\"xml/tci-maps/tci-map-s55-1.xml\")",
    "**.s35.eth[1].queuing.queuingFrames.tciToQueueMapping": "xmldoc(\"xml/tci-maps/tci-map-s35-1.xml\")",
    "**.s18.eth[1].queuing.queuingFrames.tciToQueueMapping": "xmldoc(\"xml/tci-maps/tci-map-s18-1.xml\")",
    "**.s19.eth[1].queuing.queuingFrames.tciToQueueMapping": "xmldoc(\"xml/tci-maps/tci-map-s19-1.xml\")",
    "**.s59.eth[1].queuing.queuingFrames.tciToQueueMapping": "xmldoc(\"xml/tci-maps/tci-map-s59-1.xml\")",
    "**.s50.eth[1].queuing.queuingFrames.tciToQueueMapping": "xmldoc(\"xml/tci-maps/tci-map-s50-1.xml\")",
    "**.s7.eth[1].queuing.queuingFrames.tciToQueueMapping": "xmldoc(\"xml/tci-maps/tci-map-s7-1.xml\")",
    "**.s31.eth[1].queuing.queuingFrames.tciToQueueMapping": "xmldoc(\"xml/tci-maps/tci-map-s31-1.xml\")",
    "**.s3.eth[1].queuing.queuingFrames.tciToQueueMapping": "xmldoc(\"xml/tci-maps/tci-map-s3-1.xml\")",
    "**.s26.eth[1].queuing.queuingFrames.tciToQueueMapping": "xmldoc(\"xml/tci-maps/tci-map-s26-1.xml\")",
    "**.s28.eth[1].queuing.queuingFrames.tciToQueueMapping": "xmldoc(\"xml/tci-maps/tci-map-s28-1.xml\")",
    "**.s1.eth[2].queuing.queuingFrames.tciToQueueMapping": "xmldoc(\"xml/tci-maps/tci-map-s1-2.xml\")",
    "**.s20.eth[1].queuing.queuingFrames.tciToQueueMapping": "xmldoc(\"xml/tci-maps/tci-map-s20-1.xml\")",
    "**.s8.eth[1].queuing.queuingFrames.tciToQueueMapping": "xmldoc(\"xml/tci-maps/tci-map-s8-1.xml\")",
    "**.s6.eth[1].queuing.queuingFrames.tciToQueueMapping": "xmldoc(\"xml/tci-maps/tci-map-s6-1.xml\")",
    "**.s58.eth[1].queuing.queuingFrames.tciToQueueMapping": "xmldoc(\"xml/tci-maps/tci-map-s58-1.xml\")",
    "**.s33.eth[1].queuing.queuingFrames.tciToQueueMapping": "xmldoc(\"xml/tci-maps/tci-map-s33-1.xml\")",
    "**.s44.eth[1].queuing.queuingFrames.tciToQueueMapping": "xmldoc(\"xml/tci-maps/tci-map-s44-1.xml\")",
    "**.s40.eth[1].queuing.queuingFrames.tciToQueueMapping": "xmldoc(\"xml/tci-maps/tci-map-s40-1.xml\")",
    "**.s4.eth[1].queuing.queuingFrames.tciToQueueMapping": "xmldoc(\"xml/tci-maps/tci-map-s4-1.xml\")",
    "**.*.eth[*].queuing.queues[*].bufferCapacity": "365280b",
    "**.*.eth[*].queuing.queues[*].expressQueue": "true",
    "**.*.eth[*].mac.enablePreemptingFrames": "false",
    "**.*.trafGenSchedApp.jitter": "0.000017",
    "**.*.eth[*].queuing.gateController.jitter": "0.000017",
    "**.*.trafGenSchedApp.initialSchedule": "xmldoc(\"xml/traf-gen.xml\")"
  },
  "streams": {
    "1908": {
      "latency_stats": {
        "min": 24.556475047997083,
        "max": 284.16403104799974,
        "mean": 134.92901593852287,
        "median": 123.39296304799791,
        "variance": 4382.581361134218,
        "std_deviation": 66.2010676736729,
        "interval_size": 259.60755600000266,
        "jitter": 149.23501510947688,
        "packages_received": 493
      },
      "udp_dest_port": 6001,
      "name": "1---2---6001",
      "max_allowed_latency": 10000000,
      "talker": "h1",
      "listener": "h2"
    },
    "1907": {
      "latency_stats": {
        "min": 23.13133752399881,
        "max": 326.4256725239975,
        "mean": 150.1681885871167,
        "median": 137.47473352400266,
        "variance": 6069.811667482881,
        "std_deviation": 77.90899606260423,
        "interval_size": 303.2943349999987,
        "jitter": 176.2574839368808,
        "packages_received": 498
      },
      "udp_dest_port": 6000,
      "name": "1---2---6000",
      "max_allowed_latency": 10000000,
      "talker": "h1",
      "listener": "h2"
    }
  },
  "hosts": {
    "h2": {
      "received_periodically": {
        "is_periodic": false,
        "max-period-length": 250,
        "skipped": "first 0s"
      }
    }
  },
  "switches": {
    "s60": {
      "port_1": {
        "queue_7": {
          "queueLength": {
            "min": 0,
            "max": 6,
            "mean": 0.8645937813440321,
            "median": 1,
            "variance": 0.7718073900416107,
            "std_deviation": 0.8785256911676577,
            "interval_size": 6,
            "jitter": 5.135406218655968
          },
          "queueingTime": {
            "min": 0.0,
            "max": 18.000001952,
            "mean": 2.080323963759036,
            "median": 1.000003476,
            "variance": 6.902992139632085,
            "std_deviation": 2.627354589626624,
            "interval_size": 18.000001952,
            "jitter": 15.919677988240966
          }
        }
      }
    },
    "s62": {
      "port_2": {
        "queue_7": {
          "queueLength": {
            "min": 0,
            "max": 2,
            "mean": 0.5068078668683812,
            "median": 1,
            "variance": 0.2571433369310176,
            "std_deviation": 0.5070930259143953,
            "interval_size": 2,
            "jitter": 1.4931921331316187
          },
          "queueingTime": {
            "min": 0.0,
            "max": 0.999999476,
            "mean": 0.010094596096871846,
            "median": 4.76e-07,
            "variance": 0.009998856363019518,
            "std_deviation": 0.09999428165160004,
            "interval_size": 0.999999476,
            "jitter": 0.9899048799031283
          }
        }
      }
    },
    "s61": {
      "port_1": {
        "queue_7": {
          "queueLength": {
            "min": 0,
            "max": 7,
            "mean": 1.0486322188449848,
            "median": 1,
            "variance": 1.2532106019223537,
            "std_deviation": 1.1194688927890555,
            "interval_size": 7,
            "jitter": 5.951367781155016
          },
          "queueingTime": {
            "min": 0.0,
            "max": 15.000001476,
            "mean": 2.675458731959432,
            "median": 1.999996476,
            "variance": 9.967628914907834,
            "std_deviation": 3.1571551933517354,
            "interval_size": 15.000001476,
            "jitter": 12.324542744040567
          }
        }
      }
    },
    "s20": {
      "port_1": {
        "queue_7": {
          "queueLength": {
            "min": 0,
            "max": 12,
            "mean": 1.5346038114343028,
            "median": 1,
            "variance": 3.712907799704334,
            "std_deviation": 1.926890707773623,
            "interval_size": 12,
            "jitter": 10.465396188565697
          },
          "queueingTime": {
            "min": 0.0,
            "max": 36.000001476,
            "mean": 4.036146822915662,
            "median": 2.000000476,
            "variance": 37.47152844567616,
            "std_deviation": 6.121399222863688,
            "interval_size": 36.000001476,
            "jitter": 31.96385465308434
          }
        }
      }
    },
    "s22": {
      "port_1": {
        "queue_7": {
          "queueLength": {
            "min": 0,
            "max": 9,
            "mean": 1.448345035105316,
            "median": 1,
            "variance": 2.484527880831249,
            "std_deviation": 1.5762385228230051,
            "interval_size": 9,
            "jitter": 7.551654964894684
          },
          "queueingTime": {
            "min": 0.0,
            "max": 16.000006476,
            "mean": 3.419681337060241,
            "median": 2.000003476,
            "variance": 14.159531844262485,
            "std_deviation": 3.7629153384393974,
            "interval_size": 16.000006476,
            "jitter": 12.58032513893976
          }
        }
      }
    },
    "s21": {
      "port_1": {
        "queue_7": {
          "queueLength": {
            "min": 0,
            "max": 8,
            "mean": 1.3505572441742655,
            "median": 1,
            "variance": 1.6721168291234323,
            "std_deviation": 1.2931035647323197,
            "interval_size": 8,
            "jitter": 6.649442755825735
          },
          "queueingTime": {
            "min": 0.0,
            "max": 18.000006476,
            "mean": 3.2677509397322515,
            "median": 2.000004476,
            "variance": 13.395644004585128,
            "std_deviation": 3.6600060115504083,
            "interval_size": 18.000006476,
            "jitter": 14.732255536267747
          }
        }
      }
    },
    "s24": {
      "port_1": {
        "queue_7": {
          "queueLength": {
            "min": 0,
            "max": 10,
            "mean": 1.8916750250752257,
            "median": 1,
            "variance": 4.540462753723016,
            "std_deviation": 2.1308361630409354,
            "interval_size": 10,
            "jitter": 8.108324974924773
          },
          "queueingTime": {
            "min": 0.0,
            "max": 30.000003476,
            "mean": 4.859440137598393,
            "median": 2.999999476,
            "variance": 35.67034183585008,
            "std_deviation": 5.972465306374754,
            "interval_size": 30.000003476,
            "jitter": 25.140563338401606
          }
        }
      }
    },
    "s23": {
      "port_1": {
        "queue_7": {
          "queueLength": {
            "min": 0,
            "max": 10,
            "mean": 1.6788247213779128,
            "median": 1,
            "variance": 3.479906122390262,
            "std_deviation": 1.8654506486075322,
            "interval_size": 10,
            "jitter": 8.321175278622087
          },
          "queueingTime": {
            "min": 0.0,
            "max": 21.999997476,
            "mean": 4.099393689655172,
            "median": 3.000000476,
            "variance": 19.093756138158117,
            "std_deviation": 4.369640275601427,
            "interval_size": 21.999997476,
            "jitter": 17.900603786344828
          }
        }
      }
    },
    "s26": {
      "port_1": {
        "queue_7": {
          "queueLength": {
            "min": 0,
            "max": 7,
            "mean": 1.3741223671013039,
            "median": 1,
            "variance": 2.15206059946909,
            "std_deviation": 1.4669903201688448,
            "interval_size": 7,
            "jitter": 5.625877632898696
          },
          "queueingTime": {
            "min": 0.0,
            "max": 16.000002476,
            "mean": 3.198797888795181,
            "median": 2.000002476,
            "variance": 12.131426697485292,
            "std_deviation": 3.4830197670247713,
            "interval_size": 16.000002476,
            "jitter": 12.801204587204818
          }
        }
      }
    },
    "s25": {
      "port_1": {
        "queue_7": {
          "queueLength": {
            "min": 0,
            "max": 9,
            "mean": 1.5045592705167172,
            "median": 1,
            "variance": 3.126500490144701,
            "std_deviation": 1.7681913047361988,
            "interval_size": 9,
            "jitter": 7.495440729483283
          },
          "queueingTime": {
            "min": 0.0,
            "max": 25.000002476,
            "mean": 3.6511182070912778,
            "median": 2.000002476,
            "variance": 21.37803000193835,
            "std_deviation": 4.623638178095075,
            "interval_size": 25.000002476,
            "jitter": 21.34888426890872
          }
        }
      }
    },
    "s28": {
      "port_1": {
        "queue_7": {
          "queueLength": {
            "min": 0,
            "max": 9,
            "mean": 1.4002006018054163,
            "median": 1,
            "variance": 2.308554176585983,
            "std_deviation": 1.519392699925198,
            "interval_size": 9,
            "jitter": 7.599799398194584
          },
          "queueingTime": {
            "min": 0.0,
            "max": 24.000003476,
            "mean": 3.538154859823293,
            "median": 2.000002476,
            "variance": 19.681638620155066,
            "std_deviation": 4.436399285474096,
            "interval_size": 24.000003476,
            "jitter": 20.461848616176706
          }
        }
      }
    },
    "s27": {
      "port_1": {
        "queue_7": {
          "queueLength": {
            "min": 0,
            "max": 8,
            "mean": 1.5207700101317123,
            "median": 1,
            "variance": 2.2903896701747466,
            "std_deviation": 1.5134033402152733,
            "interval_size": 8,
            "jitter": 6.479229989868288
          },
          "queueingTime": {
            "min": 0.0,
            "max": 21.000003476,
            "mean": 3.8539578047951317,
            "median": 2.000004476,
            "variance": 18.85260998435049,
            "std_deviation": 4.3419592333819175,
            "interval_size": 21.000003476,
            "jitter": 17.146045671204867
          }
        }
      }
    },
    "s29": {
      "port_1": {
        "queue_7": {
          "queueLength": {
            "min": 0,
            "max": 11,
            "mean": 1.6119554204660587,
            "median": 1,
            "variance": 4.040952257645539,
            "std_deviation": 2.010211993210054,
            "interval_size": 11,
            "jitter": 9.388044579533942
          },
          "queueingTime": {
            "min": 0.0,
            "max": 25.000003476,
            "mean": 4.263694341257606,
            "median": 2.000003476,
            "variance": 31.739269750775307,
            "std_deviation": 5.6337615986812315,
            "interval_size": 25.000003476,
            "jitter": 20.736309134742392
          }
        }
      }
    },
    "s31": {
      "port_1": {
        "queue_7": {
          "queueLength": {
            "min": 0,
            "max": 7,
            "mean": 1.1864235055724417,
            "median": 1,
            "variance": 1.37089054257066,
            "std_deviation": 1.1708503502030736,
            "interval_size": 7,
            "jitter": 5.813576494427558
          },
          "queueingTime": {
            "min": 0.0,
            "max": 15.000001476,
            "mean": 2.69168604463286,
            "median": 2.000000476,
            "variance": 8.616130415219597,
            "std_deviation": 2.935324584304025,
            "interval_size": 15.000001476,
            "jitter": 12.30831543136714
          }
        }
      }
    },
    "s30": {
      "port_1": {
        "queue_7": {
          "queueLength": {
            "min": 0,
            "max": 8,
            "mean": 1.1995987963891674,
            "median": 1,
            "variance": 1.6338150999182284,
            "std_deviation": 1.2782077686816915,
            "interval_size": 8,
            "jitter": 6.800401203610832
          },
          "queueingTime": {
            "min": 0.0,
            "max": 20.000001476,
            "mean": 3.028115079365462,
            "median": 2.000002476,
            "variance": 12.687335609913223,
            "std_deviation": 3.5619286362746267,
            "interval_size": 20.000001476,
            "jitter": 16.971886396634538
          }
        }
      }
    },
    "s33": {
      "port_1": {
        "queue_7": {
          "queueLength": {
            "min": 0,
            "max": 5,
            "mean": 1.1175278622087133,
            "median": 1,
            "variance": 1.059195505054553,
            "std_deviation": 1.0291722426564724,
            "interval_size": 5,
            "jitter": 3.8824721377912867
          },
          "queueingTime": {
            "min": 0.0,
            "max": 13.000001952,
            "mean": 2.8275884693306286,
            "median": 2.000004476,
            "variance": 6.842162702138884,
            "std_deviation": 2.6157527983620477,
            "interval_size": 13.000001952,
            "jitter": 10.172413482669372
          }
        }
      }
    },
    "s32": {
      "port_1": {
        "queue_7": {
          "queueLength": {
            "min": 0,
            "max": 11,
            "mean": 1.667001003009027,
            "median": 1,
            "variance": 4.5697232259026075,
            "std_deviation": 2.137691096932063,
            "interval_size": 11,
            "jitter": 9.332998996990973
          },
          "queueingTime": {
            "min": 0.0,
            "max": 25.000004476,
            "mean": 4.453817619429719,
            "median": 2.000003476,
            "variance": 33.68900589717881,
            "std_deviation": 5.80422310883884,
            "interval_size": 25.000004476,
            "jitter": 20.54618685657028
          }
        }
      }
    },
    "s35": {
      "port_1": {
        "queue_7": {
          "queueLength": {
            "min": 0,
            "max": 5,
            "mean": 0.993920972644377,
            "median": 1,
            "variance": 0.8742023588599049,
            "std_deviation": 0.9349878923600589,
            "interval_size": 5,
            "jitter": 4.006079027355623
          },
          "queueingTime": {
            "min": 0.0,
            "max": 17.000004476,
            "mean": 2.243410501403651,
            "median": 1.000007476,
            "variance": 6.668275405676427,
            "std_deviation": 2.5823004096495876,
            "interval_size": 17.000004476,
            "jitter": 14.756593974596349
          }
        }
      }
    },
    "s34": {
      "port_1": {
        "queue_7": {
          "queueLength": {
            "min": 0,
            "max": 6,
            "mean": 1.2176529588766298,
            "median": 1,
            "variance": 1.3571981003250717,
            "std_deviation": 1.1649884550179335,
            "interval_size": 6,
            "jitter": 4.78234704112337
          },
          "queueingTime": {
            "min": 0.0,
            "max": 17.000004476,
            "mean": 2.9578339883373492,
            "median": 2.000002476,
            "variance": 9.867433758444779,
            "std_deviation": 3.1412471660862313,
            "interval_size": 17.000004476,
            "jitter": 14.042170487662652
          }
        }
      }
    },
    "s37": {
      "port_1": {
        "queue_7": {
          "queueLength": {
            "min": 0,
            "max": 7,
            "mean": 1.1742654508611956,
            "median": 1,
            "variance": 1.4320753980242134,
            "std_deviation": 1.1966935271924108,
            "interval_size": 7,
            "jitter": 5.825734549138804
          },
          "queueingTime": {
            "min": 0.0,
            "max": 17.000000476,
            "mean": 2.9513209507423936,
            "median": 1.999999476,
            "variance": 12.355347197523598,
            "std_deviation": 3.5150173822505626,
            "interval_size": 17.000000476,
            "jitter": 14.048679525257606
          }
        }
      }
    },
    "s36": {
      "port_1": {
        "queue_7": {
          "queueLength": {
            "min": 0,
            "max": 8,
            "mean": 1.2316950852557673,
            "median": 1,
            "variance": 1.595861882837267,
            "std_deviation": 1.263274270630597,
            "interval_size": 8,
            "jitter": 6.768304914744233
          },
          "queueingTime": {
            "min": 0.0,
            "max": 20.000007476,
            "mean": 3.1084361355903614,
            "median": 2.000001476,
            "variance": 12.479164144191799,
            "std_deviation": 3.5325860420082904,
            "interval_size": 20.000007476,
            "jitter": 16.89157134040964
          }
        }
      }
    },
    "s39": {
      "port_1": {
        "queue_7": {
          "queueLength": {
            "min": 0,
            "max": 6,
            "mean": 1.1925025329280647,
            "median": 1,
            "variance": 1.4700045829043284,
            "std_deviation": 1.2124374552546322,
            "interval_size": 6,
            "jitter": 4.8074974670719355
          },
          "queueingTime": {
            "min": 0.0,
            "max": 21.000000476,
            "mean": 3.28397810673428,
            "median": 2.000002476,
            "variance": 15.691549522151954,
            "std_deviation": 3.961256053596126,
            "interval_size": 21.000000476,
            "jitter": 17.71602236926572
          }
        }
      }
    },
    "s38": {
      "port_1": {
        "queue_7": {
          "queueLength": {
            "min": 0,
            "max": 7,
            "mean": 1.3460381143430291,
            "median": 1,
            "variance": 1.7466032636060793,
            "std_deviation": 1.321591186262257,
            "interval_size": 7,
            "jitter": 5.653961885656971
          },
          "queueingTime": {
            "min": 0.0,
            "max": 18.000004952,
            "mean": 3.51004260011245,
            "median": 2.000005476,
            "variance": 13.312774844696861,
            "std_deviation": 3.6486675437338576,
            "interval_size": 18.000004952,
            "jitter": 14.489962351887552
          }
        }
      }
    },
    "s40": {
      "port_1": {
        "queue_7": {
          "queueLength": {
            "min": 0,
            "max": 7,
            "mean": 1.1013039117352057,
            "median": 1,
            "variance": 1.506795486862193,
            "std_deviation": 1.2275159823245452,
            "interval_size": 7,
            "jitter": 5.898696088264794
          },
          "queueingTime": {
            "min": 0.0,
            "max": 15.000003476,
            "mean": 2.6365485926586345,
            "median": 1.999996976,
            "variance": 9.990372923276665,
            "std_deviation": 3.160755119156918,
            "interval_size": 15.000003476,
            "jitter": 12.363454883341365
          }
        }
      }
    },
    "s42": {
      "port_1": {
        "queue_7": {
          "queueLength": {
            "min": 0,
            "max": 5,
            "mean": 1.0631895687061184,
            "median": 1,
            "variance": 0.8865653184452957,
            "std_deviation": 0.9415759759282815,
            "interval_size": 5,
            "jitter": 3.936810431293882
          },
          "queueingTime": {
            "min": 0.0,
            "max": 13.000003476,
            "mean": 2.6987976337751003,
            "median": 2.000003476,
            "variance": 7.0841428421812225,
            "std_deviation": 2.6616053129983834,
            "interval_size": 13.000003476,
            "jitter": 10.301205842224899
          }
        }
      }
    },
    "s41": {
      "port_1": {
        "queue_7": {
          "queueLength": {
            "min": 0,
            "max": 5,
            "mean": 0.939209726443769,
            "median": 1,
            "variance": 0.8583697602298439,
            "std_deviation": 0.9264824662290398,
            "interval_size": 5,
            "jitter": 4.060790273556231
          },
          "queueingTime": {
            "min": 0.0,
            "max": 11.000007476,
            "mean": 2.2839781336876266,
            "median": 1.999996476,
            "variance": 6.228136763120934,
            "std_deviation": 2.495623521912096,
            "interval_size": 11.000007476,
            "jitter": 8.716029342312375
          }
        }
      }
    },
    "s44": {
      "port_1": {
        "queue_7": {
          "queueLength": {
            "min": 0,
            "max": 7,
            "mean": 1.119358074222668,
            "median": 1,
            "variance": 1.5630485835015087,
            "std_deviation": 1.250219414143577,
            "interval_size": 7,
            "jitter": 5.880641925777332
          },
          "queueingTime": {
            "min": 0.0,
            "max": 16.000001476,
            "mean": 2.7570306321445783,
            "median": 1.999997476,
            "variance": 10.526357580669501,
            "std_deviation": 3.2444348630646758,
            "interval_size": 16.000001476,
            "jitter": 13.242970843855423
          }
        }
      }
    },
    "s43": {
      "port_1": {
        "queue_7": {
          "queueLength": {
            "min": 0,
            "max": 6,
            "mean": 1.089159067882472,
            "median": 1,
            "variance": 1.2354503063147488,
            "std_deviation": 1.1115081224690844,
            "interval_size": 6,
            "jitter": 4.910840932117528
          },
          "queueingTime": {
            "min": 0.0,
            "max": 13.000006476,
            "mean": 2.5740388664178497,
            "median": 1.999998476,
            "variance": 8.281600552318437,
            "std_deviation": 2.8777770157394817,
            "interval_size": 13.000006476,
            "jitter": 10.42596760958215
          }
        }
      }
    },
    "s46": {
      "port_1": {
        "queue_7": {
          "queueLength": {
            "min": 0,
            "max": 5,
            "mean": 0.9929789368104313,
            "median": 1,
            "variance": 0.9346896110016797,
            "std_deviation": 0.9667934686383022,
            "interval_size": 5,
            "jitter": 4.007021063189569
          },
          "queueingTime": {
            "min": 0.0,
            "max": 14.000001476,
            "mean": 2.588355903429719,
            "median": 1.999998476,
            "variance": 8.250728367507074,
            "std_deviation": 2.872408112978912,
            "interval_size": 14.000001476,
            "jitter": 11.411645572570281
          }
        }
      }
    },
    "s45": {
      "port_1": {
        "queue_7": {
          "queueLength": {
            "min": 0,
            "max": 5,
            "mean": 0.8723404255319149,
            "median": 1,
            "variance": 0.7159380259807518,
            "std_deviation": 0.8461312108537019,
            "interval_size": 5,
            "jitter": 4.127659574468085
          },
          "queueingTime": {
            "min": 0.0,
            "max": 12.999996476,
            "mean": 2.040570319521298,
            "median": 1.000005476,
            "variance": 4.9617642394995585,
            "std_deviation": 2.2275017933774057,
            "interval_size": 12.999996476,
            "jitter": 10.959426156478703
          }
        }
      }
    },
    "s48": {
      "port_1": {
        "queue_7": {
          "queueLength": {
            "min": 0,
            "max": 8,
            "mean": 1.1654964894684052,
            "median": 1,
            "variance": 1.686438834576017,
            "std_deviation": 1.2986295986831722,
            "interval_size": 8,
            "jitter": 6.8345035105315946
          },
          "queueingTime": {
            "min": 0.0,
            "max": 16.000006476,
            "mean": 2.9176733109558235,
            "median": 1.999999476,
            "variance": 12.401658234878424,
            "std_deviation": 3.5215988179913995,
            "interval_size": 16.000006476,
            "jitter": 13.082333165044176
          }
        }
      }
    },
    "s47": {
      "port_1": {
        "queue_7": {
          "queueLength": {
            "min": 0,
            "max": 5,
            "mean": 0.9128672745694022,
            "median": 1,
            "variance": 0.8382419732383048,
            "std_deviation": 0.9155555544249103,
            "interval_size": 5,
            "jitter": 4.087132725430598
          },
          "queueingTime": {
            "min": 0.0,
            "max": 16.000003476,
            "mean": 2.3326598848681543,
            "median": 1.000005476,
            "variance": 8.65740701555384,
            "std_deviation": 2.9423471949370352,
            "interval_size": 16.000003476,
            "jitter": 13.667343591131846
          }
        }
      }
    },
    "s49": {
      "port_1": {
        "queue_7": {
          "queueLength": {
            "min": 0,
            "max": 6,
            "mean": 0.9108409321175278,
            "median": 1,
            "variance": 0.9149634908989275,
            "std_deviation": 0.9565372396822444,
            "interval_size": 6,
            "jitter": 5.0891590678824725
          },
          "queueingTime": {
            "min": 0.0,
            "max": 15.000000476,
            "mean": 2.223126049168357,
            "median": 1.000005476,
            "variance": 7.4338527703067045,
            "std_deviation": 2.7265092646654816,
            "interval_size": 15.000000476,
            "jitter": 12.776874426831643
          }
        }
      }
    },
    "s9": {
      "port_1": {
        "queue_7": {
          "queueLength": {
            "min": 0,
            "max": 13,
            "mean": 2.641337386018237,
            "median": 2,
            "variance": 8.043644457049144,
            "std_deviation": 2.8361319533916514,
            "interval_size": 13,
            "jitter": 10.358662613981764
          },
          "queueingTime": {
            "min": 0.0,
            "max": 36.000006476,
            "mean": 6.628805708105476,
            "median": 4.000004476,
            "variance": 58.03469713390306,
            "std_deviation": 7.61805074372067,
            "interval_size": 36.000006476,
            "jitter": 29.37120076789453
          }
        }
      }
    },
    "s51": {
      "port_1": {
        "queue_7": {
          "queueLength": {
            "min": 0,
            "max": 5,
            "mean": 0.9493414387031408,
            "median": 1,
            "variance": 0.8919544340113154,
            "std_deviation": 0.944433393104731,
            "interval_size": 5,
            "jitter": 4.050658561296859
          },
          "queueingTime": {
            "min": 0.0,
            "max": 12.000002952,
            "mean": 2.2129843843326573,
            "median": 1.000004952,
            "variance": 6.090725415029672,
            "std_deviation": 2.4679395079761726,
            "interval_size": 12.000002952,
            "jitter": 9.787018567667342
          }
        }
      }
    },
    "s50": {
      "port_1": {
        "queue_7": {
          "queueLength": {
            "min": 0,
            "max": 5,
            "mean": 0.9528585757271816,
            "median": 1,
            "variance": 0.8923537681317044,
            "std_deviation": 0.9446447841023125,
            "interval_size": 5,
            "jitter": 4.0471414242728185
          },
          "queueingTime": {
            "min": 0.0,
            "max": 15.999998476,
            "mean": 2.2811267342730925,
            "median": 1.000008476,
            "variance": 6.753806622484296,
            "std_deviation": 2.5988086929368803,
            "interval_size": 15.999998476,
            "jitter": 13.718871741726907
          }
        }
      }
    },
    "s53": {
      "port_1": {
        "queue_7": {
          "queueLength": {
            "min": 0,
            "max": 6,
            "mean": 0.8804457953394124,
            "median": 1,
            "variance": 0.8071933101927491,
            "std_deviation": 0.8984393748009651,
            "interval_size": 6,
            "jitter": 5.119554204660588
          },
          "queueingTime": {
            "min": 0.0,
            "max": 23.000005476,
            "mean": 2.194728679326572,
            "median": 1.000005476,
            "variance": 8.624605875636753,
            "std_deviation": 2.936767930163491,
            "interval_size": 23.000005476,
            "jitter": 20.805276796673425
          }
        }
      }
    },
    "s5": {
      "port_1": {
        "queue_7": {
          "queueLength": {
            "min": 0,
            "max": 10,
            "mean": 2.2806484295845997,
            "median": 2,
            "variance": 4.01547706389966,
            "std_deviation": 2.0038655303936093,
            "interval_size": 10,
            "jitter": 7.7193515704154
          },
          "queueingTime": {
            "min": 0.0,
            "max": 17.000004476,
            "mean": 4.9472641894198786,
            "median": 3.999998476,
            "variance": 21.57444671525369,
            "std_deviation": 4.6448301061775865,
            "interval_size": 17.000004476,
            "jitter": 12.052740286580121
          }
        }
      }
    },
    "s52": {
      "port_1": {
        "queue_7": {
          "queueLength": {
            "min": 0,
            "max": 6,
            "mean": 1.0952858575727182,
            "median": 1,
            "variance": 1.3071765497295098,
            "std_deviation": 1.1433182189266073,
            "interval_size": 6,
            "jitter": 4.904714142427282
          },
          "queueingTime": {
            "min": 0.0,
            "max": 20.000004476,
            "mean": 2.9759061724016065,
            "median": 2.000001476,
            "variance": 11.74187170849116,
            "std_deviation": 3.426641461911526,
            "interval_size": 20.000004476,
            "jitter": 17.024098303598393
          }
        }
      }
    },
    "s6": {
      "port_1": {
        "queue_7": {
          "queueLength": {
            "min": 0,
            "max": 11,
            "mean": 2.2026078234704114,
            "median": 2,
            "variance": 4.045254236605398,
            "std_deviation": 2.011281739738468,
            "interval_size": 11,
            "jitter": 8.797392176529588
          },
          "queueingTime": {
            "min": 0.0,
            "max": 20.000008476,
            "mean": 4.959841620578313,
            "median": 3.999997476,
            "variance": 23.43902822675069,
            "std_deviation": 4.841387014766604,
            "interval_size": 20.000008476,
            "jitter": 15.040166855421688
          }
        }
      }
    },
    "s7": {
      "port_1": {
        "queue_7": {
          "queueLength": {
            "min": 0,
            "max": 12,
            "mean": 2.6393110435663627,
            "median": 2,
            "variance": 5.303848612078728,
            "std_deviation": 2.303008600087878,
            "interval_size": 12,
            "jitter": 9.360688956433638
          },
          "queueingTime": {
            "min": 0.0,
            "max": 30.000004476,
            "mean": 6.09736561663286,
            "median": 5.000002476,
            "variance": 30.937654531332626,
            "std_deviation": 5.562162756638161,
            "interval_size": 30.000004476,
            "jitter": 23.90263885936714
          }
        }
      }
    },
    "s55": {
      "port_1": {
        "queue_7": {
          "queueLength": {
            "min": 0,
            "max": 6,
            "mean": 0.9979736575481256,
            "median": 1,
            "variance": 0.9269735773986777,
            "std_deviation": 0.9627946704249446,
            "interval_size": 6,
            "jitter": 5.002026342451875
          },
          "queueingTime": {
            "min": 0.0,
            "max": 15.000006476,
            "mean": 2.460448580024341,
            "median": 1.999998476,
            "variance": 7.793653770942108,
            "std_deviation": 2.7917116203043086,
            "interval_size": 15.000006476,
            "jitter": 12.539557895975658
          }
        }
      }
    },
    "s11": {
      "port_1": {
        "queue_7": {
          "queueLength": {
            "min": 0,
            "max": 7,
            "mean": 1.4721377912867275,
            "median": 1,
            "variance": 2.107488630081526,
            "std_deviation": 1.451719198082579,
            "interval_size": 7,
            "jitter": 5.527862208713272
          },
          "queueingTime": {
            "min": 0.0,
            "max": 18.000001476,
            "mean": 3.3509151984016228,
            "median": 2.000003476,
            "variance": 13.057503805683146,
            "std_deviation": 3.6135168196209,
            "interval_size": 18.000001476,
            "jitter": 14.649086277598379
          }
        }
      }
    },
    "s10": {
      "port_1": {
        "queue_7": {
          "queueLength": {
            "min": 0,
            "max": 12,
            "mean": 2.6840521564694084,
            "median": 2,
            "variance": 6.999474326594241,
            "std_deviation": 2.64565196626356,
            "interval_size": 12,
            "jitter": 9.31594784353059
          },
          "queueingTime": {
            "min": 0.0,
            "max": 31.000001476,
            "mean": 6.592372145630522,
            "median": 4.000005476,
            "variance": 44.99446816908269,
            "std_deviation": 6.707791601494689,
            "interval_size": 31.000001476,
            "jitter": 24.40762933036948
          }
        }
      }
    },
    "s54": {
      "port_1": {
        "queue_7": {
          "queueLength": {
            "min": 0,
            "max": 6,
            "mean": 1.1374122367101305,
            "median": 1,
            "variance": 1.4017816501713978,
            "std_deviation": 1.1839686018520077,
            "interval_size": 6,
            "jitter": 4.86258776328987
          },
          "queueingTime": {
            "min": 0.0,
            "max": 17.000004476,
            "mean": 3.020082681204819,
            "median": 2.000001476,
            "variance": 12.245068102199031,
            "std_deviation": 3.4992953722426794,
            "interval_size": 17.000004476,
            "jitter": 13.979921794795182
          }
        }
      }
    },
    "s8": {
      "port_1": {
        "queue_7": {
          "queueLength": {
            "min": 0,
            "max": 22,
            "mean": 3.1253761283851555,
            "median": 2,
            "variance": 16.39289958228098,
            "std_deviation": 4.048814589763401,
            "interval_size": 22,
            "jitter": 18.874623871614844
          },
          "queueingTime": {
            "min": 0.0,
            "max": 54.000006476,
            "mean": 8.118476477718875,
            "median": 4.000003476,
            "variance": 132.3018233847111,
            "std_deviation": 11.502252969949456,
            "interval_size": 54.000006476,
            "jitter": 45.881529998281124
          }
        }
      }
    },
    "s1": {
      "port_1": {
        "queue_7": {
          "queueLength": {
            "min": 0,
            "max": 44,
            "mean": 15.48605577689243,
            "median": 12.0,
            "variance": 160.05264684035544,
            "std_deviation": 12.651191518602326,
            "interval_size": 44,
            "jitter": 28.513944223107572
          },
          "queueingTime": {
            "min": 0.032690476,
            "max": 110.425157476,
            "mean": 33.66766540973494,
            "median": 23.999995476000002,
            "variance": 840.5385072518837,
            "std_deviation": 28.992042136625763,
            "interval_size": 110.392467,
            "jitter": 76.75749206626506
          }
        }
      },
      "port_2": {
        "queue_7": {
          "queueLength": {
            "min": 0,
            "max": 44,
            "mean": 14.33366733466934,
            "median": 10.0,
            "variance": 160.24261662743743,
            "std_deviation": 12.658697272130235,
            "interval_size": 44,
            "jitter": 29.66633266533066
          },
          "queueingTime": {
            "min": 0.065398476,
            "max": 96.425151476,
            "mean": 31.70334737595943,
            "median": 20.163511476,
            "variance": 793.9011427127232,
            "std_deviation": 28.17625139568291,
            "interval_size": 96.359753,
            "jitter": 64.72180410004057
          }
        }
      }
    },
    "s13": {
      "port_1": {
        "queue_7": {
          "queueLength": {
            "min": 0,
            "max": 7,
            "mean": 1.5633232016210739,
            "median": 1,
            "variance": 2.2523248477674267,
            "std_deviation": 1.5007747491770465,
            "interval_size": 7,
            "jitter": 5.436676798378926
          },
          "queueingTime": {
            "min": 0.0,
            "max": 21.000001476,
            "mean": 3.8417875146369167,
            "median": 2.999995476,
            "variance": 15.670037095509786,
            "std_deviation": 3.9585397680849166,
            "interval_size": 21.000001476,
            "jitter": 17.158213961363085
          }
        }
      }
    },
    "s57": {
      "port_1": {
        "queue_7": {
          "queueLength": {
            "min": 0,
            "max": 6,
            "mean": 0.9067882472137792,
            "median": 1,
            "variance": 0.9061100595777563,
            "std_deviation": 0.9518981350847139,
            "interval_size": 6,
            "jitter": 5.093211752786221
          },
          "queueingTime": {
            "min": 0.0,
            "max": 21.000001476,
            "mean": 2.170387970255578,
            "median": 1.000005476,
            "variance": 7.609120293810003,
            "std_deviation": 2.7584633935961524,
            "interval_size": 21.000001476,
            "jitter": 18.829613505744422
          }
        }
      }
    },
    "s12": {
      "port_1": {
        "queue_7": {
          "queueLength": {
            "min": 0,
            "max": 8,
            "mean": 1.753259779338014,
            "median": 1,
            "variance": 2.5876525157802726,
            "std_deviation": 1.6086182007487895,
            "interval_size": 8,
            "jitter": 6.2467402206619855
          },
          "queueingTime": {
            "min": 0.0,
            "max": 19.000009476,
            "mean": 4.128516487381526,
            "median": 3.000001976,
            "variance": 16.35769687406491,
            "std_deviation": 4.0444649675902635,
            "interval_size": 19.000009476,
            "jitter": 14.871492988618474
          }
        }
      }
    },
    "s2": {
      "port_1": {
        "queue_7": {
          "queueLength": {
            "min": 0,
            "max": 9,
            "mean": 2.8264794383149447,
            "median": 3,
            "variance": 3.9407439185024957,
            "std_deviation": 1.9851307056469847,
            "interval_size": 9,
            "jitter": 6.173520561685056
          },
          "queueingTime": {
            "min": 0.0,
            "max": 17.000006476,
            "mean": 6.10040426573494,
            "median": 6.000002975999999,
            "variance": 18.86313651085807,
            "std_deviation": 4.3431712504641204,
            "interval_size": 17.000006476,
            "jitter": 10.899602210265058
          }
        }
      }
    },
    "s56": {
      "port_1": {
        "queue_7": {
          "queueLength": {
            "min": 0,
            "max": 6,
            "mean": 0.9829488465396189,
            "median": 1,
            "variance": 0.9826406931638288,
            "std_deviation": 0.9912823478524314,
            "interval_size": 6,
            "jitter": 5.017051153460381
          },
          "queueingTime": {
            "min": 0.0,
            "max": 14.000008476,
            "mean": 2.516066970072289,
            "median": 1.0000089760000002,
            "variance": 8.539981849343574,
            "std_deviation": 2.9223247337254588,
            "interval_size": 14.000008476,
            "jitter": 11.48394150592771
          }
        }
      }
    },
    "s3": {
      "port_1": {
        "queue_7": {
          "queueLength": {
            "min": 0,
            "max": 14,
            "mean": 3.818642350557244,
            "median": 3,
            "variance": 11.943749473377025,
            "std_deviation": 3.4559730139827516,
            "interval_size": 14,
            "jitter": 10.181357649442756
          },
          "queueingTime": {
            "min": 0.0,
            "max": 34.000006476,
            "mean": 9.024343313541582,
            "median": 6.000004476,
            "variance": 67.6782712861975,
            "std_deviation": 8.226680453633621,
            "interval_size": 34.000006476,
            "jitter": 24.97566316245842
          }
        }
      }
    },
    "s15": {
      "port_1": {
        "queue_7": {
          "queueLength": {
            "min": 0,
            "max": 8,
            "mean": 1.3829787234042554,
            "median": 1,
            "variance": 1.579344870743602,
            "std_deviation": 1.2567198855527042,
            "interval_size": 8,
            "jitter": 6.617021276595745
          },
          "queueingTime": {
            "min": 0.0,
            "max": 20.000002476,
            "mean": 3.53549949715213,
            "median": 2.999999476,
            "variance": 12.798025954388159,
            "std_deviation": 3.577432872100909,
            "interval_size": 20.000002476,
            "jitter": 16.464502978847868
          }
        }
      }
    },
    "s59": {
      "port_1": {
        "queue_7": {
          "queueLength": {
            "min": 0,
            "max": 6,
            "mean": 0.8804457953394124,
            "median": 1,
            "variance": 0.7828525394016741,
            "std_deviation": 0.8847895452601563,
            "interval_size": 6,
            "jitter": 5.119554204660588
          },
          "queueingTime": {
            "min": 0.0,
            "max": 14.000005476,
            "mean": 2.085195156097363,
            "median": 1.000005476,
            "variance": 6.200044026223274,
            "std_deviation": 2.48998876026043,
            "interval_size": 14.000005476,
            "jitter": 11.914810319902637
          }
        }
      }
    },
    "s58": {
      "port_1": {
        "queue_7": {
          "queueLength": {
            "min": 0,
            "max": 7,
            "mean": 0.9648946840521565,
            "median": 1,
            "variance": 0.9977623633954071,
            "std_deviation": 0.9988805551192831,
            "interval_size": 7,
            "jitter": 6.035105315947844
          },
          "queueingTime": {
            "min": 0.0,
            "max": 18.000003476,
            "mean": 2.5281147651566265,
            "median": 1.000007976,
            "variance": 9.448905719816892,
            "std_deviation": 3.0739072399499783,
            "interval_size": 18.000003476,
            "jitter": 15.471888710843373
          }
        }
      }
    },
    "s14": {
      "port_1": {
        "queue_7": {
          "queueLength": {
            "min": 0,
            "max": 11,
            "mean": 2.415245737211635,
            "median": 2,
            "variance": 6.138642836138939,
            "std_deviation": 2.477628470158296,
            "interval_size": 11,
            "jitter": 8.584754262788366
          },
          "queueingTime": {
            "min": 0.0,
            "max": 26.000005476,
            "mean": 5.995986199180723,
            "median": 4.000000476,
            "variance": 40.27362614015628,
            "std_deviation": 6.346150497755019,
            "interval_size": 26.000005476,
            "jitter": 20.004019276819275
          }
        }
      }
    },
    "s4": {
      "port_1": {
        "queue_7": {
          "queueLength": {
            "min": 0,
            "max": 13,
            "mean": 3.205616850551655,
            "median": 2,
            "variance": 8.253864001643485,
            "std_deviation": 2.872953880876525,
            "interval_size": 13,
            "jitter": 9.794383149448345
          },
          "queueingTime": {
            "min": 0.0,
            "max": 33.999999476,
            "mean": 7.234942226240964,
            "median": 5.000006476,
            "variance": 44.936644552497114,
            "std_deviation": 6.703480032975194,
            "interval_size": 33.999999476,
            "jitter": 26.765057249759035
          }
        }
      }
    },
    "s17": {
      "port_1": {
        "queue_7": {
          "queueLength": {
            "min": 0,
            "max": 9,
            "mean": 1.6220871327254307,
            "median": 1,
            "variance": 2.726205375767328,
            "std_deviation": 1.651122459349193,
            "interval_size": 9,
            "jitter": 7.377912867274569
          },
          "queueingTime": {
            "min": 0.0,
            "max": 21.000004476,
            "mean": 4.022314660105477,
            "median": 2.000006476,
            "variance": 20.41210254516199,
            "std_deviation": 4.517975491872658,
            "interval_size": 21.000004476,
            "jitter": 16.977689815894525
          }
        }
      }
    },
    "s16": {
      "port_1": {
        "queue_7": {
          "queueLength": {
            "min": 0,
            "max": 6,
            "mean": 1.390170511534604,
            "median": 1,
            "variance": 1.5574534849528505,
            "std_deviation": 1.2479797614355974,
            "interval_size": 6,
            "jitter": 4.609829488465396
          },
          "queueingTime": {
            "min": 0.0,
            "max": 16.000003476,
            "mean": 3.1325327828433736,
            "median": 2.000004476,
            "variance": 9.83350584345398,
            "std_deviation": 3.1358421266788894,
            "interval_size": 16.000003476,
            "jitter": 12.867470693156626
          }
        }
      }
    },
    "s19": {
      "port_1": {
        "queue_7": {
          "queueLength": {
            "min": 0,
            "max": 9,
            "mean": 1.4680851063829787,
            "median": 1,
            "variance": 2.4723576884899225,
            "std_deviation": 1.5723732662729681,
            "interval_size": 9,
            "jitter": 7.531914893617021
          },
          "queueingTime": {
            "min": 0.0,
            "max": 18.999998476,
            "mean": 3.3691710082109534,
            "median": 2.000003476,
            "variance": 14.164251590563573,
            "std_deviation": 3.7635424257690486,
            "interval_size": 18.999998476,
            "jitter": 15.630827467789045
          }
        }
      }
    },
    "s18": {
      "port_1": {
        "queue_7": {
          "queueLength": {
            "min": 0,
            "max": 17,
            "mean": 2.070210631895687,
            "median": 1,
            "variance": 9.788238208601708,
            "std_deviation": 3.1286160212786913,
            "interval_size": 17,
            "jitter": 14.929789368104313
          },
          "queueingTime": {
            "min": 0.0,
            "max": 41.000003476,
            "mean": 5.1265085285943774,
            "median": 2.000003976,
            "variance": 71.19724241680368,
            "std_deviation": 8.437845839833985,
            "interval_size": 41.000003476,
            "jitter": 35.873494947405625
          }
        }
      }
    }
  }
}