{
  "general": {
    "validation": {
      "valid": true,
      "errors": []
    }
  },
  "sim_parameters": {
    "**.displayAddresses": "false",
    "**.verbose": "false",
    "**.promiscuous": "true",
    "**.registerProtocol": "true",
    "**.*.clock.clockRate": "\"1us\"",
    "**.h1.eth.address": "\"12:23:34:45:56:67\"",
    "**.h2.eth.address": "\"aa:bb:cc:dd:ee:aa\"",
    "**.*.processingDelay[*].delay": "5us",
    "**.filteringDatabase.database": "xmldoc(\"xml/routing.xml\", \"/filteringDatabases/\")",
    "**.filteringDatabase.cycle": "xmldoc(\"xml/tas.xml\", \"/schedule/\")",
    "**.gateController.initialSchedule": "xmldoc(\"xml/tas.xml\")",
    "**.gateController.enableHoldAndRelease": "false",
    "**.*.eth[*].queuing.tsAlgorithms[*].typename": "\"StrictPriority\"",
    "**.s17.eth[1].queuing.queuingFrames.tciToQueueMapping": "xmldoc(\"xml/tci-maps/tci-map-s17-1.xml\")",
    "**.s62.eth[2].queuing.queuingFrames.tciToQueueMapping": "xmldoc(\"xml/tci-maps/tci-map-s62-2.xml\")",
    "**.s11.eth[1].queuing.queuingFrames.tciToQueueMapping": "xmldoc(\"xml/tci-maps/tci-map-s11-1.xml\")",
    "**.s53.eth[1].queuing.queuingFrames.tciToQueueMapping": "xmldoc(\"xml/tci-maps/tci-map-s53-1.xml\")",
    "**.s51.eth[1].queuing.queuingFrames.tciToQueueMapping": "xmldoc(\"xml/tci-maps/tci-map-s51-1.xml\")",
    "**.s45.eth[1].queuing.queuingFrames.tciToQueueMapping": "xmldoc(\"xml/tci-maps/tci-map-s45-1.xml\")",
    "**.s42.eth[1].queuing.queuingFrames.tciToQueueMapping": "xmldoc(\"xml/tci-maps/tci-map-s42-1.xml\")",
    "**.s5.eth[1].queuing.queuingFrames.tciToQueueMapping": "xmldoc(\"xml/tci-maps/tci-map-s5-1.xml\")",
    "**.s36.eth[1].queuing.queuingFrames.tciToQueueMapping": "xmldoc(\"xml/tci-maps/tci-map-s36-1.xml\")",
    "**.s15.eth[1].queuing.queuingFrames.tciToQueueMapping": "xmldoc(\"xml/tci-maps/tci-map-s15-1.xml\")",
    "**.s16.eth[1].queuing.queuingFrames.tciToQueueMapping": "xmldoc(\"xml/tci-maps/tci-map-s16-1.xml\")",
    "**.s43.eth[1].queuing.queuingFrames.tciToQueueMapping": "xmldoc(\"xml/tci-maps/tci-map-s43-1.xml\")",
    "**.s52.eth[1].queuing.queuingFrames.tciToQueueMapping": "xmldoc(\"xml/tci-maps/tci-map-s52-1.xml\")",
    "**.s49.eth[1].queuing.queuingFrames.tciToQueueMapping": "xmldoc(\"xml/tci-maps/tci-map-s49-1.xml\")",
    "**.s13.eth[1].queuing.queuingFrames.tciToQueueMapping": "xmldoc(\"xml/tci-maps/tci-map-s13-1.xml\")",
    "**.s9.eth[1].queuing.queuingFrames.tciToQueueMapping": "xmldoc(\"xml/tci-maps/tci-map-s9-1.xml\")",
    "**.s47.eth[1].queuing.queuingFrames.tciToQueueMapping": "xmldoc(\"xml/tci-maps/tci-map-s47-1.xml\")",
    "**.s48.eth[1].queuing.queuingFrames.tciToQueueMapping": "xmldoc(\"xml/tci-maps/tci-map-s48-1.xml\")",
    "**.s2.eth[1].queuing.queuingFrames.tciToQueueMapping": "xmldoc(\"xml/tci-maps/tci-map-s2-1.xml\")",
    "**.s57.eth[1].queuing.queuingFrames.tciToQueueMapping": "xmldoc(\"xml/tci-maps/tci-map-s57-1.xml\")",
    "**.s22.eth[1].queuing.queuingFrames.tciToQueueMapping": "xmldoc(\"xml/tci-maps/tci-map-s22-1.xml\")",
    "**.s38.eth[1].queuing.queuingFrames.tciToQueueMapping": "xmldoc(\"xml/tci-maps/tci-map-s38-1.xml\")",
    "**.s37.eth[1].queuing.queuingFrames.tciToQueueMapping": "xmldoc(\"xml/tci-maps/tci-map-s37-1.xml\")",
    "**.s39.eth[1].queuing.queuingFrames.tciToQueueMapping": "xmldoc(\"xml/tci-maps/tci-map-s39-1.xml\")",
    "**.s61.eth[1].queuing.queuingFrames.tciToQueueMapping": "xmldoc(\"xml/tci-maps/tci-map-s61-1.xml\")",
    "**.s60.eth[1].queuing.queuingFrames.tciToQueueMapping": "xmldoc(\"xml/tci-maps/tci-map-s60-1.xml\")",
    "**.s56.eth[1].queuing.queuingFrames.tciToQueueMapping": "xmldoc(\"xml/tci-maps/tci-map-s56-1.xml\")",
    "**.s23.eth[1].queuing.queuingFrames.tciToQueueMapping": "xmldoc(\"xml/tci-maps/tci-map-s23-1.xml\")",
    "**.s30.eth[1].queuing.queuingFrames.tciToQueueMapping": "xmldoc(\"xml/tci-maps/tci-map-s30-1.xml\")",
    "**.s34.eth[1].queuing.queuingFrames.tciToQueueMapping": "xmldoc(\"xml/tci-maps/tci-map-s34-1.xml\")",
    "**.s10.eth[1].queuing.queuingFrames.tciToQueueMapping": "xmldoc(\"xml/tci-maps/tci-map-s10-1.xml\")",
    "**.s54.eth[1].queuing.queuingFrames.tciToQueueMapping": "xmldoc(\"xml/tci-maps/tci-map-s54-1.xml\")",
    "**.s25.eth[1].queuing.queuingFrames.tciToQueueMapping": "xmldoc(\"xml/tci-maps/tci-map-s25-1.xml\")",
    "**.s24.eth[1].queuing.queuingFrames.tciToQueueMapping": "xmldoc(\"xml/tci-maps/tci-map-s24-1.xml\")",
    "**.s27.eth[1].queuing.queuingFrames.tciToQueueMapping": "xmldoc(\"xml/tci-maps/tci-map-s27-1.xml\")",
    "**.s21.eth[1].queuing.queuingFrames.tciToQueueMapping": "xmldoc(\"xml/tci-maps/tci-map-s21-1.xml\")",
    "**.s12.eth[1].queuing.queuingFrames.tciToQueueMapping": "xmldoc(\"xml/tci-maps/tci-map-s12-1.xml\")",
    "**.s46.eth[1].queuing.queuingFrames.tciToQueueMapping": "xmldoc(\"xml/tci-maps/tci-map-s46-1.xml\")",
    "**.s32.eth[1].queuing.queuingFrames.tciToQueueMapping": "xmldoc(\"xml/tci-maps/tci-map-s32-1.xml\")",
    "**.s14.eth[1].queuing.queuingFrames.tciToQueueMapping": "xmldoc(\"xml/tci-maps/tci-map-s14-1.xml\")",
    "**.s1.eth[1].queuing.queuingFrames.tciToQueueMapping": "xmldoc(\"xml/tci-maps/tci-map-s1-1.xml\")",
    "**.s41.eth[1].queuing.queuingFrames.tciToQueueMapping": "xmldoc(\"xml/tci-maps/tci-map-s41-1.xml\")",
    "**.s29.eth[1].queuing.queuingFrames.tciToQueueMapping": "xmldoc(\"xml/tci-maps/tci-map-s29-1.xml\")",
    "**.s55.eth[1].queuing.queuingFrames.tciToQueueMapping": "xmldoc(\"xml/tci-maps/tci-map-s55-1.xml\")",
    "**.s35.eth[1].queuing.queuingFrames.tciToQueueMapping": "xmldoc(\"xml/tci-maps/tci-map-s35-1.xml\")",
    "**.s18.eth[1].queuing.queuingFrames.tciToQueueMapping": "xmldoc(\"xml/tci-maps/tci-map-s18-1.xml\")",
    "**.s19.eth[1].queuing.queuingFrames.tciToQueueMapping": "xmldoc(\"xml/tci-maps/tci-map-s19-1.xml\")",
    "**.s59.eth[1].queuing.queuingFrames.tciToQueueMapping": "xmldoc(\"xml/tci-maps/tci-map-s59-1.xml\")",
    "**.s50.eth[1].queuing.queuingFrames.tciToQueueMapping": "xmldoc(\"xml/tci-maps/tci-map-s50-1.xml\")",
    "**.s7.eth[1].queuing.queuingFrames.tciToQueueMapping": "xmldoc(\"xml/tci-maps/tci-map-s7-1.xml\")",
    "**.s31.eth[1].queuing.queuingFrames.tciToQueueMapping": "xmldoc(\"xml/tci-maps/tci-map-s31-1.xml\")",
    "**.s3.eth[1].queuing.queuingFrames.tciToQueueMapping": "xmldoc(\"xml/tci-maps/tci-map-s3-1.xml\")",
    "**.s26.eth[1].queuing.queuingFrames.tciToQueueMapping": "xmldoc(\"xml/tci-maps/tci-map-s26-1.xml\")",
    "**.s28.eth[1].queuing.queuingFrames.tciToQueueMapping": "xmldoc(\"xml/tci-maps/tci-map-s28-1.xml\")",
    "**.s1.eth[2].queuing.queuingFrames.tciToQueueMapping": "xmldoc(\"xml/tci-maps/tci-map-s1-2.xml\")",
    "**.s20.eth[1].queuing.queuingFrames.tciToQueueMapping": "xmldoc(\"xml/tci-maps/tci-map-s20-1.xml\")",
    "**.s8.eth[1].queuing.queuingFrames.tciToQueueMapping": "xmldoc(\"xml/tci-maps/tci-map-s8-1.xml\")",
    "**.s6.eth[1].queuing.queuingFrames.tciToQueueMapping": "xmldoc(\"xml/tci-maps/tci-map-s6-1.xml\")",
    "**.s58.eth[1].queuing.queuingFrames.tciToQueueMapping": "xmldoc(\"xml/tci-maps/tci-map-s58-1.xml\")",
    "**.s33.eth[1].queuing.queuingFrames.tciToQueueMapping": "xmldoc(\"xml/tci-maps/tci-map-s33-1.xml\")",
    "**.s44.eth[1].queuing.queuingFrames.tciToQueueMapping": "xmldoc(\"xml/tci-maps/tci-map-s44-1.xml\")",
    "**.s40.eth[1].queuing.queuingFrames.tciToQueueMapping": "xmldoc(\"xml/tci-maps/tci-map-s40-1.xml\")",
    "**.s4.eth[1].queuing.queuingFrames.tciToQueueMapping": "xmldoc(\"xml/tci-maps/tci-map-s4-1.xml\")",
    "**.*.eth[*].queuing.queues[*].bufferCapacity": "365280b",
    "**.*.eth[*].queuing.queues[*].expressQueue": "true",
    "**.*.eth[*].mac.enablePreemptingFrames": "false",
    "**.*.trafGenSchedApp.jitter": "0.000008",
    "**.*.eth[*].queuing.gateController.jitter": "0.000008",
    "**.*.trafGenSchedApp.initialSchedule": "xmldoc(\"xml/traf-gen.xml\")"
  },
  "streams": {
    "1907": {
      "latency_stats": {
        "min": 0.0016005239958758466,
        "max": 0.0016165240012924187,
        "mean": 0.0016085410487380887,
        "median": 0.0016085239985841326,
        "variance": 1.0981377096676785e-11,
        "std_deviation": 3.3138160927662813e-06,
        "interval_size": 1.6000005416572094e-05,
        "jitter": 8.017052862242064e-06,
        "packages_received": 86400
      },
      "udp_dest_port": 6000,
      "name": "1---2---6000",
      "max_allowed_latency": 10000000,
      "talker": "h1",
      "listener": "h2"
    },
    "1908": {
      "latency_stats": {
        "min": 0.0015640479978173971,
        "max": 0.0015800480032339692,
        "mean": 0.0015721402274143205,
        "median": 0.0015720480005256832,
        "variance": 1.0574699745017008e-11,
        "std_deviation": 3.2518763422087577e-06,
        "interval_size": 1.6000005416572094e-05,
        "jitter": 8.092229596923413e-06,
        "packages_received": 86400
      },
      "udp_dest_port": 6001,
      "name": "1---2---6001",
      "max_allowed_latency": 10000000,
      "talker": "h1",
      "listener": "h2"
    }
  },
  "hosts": {
    "h2": {
      "received_periodically": {
        "is_periodic": true,
        "max-period-length": 250,
        "period": [
          1907,
          1908
        ],
        "period_length": 2,
        "skipped": "first 0s"
      }
    }
  },
  "switches": {
    "s60": {
      "port_1": {
        "queue_7": {
          "queueLength": {
            "min": 0,
            "max": 1,
            "mean": 0.49999710649822626,
            "median": 0,
            "variance": 0.25000144675088687,
            "std_deviation": 0.5000014467487938,
            "interval_size": 1,
            "jitter": 0.5000028935017737
          },
          "queueingTime": {
            "min": 2.8476e-05,
            "max": 4.4476e-05,
            "mean": 3.6473141203703706e-05,
            "median": 3.6476e-05,
            "variance": 1.1048186829446111e-11,
            "std_deviation": 3.3238812899148657e-06,
            "interval_size": 1.6e-05,
            "jitter": 8.002858796296293e-06
          }
        }
      }
    },
    "s62": {
      "port_2": {
        "queue_7": {
          "queueLength": {
            "min": 0,
            "max": 1,
            "mean": 0.499998553244927,
            "median": 0,
            "variance": 0.25000072337753654,
            "std_deviation": 0.5000007233770133,
            "interval_size": 1,
            "jitter": 0.5000014467550731
          },
          "queueingTime": {
            "min": 0.0,
            "max": 4.4476e-05,
            "mean": 1.8283430856481482e-05,
            "median": 1.5736e-05,
            "variance": 3.3717756948525093e-10,
            "std_deviation": 1.8362395526870968e-05,
            "interval_size": 4.4476e-05,
            "jitter": 2.6192569143518517e-05
          }
        }
      }
    },
    "s61": {
      "port_1": {
        "queue_7": {
          "queueLength": {
            "min": 0,
            "max": 1,
            "mean": 0.49999710649822626,
            "median": 0,
            "variance": 0.25000144675088687,
            "std_deviation": 0.5000014467487938,
            "interval_size": 1,
            "jitter": 0.5000028935017737
          },
          "queueingTime": {
            "min": 2.8476e-05,
            "max": 4.4476e-05,
            "mean": 3.646983101851852e-05,
            "median": 3.6476e-05,
            "variance": 1.0989961827484927e-11,
            "std_deviation": 3.3151111335044148e-06,
            "interval_size": 1.6e-05,
            "jitter": 8.006168981481481e-06
          }
        }
      }
    },
    "s20": {
      "port_1": {
        "queue_7": {
          "queueLength": {
            "min": 0,
            "max": 1,
            "mean": 0.49999710649822626,
            "median": 0,
            "variance": 0.25000144675088687,
            "std_deviation": 0.5000014467487938,
            "interval_size": 1,
            "jitter": 0.5000028935017737
          },
          "queueingTime": {
            "min": 2.8476e-05,
            "max": 4.4476e-05,
            "mean": 3.649306018518518e-05,
            "median": 3.6476e-05,
            "variance": 1.0986016658607585e-11,
            "std_deviation": 3.314516051945983e-06,
            "interval_size": 1.6e-05,
            "jitter": 8.017060185185182e-06
          }
        }
      }
    },
    "s22": {
      "port_1": {
        "queue_7": {
          "queueLength": {
            "min": 0,
            "max": 1,
            "mean": 0.49999710649822626,
            "median": 0,
            "variance": 0.25000144675088687,
            "std_deviation": 0.5000014467487938,
            "interval_size": 1,
            "jitter": 0.5000028935017737
          },
          "queueingTime": {
            "min": 2.8476e-05,
            "max": 4.4476e-05,
            "mean": 3.646384722222222e-05,
            "median": 3.6476e-05,
            "variance": 1.0947108642268233e-11,
            "std_deviation": 3.3086415100866146e-06,
            "interval_size": 1.6e-05,
            "jitter": 8.012152777777778e-06
          }
        }
      }
    },
    "s21": {
      "port_1": {
        "queue_7": {
          "queueLength": {
            "min": 0,
            "max": 1,
            "mean": 0.49999710649822626,
            "median": 0,
            "variance": 0.25000144675088687,
            "std_deviation": 0.5000014467487938,
            "interval_size": 1,
            "jitter": 0.5000028935017737
          },
          "queueingTime": {
            "min": 2.8476e-05,
            "max": 4.4476e-05,
            "mean": 3.647571064814815e-05,
            "median": 3.6476e-05,
            "variance": 1.1016342698019692e-11,
            "std_deviation": 3.319087630361647e-06,
            "interval_size": 1.6e-05,
            "jitter": 8.00028935185185e-06
          }
        }
      }
    },
    "s24": {
      "port_1": {
        "queue_7": {
          "queueLength": {
            "min": 0,
            "max": 1,
            "mean": 0.49999710649822626,
            "median": 0,
            "variance": 0.25000144675088687,
            "std_deviation": 0.5000014467487938,
            "interval_size": 1,
            "jitter": 0.5000028935017737
          },
          "queueingTime": {
            "min": 2.8476e-05,
            "max": 4.4476e-05,
            "mean": 3.6484541666666664e-05,
            "median": 3.6476e-05,
            "variance": 1.098322545689186e-11,
            "std_deviation": 3.314094967995314e-06,
            "interval_size": 1.6e-05,
            "jitter": 8.008541666666665e-06
          }
        }
      }
    },
    "s23": {
      "port_1": {
        "queue_7": {
          "queueLength": {
            "min": 0,
            "max": 1,
            "mean": 0.49999710649822626,
            "median": 0,
            "variance": 0.25000144675088687,
            "std_deviation": 0.5000014467487938,
            "interval_size": 1,
            "jitter": 0.5000028935017737
          },
          "queueingTime": {
            "min": 2.8476e-05,
            "max": 4.4476e-05,
            "mean": 3.6483418981481484e-05,
            "median": 3.6476e-05,
            "variance": 1.0958555590144216e-11,
            "std_deviation": 3.3103709142850163e-06,
            "interval_size": 1.6e-05,
            "jitter": 8.007418981481484e-06
          }
        }
      }
    },
    "s26": {
      "port_1": {
        "queue_7": {
          "queueLength": {
            "min": 0,
            "max": 1,
            "mean": 0.49999710649822626,
            "median": 0,
            "variance": 0.25000144675088687,
            "std_deviation": 0.5000014467487938,
            "interval_size": 1,
            "jitter": 0.5000028935017737
          },
          "queueingTime": {
            "min": 2.8476e-05,
            "max": 4.4476e-05,
            "mean": 3.6483037037037035e-05,
            "median": 3.6476e-05,
            "variance": 1.0942461388227657e-11,
            "std_deviation": 3.3079391451820356e-06,
            "interval_size": 1.6e-05,
            "jitter": 8.007037037037035e-06
          }
        }
      }
    },
    "s25": {
      "port_1": {
        "queue_7": {
          "queueLength": {
            "min": 0,
            "max": 1,
            "mean": 0.49999710649822626,
            "median": 0,
            "variance": 0.25000144675088687,
            "std_deviation": 0.5000014467487938,
            "interval_size": 1,
            "jitter": 0.5000028935017737
          },
          "queueingTime": {
            "min": 2.8476e-05,
            "max": 4.4476e-05,
            "mean": 3.6470050925925926e-05,
            "median": 3.6476e-05,
            "variance": 1.0952359890460836e-11,
            "std_deviation": 3.309434980545899e-06,
            "interval_size": 1.6e-05,
            "jitter": 8.005949074074073e-06
          }
        }
      }
    },
    "s28": {
      "port_1": {
        "queue_7": {
          "queueLength": {
            "min": 0,
            "max": 1,
            "mean": 0.49999710649822626,
            "median": 0,
            "variance": 0.25000144675088687,
            "std_deviation": 0.5000014467487938,
            "interval_size": 1,
            "jitter": 0.5000028935017737
          },
          "queueingTime": {
            "min": 2.8476e-05,
            "max": 4.4476e-05,
            "mean": 3.646762037037037e-05,
            "median": 3.6476e-05,
            "variance": 1.100697847368775e-11,
            "std_deviation": 3.317676668044635e-06,
            "interval_size": 1.6e-05,
            "jitter": 8.008379629629628e-06
          }
        }
      }
    },
    "s27": {
      "port_1": {
        "queue_7": {
          "queueLength": {
            "min": 0,
            "max": 1,
            "mean": 0.49999710649822626,
            "median": 0,
            "variance": 0.25000144675088687,
            "std_deviation": 0.5000014467487938,
            "interval_size": 1,
            "jitter": 0.5000028935017737
          },
          "queueingTime": {
            "min": 2.8476e-05,
            "max": 4.4476e-05,
            "mean": 3.648369675925926e-05,
            "median": 3.6476e-05,
            "variance": 1.0985195218174891e-11,
            "std_deviation": 3.31439213403829e-06,
            "interval_size": 1.6e-05,
            "jitter": 8.00769675925926e-06
          }
        }
      }
    },
    "s29": {
      "port_1": {
        "queue_7": {
          "queueLength": {
            "min": 0,
            "max": 1,
            "mean": 0.49999710649822626,
            "median": 0,
            "variance": 0.25000144675088687,
            "std_deviation": 0.5000014467487938,
            "interval_size": 1,
            "jitter": 0.5000028935017737
          },
          "queueingTime": {
            "min": 2.8476e-05,
            "max": 4.4476e-05,
            "mean": 3.648510879629629e-05,
            "median": 3.6476e-05,
            "variance": 1.0995079009911164e-11,
            "std_deviation": 3.3158828401967347e-06,
            "interval_size": 1.6e-05,
            "jitter": 8.009108796296293e-06
          }
        }
      }
    },
    "s31": {
      "port_1": {
        "queue_7": {
          "queueLength": {
            "min": 0,
            "max": 1,
            "mean": 0.49999710649822626,
            "median": 0,
            "variance": 0.25000144675088687,
            "std_deviation": 0.5000014467487938,
            "interval_size": 1,
            "jitter": 0.5000028935017737
          },
          "queueingTime": {
            "min": 2.8476e-05,
            "max": 4.4476e-05,
            "mean": 3.6467689814814816e-05,
            "median": 3.6476e-05,
            "variance": 1.1010104668885482e-11,
            "std_deviation": 3.318147776830544e-06,
            "interval_size": 1.6e-05,
            "jitter": 8.008310185185183e-06
          }
        }
      }
    },
    "s30": {
      "port_1": {
        "queue_7": {
          "queueLength": {
            "min": 0,
            "max": 1,
            "mean": 0.49999710649822626,
            "median": 0,
            "variance": 0.25000144675088687,
            "std_deviation": 0.5000014467487938,
            "interval_size": 1,
            "jitter": 0.5000028935017737
          },
          "queueingTime": {
            "min": 2.8476e-05,
            "max": 4.4476e-05,
            "mean": 3.646878935185185e-05,
            "median": 3.6476e-05,
            "variance": 1.1070319190803175e-11,
            "std_deviation": 3.3272089190195397e-06,
            "interval_size": 1.6e-05,
            "jitter": 8.007210648148148e-06
          }
        }
      }
    },
    "s33": {
      "port_1": {
        "queue_7": {
          "queueLength": {
            "min": 0,
            "max": 1,
            "mean": 0.49999710649822626,
            "median": 0,
            "variance": 0.25000144675088687,
            "std_deviation": 0.5000014467487938,
            "interval_size": 1,
            "jitter": 0.5000028935017737
          },
          "queueingTime": {
            "min": 2.8476e-05,
            "max": 4.4476e-05,
            "mean": 3.650104629629629e-05,
            "median": 3.6476e-05,
            "variance": 1.0970865401391388e-11,
            "std_deviation": 3.31222967219838e-06,
            "interval_size": 1.6e-05,
            "jitter": 8.025046296296293e-06
          }
        }
      }
    },
    "s32": {
      "port_1": {
        "queue_7": {
          "queueLength": {
            "min": 0,
            "max": 1,
            "mean": 0.49999710649822626,
            "median": 0,
            "variance": 0.25000144675088687,
            "std_deviation": 0.5000014467487938,
            "interval_size": 1,
            "jitter": 0.5000028935017737
          },
          "queueingTime": {
            "min": 2.8476e-05,
            "max": 4.4476e-05,
            "mean": 3.64975625e-05,
            "median": 3.6476e-05,
            "variance": 1.1000507286687344e-11,
            "std_deviation": 3.3167012658192996e-06,
            "interval_size": 1.6e-05,
            "jitter": 8.021562500000002e-06
          }
        }
      }
    },
    "s35": {
      "port_1": {
        "queue_7": {
          "queueLength": {
            "min": 0,
            "max": 1,
            "mean": 0.49999710649822626,
            "median": 0,
            "variance": 0.25000144675088687,
            "std_deviation": 0.5000014467487938,
            "interval_size": 1,
            "jitter": 0.5000028935017737
          },
          "queueingTime": {
            "min": 2.8476e-05,
            "max": 4.4476e-05,
            "mean": 3.645002777777778e-05,
            "median": 3.6476e-05,
            "variance": 1.10348698287403e-11,
            "std_deviation": 3.3218774554068515e-06,
            "interval_size": 1.6e-05,
            "jitter": 8.025972222222222e-06
          }
        }
      }
    },
    "s34": {
      "port_1": {
        "queue_7": {
          "queueLength": {
            "min": 0,
            "max": 1,
            "mean": 0.49999710649822626,
            "median": 0,
            "variance": 0.25000144675088687,
            "std_deviation": 0.5000014467487938,
            "interval_size": 1,
            "jitter": 0.5000028935017737
          },
          "queueingTime": {
            "min": 2.8476e-05,
            "max": 4.4476e-05,
            "mean": 3.645976157407407e-05,
            "median": 3.6476e-05,
            "variance": 1.1008579005410082e-11,
            "std_deviation": 3.317917872011012e-06,
            "interval_size": 1.6e-05,
            "jitter": 8.016238425925927e-06
          }
        }
      }
    },
    "s37": {
      "port_1": {
        "queue_7": {
          "queueLength": {
            "min": 0,
            "max": 1,
            "mean": 0.49999710649822626,
            "median": 0,
            "variance": 0.25000144675088687,
            "std_deviation": 0.5000014467487938,
            "interval_size": 1,
            "jitter": 0.5000028935017737
          },
          "queueingTime": {
            "min": 2.8476e-05,
            "max": 4.4476e-05,
            "mean": 3.647696064814815e-05,
            "median": 3.6476e-05,
            "variance": 1.0946155861366491e-11,
            "std_deviation": 3.308497523252283e-06,
            "interval_size": 1.6e-05,
            "jitter": 8.000960648148148e-06
          }
        }
      }
    },
    "s36": {
      "port_1": {
        "queue_7": {
          "queueLength": {
            "min": 0,
            "max": 1,
            "mean": 0.49999710649822626,
            "median": 0,
            "variance": 0.25000144675088687,
            "std_deviation": 0.5000014467487938,
            "interval_size": 1,
            "jitter": 0.5000028935017737
          },
          "queueingTime": {
            "min": 2.8476e-05,
            "max": 4.4476e-05,
            "mean": 3.6471381944444446e-05,
            "median": 3.6476e-05,
            "variance": 1.098159883095676e-11,
            "std_deviation": 3.3138495486302273e-06,
            "interval_size": 1.6e-05,
            "jitter": 8.004618055555553e-06
          }
        }
      }
    },
    "s39": {
      "port_1": {
        "queue_7": {
          "queueLength": {
            "min": 0,
            "max": 1,
            "mean": 0.49999710649822626,
            "median": 0,
            "variance": 0.25000144675088687,
            "std_deviation": 0.5000014467487938,
            "interval_size": 1,
            "jitter": 0.5000028935017737
          },
          "queueingTime": {
            "min": 2.8476e-05,
            "max": 4.4476e-05,
            "mean": 3.64829212962963e-05,
            "median": 3.6476e-05,
            "variance": 1.0993829339052703e-11,
            "std_deviation": 3.315694397717121e-06,
            "interval_size": 1.6e-05,
            "jitter": 8.0069212962963e-06
          }
        }
      }
    },
    "s38": {
      "port_1": {
        "queue_7": {
          "queueLength": {
            "min": 0,
            "max": 1,
            "mean": 0.49999710649822626,
            "median": 0,
            "variance": 0.25000144675088687,
            "std_deviation": 0.5000014467487938,
            "interval_size": 1,
            "jitter": 0.5000028935017737
          },
          "queueingTime": {
            "min": 2.8476e-05,
            "max": 4.4476e-05,
            "mean": 3.647076851851852e-05,
            "median": 3.6476e-05,
            "variance": 1.0940608518274172e-11,
            "std_deviation": 3.3076590692322223e-06,
            "interval_size": 1.6e-05,
            "jitter": 8.00523148148148e-06
          }
        }
      }
    },
    "s40": {
      "port_1": {
        "queue_7": {
          "queueLength": {
            "min": 0,
            "max": 1,
            "mean": 0.49999710649822626,
            "median": 0,
            "variance": 0.25000144675088687,
            "std_deviation": 0.5000014467487938,
            "interval_size": 1,
            "jitter": 0.5000028935017737
          },
          "queueingTime": {
            "min": 2.8476e-05,
            "max": 4.4476e-05,
            "mean": 3.6487574074074076e-05,
            "median": 3.6476e-05,
            "variance": 1.100913697989474e-11,
            "std_deviation": 3.3180019559811507e-06,
            "interval_size": 1.6e-05,
            "jitter": 8.011574074074077e-06
          }
        }
      }
    },
    "s42": {
      "port_1": {
        "queue_7": {
          "queueLength": {
            "min": 0,
            "max": 1,
            "mean": 0.49999710649822626,
            "median": 0,
            "variance": 0.25000144675088687,
            "std_deviation": 0.5000014467487938,
            "interval_size": 1,
            "jitter": 0.5000028935017737
          },
          "queueingTime": {
            "min": 2.8476e-05,
            "max": 4.4476e-05,
            "mean": 3.6464344907407405e-05,
            "median": 3.6476e-05,
            "variance": 1.1034910859173822e-11,
            "std_deviation": 3.3218836311908674e-06,
            "interval_size": 1.6e-05,
            "jitter": 8.011655092592594e-06
          }
        }
      }
    },
    "s41": {
      "port_1": {
        "queue_7": {
          "queueLength": {
            "min": 0,
            "max": 1,
            "mean": 0.49999710649822626,
            "median": 0,
            "variance": 0.25000144675088687,
            "std_deviation": 0.5000014467487938,
            "interval_size": 1,
            "jitter": 0.5000028935017737
          },
          "queueingTime": {
            "min": 2.8476e-05,
            "max": 4.4476e-05,
            "mean": 3.646140509259259e-05,
            "median": 3.6476e-05,
            "variance": 1.0963467121399078e-11,
            "std_deviation": 3.3111126712027e-06,
            "interval_size": 1.6e-05,
            "jitter": 8.014594907407409e-06
          }
        }
      }
    },
    "s44": {
      "port_1": {
        "queue_7": {
          "queueLength": {
            "min": 0,
            "max": 1,
            "mean": 0.49999710649822626,
            "median": 0,
            "variance": 0.25000144675088687,
            "std_deviation": 0.5000014467487938,
            "interval_size": 1,
            "jitter": 0.5000028935017737
          },
          "queueingTime": {
            "min": 2.8476e-05,
            "max": 4.4476e-05,
            "mean": 3.6483372685185185e-05,
            "median": 3.6476e-05,
            "variance": 1.0961287788047741e-11,
            "std_deviation": 3.3107835610392508e-06,
            "interval_size": 1.6e-05,
            "jitter": 8.007372685185186e-06
          }
        }
      }
    },
    "s43": {
      "port_1": {
        "queue_7": {
          "queueLength": {
            "min": 0,
            "max": 1,
            "mean": 0.49999710649822626,
            "median": 0,
            "variance": 0.25000144675088687,
            "std_deviation": 0.5000014467487938,
            "interval_size": 1,
            "jitter": 0.5000028935017737
          },
          "queueingTime": {
            "min": 2.8476e-05,
            "max": 4.4476e-05,
            "mean": 3.649039814814815e-05,
            "median": 3.6476e-05,
            "variance": 1.1030776845839691e-11,
            "std_deviation": 3.3212613335658626e-06,
            "interval_size": 1.6e-05,
            "jitter": 8.01439814814815e-06
          }
        }
      }
    },
    "s46": {
      "port_1": {
        "queue_7": {
          "queueLength": {
            "min": 0,
            "max": 1,
            "mean": 0.49999710649822626,
            "median": 0,
            "variance": 0.25000144675088687,
            "std_deviation": 0.5000014467487938,
            "interval_size": 1,
            "jitter": 0.5000028935017737
          },
          "queueingTime": {
            "min": 2.8476e-05,
            "max": 4.4476e-05,
            "mean": 3.648713425925926e-05,
            "median": 3.6476e-05,
            "variance": 1.1001531138584849e-11,
            "std_deviation": 3.316855610150199e-06,
            "interval_size": 1.6e-05,
            "jitter": 8.01113425925926e-06
          }
        }
      }
    },
    "s45": {
      "port_1": {
        "queue_7": {
          "queueLength": {
            "min": 0,
            "max": 1,
            "mean": 0.49999710649822626,
            "median": 0,
            "variance": 0.25000144675088687,
            "std_deviation": 0.5000014467487938,
            "interval_size": 1,
            "jitter": 0.5000028935017737
          },
          "queueingTime": {
            "min": 2.8476e-05,
            "max": 4.4476e-05,
            "mean": 3.6473962962962965e-05,
            "median": 3.6476e-05,
            "variance": 1.1032554097634015e-11,
            "std_deviation": 3.3215288795423735e-06,
            "interval_size": 1.6e-05,
            "jitter": 8.002037037037034e-06
          }
        }
      }
    },
    "s48": {
      "port_1": {
        "queue_7": {
          "queueLength": {
            "min": 0,
            "max": 1,
            "mean": 0.49999710649822626,
            "median": 0,
            "variance": 0.25000144675088687,
            "std_deviation": 0.5000014467487938,
            "interval_size": 1,
            "jitter": 0.5000028935017737
          },
          "queueingTime": {
            "min": 2.8476e-05,
            "max": 4.4476e-05,
            "mean": 3.646484259259259e-05,
            "median": 3.6476e-05,
            "variance": 1.1004539916657126e-11,
            "std_deviation": 3.3173091379395327e-06,
            "interval_size": 1.6e-05,
            "jitter": 8.011157407407409e-06
          }
        }
      }
    },
    "s47": {
      "port_1": {
        "queue_7": {
          "queueLength": {
            "min": 0,
            "max": 1,
            "mean": 0.49999710649822626,
            "median": 0,
            "variance": 0.25000144675088687,
            "std_deviation": 0.5000014467487938,
            "interval_size": 1,
            "jitter": 0.5000028935017737
          },
          "queueingTime": {
            "min": 2.8476e-05,
            "max": 4.4476e-05,
            "mean": 3.646302546296296e-05,
            "median": 3.6476e-05,
            "variance": 1.1021336537968972e-11,
            "std_deviation": 3.319839836192248e-06,
            "interval_size": 1.6e-05,
            "jitter": 8.012974537037037e-06
          }
        }
      }
    },
    "s49": {
      "port_1": {
        "queue_7": {
          "queueLength": {
            "min": 0,
            "max": 1,
            "mean": 0.49999710649822626,
            "median": 0,
            "variance": 0.25000144675088687,
            "std_deviation": 0.5000014467487938,
            "interval_size": 1,
            "jitter": 0.5000028935017737
          },
          "queueingTime": {
            "min": 2.8476e-05,
            "max": 4.4476e-05,
            "mean": 3.648523611111111e-05,
            "median": 3.6476e-05,
            "variance": 1.1033769251766028e-11,
            "std_deviation": 3.3217117954100156e-06,
            "interval_size": 1.6e-05,
            "jitter": 8.009236111111112e-06
          }
        }
      }
    },
    "s9": {
      "port_1": {
        "queue_7": {
          "queueLength": {
            "min": 0,
            "max": 1,
            "mean": 0.49999710649822626,
            "median": 0,
            "variance": 0.25000144675088687,
            "std_deviation": 0.5000014467487938,
            "interval_size": 1,
            "jitter": 0.5000028935017737
          },
          "queueingTime": {
            "min": 2.8476e-05,
            "max": 4.4476e-05,
            "mean": 3.647322222222222e-05,
            "median": 3.6476e-05,
            "variance": 1.0943267090282678e-11,
            "std_deviation": 3.3080609260233824e-06,
            "interval_size": 1.6e-05,
            "jitter": 8.00277777777778e-06
          }
        }
      }
    },
    "s51": {
      "port_1": {
        "queue_7": {
          "queueLength": {
            "min": 0,
            "max": 1,
            "mean": 0.49999710649822626,
            "median": 0,
            "variance": 0.25000144675088687,
            "std_deviation": 0.5000014467487938,
            "interval_size": 1,
            "jitter": 0.5000028935017737
          },
          "queueingTime": {
            "min": 2.8476e-05,
            "max": 4.4476e-05,
            "mean": 3.645679861111111e-05,
            "median": 3.6476e-05,
            "variance": 1.0995510884337008e-11,
            "std_deviation": 3.315947961644906e-06,
            "interval_size": 1.6e-05,
            "jitter": 8.019201388888888e-06
          }
        }
      }
    },
    "s50": {
      "port_1": {
        "queue_7": {
          "queueLength": {
            "min": 0,
            "max": 1,
            "mean": 0.49999710649822626,
            "median": 0,
            "variance": 0.25000144675088687,
            "std_deviation": 0.5000014467487938,
            "interval_size": 1,
            "jitter": 0.5000028935017737
          },
          "queueingTime": {
            "min": 2.8476e-05,
            "max": 4.4476e-05,
            "mean": 3.6489078703703706e-05,
            "median": 3.6476e-05,
            "variance": 1.0950187167268308e-11,
            "std_deviation": 3.309106702309297e-06,
            "interval_size": 1.6e-05,
            "jitter": 8.013078703703706e-06
          }
        }
      }
    },
    "s53": {
      "port_1": {
        "queue_7": {
          "queueLength": {
            "min": 0,
            "max": 1,
            "mean": 0.49999710649822626,
            "median": 0,
            "variance": 0.25000144675088687,
            "std_deviation": 0.5000014467487938,
            "interval_size": 1,
            "jitter": 0.5000028935017737
          },
          "queueingTime": {
            "min": 2.8476e-05,
            "max": 4.4476e-05,
            "mean": 3.649909027777778e-05,
            "median": 3.6476e-05,
            "variance": 1.1025439355731352e-11,
            "std_deviation": 3.32045770274692e-06,
            "interval_size": 1.6e-05,
            "jitter": 8.023090277777778e-06
          }
        }
      }
    },
    "s5": {
      "port_1": {
        "queue_7": {
          "queueLength": {
            "min": 0,
            "max": 1,
            "mean": 0.49999710649822626,
            "median": 0,
            "variance": 0.25000144675088687,
            "std_deviation": 0.5000014467487938,
            "interval_size": 1,
            "jitter": 0.5000028935017737
          },
          "queueingTime": {
            "min": 2.8476e-05,
            "max": 4.4476e-05,
            "mean": 3.649108101851852e-05,
            "median": 3.6476e-05,
            "variance": 1.0958128559738771e-11,
            "std_deviation": 3.3103064147807785e-06,
            "interval_size": 1.6e-05,
            "jitter": 8.01508101851852e-06
          }
        }
      }
    },
    "s52": {
      "port_1": {
        "queue_7": {
          "queueLength": {
            "min": 0,
            "max": 1,
            "mean": 0.49999710649822626,
            "median": 0,
            "variance": 0.25000144675088687,
            "std_deviation": 0.5000014467487938,
            "interval_size": 1,
            "jitter": 0.5000028935017737
          },
          "queueingTime": {
            "min": 2.8476e-05,
            "max": 4.4476e-05,
            "mean": 3.647427546296296e-05,
            "median": 3.6476e-05,
            "variance": 1.098890893464023e-11,
            "std_deviation": 3.3149523276572514e-06,
            "interval_size": 1.6e-05,
            "jitter": 8.001724537037036e-06
          }
        }
      }
    },
    "s6": {
      "port_1": {
        "queue_7": {
          "queueLength": {
            "min": 0,
            "max": 1,
            "mean": 0.49999710649822626,
            "median": 0,
            "variance": 0.25000144675088687,
            "std_deviation": 0.5000014467487938,
            "interval_size": 1,
            "jitter": 0.5000028935017737
          },
          "queueingTime": {
            "min": 2.8476e-05,
            "max": 4.4476e-05,
            "mean": 3.6476717592592594e-05,
            "median": 3.6476e-05,
            "variance": 1.1002349049285976e-11,
            "std_deviation": 3.316978903955522e-06,
            "interval_size": 1.6e-05,
            "jitter": 8.000717592592594e-06
          }
        }
      }
    },
    "s7": {
      "port_1": {
        "queue_7": {
          "queueLength": {
            "min": 0,
            "max": 1,
            "mean": 0.49999710649822626,
            "median": 0,
            "variance": 0.25000144675088687,
            "std_deviation": 0.5000014467487938,
            "interval_size": 1,
            "jitter": 0.5000028935017737
          },
          "queueingTime": {
            "min": 2.8476e-05,
            "max": 4.4476e-05,
            "mean": 3.6467134259259257e-05,
            "median": 3.6476e-05,
            "variance": 1.0974562307927086e-11,
            "std_deviation": 3.3127876943636286e-06,
            "interval_size": 1.6e-05,
            "jitter": 8.008865740740743e-06
          }
        }
      }
    },
    "s55": {
      "port_1": {
        "queue_7": {
          "queueLength": {
            "min": 0,
            "max": 1,
            "mean": 0.49999710649822626,
            "median": 0,
            "variance": 0.25000144675088687,
            "std_deviation": 0.5000014467487938,
            "interval_size": 1,
            "jitter": 0.5000028935017737
          },
          "queueingTime": {
            "min": 2.8476e-05,
            "max": 4.4476e-05,
            "mean": 3.647284027777778e-05,
            "median": 3.6476e-05,
            "variance": 1.1035198756881828e-11,
            "std_deviation": 3.3219269644111425e-06,
            "interval_size": 1.6e-05,
            "jitter": 8.003159722222222e-06
          }
        }
      }
    },
    "s11": {
      "port_1": {
        "queue_7": {
          "queueLength": {
            "min": 0,
            "max": 1,
            "mean": 0.49999710649822626,
            "median": 0,
            "variance": 0.25000144675088687,
            "std_deviation": 0.5000014467487938,
            "interval_size": 1,
            "jitter": 0.5000028935017737
          },
          "queueingTime": {
            "min": 2.8476e-05,
            "max": 4.4476e-05,
            "mean": 3.6476289351851853e-05,
            "median": 3.6476e-05,
            "variance": 1.0930022254496041e-11,
            "std_deviation": 3.3060584166793e-06,
            "interval_size": 1.6e-05,
            "jitter": 8.000289351851854e-06
          }
        }
      }
    },
    "s8": {
      "port_1": {
        "queue_7": {
          "queueLength": {
            "min": 0,
            "max": 1,
            "mean": 0.49999710649822626,
            "median": 0,
            "variance": 0.25000144675088687,
            "std_deviation": 0.5000014467487938,
            "interval_size": 1,
            "jitter": 0.5000028935017737
          },
          "queueingTime": {
            "min": 2.8476e-05,
            "max": 4.4476e-05,
            "mean": 3.6483511574074073e-05,
            "median": 3.6476e-05,
            "variance": 1.1021008634225231e-11,
            "std_deviation": 3.3197904503485204e-06,
            "interval_size": 1.6e-05,
            "jitter": 8.007511574074074e-06
          }
        }
      }
    },
    "s54": {
      "port_1": {
        "queue_7": {
          "queueLength": {
            "min": 0,
            "max": 1,
            "mean": 0.49999710649822626,
            "median": 0,
            "variance": 0.25000144675088687,
            "std_deviation": 0.5000014467487938,
            "interval_size": 1,
            "jitter": 0.5000028935017737
          },
          "queueingTime": {
            "min": 2.8476e-05,
            "max": 4.4476e-05,
            "mean": 3.647008564814815e-05,
            "median": 3.6476e-05,
            "variance": 1.1003483579279893e-11,
            "std_deviation": 3.317149918119453e-06,
            "interval_size": 1.6e-05,
            "jitter": 8.00591435185185e-06
          }
        }
      }
    },
    "s10": {
      "port_1": {
        "queue_7": {
          "queueLength": {
            "min": 0,
            "max": 1,
            "mean": 0.49999710649822626,
            "median": 0,
            "variance": 0.25000144675088687,
            "std_deviation": 0.5000014467487938,
            "interval_size": 1,
            "jitter": 0.5000028935017737
          },
          "queueingTime": {
            "min": 2.8476e-05,
            "max": 4.4476e-05,
            "mean": 3.6478905092592595e-05,
            "median": 3.6476e-05,
            "variance": 1.1031913226099365e-11,
            "std_deviation": 3.3214324057700413e-06,
            "interval_size": 1.6e-05,
            "jitter": 8.002905092592595e-06
          }
        }
      }
    },
    "s1": {
      "port_1": {
        "queue_7": {
          "queueLength": {
            "min": 0,
            "max": 1,
            "mean": 0.49999710649822626,
            "median": 0,
            "variance": 0.25000144675088687,
            "std_deviation": 0.5000014467487938,
            "interval_size": 1,
            "jitter": 0.5000028935017737
          },
          "queueingTime": {
            "min": 2.8476e-05,
            "max": 4.4476e-05,
            "mean": 3.647759722222222e-05,
            "median": 3.6476e-05,
            "variance": 1.0977230981647161e-11,
            "std_deviation": 3.3131904535729846e-06,
            "interval_size": 1.6e-05,
            "jitter": 8.00159722222222e-06
          }
        }
      },
      "port_2": {
        "queue_7": {
          "queueLength": {
            "min": 0,
            "max": 1,
            "mean": 0.49999710649822626,
            "median": 0,
            "variance": 0.25000144675088687,
            "std_deviation": 0.5000014467487938,
            "interval_size": 1,
            "jitter": 0.5000028935017737
          },
          "queueingTime": {
            "min": 2.8476e-05,
            "max": 4.4476e-05,
            "mean": 3.648656712962963e-05,
            "median": 3.6476e-05,
            "variance": 1.1016022780479495e-11,
            "std_deviation": 3.319039436415225e-06,
            "interval_size": 1.6e-05,
            "jitter": 8.010567129629631e-06
          }
        }
      }
    },
    "s13": {
      "port_1": {
        "queue_7": {
          "queueLength": {
            "min": 0,
            "max": 1,
            "mean": 0.49999710649822626,
            "median": 0,
            "variance": 0.25000144675088687,
            "std_deviation": 0.5000014467487938,
            "interval_size": 1,
            "jitter": 0.5000028935017737
          },
          "queueingTime": {
            "min": 2.8476e-05,
            "max": 4.4476e-05,
            "mean": 3.648146296296296e-05,
            "median": 3.6476e-05,
            "variance": 1.0908198260182192e-11,
            "std_deviation": 3.3027561611754193e-06,
            "interval_size": 1.6e-05,
            "jitter": 8.005462962962961e-06
          }
        }
      }
    },
    "s57": {
      "port_1": {
        "queue_7": {
          "queueLength": {
            "min": 0,
            "max": 1,
            "mean": 0.49999710649822626,
            "median": 0,
            "variance": 0.25000144675088687,
            "std_deviation": 0.5000014467487938,
            "interval_size": 1,
            "jitter": 0.5000028935017737
          },
          "queueingTime": {
            "min": 2.8476e-05,
            "max": 4.4476e-05,
            "mean": 3.6462539351851854e-05,
            "median": 3.6476e-05,
            "variance": 1.097974913212194e-11,
            "std_deviation": 3.3135704507557915e-06,
            "interval_size": 1.6e-05,
            "jitter": 8.013460648148145e-06
          }
        }
      }
    },
    "s12": {
      "port_1": {
        "queue_7": {
          "queueLength": {
            "min": 0,
            "max": 1,
            "mean": 0.49999710649822626,
            "median": 0,
            "variance": 0.25000144675088687,
            "std_deviation": 0.5000014467487938,
            "interval_size": 1,
            "jitter": 0.5000028935017737
          },
          "queueingTime": {
            "min": 2.8476e-05,
            "max": 4.4476e-05,
            "mean": 3.6471949074074074e-05,
            "median": 3.6476e-05,
            "variance": 1.0987147793098597e-11,
            "std_deviation": 3.3146866809848856e-06,
            "interval_size": 1.6e-05,
            "jitter": 8.004050925925925e-06
          }
        }
      }
    },
    "s2": {
      "port_1": {
        "queue_7": {
          "queueLength": {
            "min": 0,
            "max": 1,
            "mean": 0.49999710649822626,
            "median": 0,
            "variance": 0.25000144675088687,
            "std_deviation": 0.5000014467487938,
            "interval_size": 1,
            "jitter": 0.5000028935017737
          },
          "queueingTime": {
            "min": 2.8476e-05,
            "max": 4.4476e-05,
            "mean": 3.6482770833333335e-05,
            "median": 3.6476e-05,
            "variance": 1.1053079770165161e-11,
            "std_deviation": 3.3246172366402063e-06,
            "interval_size": 1.6e-05,
            "jitter": 8.006770833333335e-06
          }
        }
      }
    },
    "s56": {
      "port_1": {
        "queue_7": {
          "queueLength": {
            "min": 0,
            "max": 1,
            "mean": 0.49999710649822626,
            "median": 0,
            "variance": 0.25000144675088687,
            "std_deviation": 0.5000014467487938,
            "interval_size": 1,
            "jitter": 0.5000028935017737
          },
          "queueingTime": {
            "min": 2.8476e-05,
            "max": 4.4476e-05,
            "mean": 3.647023611111111e-05,
            "median": 3.6476e-05,
            "variance": 1.101590446166429e-11,
            "std_deviation": 3.3190216121116613e-06,
            "interval_size": 1.6e-05,
            "jitter": 8.005763888888886e-06
          }
        }
      }
    },
    "s15": {
      "port_1": {
        "queue_7": {
          "queueLength": {
            "min": 0,
            "max": 1,
            "mean": 0.49999710649822626,
            "median": 0,
            "variance": 0.25000144675088687,
            "std_deviation": 0.5000014467487938,
            "interval_size": 1,
            "jitter": 0.5000028935017737
          },
          "queueingTime": {
            "min": 2.8476e-05,
            "max": 4.4476e-05,
            "mean": 3.646311805555556e-05,
            "median": 3.6476e-05,
            "variance": 1.0983236639264727e-11,
            "std_deviation": 3.3140966550878877e-06,
            "interval_size": 1.6e-05,
            "jitter": 8.01288194444444e-06
          }
        }
      }
    },
    "s3": {
      "port_1": {
        "queue_7": {
          "queueLength": {
            "min": 0,
            "max": 1,
            "mean": 0.49999710649822626,
            "median": 0,
            "variance": 0.25000144675088687,
            "std_deviation": 0.5000014467487938,
            "interval_size": 1,
            "jitter": 0.5000028935017737
          },
          "queueingTime": {
            "min": 2.8476e-05,
            "max": 4.4476e-05,
            "mean": 3.647281712962963e-05,
            "median": 3.6476e-05,
            "variance": 1.1036101398287571e-11,
            "std_deviation": 3.322062822748476e-06,
            "interval_size": 1.6e-05,
            "jitter": 8.003182870370367e-06
          }
        }
      }
    },
    "s59": {
      "port_1": {
        "queue_7": {
          "queueLength": {
            "min": 0,
            "max": 1,
            "mean": 0.49999710649822626,
            "median": 0,
            "variance": 0.25000144675088687,
            "std_deviation": 0.5000014467487938,
            "interval_size": 1,
            "jitter": 0.5000028935017737
          },
          "queueingTime": {
            "min": 2.8476e-05,
            "max": 4.4476e-05,
            "mean": 3.649844212962963e-05,
            "median": 3.6476e-05,
            "variance": 1.0966023735351658e-11,
            "std_deviation": 3.3114987143817008e-06,
            "interval_size": 1.6e-05,
            "jitter": 8.022442129629629e-06
          }
        }
      }
    },
    "s58": {
      "port_1": {
        "queue_7": {
          "queueLength": {
            "min": 0,
            "max": 1,
            "mean": 0.49999710649822626,
            "median": 0,
            "variance": 0.25000144675088687,
            "std_deviation": 0.5000014467487938,
            "interval_size": 1,
            "jitter": 0.5000028935017737
          },
          "queueingTime": {
            "min": 2.8476e-05,
            "max": 4.4476e-05,
            "mean": 3.648322222222222e-05,
            "median": 3.6476e-05,
            "variance": 1.0995260284648353e-11,
            "std_deviation": 3.315910174393805e-06,
            "interval_size": 1.6e-05,
            "jitter": 8.007222222222221e-06
          }
        }
      }
    },
    "s4": {
      "port_1": {
        "queue_7": {
          "queueLength": {
            "min": 0,
            "max": 1,
            "mean": 0.49999710649822626,
            "median": 0,
            "variance": 0.25000144675088687,
            "std_deviation": 0.5000014467487938,
            "interval_size": 1,
            "jitter": 0.5000028935017737
          },
          "queueingTime": {
            "min": 2.8476e-05,
            "max": 4.4476e-05,
            "mean": 3.64543912037037e-05,
            "median": 3.6476e-05,
            "variance": 1.1045991925569909e-11,
            "std_deviation": 3.3235511016937753e-06,
            "interval_size": 1.6e-05,
            "jitter": 8.021608796296297e-06
          }
        }
      }
    },
    "s14": {
      "port_1": {
        "queue_7": {
          "queueLength": {
            "min": 0,
            "max": 1,
            "mean": 0.49999710649822626,
            "median": 0,
            "variance": 0.25000144675088687,
            "std_deviation": 0.5000014467487938,
            "interval_size": 1,
            "jitter": 0.5000028935017737
          },
          "queueingTime": {
            "min": 2.8476e-05,
            "max": 4.4476e-05,
            "mean": 3.6469935185185184e-05,
            "median": 3.6476e-05,
            "variance": 1.108148036478474e-11,
            "std_deviation": 3.3288857542404098e-06,
            "interval_size": 1.6e-05,
            "jitter": 8.006064814814815e-06
          }
        }
      }
    },
    "s17": {
      "port_1": {
        "queue_7": {
          "queueLength": {
            "min": 0,
            "max": 1,
            "mean": 0.49999710649822626,
            "median": 0,
            "variance": 0.25000144675088687,
            "std_deviation": 0.5000014467487938,
            "interval_size": 1,
            "jitter": 0.5000028935017737
          },
          "queueingTime": {
            "min": 2.8476e-05,
            "max": 4.4476e-05,
            "mean": 3.649958796296296e-05,
            "median": 3.6476e-05,
            "variance": 1.100278854768552e-11,
            "std_deviation": 3.317045153097184e-06,
            "interval_size": 1.6e-05,
            "jitter": 8.023587962962962e-06
          }
        }
      }
    },
    "s16": {
      "port_1": {
        "queue_7": {
          "queueLength": {
            "min": 0,
            "max": 1,
            "mean": 0.49999710649822626,
            "median": 0,
            "variance": 0.25000144675088687,
            "std_deviation": 0.5000014467487938,
            "interval_size": 1,
            "jitter": 0.5000028935017737
          },
          "queueingTime": {
            "min": 2.8476e-05,
            "max": 4.4476e-05,
            "mean": 3.6496393518518516e-05,
            "median": 3.6476e-05,
            "variance": 1.0962581356501466e-11,
            "std_deviation": 3.310978912119717e-06,
            "interval_size": 1.6e-05,
            "jitter": 8.020393518518516e-06
          }
        }
      }
    },
    "s19": {
      "port_1": {
        "queue_7": {
          "queueLength": {
            "min": 0,
            "max": 1,
            "mean": 0.49999710649822626,
            "median": 0,
            "variance": 0.25000144675088687,
            "std_deviation": 0.5000014467487938,
            "interval_size": 1,
            "jitter": 0.5000028935017737
          },
          "queueingTime": {
            "min": 2.8476e-05,
            "max": 4.4476e-05,
            "mean": 3.645296759259259e-05,
            "median": 3.6476e-05,
            "variance": 1.1070546713610794e-11,
            "std_deviation": 3.327243110085404e-06,
            "interval_size": 1.6e-05,
            "jitter": 8.023032407407406e-06
          }
        }
      }
    },
    "s18": {
      "port_1": {
        "queue_7": {
          "queueLength": {
            "min": 0,
            "max": 1,
            "mean": 0.49999710649822626,
            "median": 0,
            "variance": 0.25000144675088687,
            "std_deviation": 0.5000014467487938,
            "interval_size": 1,
            "jitter": 0.5000028935017737
          },
          "queueingTime": {
            "min": 2.8476e-05,
            "max": 4.4476e-05,
            "mean": 3.645611574074074e-05,
            "median": 3.6476e-05,
            "variance": 1.1042996317579977e-11,
            "std_deviation": 3.3231004073876517e-06,
            "interval_size": 1.6e-05,
            "jitter": 8.019884259259259e-06
          }
        }
      }
    }
  }
}