{
  "general": {
    "validation": {
      "valid": true,
      "errors": []
    }
  },
  "sim_parameters": {
    "**.displayAddresses": "false",
    "**.verbose": "false",
    "**.promiscuous": "true",
    "**.registerProtocol": "true",
    "**.*.clock.clockRate": "\"1us\"",
    "**.h1.eth.address": "\"12:23:34:45:56:67\"",
    "**.h2.eth.address": "\"aa:bb:cc:dd:ee:aa\"",
    "**.*.processingDelay[*].delay": "5us",
    "**.filteringDatabase.database": "xmldoc(\"xml/routing.xml\", \"/filteringDatabases/\")",
    "**.filteringDatabase.cycle": "xmldoc(\"xml/tas.xml\", \"/schedule/\")",
    "**.gateController.initialSchedule": "xmldoc(\"xml/tas.xml\")",
    "**.gateController.enableHoldAndRelease": "false",
    "**.*.eth[*].queuing.tsAlgorithms[*].typename": "\"StrictPriority\"",
    "**.s17.eth[1].queuing.queuingFrames.tciToQueueMapping": "xmldoc(\"xml/tci-maps/tci-map-s17-1.xml\")",
    "**.s62.eth[2].queuing.queuingFrames.tciToQueueMapping": "xmldoc(\"xml/tci-maps/tci-map-s62-2.xml\")",
    "**.s11.eth[1].queuing.queuingFrames.tciToQueueMapping": "xmldoc(\"xml/tci-maps/tci-map-s11-1.xml\")",
    "**.s53.eth[1].queuing.queuingFrames.tciToQueueMapping": "xmldoc(\"xml/tci-maps/tci-map-s53-1.xml\")",
    "**.s51.eth[1].queuing.queuingFrames.tciToQueueMapping": "xmldoc(\"xml/tci-maps/tci-map-s51-1.xml\")",
    "**.s45.eth[1].queuing.queuingFrames.tciToQueueMapping": "xmldoc(\"xml/tci-maps/tci-map-s45-1.xml\")",
    "**.s42.eth[1].queuing.queuingFrames.tciToQueueMapping": "xmldoc(\"xml/tci-maps/tci-map-s42-1.xml\")",
    "**.s5.eth[1].queuing.queuingFrames.tciToQueueMapping": "xmldoc(\"xml/tci-maps/tci-map-s5-1.xml\")",
    "**.s36.eth[1].queuing.queuingFrames.tciToQueueMapping": "xmldoc(\"xml/tci-maps/tci-map-s36-1.xml\")",
    "**.s15.eth[1].queuing.queuingFrames.tciToQueueMapping": "xmldoc(\"xml/tci-maps/tci-map-s15-1.xml\")",
    "**.s16.eth[1].queuing.queuingFrames.tciToQueueMapping": "xmldoc(\"xml/tci-maps/tci-map-s16-1.xml\")",
    "**.s43.eth[1].queuing.queuingFrames.tciToQueueMapping": "xmldoc(\"xml/tci-maps/tci-map-s43-1.xml\")",
    "**.s52.eth[1].queuing.queuingFrames.tciToQueueMapping": "xmldoc(\"xml/tci-maps/tci-map-s52-1.xml\")",
    "**.s49.eth[1].queuing.queuingFrames.tciToQueueMapping": "xmldoc(\"xml/tci-maps/tci-map-s49-1.xml\")",
    "**.s13.eth[1].queuing.queuingFrames.tciToQueueMapping": "xmldoc(\"xml/tci-maps/tci-map-s13-1.xml\")",
    "**.s9.eth[1].queuing.queuingFrames.tciToQueueMapping": "xmldoc(\"xml/tci-maps/tci-map-s9-1.xml\")",
    "**.s47.eth[1].queuing.queuingFrames.tciToQueueMapping": "xmldoc(\"xml/tci-maps/tci-map-s47-1.xml\")",
    "**.s48.eth[1].queuing.queuingFrames.tciToQueueMapping": "xmldoc(\"xml/tci-maps/tci-map-s48-1.xml\")",
    "**.s2.eth[1].queuing.queuingFrames.tciToQueueMapping": "xmldoc(\"xml/tci-maps/tci-map-s2-1.xml\")",
    "**.s57.eth[1].queuing.queuingFrames.tciToQueueMapping": "xmldoc(\"xml/tci-maps/tci-map-s57-1.xml\")",
    "**.s22.eth[1].queuing.queuingFrames.tciToQueueMapping": "xmldoc(\"xml/tci-maps/tci-map-s22-1.xml\")",
    "**.s38.eth[1].queuing.queuingFrames.tciToQueueMapping": "xmldoc(\"xml/tci-maps/tci-map-s38-1.xml\")",
    "**.s37.eth[1].queuing.queuingFrames.tciToQueueMapping": "xmldoc(\"xml/tci-maps/tci-map-s37-1.xml\")",
    "**.s39.eth[1].queuing.queuingFrames.tciToQueueMapping": "xmldoc(\"xml/tci-maps/tci-map-s39-1.xml\")",
    "**.s61.eth[1].queuing.queuingFrames.tciToQueueMapping": "xmldoc(\"xml/tci-maps/tci-map-s61-1.xml\")",
    "**.s60.eth[1].queuing.queuingFrames.tciToQueueMapping": "xmldoc(\"xml/tci-maps/tci-map-s60-1.xml\")",
    "**.s56.eth[1].queuing.queuingFrames.tciToQueueMapping": "xmldoc(\"xml/tci-maps/tci-map-s56-1.xml\")",
    "**.s23.eth[1].queuing.queuingFrames.tciToQueueMapping": "xmldoc(\"xml/tci-maps/tci-map-s23-1.xml\")",
    "**.s30.eth[1].queuing.queuingFrames.tciToQueueMapping": "xmldoc(\"xml/tci-maps/tci-map-s30-1.xml\")",
    "**.s34.eth[1].queuing.queuingFrames.tciToQueueMapping": "xmldoc(\"xml/tci-maps/tci-map-s34-1.xml\")",
    "**.s10.eth[1].queuing.queuingFrames.tciToQueueMapping": "xmldoc(\"xml/tci-maps/tci-map-s10-1.xml\")",
    "**.s54.eth[1].queuing.queuingFrames.tciToQueueMapping": "xmldoc(\"xml/tci-maps/tci-map-s54-1.xml\")",
    "**.s25.eth[1].queuing.queuingFrames.tciToQueueMapping": "xmldoc(\"xml/tci-maps/tci-map-s25-1.xml\")",
    "**.s24.eth[1].queuing.queuingFrames.tciToQueueMapping": "xmldoc(\"xml/tci-maps/tci-map-s24-1.xml\")",
    "**.s27.eth[1].queuing.queuingFrames.tciToQueueMapping": "xmldoc(\"xml/tci-maps/tci-map-s27-1.xml\")",
    "**.s21.eth[1].queuing.queuingFrames.tciToQueueMapping": "xmldoc(\"xml/tci-maps/tci-map-s21-1.xml\")",
    "**.s12.eth[1].queuing.queuingFrames.tciToQueueMapping": "xmldoc(\"xml/tci-maps/tci-map-s12-1.xml\")",
    "**.s46.eth[1].queuing.queuingFrames.tciToQueueMapping": "xmldoc(\"xml/tci-maps/tci-map-s46-1.xml\")",
    "**.s32.eth[1].queuing.queuingFrames.tciToQueueMapping": "xmldoc(\"xml/tci-maps/tci-map-s32-1.xml\")",
    "**.s14.eth[1].queuing.queuingFrames.tciToQueueMapping": "xmldoc(\"xml/tci-maps/tci-map-s14-1.xml\")",
    "**.s1.eth[1].queuing.queuingFrames.tciToQueueMapping": "xmldoc(\"xml/tci-maps/tci-map-s1-1.xml\")",
    "**.s41.eth[1].queuing.queuingFrames.tciToQueueMapping": "xmldoc(\"xml/tci-maps/tci-map-s41-1.xml\")",
    "**.s29.eth[1].queuing.queuingFrames.tciToQueueMapping": "xmldoc(\"xml/tci-maps/tci-map-s29-1.xml\")",
    "**.s55.eth[1].queuing.queuingFrames.tciToQueueMapping": "xmldoc(\"xml/tci-maps/tci-map-s55-1.xml\")",
    "**.s35.eth[1].queuing.queuingFrames.tciToQueueMapping": "xmldoc(\"xml/tci-maps/tci-map-s35-1.xml\")",
    "**.s18.eth[1].queuing.queuingFrames.tciToQueueMapping": "xmldoc(\"xml/tci-maps/tci-map-s18-1.xml\")",
    "**.s19.eth[1].queuing.queuingFrames.tciToQueueMapping": "xmldoc(\"xml/tci-maps/tci-map-s19-1.xml\")",
    "**.s59.eth[1].queuing.queuingFrames.tciToQueueMapping": "xmldoc(\"xml/tci-maps/tci-map-s59-1.xml\")",
    "**.s50.eth[1].queuing.queuingFrames.tciToQueueMapping": "xmldoc(\"xml/tci-maps/tci-map-s50-1.xml\")",
    "**.s7.eth[1].queuing.queuingFrames.tciToQueueMapping": "xmldoc(\"xml/tci-maps/tci-map-s7-1.xml\")",
    "**.s31.eth[1].queuing.queuingFrames.tciToQueueMapping": "xmldoc(\"xml/tci-maps/tci-map-s31-1.xml\")",
    "**.s3.eth[1].queuing.queuingFrames.tciToQueueMapping": "xmldoc(\"xml/tci-maps/tci-map-s3-1.xml\")",
    "**.s26.eth[1].queuing.queuingFrames.tciToQueueMapping": "xmldoc(\"xml/tci-maps/tci-map-s26-1.xml\")",
    "**.s28.eth[1].queuing.queuingFrames.tciToQueueMapping": "xmldoc(\"xml/tci-maps/tci-map-s28-1.xml\")",
    "**.s1.eth[2].queuing.queuingFrames.tciToQueueMapping": "xmldoc(\"xml/tci-maps/tci-map-s1-2.xml\")",
    "**.s20.eth[1].queuing.queuingFrames.tciToQueueMapping": "xmldoc(\"xml/tci-maps/tci-map-s20-1.xml\")",
    "**.s8.eth[1].queuing.queuingFrames.tciToQueueMapping": "xmldoc(\"xml/tci-maps/tci-map-s8-1.xml\")",
    "**.s6.eth[1].queuing.queuingFrames.tciToQueueMapping": "xmldoc(\"xml/tci-maps/tci-map-s6-1.xml\")",
    "**.s58.eth[1].queuing.queuingFrames.tciToQueueMapping": "xmldoc(\"xml/tci-maps/tci-map-s58-1.xml\")",
    "**.s33.eth[1].queuing.queuingFrames.tciToQueueMapping": "xmldoc(\"xml/tci-maps/tci-map-s33-1.xml\")",
    "**.s44.eth[1].queuing.queuingFrames.tciToQueueMapping": "xmldoc(\"xml/tci-maps/tci-map-s44-1.xml\")",
    "**.s40.eth[1].queuing.queuingFrames.tciToQueueMapping": "xmldoc(\"xml/tci-maps/tci-map-s40-1.xml\")",
    "**.s4.eth[1].queuing.queuingFrames.tciToQueueMapping": "xmldoc(\"xml/tci-maps/tci-map-s4-1.xml\")",
    "**.*.eth[*].queuing.queues[*].bufferCapacity": "365280b",
    "**.*.eth[*].queuing.queues[*].expressQueue": "true",
    "**.*.eth[*].mac.enablePreemptingFrames": "false",
    "**.*.trafGenSchedApp.jitter": "0.000001",
    "**.*.eth[*].queuing.gateController.jitter": "0.000001",
    "**.*.trafGenSchedApp.initialSchedule": "xmldoc(\"xml/traf-gen.xml\")"
  },
  "streams": {
    "1907": {
      "latency_stats": {
        "min": 0.0008075239966274239,
        "max": 0.000809524004580453,
        "mean": 0.0008085274721686423,
        "median": 0.0008085239987849491,
        "variance": 4.973319150739557e-13,
        "std_deviation": 7.052176366725067e-07,
        "interval_size": 2.000007953029126e-06,
        "jitter": 1.0034755412183455e-06,
        "packages_received": 86400
      },
      "udp_dest_port": 6000,
      "name": "1---2---6000",
      "max_allowed_latency": 10000000,
      "talker": "h1",
      "listener": "h2"
    },
    "1908": {
      "latency_stats": {
        "min": 0.0007960479997564107,
        "max": 0.0007980480004334822,
        "mean": 0.0007970513681485395,
        "median": 0.0007970480000949465,
        "variance": 4.999600021709329e-13,
        "std_deviation": 7.070784978847348e-07,
        "interval_size": 2.0000006770715117e-06,
        "jitter": 1.0033683921288313e-06,
        "packages_received": 86400
      },
      "udp_dest_port": 6001,
      "name": "1---2---6001",
      "max_allowed_latency": 10000000,
      "talker": "h1",
      "listener": "h2"
    }
  },
  "hosts": {
    "h2": {
      "received_periodically": {
        "is_periodic": true,
        "max-period-length": 250,
        "period": [
          1907,
          1908
        ],
        "period_length": 2,
        "skipped": "first 0s"
      }
    }
  },
  "switches": {
    "s60": {
      "port_1": {
        "queue_7": {
          "queueLength": {
            "min": 0,
            "max": 1,
            "mean": 0.49999710649822626,
            "median": 0,
            "variance": 0.25000144675088687,
            "std_deviation": 0.5000014467487938,
            "interval_size": 1,
            "jitter": 0.5000028935017737
          },
          "queueingTime": {
            "min": 1.0476e-05,
            "max": 1.2476e-05,
            "mean": 1.1476150462962963e-05,
            "median": 1.1476e-05,
            "variance": 5.01684024629701e-13,
            "std_deviation": 7.08296565451013e-07,
            "interval_size": 2.000000000000001e-06,
            "jitter": 1.0001504629629632e-06
          }
        }
      }
    },
    "s62": {
      "port_2": {
        "queue_7": {
          "queueLength": {
            "min": 0,
            "max": 1,
            "mean": 0.499998553244927,
            "median": 0,
            "variance": 0.25000072337753654,
            "std_deviation": 0.5000007233770133,
            "interval_size": 1,
            "jitter": 0.5000014467550731
          },
          "queueingTime": {
            "min": 0.0,
            "max": 1.2476e-05,
            "mean": 5.73934837962963e-06,
            "median": 5.238e-06,
            "variance": 3.3191436738797946e-11,
            "std_deviation": 5.761200980594059e-06,
            "interval_size": 1.2476e-05,
            "jitter": 6.736651620370371e-06
          }
        }
      }
    },
    "s61": {
      "port_1": {
        "queue_7": {
          "queueLength": {
            "min": 0,
            "max": 1,
            "mean": 0.49999710649822626,
            "median": 0,
            "variance": 0.25000144675088687,
            "std_deviation": 0.5000014467487938,
            "interval_size": 1,
            "jitter": 0.5000028935017737
          },
          "queueingTime": {
            "min": 1.0476e-05,
            "max": 1.2476e-05,
            "mean": 1.147461111111111e-05,
            "median": 1.1476e-05,
            "variance": 5.016936924424286e-13,
            "std_deviation": 7.083033901107834e-07,
            "interval_size": 2.000000000000001e-06,
            "jitter": 1.0013888888888897e-06
          }
        }
      }
    },
    "s20": {
      "port_1": {
        "queue_7": {
          "queueLength": {
            "min": 0,
            "max": 1,
            "mean": 0.49999710649822626,
            "median": 0,
            "variance": 0.25000144675088687,
            "std_deviation": 0.5000014467487938,
            "interval_size": 1,
            "jitter": 0.5000028935017737
          },
          "queueingTime": {
            "min": 1.0476e-05,
            "max": 1.2476e-05,
            "mean": 1.1480016203703703e-05,
            "median": 1.1476e-05,
            "variance": 4.978715769547664e-13,
            "std_deviation": 7.056001537377712e-07,
            "interval_size": 2.000000000000001e-06,
            "jitter": 1.0040162037037036e-06
          }
        }
      }
    },
    "s22": {
      "port_1": {
        "queue_7": {
          "queueLength": {
            "min": 0,
            "max": 1,
            "mean": 0.49999710649822626,
            "median": 0,
            "variance": 0.25000144675088687,
            "std_deviation": 0.5000014467487938,
            "interval_size": 1,
            "jitter": 0.5000028935017737
          },
          "queueingTime": {
            "min": 1.0476e-05,
            "max": 1.2476e-05,
            "mean": 1.1472296296296297e-05,
            "median": 1.1476e-05,
            "variance": 4.971448143475603e-13,
            "std_deviation": 7.050849695941336e-07,
            "interval_size": 2.000000000000001e-06,
            "jitter": 1.0037037037037038e-06
          }
        }
      }
    },
    "s21": {
      "port_1": {
        "queue_7": {
          "queueLength": {
            "min": 0,
            "max": 1,
            "mean": 0.49999710649822626,
            "median": 0,
            "variance": 0.25000144675088687,
            "std_deviation": 0.5000014467487938,
            "interval_size": 1,
            "jitter": 0.5000028935017737
          },
          "queueingTime": {
            "min": 1.0476e-05,
            "max": 1.2476e-05,
            "mean": 1.14763125e-05,
            "median": 1.1476e-05,
            "variance": 4.992302175083051e-13,
            "std_deviation": 7.065622531018092e-07,
            "interval_size": 2.000000000000001e-06,
            "jitter": 1.0003125000000004e-06
          }
        }
      }
    },
    "s24": {
      "port_1": {
        "queue_7": {
          "queueLength": {
            "min": 0,
            "max": 1,
            "mean": 0.49999710649822626,
            "median": 0,
            "variance": 0.25000144675088687,
            "std_deviation": 0.5000014467487938,
            "interval_size": 1,
            "jitter": 0.5000028935017737
          },
          "queueingTime": {
            "min": 1.0476e-05,
            "max": 1.2476e-05,
            "mean": 1.147781712962963e-05,
            "median": 1.1476e-05,
            "variance": 4.999446140655355e-13,
            "std_deviation": 7.070676163320843e-07,
            "interval_size": 2.000000000000001e-06,
            "jitter": 1.0018171296296302e-06
          }
        }
      }
    },
    "s23": {
      "port_1": {
        "queue_7": {
          "queueLength": {
            "min": 0,
            "max": 1,
            "mean": 0.49999710649822626,
            "median": 0,
            "variance": 0.25000144675088687,
            "std_deviation": 0.5000014467487938,
            "interval_size": 1,
            "jitter": 0.5000028935017737
          },
          "queueingTime": {
            "min": 1.0476e-05,
            "max": 1.2476e-05,
            "mean": 1.1477111111111111e-05,
            "median": 1.1476e-05,
            "variance": 4.965554385274527e-13,
            "std_deviation": 7.046668989866437e-07,
            "interval_size": 2.000000000000001e-06,
            "jitter": 1.0011111111111119e-06
          }
        }
      }
    },
    "s26": {
      "port_1": {
        "queue_7": {
          "queueLength": {
            "min": 0,
            "max": 1,
            "mean": 0.49999710649822626,
            "median": 0,
            "variance": 0.25000144675088687,
            "std_deviation": 0.5000014467487938,
            "interval_size": 1,
            "jitter": 0.5000028935017737
          },
          "queueingTime": {
            "min": 1.0476e-05,
            "max": 1.2476e-05,
            "mean": 1.1476011574074074e-05,
            "median": 1.1476e-05,
            "variance": 4.998784706816742e-13,
            "std_deviation": 7.070208417590491e-07,
            "interval_size": 2.000000000000001e-06,
            "jitter": 1.0000115740740752e-06
          }
        }
      }
    },
    "s25": {
      "port_1": {
        "queue_7": {
          "queueLength": {
            "min": 0,
            "max": 1,
            "mean": 0.49999710649822626,
            "median": 0,
            "variance": 0.25000144675088687,
            "std_deviation": 0.5000014467487938,
            "interval_size": 1,
            "jitter": 0.5000028935017737
          },
          "queueingTime": {
            "min": 1.0476e-05,
            "max": 1.2476e-05,
            "mean": 1.1473696759259259e-05,
            "median": 1.1476e-05,
            "variance": 5.014009612969206e-13,
            "std_deviation": 7.080967174736236e-07,
            "interval_size": 2.000000000000001e-06,
            "jitter": 1.0023032407407418e-06
          }
        }
      }
    },
    "s28": {
      "port_1": {
        "queue_7": {
          "queueLength": {
            "min": 0,
            "max": 1,
            "mean": 0.49999710649822626,
            "median": 0,
            "variance": 0.25000144675088687,
            "std_deviation": 0.5000014467487938,
            "interval_size": 1,
            "jitter": 0.5000028935017737
          },
          "queueingTime": {
            "min": 1.0476e-05,
            "max": 1.2476e-05,
            "mean": 1.1476069444444444e-05,
            "median": 1.1476e-05,
            "variance": 5.016724682384448e-13,
            "std_deviation": 7.082884075279256e-07,
            "interval_size": 2.000000000000001e-06,
            "jitter": 1.0000694444444446e-06
          }
        }
      }
    },
    "s27": {
      "port_1": {
        "queue_7": {
          "queueLength": {
            "min": 0,
            "max": 1,
            "mean": 0.49999710649822626,
            "median": 0,
            "variance": 0.25000144675088687,
            "std_deviation": 0.5000014467487938,
            "interval_size": 1,
            "jitter": 0.5000028935017737
          },
          "queueingTime": {
            "min": 1.0476e-05,
            "max": 1.2476e-05,
            "mean": 1.1477423611111111e-05,
            "median": 1.1476e-05,
            "variance": 5.019366531537794e-13,
            "std_deviation": 7.084748782799426e-07,
            "interval_size": 2.000000000000001e-06,
            "jitter": 1.0014236111111117e-06
          }
        }
      }
    },
    "s29": {
      "port_1": {
        "queue_7": {
          "queueLength": {
            "min": 0,
            "max": 1,
            "mean": 0.49999710649822626,
            "median": 0,
            "variance": 0.25000144675088687,
            "std_deviation": 0.5000014467487938,
            "interval_size": 1,
            "jitter": 0.5000028935017737
          },
          "queueingTime": {
            "min": 1.0476e-05,
            "max": 1.2476e-05,
            "mean": 1.1479402777777778e-05,
            "median": 1.1476e-05,
            "variance": 4.995775365841431e-13,
            "std_deviation": 7.068079913131593e-07,
            "interval_size": 2.000000000000001e-06,
            "jitter": 1.0034027777777785e-06
          }
        }
      }
    },
    "s31": {
      "port_1": {
        "queue_7": {
          "queueLength": {
            "min": 0,
            "max": 1,
            "mean": 0.49999710649822626,
            "median": 0,
            "variance": 0.25000144675088687,
            "std_deviation": 0.5000014467487938,
            "interval_size": 1,
            "jitter": 0.5000028935017737
          },
          "queueingTime": {
            "min": 1.0476e-05,
            "max": 1.2476e-05,
            "mean": 1.1474564814814814e-05,
            "median": 1.1476e-05,
            "variance": 5.010454060467955e-13,
            "std_deviation": 7.078456089054982e-07,
            "interval_size": 2.000000000000001e-06,
            "jitter": 1.0014351851851863e-06
          }
        }
      }
    },
    "s30": {
      "port_1": {
        "queue_7": {
          "queueLength": {
            "min": 0,
            "max": 1,
            "mean": 0.49999710649822626,
            "median": 0,
            "variance": 0.25000144675088687,
            "std_deviation": 0.5000014467487938,
            "interval_size": 1,
            "jitter": 0.5000028935017737
          },
          "queueingTime": {
            "min": 1.0476e-05,
            "max": 1.2476e-05,
            "mean": 1.147492361111111e-05,
            "median": 1.1476e-05,
            "variance": 5.010810298248057e-13,
            "std_deviation": 7.078707719808791e-07,
            "interval_size": 2.000000000000001e-06,
            "jitter": 1.0010763888888899e-06
          }
        }
      }
    },
    "s33": {
      "port_1": {
        "queue_7": {
          "queueLength": {
            "min": 0,
            "max": 1,
            "mean": 0.49999710649822626,
            "median": 0,
            "variance": 0.25000144675088687,
            "std_deviation": 0.5000014467487938,
            "interval_size": 1,
            "jitter": 0.5000028935017737
          },
          "queueingTime": {
            "min": 1.0476e-05,
            "max": 1.2476e-05,
            "mean": 1.148074537037037e-05,
            "median": 1.1476e-05,
            "variance": 5.005156818730333e-13,
            "std_deviation": 7.074713293646841e-07,
            "interval_size": 2.000000000000001e-06,
            "jitter": 1.004745370370371e-06
          }
        }
      }
    },
    "s32": {
      "port_1": {
        "queue_7": {
          "queueLength": {
            "min": 0,
            "max": 1,
            "mean": 0.49999710649822626,
            "median": 0,
            "variance": 0.25000144675088687,
            "std_deviation": 0.5000014467487938,
            "interval_size": 1,
            "jitter": 0.5000028935017737
          },
          "queueingTime": {
            "min": 1.0476e-05,
            "max": 1.2476e-05,
            "mean": 1.1479425925925925e-05,
            "median": 1.1476e-05,
            "variance": 4.984199577069871e-13,
            "std_deviation": 7.059886385112632e-07,
            "interval_size": 2.000000000000001e-06,
            "jitter": 1.003425925925926e-06
          }
        }
      }
    },
    "s35": {
      "port_1": {
        "queue_7": {
          "queueLength": {
            "min": 0,
            "max": 1,
            "mean": 0.49999710649822626,
            "median": 0,
            "variance": 0.25000144675088687,
            "std_deviation": 0.5000014467487938,
            "interval_size": 1,
            "jitter": 0.5000028935017737
          },
          "queueingTime": {
            "min": 1.0476e-05,
            "max": 1.2476e-05,
            "mean": 1.1469587962962963e-05,
            "median": 1.1476e-05,
            "variance": 4.996405945842143e-13,
            "std_deviation": 7.068525974941411e-07,
            "interval_size": 2.000000000000001e-06,
            "jitter": 1.006412037037038e-06
          }
        }
      }
    },
    "s34": {
      "port_1": {
        "queue_7": {
          "queueLength": {
            "min": 0,
            "max": 1,
            "mean": 0.49999710649822626,
            "median": 0,
            "variance": 0.25000144675088687,
            "std_deviation": 0.5000014467487938,
            "interval_size": 1,
            "jitter": 0.5000028935017737
          },
          "queueingTime": {
            "min": 1.0476e-05,
            "max": 1.2476e-05,
            "mean": 1.1473384259259259e-05,
            "median": 1.1476e-05,
            "variance": 4.985868915449559e-13,
            "std_deviation": 7.061068556139049e-07,
            "interval_size": 2.000000000000001e-06,
            "jitter": 1.0026157407407416e-06
          }
        }
      }
    },
    "s37": {
      "port_1": {
        "queue_7": {
          "queueLength": {
            "min": 0,
            "max": 1,
            "mean": 0.49999710649822626,
            "median": 0,
            "variance": 0.25000144675088687,
            "std_deviation": 0.5000014467487938,
            "interval_size": 1,
            "jitter": 0.5000028935017737
          },
          "queueingTime": {
            "min": 1.0476e-05,
            "max": 1.2476e-05,
            "mean": 1.1479171296296297e-05,
            "median": 1.1476e-05,
            "variance": 4.972873651872692e-13,
            "std_deviation": 7.05186050051523e-07,
            "interval_size": 2.000000000000001e-06,
            "jitter": 1.0031712962962973e-06
          }
        }
      }
    },
    "s36": {
      "port_1": {
        "queue_7": {
          "queueLength": {
            "min": 0,
            "max": 1,
            "mean": 0.49999710649822626,
            "median": 0,
            "variance": 0.25000144675088687,
            "std_deviation": 0.5000014467487938,
            "interval_size": 1,
            "jitter": 0.5000028935017737
          },
          "queueingTime": {
            "min": 1.0476e-05,
            "max": 1.2476e-05,
            "mean": 1.1474969907407407e-05,
            "median": 1.1476e-05,
            "variance": 4.971227482003184e-13,
            "std_deviation": 7.050693215566242e-07,
            "interval_size": 2.000000000000001e-06,
            "jitter": 1.0010300925925933e-06
          }
        }
      }
    },
    "s39": {
      "port_1": {
        "queue_7": {
          "queueLength": {
            "min": 0,
            "max": 1,
            "mean": 0.49999710649822626,
            "median": 0,
            "variance": 0.25000144675088687,
            "std_deviation": 0.5000014467487938,
            "interval_size": 1,
            "jitter": 0.5000028935017737
          },
          "queueingTime": {
            "min": 1.0476e-05,
            "max": 1.2476e-05,
            "mean": 1.1474263888888889e-05,
            "median": 1.1476e-05,
            "variance": 4.984518291106771e-13,
            "std_deviation": 7.060112103293241e-07,
            "interval_size": 2.000000000000001e-06,
            "jitter": 1.0017361111111116e-06
          }
        }
      }
    },
    "s38": {
      "port_1": {
        "queue_7": {
          "queueLength": {
            "min": 0,
            "max": 1,
            "mean": 0.49999710649822626,
            "median": 0,
            "variance": 0.25000144675088687,
            "std_deviation": 0.5000014467487938,
            "interval_size": 1,
            "jitter": 0.5000028935017737
          },
          "queueingTime": {
            "min": 1.0476e-05,
            "max": 1.2476e-05,
            "mean": 1.1475606481481481e-05,
            "median": 1.1476e-05,
            "variance": 4.997741480847049e-13,
            "std_deviation": 7.069470617271883e-07,
            "interval_size": 2.000000000000001e-06,
            "jitter": 1.000393518518519e-06
          }
        }
      }
    },
    "s40": {
      "port_1": {
        "queue_7": {
          "queueLength": {
            "min": 0,
            "max": 1,
            "mean": 0.49999710649822626,
            "median": 0,
            "variance": 0.25000144675088687,
            "std_deviation": 0.5000014467487938,
            "interval_size": 1,
            "jitter": 0.5000028935017737
          },
          "queueingTime": {
            "min": 1.0476e-05,
            "max": 1.2476e-05,
            "mean": 1.1477967592592592e-05,
            "median": 1.1476e-05,
            "variance": 5.005574776242701e-13,
            "std_deviation": 7.075008675784575e-07,
            "interval_size": 2.000000000000001e-06,
            "jitter": 1.0019675925925928e-06
          }
        }
      }
    },
    "s42": {
      "port_1": {
        "queue_7": {
          "queueLength": {
            "min": 0,
            "max": 1,
            "mean": 0.49999710649822626,
            "median": 0,
            "variance": 0.25000144675088687,
            "std_deviation": 0.5000014467487938,
            "interval_size": 1,
            "jitter": 0.5000028935017737
          },
          "queueingTime": {
            "min": 1.0476e-05,
            "max": 1.2476e-05,
            "mean": 1.147361574074074e-05,
            "median": 1.1476e-05,
            "variance": 5.033797710921729e-13,
            "std_deviation": 7.094926152485119e-07,
            "interval_size": 2.000000000000001e-06,
            "jitter": 1.0023842592592604e-06
          }
        }
      }
    },
    "s41": {
      "port_1": {
        "queue_7": {
          "queueLength": {
            "min": 0,
            "max": 1,
            "mean": 0.49999710649822626,
            "median": 0,
            "variance": 0.25000144675088687,
            "std_deviation": 0.5000014467487938,
            "interval_size": 1,
            "jitter": 0.5000028935017737
          },
          "queueingTime": {
            "min": 1.0476e-05,
            "max": 1.2476e-05,
            "mean": 1.147492361111111e-05,
            "median": 1.1476e-05,
            "variance": 4.976550642465004e-13,
            "std_deviation": 7.05446712549219e-07,
            "interval_size": 2.000000000000001e-06,
            "jitter": 1.0010763888888899e-06
          }
        }
      }
    },
    "s44": {
      "port_1": {
        "queue_7": {
          "queueLength": {
            "min": 0,
            "max": 1,
            "mean": 0.49999710649822626,
            "median": 0,
            "variance": 0.25000144675088687,
            "std_deviation": 0.5000014467487938,
            "interval_size": 1,
            "jitter": 0.5000028935017737
          },
          "queueingTime": {
            "min": 1.0476e-05,
            "max": 1.2476e-05,
            "mean": 1.1476185185185185e-05,
            "median": 1.1476e-05,
            "variance": 4.986631446780297e-13,
            "std_deviation": 7.061608490124823e-07,
            "interval_size": 2.000000000000001e-06,
            "jitter": 1.0001851851851852e-06
          }
        }
      }
    },
    "s43": {
      "port_1": {
        "queue_7": {
          "queueLength": {
            "min": 0,
            "max": 1,
            "mean": 0.49999710649822626,
            "median": 0,
            "variance": 0.25000144675088687,
            "std_deviation": 0.5000014467487938,
            "interval_size": 1,
            "jitter": 0.5000028935017737
          },
          "queueingTime": {
            "min": 1.0476e-05,
            "max": 1.2476e-05,
            "mean": 1.1476474537037037e-05,
            "median": 1.1476e-05,
            "variance": 5.02146790402453e-13,
            "std_deviation": 7.086231653018781e-07,
            "interval_size": 2.000000000000001e-06,
            "jitter": 1.0004745370370376e-06
          }
        }
      }
    },
    "s46": {
      "port_1": {
        "queue_7": {
          "queueLength": {
            "min": 0,
            "max": 1,
            "mean": 0.49999710649822626,
            "median": 0,
            "variance": 0.25000144675088687,
            "std_deviation": 0.5000014467487938,
            "interval_size": 1,
            "jitter": 0.5000028935017737
          },
          "queueingTime": {
            "min": 1.0476e-05,
            "max": 1.2476e-05,
            "mean": 1.1479518518518518e-05,
            "median": 1.1476e-05,
            "variance": 5.007341563023926e-13,
            "std_deviation": 7.076257176660502e-07,
            "interval_size": 2.000000000000001e-06,
            "jitter": 1.0035185185185191e-06
          }
        }
      }
    },
    "s45": {
      "port_1": {
        "queue_7": {
          "queueLength": {
            "min": 0,
            "max": 1,
            "mean": 0.49999710649822626,
            "median": 0,
            "variance": 0.25000144675088687,
            "std_deviation": 0.5000014467487938,
            "interval_size": 1,
            "jitter": 0.5000028935017737
          },
          "queueingTime": {
            "min": 1.0476e-05,
            "max": 1.2476e-05,
            "mean": 1.1476023148148147e-05,
            "median": 1.1476e-05,
            "variance": 5.010011684591691e-13,
            "std_deviation": 7.078143601673882e-07,
            "interval_size": 2.000000000000001e-06,
            "jitter": 1.000023148148148e-06
          }
        }
      }
    },
    "s48": {
      "port_1": {
        "queue_7": {
          "queueLength": {
            "min": 0,
            "max": 1,
            "mean": 0.49999710649822626,
            "median": 0,
            "variance": 0.25000144675088687,
            "std_deviation": 0.5000014467487938,
            "interval_size": 1,
            "jitter": 0.5000028935017737
          },
          "queueingTime": {
            "min": 1.0476e-05,
            "max": 1.2476e-05,
            "mean": 1.147494675925926e-05,
            "median": 1.1476e-05,
            "variance": 4.993217995010665e-13,
            "std_deviation": 7.066270582853918e-07,
            "interval_size": 2.000000000000001e-06,
            "jitter": 1.0010532407407407e-06
          }
        }
      }
    },
    "s47": {
      "port_1": {
        "queue_7": {
          "queueLength": {
            "min": 0,
            "max": 1,
            "mean": 0.49999710649822626,
            "median": 0,
            "variance": 0.25000144675088687,
            "std_deviation": 0.5000014467487938,
            "interval_size": 1,
            "jitter": 0.5000028935017737
          },
          "queueingTime": {
            "min": 1.0476e-05,
            "max": 1.2476e-05,
            "mean": 1.1475641203703703e-05,
            "median": 1.1476e-05,
            "variance": 4.987672181080205e-13,
            "std_deviation": 7.062345347744052e-07,
            "interval_size": 2.000000000000001e-06,
            "jitter": 1.000358796296297e-06
          }
        }
      }
    },
    "s49": {
      "port_1": {
        "queue_7": {
          "queueLength": {
            "min": 0,
            "max": 1,
            "mean": 0.49999710649822626,
            "median": 0,
            "variance": 0.25000144675088687,
            "std_deviation": 0.5000014467487938,
            "interval_size": 1,
            "jitter": 0.5000028935017737
          },
          "queueingTime": {
            "min": 1.0476e-05,
            "max": 1.2476e-05,
            "mean": 1.1476868055555555e-05,
            "median": 1.1476e-05,
            "variance": 5.011508801702958e-13,
            "std_deviation": 7.079201086071053e-07,
            "interval_size": 2.000000000000001e-06,
            "jitter": 1.000868055555556e-06
          }
        }
      }
    },
    "s9": {
      "port_1": {
        "queue_7": {
          "queueLength": {
            "min": 0,
            "max": 1,
            "mean": 0.49999710649822626,
            "median": 0,
            "variance": 0.25000144675088687,
            "std_deviation": 0.5000014467487938,
            "interval_size": 1,
            "jitter": 0.5000028935017737
          },
          "queueingTime": {
            "min": 1.0476e-05,
            "max": 1.2476e-05,
            "mean": 1.1474969907407407e-05,
            "median": 1.1476e-05,
            "variance": 4.988125825734014e-13,
            "std_deviation": 7.062666511831076e-07,
            "interval_size": 2.000000000000001e-06,
            "jitter": 1.0010300925925933e-06
          }
        }
      }
    },
    "s51": {
      "port_1": {
        "queue_7": {
          "queueLength": {
            "min": 0,
            "max": 1,
            "mean": 0.49999710649822626,
            "median": 0,
            "variance": 0.25000144675088687,
            "std_deviation": 0.5000014467487938,
            "interval_size": 1,
            "jitter": 0.5000028935017737
          },
          "queueingTime": {
            "min": 1.0476e-05,
            "max": 1.2476e-05,
            "mean": 1.147332638888889e-05,
            "median": 1.1476e-05,
            "variance": 5.010981885882173e-13,
            "std_deviation": 7.078828918600995e-07,
            "interval_size": 2.000000000000001e-06,
            "jitter": 1.002673611111111e-06
          }
        }
      }
    },
    "s50": {
      "port_1": {
        "queue_7": {
          "queueLength": {
            "min": 0,
            "max": 1,
            "mean": 0.49999710649822626,
            "median": 0,
            "variance": 0.25000144675088687,
            "std_deviation": 0.5000014467487938,
            "interval_size": 1,
            "jitter": 0.5000028935017737
          },
          "queueingTime": {
            "min": 1.0476e-05,
            "max": 1.2476e-05,
            "mean": 1.1476358796296296e-05,
            "median": 1.1476e-05,
            "variance": 5.000403809918503e-13,
            "std_deviation": 7.071353342832264e-07,
            "interval_size": 2.000000000000001e-06,
            "jitter": 1.000358796296297e-06
          }
        }
      }
    },
    "s53": {
      "port_1": {
        "queue_7": {
          "queueLength": {
            "min": 0,
            "max": 1,
            "mean": 0.49999710649822626,
            "median": 0,
            "variance": 0.25000144675088687,
            "std_deviation": 0.5000014467487938,
            "interval_size": 1,
            "jitter": 0.5000028935017737
          },
          "queueingTime": {
            "min": 1.0476e-05,
            "max": 1.2476e-05,
            "mean": 1.14800625e-05,
            "median": 1.1476e-05,
            "variance": 5.008573486093595e-13,
            "std_deviation": 7.077127585464031e-07,
            "interval_size": 2.000000000000001e-06,
            "jitter": 1.0040625000000002e-06
          }
        }
      }
    },
    "s5": {
      "port_1": {
        "queue_7": {
          "queueLength": {
            "min": 0,
            "max": 1,
            "mean": 0.49999710649822626,
            "median": 0,
            "variance": 0.25000144675088687,
            "std_deviation": 0.5000014467487938,
            "interval_size": 1,
            "jitter": 0.5000028935017737
          },
          "queueingTime": {
            "min": 1.0476e-05,
            "max": 1.2476e-05,
            "mean": 1.1478280092592592e-05,
            "median": 1.1476e-05,
            "variance": 4.984149217208452e-13,
            "std_deviation": 7.059850718824338e-07,
            "interval_size": 2.000000000000001e-06,
            "jitter": 1.0022800925925926e-06
          }
        }
      }
    },
    "s6": {
      "port_1": {
        "queue_7": {
          "queueLength": {
            "min": 0,
            "max": 1,
            "mean": 0.49999710649822626,
            "median": 0,
            "variance": 0.25000144675088687,
            "std_deviation": 0.5000014467487938,
            "interval_size": 1,
            "jitter": 0.5000028935017737
          },
          "queueingTime": {
            "min": 1.0476e-05,
            "max": 1.2476e-05,
            "mean": 1.1476902777777777e-05,
            "median": 1.1476e-05,
            "variance": 5.006068309046793e-13,
            "std_deviation": 7.075357453194003e-07,
            "interval_size": 2.000000000000001e-06,
            "jitter": 1.000902777777778e-06
          }
        }
      }
    },
    "s52": {
      "port_1": {
        "queue_7": {
          "queueLength": {
            "min": 0,
            "max": 1,
            "mean": 0.49999710649822626,
            "median": 0,
            "variance": 0.25000144675088687,
            "std_deviation": 0.5000014467487938,
            "interval_size": 1,
            "jitter": 0.5000028935017737
          },
          "queueingTime": {
            "min": 1.0476e-05,
            "max": 1.2476e-05,
            "mean": 1.1476821759259259e-05,
            "median": 1.1476e-05,
            "variance": 5.021000434622235e-13,
            "std_deviation": 7.085901801903718e-07,
            "interval_size": 2.000000000000001e-06,
            "jitter": 1.0008217592592595e-06
          }
        }
      }
    },
    "s55": {
      "port_1": {
        "queue_7": {
          "queueLength": {
            "min": 0,
            "max": 1,
            "mean": 0.49999710649822626,
            "median": 0,
            "variance": 0.25000144675088687,
            "std_deviation": 0.5000014467487938,
            "interval_size": 1,
            "jitter": 0.5000028935017737
          },
          "queueingTime": {
            "min": 1.0476e-05,
            "max": 1.2476e-05,
            "mean": 1.1475039351851851e-05,
            "median": 1.1476e-05,
            "variance": 5.013127497564064e-13,
            "std_deviation": 7.080344269570558e-07,
            "interval_size": 2.000000000000001e-06,
            "jitter": 1.0009606481481492e-06
          }
        }
      }
    },
    "s11": {
      "port_1": {
        "queue_7": {
          "queueLength": {
            "min": 0,
            "max": 1,
            "mean": 0.49999710649822626,
            "median": 0,
            "variance": 0.25000144675088687,
            "std_deviation": 0.5000014467487938,
            "interval_size": 1,
            "jitter": 0.5000028935017737
          },
          "queueingTime": {
            "min": 1.0476e-05,
            "max": 1.2476e-05,
            "mean": 1.1475282407407407e-05,
            "median": 1.1476e-05,
            "variance": 5.021349264373351e-13,
            "std_deviation": 7.086147941140766e-07,
            "interval_size": 2.000000000000001e-06,
            "jitter": 1.0007175925925934e-06
          }
        }
      }
    },
    "s7": {
      "port_1": {
        "queue_7": {
          "queueLength": {
            "min": 0,
            "max": 1,
            "mean": 0.49999710649822626,
            "median": 0,
            "variance": 0.25000144675088687,
            "std_deviation": 0.5000014467487938,
            "interval_size": 1,
            "jitter": 0.5000028935017737
          },
          "queueingTime": {
            "min": 1.0476e-05,
            "max": 1.2476e-05,
            "mean": 1.147418287037037e-05,
            "median": 1.1476e-05,
            "variance": 5.009168475404599e-13,
            "std_deviation": 7.077547933715884e-07,
            "interval_size": 2.000000000000001e-06,
            "jitter": 1.0018171296296302e-06
          }
        }
      }
    },
    "s10": {
      "port_1": {
        "queue_7": {
          "queueLength": {
            "min": 0,
            "max": 1,
            "mean": 0.49999710649822626,
            "median": 0,
            "variance": 0.25000144675088687,
            "std_deviation": 0.5000014467487938,
            "interval_size": 1,
            "jitter": 0.5000028935017737
          },
          "queueingTime": {
            "min": 1.0476e-05,
            "max": 1.2476e-05,
            "mean": 1.1473939814814815e-05,
            "median": 1.1476e-05,
            "variance": 5.018534159774661e-13,
            "std_deviation": 7.08416131929155e-07,
            "interval_size": 2.000000000000001e-06,
            "jitter": 1.002060185185186e-06
          }
        }
      }
    },
    "s8": {
      "port_1": {
        "queue_7": {
          "queueLength": {
            "min": 0,
            "max": 1,
            "mean": 0.49999710649822626,
            "median": 0,
            "variance": 0.25000144675088687,
            "std_deviation": 0.5000014467487938,
            "interval_size": 1,
            "jitter": 0.5000028935017737
          },
          "queueingTime": {
            "min": 1.0476e-05,
            "max": 1.2476e-05,
            "mean": 1.14800625e-05,
            "median": 1.1476e-05,
            "variance": 5.012740200986128e-13,
            "std_deviation": 7.080070763054652e-07,
            "interval_size": 2.000000000000001e-06,
            "jitter": 1.0040625000000002e-06
          }
        }
      }
    },
    "s54": {
      "port_1": {
        "queue_7": {
          "queueLength": {
            "min": 0,
            "max": 1,
            "mean": 0.49999710649822626,
            "median": 0,
            "variance": 0.25000144675088687,
            "std_deviation": 0.5000014467487938,
            "interval_size": 1,
            "jitter": 0.5000028935017737
          },
          "queueingTime": {
            "min": 1.0476e-05,
            "max": 1.2476e-05,
            "mean": 1.14738125e-05,
            "median": 1.1476e-05,
            "variance": 5.023968629555904e-13,
            "std_deviation": 7.087995929425965e-07,
            "interval_size": 2.000000000000001e-06,
            "jitter": 1.0021875000000012e-06
          }
        }
      }
    },
    "s13": {
      "port_1": {
        "queue_7": {
          "queueLength": {
            "min": 0,
            "max": 1,
            "mean": 0.49999710649822626,
            "median": 0,
            "variance": 0.25000144675088687,
            "std_deviation": 0.5000014467487938,
            "interval_size": 1,
            "jitter": 0.5000028935017737
          },
          "queueingTime": {
            "min": 1.0476e-05,
            "max": 1.2476e-05,
            "mean": 1.1478962962962963e-05,
            "median": 1.1476e-05,
            "variance": 4.977979083262715e-13,
            "std_deviation": 7.055479489916128e-07,
            "interval_size": 2.000000000000001e-06,
            "jitter": 1.0029629629629635e-06
          }
        }
      }
    },
    "s57": {
      "port_1": {
        "queue_7": {
          "queueLength": {
            "min": 0,
            "max": 1,
            "mean": 0.49999710649822626,
            "median": 0,
            "variance": 0.25000144675088687,
            "std_deviation": 0.5000014467487938,
            "interval_size": 1,
            "jitter": 0.5000028935017737
          },
          "queueingTime": {
            "min": 1.0476e-05,
            "max": 1.2476e-05,
            "mean": 1.1474715277777777e-05,
            "median": 1.1476e-05,
            "variance": 5.026777786297687e-13,
            "std_deviation": 7.089977282260985e-07,
            "interval_size": 2.000000000000001e-06,
            "jitter": 1.0012847222222237e-06
          }
        }
      }
    },
    "s1": {
      "port_1": {
        "queue_7": {
          "queueLength": {
            "min": 0,
            "max": 1,
            "mean": 0.49999710649822626,
            "median": 0,
            "variance": 0.25000144675088687,
            "std_deviation": 0.5000014467487938,
            "interval_size": 1,
            "jitter": 0.5000028935017737
          },
          "queueingTime": {
            "min": 1.0476e-05,
            "max": 1.2476e-05,
            "mean": 1.1477805555555555e-05,
            "median": 1.1476e-05,
            "variance": 4.985904736551741e-13,
            "std_deviation": 7.061093921306911e-07,
            "interval_size": 2.000000000000001e-06,
            "jitter": 1.0018055555555556e-06
          }
        }
      },
      "port_2": {
        "queue_7": {
          "queueLength": {
            "min": 0,
            "max": 1,
            "mean": 0.49999710649822626,
            "median": 0,
            "variance": 0.25000144675088687,
            "std_deviation": 0.5000014467487938,
            "interval_size": 1,
            "jitter": 0.5000028935017737
          },
          "queueingTime": {
            "min": 1.0476e-05,
            "max": 1.2476e-05,
            "mean": 1.1477828703703704e-05,
            "median": 1.1476e-05,
            "variance": 5.008357858865828e-13,
            "std_deviation": 7.076975242902739e-07,
            "interval_size": 2.000000000000001e-06,
            "jitter": 1.0018287037037047e-06
          }
        }
      }
    },
    "s12": {
      "port_1": {
        "queue_7": {
          "queueLength": {
            "min": 0,
            "max": 1,
            "mean": 0.49999710649822626,
            "median": 0,
            "variance": 0.25000144675088687,
            "std_deviation": 0.5000014467487938,
            "interval_size": 1,
            "jitter": 0.5000028935017737
          },
          "queueingTime": {
            "min": 1.0476e-05,
            "max": 1.2476e-05,
            "mean": 1.1475837962962963e-05,
            "median": 1.1476e-05,
            "variance": 5.025752350314418e-13,
            "std_deviation": 7.089254086513205e-07,
            "interval_size": 2.000000000000001e-06,
            "jitter": 1.0001620370370378e-06
          }
        }
      }
    },
    "s56": {
      "port_1": {
        "queue_7": {
          "queueLength": {
            "min": 0,
            "max": 1,
            "mean": 0.49999710649822626,
            "median": 0,
            "variance": 0.25000144675088687,
            "std_deviation": 0.5000014467487938,
            "interval_size": 1,
            "jitter": 0.5000028935017737
          },
          "queueingTime": {
            "min": 1.0476e-05,
            "max": 1.2476e-05,
            "mean": 1.1476810185185186e-05,
            "median": 1.1476e-05,
            "variance": 5.019033008140961e-13,
            "std_deviation": 7.084513397644866e-07,
            "interval_size": 2.000000000000001e-06,
            "jitter": 1.0008101851851866e-06
          }
        }
      }
    },
    "s2": {
      "port_1": {
        "queue_7": {
          "queueLength": {
            "min": 0,
            "max": 1,
            "mean": 0.49999710649822626,
            "median": 0,
            "variance": 0.25000144675088687,
            "std_deviation": 0.5000014467487938,
            "interval_size": 1,
            "jitter": 0.5000028935017737
          },
          "queueingTime": {
            "min": 1.0476e-05,
            "max": 1.2476e-05,
            "mean": 1.1476347222222222e-05,
            "median": 1.1476e-05,
            "variance": 5.016723524963643e-13,
            "std_deviation": 7.082883258224466e-07,
            "interval_size": 2.000000000000001e-06,
            "jitter": 1.0003472222222224e-06
          }
        }
      }
    },
    "s59": {
      "port_1": {
        "queue_7": {
          "queueLength": {
            "min": 0,
            "max": 1,
            "mean": 0.49999710649822626,
            "median": 0,
            "variance": 0.25000144675088687,
            "std_deviation": 0.5000014467487938,
            "interval_size": 1,
            "jitter": 0.5000028935017737
          },
          "queueingTime": {
            "min": 1.0476e-05,
            "max": 1.2476e-05,
            "mean": 1.147824537037037e-05,
            "median": 1.1476e-05,
            "variance": 4.976859037506013e-13,
            "std_deviation": 7.054685703492406e-07,
            "interval_size": 2.000000000000001e-06,
            "jitter": 1.0022453703703706e-06
          }
        }
      }
    },
    "s15": {
      "port_1": {
        "queue_7": {
          "queueLength": {
            "min": 0,
            "max": 1,
            "mean": 0.49999710649822626,
            "median": 0,
            "variance": 0.25000144675088687,
            "std_deviation": 0.5000014467487938,
            "interval_size": 1,
            "jitter": 0.5000028935017737
          },
          "queueingTime": {
            "min": 1.0476e-05,
            "max": 1.2476e-05,
            "mean": 1.147557175925926e-05,
            "median": 1.1476e-05,
            "variance": 4.989292023645256e-13,
            "std_deviation": 7.063492070955595e-07,
            "interval_size": 2.000000000000001e-06,
            "jitter": 1.000428240740741e-06
          }
        }
      }
    },
    "s3": {
      "port_1": {
        "queue_7": {
          "queueLength": {
            "min": 0,
            "max": 1,
            "mean": 0.49999710649822626,
            "median": 0,
            "variance": 0.25000144675088687,
            "std_deviation": 0.5000014467487938,
            "interval_size": 1,
            "jitter": 0.5000028935017737
          },
          "queueingTime": {
            "min": 1.0476e-05,
            "max": 1.2476e-05,
            "mean": 1.1476231481481481e-05,
            "median": 1.1476e-05,
            "variance": 5.009548185785764e-13,
            "std_deviation": 7.077816178586276e-07,
            "interval_size": 2.000000000000001e-06,
            "jitter": 1.0002314814814818e-06
          }
        }
      }
    },
    "s14": {
      "port_1": {
        "queue_7": {
          "queueLength": {
            "min": 0,
            "max": 1,
            "mean": 0.49999710649822626,
            "median": 0,
            "variance": 0.25000144675088687,
            "std_deviation": 0.5000014467487938,
            "interval_size": 1,
            "jitter": 0.5000028935017737
          },
          "queueingTime": {
            "min": 1.0476e-05,
            "max": 1.2476e-05,
            "mean": 1.1474148148148148e-05,
            "median": 1.1476e-05,
            "variance": 5.030116517980967e-13,
            "std_deviation": 7.092331434712402e-07,
            "interval_size": 2.000000000000001e-06,
            "jitter": 1.0018518518518522e-06
          }
        }
      }
    },
    "s58": {
      "port_1": {
        "queue_7": {
          "queueLength": {
            "min": 0,
            "max": 1,
            "mean": 0.49999710649822626,
            "median": 0,
            "variance": 0.25000144675088687,
            "std_deviation": 0.5000014467487938,
            "interval_size": 1,
            "jitter": 0.5000028935017737
          },
          "queueingTime": {
            "min": 1.0476e-05,
            "max": 1.2476e-05,
            "mean": 1.1476300925925925e-05,
            "median": 1.1476e-05,
            "variance": 5.002140322911837e-13,
            "std_deviation": 7.072581086782841e-07,
            "interval_size": 2.000000000000001e-06,
            "jitter": 1.0003009259259259e-06
          }
        }
      }
    },
    "s4": {
      "port_1": {
        "queue_7": {
          "queueLength": {
            "min": 0,
            "max": 1,
            "mean": 0.49999710649822626,
            "median": 0,
            "variance": 0.25000144675088687,
            "std_deviation": 0.5000014467487938,
            "interval_size": 1,
            "jitter": 0.5000028935017737
          },
          "queueingTime": {
            "min": 1.0476e-05,
            "max": 1.2476e-05,
            "mean": 1.1470756944444445e-05,
            "median": 1.1476e-05,
            "variance": 4.974666940107338e-13,
            "std_deviation": 7.053131885983231e-07,
            "interval_size": 2.000000000000001e-06,
            "jitter": 1.0052430555555555e-06
          }
        }
      }
    },
    "s17": {
      "port_1": {
        "queue_7": {
          "queueLength": {
            "min": 0,
            "max": 1,
            "mean": 0.49999710649822626,
            "median": 0,
            "variance": 0.25000144675088687,
            "std_deviation": 0.5000014467487938,
            "interval_size": 1,
            "jitter": 0.5000028935017737
          },
          "queueingTime": {
            "min": 1.0476e-05,
            "max": 1.2476e-05,
            "mean": 1.1477030092592593e-05,
            "median": 1.1476e-05,
            "variance": 5.005718621946933e-13,
            "std_deviation": 7.075110332671098e-07,
            "interval_size": 2.000000000000001e-06,
            "jitter": 1.0010300925925933e-06
          }
        }
      }
    },
    "s16": {
      "port_1": {
        "queue_7": {
          "queueLength": {
            "min": 0,
            "max": 1,
            "mean": 0.49999710649822626,
            "median": 0,
            "variance": 0.25000144675088687,
            "std_deviation": 0.5000014467487938,
            "interval_size": 1,
            "jitter": 0.5000028935017737
          },
          "queueingTime": {
            "min": 1.0476e-05,
            "max": 1.2476e-05,
            "mean": 1.1477770833333333e-05,
            "median": 1.1476e-05,
            "variance": 4.993429213590441e-13,
            "std_deviation": 7.06642003675867e-07,
            "interval_size": 2.000000000000001e-06,
            "jitter": 1.0017708333333336e-06
          }
        }
      }
    },
    "s19": {
      "port_1": {
        "queue_7": {
          "queueLength": {
            "min": 0,
            "max": 1,
            "mean": 0.49999710649822626,
            "median": 0,
            "variance": 0.25000144675088687,
            "std_deviation": 0.5000014467487938,
            "interval_size": 1,
            "jitter": 0.5000028935017737
          },
          "queueingTime": {
            "min": 1.0476e-05,
            "max": 1.2476e-05,
            "mean": 1.147281712962963e-05,
            "median": 1.1476e-05,
            "variance": 5.009563155898587e-13,
            "std_deviation": 7.077826753953919e-07,
            "interval_size": 2.000000000000001e-06,
            "jitter": 1.0031828703703701e-06
          }
        }
      }
    },
    "s18": {
      "port_1": {
        "queue_7": {
          "queueLength": {
            "min": 0,
            "max": 1,
            "mean": 0.49999710649822626,
            "median": 0,
            "variance": 0.25000144675088687,
            "std_deviation": 0.5000014467487938,
            "interval_size": 1,
            "jitter": 0.5000028935017737
          },
          "queueingTime": {
            "min": 1.0476e-05,
            "max": 1.2476e-05,
            "mean": 1.1474194444444445e-05,
            "median": 1.1476e-05,
            "variance": 5.015766193281564e-13,
            "std_deviation": 7.082207419499632e-07,
            "interval_size": 2.000000000000001e-06,
            "jitter": 1.0018055555555556e-06
          }
        }
      }
    }
  }
}