{
  "general": {
    "validation": {
      "valid": false,
      "errors": [
        "Host h2: No periodicity found in the streams received",
        "Stream 1---2---6001 (-> vid 1908): max latency (518.0000255239997) higher than allowed (0.01)",
        "Stream 1---2---6000 (-> vid 1907): max latency (557.0000405239989) higher than allowed (0.01)"
      ]
    }
  },
  "sim_parameters": {
    "**.displayAddresses": "false",
    "**.verbose": "false",
    "**.promiscuous": "true",
    "**.registerProtocol": "true",
    "**.*.clock.clockRate": "\"1us\"",
    "**.h1.eth.address": "\"12:23:34:45:56:67\"",
    "**.h2.eth.address": "\"aa:bb:cc:dd:ee:aa\"",
    "**.*.processingDelay[*].delay": "5us",
    "**.filteringDatabase.database": "xmldoc(\"xml/routing.xml\", \"/filteringDatabases/\")",
    "**.filteringDatabase.cycle": "xmldoc(\"xml/tas.xml\", \"/schedule/\")",
    "**.gateController.initialSchedule": "xmldoc(\"xml/tas.xml\")",
    "**.gateController.enableHoldAndRelease": "false",
    "**.*.eth[*].queuing.tsAlgorithms[*].typename": "\"StrictPriority\"",
    "**.s11.eth[1].queuing.queuingFrames.tciToQueueMapping": "xmldoc(\"xml/tci-maps/tci-map-s11-1.xml\")",
    "**.s22.eth[2].queuing.queuingFrames.tciToQueueMapping": "xmldoc(\"xml/tci-maps/tci-map-s22-2.xml\")",
    "**.s11.eth[2].queuing.queuingFrames.tciToQueueMapping": "xmldoc(\"xml/tci-maps/tci-map-s11-2.xml\")",
    "**.s21.eth[1].queuing.queuingFrames.tciToQueueMapping": "xmldoc(\"xml/tci-maps/tci-map-s21-1.xml\")",
    "**.s12.eth[1].queuing.queuingFrames.tciToQueueMapping": "xmldoc(\"xml/tci-maps/tci-map-s12-1.xml\")",
    "**.*.eth[*].queuing.queues[*].bufferCapacity": "365280b",
    "**.*.eth[*].queuing.queues[*].expressQueue": "true",
    "**.*.eth[*].mac.enablePreemptingFrames": "false",
    "**.*.trafGenSchedApp.jitter": "0.000008",
    "**.*.eth[*].queuing.gateController.jitter": "0.000008",
    "**.*.trafGenSchedApp.initialSchedule": "xmldoc(\"xml/traf-gen.xml\")"
  },
  "streams": {
    "1908": {
      "latency_stats": {
        "min": 5.000028524,
        "max": 518.0000255239997,
        "mean": 336.129795786397,
        "median": 328.00002652400144,
        "variance": 3771.669233212144,
        "std_deviation": 61.4139172599513,
        "interval_size": 512.9999969999998,
        "jitter": 331.12976726239697,
        "packages_received": 15890
      },
      "udp_dest_port": 6001,
      "name": "1---2---6001",
      "max_allowed_latency": 10000000,
      "talker": "h1",
      "listener": "h2"
    },
    "1907": {
      "latency_stats": {
        "min": 7.000038048,
        "max": 557.0000405239989,
        "mean": 340.83493405938646,
        "median": 333.0000380479978,
        "variance": 4335.484681516399,
        "std_deviation": 65.84439749527972,
        "interval_size": 550.0000024759989,
        "jitter": 333.83489601138643,
        "packages_received": 15911
      },
      "udp_dest_port": 6000,
      "name": "1---2---6000",
      "max_allowed_latency": 10000000,
      "talker": "h1",
      "listener": "h2"
    }
  },
  "hosts": {
    "h2": {
      "received_periodically": {
        "is_periodic": false,
        "max-period-length": 250,
        "skipped": "first 0s"
      }
    }
  },
  "switches": {
    "s12": {
      "port_1": {
        "queue_7": {
          "queueLength": {
            "min": 0,
            "max": 44,
            "mean": 18.411729746637473,
            "median": 16.0,
            "variance": 145.50756674731807,
            "std_deviation": 12.062651729504507,
            "interval_size": 44,
            "jitter": 25.588270253362527
          },
          "queueingTime": {
            "min": 0.999995476,
            "max": 309.999997476,
            "mean": 98.62378501734676,
            "median": 88.999995476,
            "variance": 4237.040531419022,
            "std_deviation": 65.09255357887737,
            "interval_size": 309.000002,
            "jitter": 211.3762124586532
          }
        }
      }
    },
    "s22": {
      "port_2": {
        "queue_7": {
          "queueLength": {
            "min": 0,
            "max": 3,
            "mean": 0.5653978585915759,
            "median": 1,
            "variance": 0.3135864848147596,
            "std_deviation": 0.5599879327403043,
            "interval_size": 3,
            "jitter": 2.434602141408424
          },
          "queueingTime": {
            "min": 0.0,
            "max": 2.999991476,
            "mean": 0.568499723602654,
            "median": 0.999986476,
            "variance": 0.26122163640067564,
            "std_deviation": 0.5110984605735724,
            "interval_size": 2.999991476,
            "jitter": 2.431491752397346
          }
        }
      }
    },
    "s11": {
      "port_1": {
        "queue_7": {
          "queueLength": {
            "min": 0,
            "max": 44,
            "mean": 43.82912763466042,
            "median": 44.0,
            "variance": 0.5414265753036099,
            "std_deviation": 0.7358169441536461,
            "interval_size": 44,
            "jitter": 43.82912763466042
          },
          "queueingTime": {
            "min": 1.999993476,
            "max": 387.999992476,
            "mean": 236.0366240393037,
            "median": 233.999989476,
            "variance": 1181.0716141272037,
            "std_deviation": 34.366722481598444,
            "interval_size": 385.999999,
            "jitter": 234.0366305633037
          }
        }
      },
      "port_2": {
        "queue_7": {
          "queueLength": {
            "min": 0,
            "max": 44,
            "mean": 43.82751930426644,
            "median": 44.0,
            "variance": 0.5747817915292204,
            "std_deviation": 0.7581436483472116,
            "interval_size": 44,
            "jitter": 43.82751930426644
          },
          "queueingTime": {
            "min": 4.999993476,
            "max": 364.999992476,
            "mean": 234.76179186395075,
            "median": 232.999993476,
            "variance": 1169.8849259740834,
            "std_deviation": 34.203580601657535,
            "interval_size": 359.999999,
            "jitter": 229.76179838795076
          }
        }
      }
    },
    "s21": {
      "port_1": {
        "queue_7": {
          "queueLength": {
            "min": 0,
            "max": 44,
            "mean": 19.628542036846536,
            "median": 18,
            "variance": 164.68214062320166,
            "std_deviation": 12.832853954721127,
            "interval_size": 44,
            "jitter": 24.371457963153464
          },
          "queueingTime": {
            "min": 0.999995476,
            "max": 347.999997476,
            "mean": 105.41266695937628,
            "median": 93.999997476,
            "variance": 4901.524223867692,
            "std_deviation": 70.0108864668038,
            "interval_size": 347.000002,
            "jitter": 242.5873305166237
          }
        }
      }
    }
  }
}