{
  "general": {
    "validation": {
      "valid": true,
      "errors": []
    }
  },
  "sim_parameters": {
    "**.displayAddresses": "false",
    "**.verbose": "false",
    "**.promiscuous": "true",
    "**.registerProtocol": "true",
    "**.*.clock.clockRate": "\"1us\"",
    "**.h1.eth.address": "\"12:23:34:45:56:67\"",
    "**.h3.eth.address": "\"aa:aa:aa:aa:aa:bb\"",
    "**.h2.eth.address": "\"aa:bb:cc:dd:ee:aa\"",
    "**.*.processingDelay[*].delay": "5us",
    "**.filteringDatabase.database": "xmldoc(\"xml/routing.xml\", \"/filteringDatabases/\")",
    "**.filteringDatabase.cycle": "xmldoc(\"xml/tas.xml\", \"/schedule/\")",
    "**.gateController.initialSchedule": "xmldoc(\"xml/tas.xml\")",
    "**.gateController.enableHoldAndRelease": "false",
    "**.*.eth[*].queuing.tsAlgorithms[*].typename": "\"StrictPriority\"",
    "**.s5.eth[1].queuing.queuingFrames.tciToQueueMapping": "xmldoc(\"xml/tci-maps/tci-map-s5-1.xml\")",
    "**.s3.eth[2].queuing.queuingFrames.tciToQueueMapping": "xmldoc(\"xml/tci-maps/tci-map-s3-2.xml\")",
    "**.s2.eth[1].queuing.queuingFrames.tciToQueueMapping": "xmldoc(\"xml/tci-maps/tci-map-s2-1.xml\")",
    "**.s7.eth[0].queuing.queuingFrames.tciToQueueMapping": "xmldoc(\"xml/tci-maps/tci-map-s7-0.xml\")",
    "**.s4.eth[2].queuing.queuingFrames.tciToQueueMapping": "xmldoc(\"xml/tci-maps/tci-map-s4-2.xml\")",
    "**.s1.eth[1].queuing.queuingFrames.tciToQueueMapping": "xmldoc(\"xml/tci-maps/tci-map-s1-1.xml\")",
    "**.s6.eth[1].queuing.queuingFrames.tciToQueueMapping": "xmldoc(\"xml/tci-maps/tci-map-s6-1.xml\")",
    "**.s4.eth[1].queuing.queuingFrames.tciToQueueMapping": "xmldoc(\"xml/tci-maps/tci-map-s4-1.xml\")",
    "**.*.eth[*].queuing.queues[*].bufferCapacity": "365280b",
    "**.*.eth[*].queuing.queues[*].expressQueue": "true",
    "**.*.eth[*].mac.enablePreemptingFrames": "false",
    "**.*.trafGenSchedApp.jitter": "0.000015",
    "**.*.eth[*].queuing.gateController.jitter": "0.000015",
    "**.*.trafGenSchedApp.initialSchedule": "xmldoc(\"xml/traf-gen.xml\")"
  },
  "streams": {
    "1907": {
      "latency_stats": {
        "min": 0.00024352399850613438,
        "max": 0.00027352400138624944,
        "mean": 0.0002584968124415927,
        "median": 0.0002585239999461919,
        "variance": 3.7616650543760236e-11,
        "std_deviation": 6.133241438567394e-06,
        "interval_size": 3.0000002880115062e-05,
        "jitter": 1.5027188944656718e-05,
        "packages_received": 86400
      },
      "udp_dest_port": 6000,
      "name": "1---2---6000",
      "max_allowed_latency": 10000000,
      "talker": "h1",
      "listener": "h3"
    },
    "1908": {
      "latency_stats": {
        "min": 0.00025704799918457866,
        "max": 0.0002870480020646937,
        "mean": 0.00027279680307812224,
        "median": 0.00027304799732519314,
        "variance": 3.378258531055541e-11,
        "std_deviation": 5.812278839711272e-06,
        "interval_size": 3.0000002880115062e-05,
        "jitter": 1.5748803893543583e-05,
        "packages_received": 86400
      },
      "udp_dest_port": 6001,
      "name": "1---2---6001",
      "max_allowed_latency": 10000000,
      "talker": "h2",
      "listener": "h3"
    }
  },
  "hosts": {
    "h3": {
      "received_periodically": {
        "is_periodic": true,
        "max-period-length": 250,
        "period": [
          1907,
          1908
        ],
        "period_length": 2,
        "skipped": "first 0s"
      }
    }
  },
  "switches": {
    "s5": {
      "port_1": {
        "queue_7": {
          "queueLength": {
            "min": 0,
            "max": 1,
            "mean": 0.49999710649822626,
            "median": 0,
            "variance": 0.25000144675088687,
            "std_deviation": 0.5000014467487938,
            "interval_size": 1,
            "jitter": 0.5000028935017737
          },
          "queueingTime": {
            "min": 2.1476e-05,
            "max": 5.1476e-05,
            "mean": 3.646793287037037e-05,
            "median": 3.6476e-05,
            "variance": 3.773295266392722e-11,
            "std_deviation": 6.142715414531852e-06,
            "interval_size": 3e-05,
            "jitter": 1.500806712962963e-05
          }
        }
      }
    },
    "s6": {
      "port_1": {
        "queue_7": {
          "queueLength": {
            "min": 0,
            "max": 1,
            "mean": 0.49999710649822626,
            "median": 0,
            "variance": 0.25000144675088687,
            "std_deviation": 0.5000014467487938,
            "interval_size": 1,
            "jitter": 0.5000028935017737
          },
          "queueingTime": {
            "min": 2.1476e-05,
            "max": 5.1476e-05,
            "mean": 3.649551388888889e-05,
            "median": 3.6476e-05,
            "variance": 3.801031377195723e-11,
            "std_deviation": 6.165250503585173e-06,
            "interval_size": 3e-05,
            "jitter": 1.501951388888889e-05
          }
        }
      }
    },
    "s7": {
      "port_0": {
        "queue_7": {
          "queueLength": {
            "min": 0,
            "max": 2,
            "mean": 0.5029557206142343,
            "median": 1,
            "variance": 0.2529491629959275,
            "std_deviation": 0.5029405163594672,
            "interval_size": 2,
            "jitter": 1.4970442793857657
          },
          "queueingTime": {
            "min": 0.0,
            "max": 5.1476e-05,
            "mean": 1.8591915486111112e-05,
            "median": 1.5736e-05,
            "variance": 3.3918127312494725e-10,
            "std_deviation": 1.8416874683967072e-05,
            "interval_size": 5.1476e-05,
            "jitter": 3.288408451388889e-05
          }
        }
      }
    },
    "s1": {
      "port_1": {
        "queue_7": {
          "queueLength": {
            "min": 0,
            "max": 1,
            "mean": 0.49999710649822626,
            "median": 0,
            "variance": 0.25000144675088687,
            "std_deviation": 0.5000014467487938,
            "interval_size": 1,
            "jitter": 0.5000028935017737
          },
          "queueingTime": {
            "min": 2.1476e-05,
            "max": 5.1476e-05,
            "mean": 3.645924074074074e-05,
            "median": 3.6476e-05,
            "variance": 3.801335354104321e-11,
            "std_deviation": 6.16549702303417e-06,
            "interval_size": 3e-05,
            "jitter": 1.5016759259259258e-05
          }
        }
      }
    },
    "s2": {
      "port_1": {
        "queue_7": {
          "queueLength": {
            "min": 0,
            "max": 1,
            "mean": 0.49999710649822626,
            "median": 0,
            "variance": 0.25000144675088687,
            "std_deviation": 0.5000014467487938,
            "interval_size": 1,
            "jitter": 0.5000028935017737
          },
          "queueingTime": {
            "min": 2.1476e-05,
            "max": 5.1476e-05,
            "mean": 3.646554861111111e-05,
            "median": 3.6476e-05,
            "variance": 3.8097403469899343e-11,
            "std_deviation": 6.172309411387228e-06,
            "interval_size": 3e-05,
            "jitter": 1.5010451388888886e-05
          }
        }
      }
    },
    "s3": {
      "port_2": {
        "queue_7": {
          "queueLength": {
            "min": 0,
            "max": 2,
            "mean": 0.999997106489854,
            "median": 1,
            "variance": 0.5000028935101462,
            "std_deviation": 0.7071088272042332,
            "interval_size": 2,
            "jitter": 1.0000028935101462
          },
          "queueingTime": {
            "min": 2.1476e-05,
            "max": 5.9996e-05,
            "mean": 4.073480787037037e-05,
            "median": 4.0476e-05,
            "variance": 3.462896888535985e-11,
            "std_deviation": 5.884638381868494e-06,
            "interval_size": 3.8520000000000004e-05,
            "jitter": 1.9261192129629627e-05
          }
        }
      }
    },
    "s4": {
      "port_1": {
        "queue_7": {
          "queueLength": {
            "min": 0,
            "max": 1,
            "mean": 0.49999710649822626,
            "median": 0,
            "variance": 0.25000144675088687,
            "std_deviation": 0.5000014467487938,
            "interval_size": 1,
            "jitter": 0.5000028935017737
          },
          "queueingTime": {
            "min": 1.2956e-05,
            "max": 5.1476e-05,
            "mean": 3.251723055555556e-05,
            "median": 3.2476e-05,
            "variance": 5.5871776260921226e-11,
            "std_deviation": 7.4747425548256324e-06,
            "interval_size": 3.8520000000000004e-05,
            "jitter": 1.9561230555555558e-05
          }
        }
      },
      "port_2": {
        "queue_7": {
          "queueLength": {
            "min": 0,
            "max": 1,
            "mean": 0.49999710649822626,
            "median": 0,
            "variance": 0.25000144675088687,
            "std_deviation": 0.5000014467487938,
            "interval_size": 1,
            "jitter": 0.5000028935017737
          },
          "queueingTime": {
            "min": 6.2956e-05,
            "max": 0.000101476,
            "mean": 8.194670231481482e-05,
            "median": 8.1956e-05,
            "variance": 5.6052764552639925e-11,
            "std_deviation": 7.486839423457667e-06,
            "interval_size": 3.8520000000000004e-05,
            "jitter": 1.9529297685185186e-05
          }
        }
      }
    }
  }
}