{
  "s22": [
    {
      "queue": 7,
      "port": 2,
      "vid": 1908
    },
    {
      "queue": 7,
      "port": 2,
      "vid": 1907
    }
  ],
  "s11": [
    {
      "queue": 7,
      "port": 2,
      "vid": 1907
    },
    {
      "queue": 7,
      "port": 1,
      "vid": 1908
    }
  ],
  "s12": [
    {
      "queue": 7,
      "port": 1,
      "vid": 1908
    }
  ],
  "s21": [
    {
      "queue": 7,
      "port": 1,
      "vid": 1907
    }
  ]
}