{
  "doc": [
    "           s21",
    "         //   \\",
    "h1 == s11       s22 == h2",
    "         \\   //",
    "           s12"
  ],
  "config": {
    "odl_host": "192.168.33.1",
    "___odl_host": "localhost",
    "odl_port": 6633,
    "mininet_host": "vagrant@192.168.33.3",
    "___mininet_host": "localhost"
  },
  "topology": {
    "hosts": {
      "h1": "12:23:34:45:56:67",
      "h2": "aa:bb:cc:dd:ee:aa"
    },
    "switches": [
      "s11",
      "s22",
      "s12",
      "s21"
    ],
    "links": [
      [
        "h1",
        "s11"
      ],
      [
        "s11",
        "s12"
      ],
      [
        "s11",
        "s21"
      ],
      [
        "s22",
        "s12"
      ],
      [
        "s22",
        "s21"
      ],
      [
        "s22",
        "h2"
      ]
    ]
  },
  "streams": [
    {
      "dest_port": 6000,
      "source_port": 7000,
      "sender": "h1",
      "receivers": [
        "h2"
      ],
      "traffic": {
        "time_offset": 0,
        "time_interarrival": 1000000000,
        "framesize": 1024
      },
      "max_latency": 10000000,
      "name": "1---2---6000"
    },
    {
      "dest_port": 6001,
      "source_port": 7001,
      "sender": "h1",
      "receivers": [
        "h2"
      ],
      "traffic": {
        "time_offset": 0,
        "time_interarrival": 1000000000,
        "framesize": 1024
      },
      "max_latency": 10000000,
      "name": "1---2---6001"
    }
  ]
}
