{
  "s3": [
    {
      "queue": 7,
      "port": 0,
      "vid": 1907
    },
    {
      "queue": 7,
      "port": 0,
      "vid": 1908
    }
  ],
  "s2": [
    {
      "queue": 7,
      "port": 1,
      "vid": 1908
    }
  ],
  "s1": [
    {
      "queue": 7,
      "port": 1,
      "vid": 1907
    }
  ]
}