{
  "general": {
    "validation": {
      "valid": true,
      "errors": []
    }
  },
  "sim_parameters": {
    "**.displayAddresses": "false",
    "**.verbose": "false",
    "**.promiscuous": "true",
    "**.registerProtocol": "true",
    "**.*.clock.clockRate": "\"1us\"",
    "**.h1.eth.address": "\"12:23:34:45:56:67\"",
    "**.h3.eth.address": "\"aa:aa:aa:aa:aa:bb\"",
    "**.h2.eth.address": "\"aa:bb:cc:dd:ee:aa\"",
    "**.*.processingDelay[*].delay": "5us",
    "**.filteringDatabase.database": "xmldoc(\"xml/routing.xml\", \"/filteringDatabases/\")",
    "**.filteringDatabase.cycle": "xmldoc(\"xml/tas.xml\", \"/schedule/\")",
    "**.gateController.initialSchedule": "xmldoc(\"xml/tas.xml\")",
    "**.gateController.enableHoldAndRelease": "false",
    "**.*.eth[*].queuing.tsAlgorithms[*].typename": "\"StrictPriority\"",
    "**.s5.eth[1].queuing.queuingFrames.tciToQueueMapping": "xmldoc(\"xml/tci-maps/tci-map-s5-1.xml\")",
    "**.s3.eth[2].queuing.queuingFrames.tciToQueueMapping": "xmldoc(\"xml/tci-maps/tci-map-s3-2.xml\")",
    "**.s2.eth[1].queuing.queuingFrames.tciToQueueMapping": "xmldoc(\"xml/tci-maps/tci-map-s2-1.xml\")",
    "**.s7.eth[0].queuing.queuingFrames.tciToQueueMapping": "xmldoc(\"xml/tci-maps/tci-map-s7-0.xml\")",
    "**.s4.eth[2].queuing.queuingFrames.tciToQueueMapping": "xmldoc(\"xml/tci-maps/tci-map-s4-2.xml\")",
    "**.s1.eth[1].queuing.queuingFrames.tciToQueueMapping": "xmldoc(\"xml/tci-maps/tci-map-s1-1.xml\")",
    "**.s6.eth[1].queuing.queuingFrames.tciToQueueMapping": "xmldoc(\"xml/tci-maps/tci-map-s6-1.xml\")",
    "**.s4.eth[1].queuing.queuingFrames.tciToQueueMapping": "xmldoc(\"xml/tci-maps/tci-map-s4-1.xml\")",
    "**.*.eth[*].queuing.queues[*].bufferCapacity": "365280b",
    "**.*.eth[*].queuing.queues[*].expressQueue": "true",
    "**.*.eth[*].mac.enablePreemptingFrames": "false",
    "**.*.trafGenSchedApp.jitter": "0.000016",
    "**.*.eth[*].queuing.gateController.jitter": "0.000016",
    "**.*.trafGenSchedApp.initialSchedule": "xmldoc(\"xml/traf-gen.xml\")"
  },
  "streams": {
    "1907": {
      "latency_stats": {
        "min": 0.0001175239885924384,
        "max": 0.0001495240003350773,
        "mean": 0.0001335488548496266,
        "median": 0.0001335240012849681,
        "variance": 4.218094657758216e-11,
        "std_deviation": 6.494686026097193e-06,
        "interval_size": 3.200001174263889e-05,
        "jitter": 1.6024866257188195e-05,
        "packages_received": 86400
      },
      "udp_dest_port": 6000,
      "name": "1---2---6000",
      "max_allowed_latency": 10000000,
      "talker": "h1",
      "listener": "h3"
    },
    "1908": {
      "latency_stats": {
        "min": 0.0001310479965468403,
        "max": 0.00016304800010402687,
        "mean": 0.0001479588647069493,
        "median": 0.00014804799866396934,
        "variance": 3.753905340495386e-11,
        "std_deviation": 6.126912224355255e-06,
        "interval_size": 3.2000003557186574e-05,
        "jitter": 1.6910868160109014e-05,
        "packages_received": 86400
      },
      "udp_dest_port": 6001,
      "name": "1---2---6001",
      "max_allowed_latency": 10000000,
      "talker": "h2",
      "listener": "h3"
    }
  },
  "hosts": {
    "h3": {
      "received_periodically": {
        "is_periodic": true,
        "max-period-length": 250,
        "period": [
          1907,
          1908
        ],
        "period_length": 2,
        "skipped": "first 0s"
      }
    }
  },
  "switches": {
    "s5": {
      "port_1": {
        "queue_7": {
          "queueLength": {
            "min": 0,
            "max": 1,
            "mean": 0.49999710649822626,
            "median": 0,
            "variance": 0.25000144675088687,
            "std_deviation": 0.5000014467487938,
            "interval_size": 1,
            "jitter": 0.5000028935017737
          },
          "queueingTime": {
            "min": 0.0,
            "max": 2.7476e-05,
            "mean": 1.156032875e-05,
            "median": 1.1476e-05,
            "variance": 4.162213991465393e-11,
            "std_deviation": 6.4515222943623105e-06,
            "interval_size": 2.7476e-05,
            "jitter": 1.591567125e-05
          }
        }
      }
    },
    "s6": {
      "port_1": {
        "queue_7": {
          "queueLength": {
            "min": 0,
            "max": 1,
            "mean": 0.49999710649822626,
            "median": 0,
            "variance": 0.25000144675088687,
            "std_deviation": 0.5000014467487938,
            "interval_size": 1,
            "jitter": 0.5000028935017737
          },
          "queueingTime": {
            "min": 0.0,
            "max": 2.7476e-05,
            "mean": 1.081928425925926e-05,
            "median": 1.0476e-05,
            "variance": 3.834078830646874e-11,
            "std_deviation": 6.191993887793232e-06,
            "interval_size": 2.7476e-05,
            "jitter": 1.665671574074074e-05
          }
        }
      }
    },
    "s7": {
      "port_0": {
        "queue_7": {
          "queueLength": {
            "min": 0,
            "max": 2,
            "mean": 0.50529946383257,
            "median": 1,
            "variance": 0.25527356490738035,
            "std_deviation": 0.50524604393046,
            "interval_size": 2,
            "jitter": 1.49470053616743
          },
          "queueingTime": {
            "min": 0.0,
            "max": 2.7476e-05,
            "mean": 6.134239398148148e-06,
            "median": 2.996e-06,
            "variance": 5.032820886519353e-11,
            "std_deviation": 7.094237722630497e-06,
            "interval_size": 2.7476e-05,
            "jitter": 2.134176060185185e-05
          }
        }
      }
    },
    "s1": {
      "port_1": {
        "queue_7": {
          "queueLength": {
            "min": 0,
            "max": 1,
            "mean": 0.49999710649822626,
            "median": 0,
            "variance": 0.25000144675088687,
            "std_deviation": 0.5000014467487938,
            "interval_size": 1,
            "jitter": 0.5000028935017737
          },
          "queueingTime": {
            "min": 0.0,
            "max": 2.7476e-05,
            "mean": 1.151639037037037e-05,
            "median": 1.1476e-05,
            "variance": 4.122376835455952e-11,
            "std_deviation": 6.4205738337441085e-06,
            "interval_size": 2.7476e-05,
            "jitter": 1.595960962962963e-05
          }
        }
      }
    },
    "s2": {
      "port_1": {
        "queue_7": {
          "queueLength": {
            "min": 0,
            "max": 1,
            "mean": 0.49999710649822626,
            "median": 0,
            "variance": 0.25000144675088687,
            "std_deviation": 0.5000014467487938,
            "interval_size": 1,
            "jitter": 0.5000028935017737
          },
          "queueingTime": {
            "min": 0.0,
            "max": 2.7476e-05,
            "mean": 1.153781486111111e-05,
            "median": 1.1476e-05,
            "variance": 4.157235171979442e-11,
            "std_deviation": 6.447662500456613e-06,
            "interval_size": 2.7476e-05,
            "jitter": 1.593818513888889e-05
          }
        }
      }
    },
    "s3": {
      "port_2": {
        "queue_7": {
          "queueLength": {
            "min": 0,
            "max": 2,
            "mean": 0.9648293841742356,
            "median": 1,
            "variance": 0.49876591772175305,
            "std_deviation": 0.7062336141261991,
            "interval_size": 2,
            "jitter": 1.0351706158257645
          },
          "queueingTime": {
            "min": 0.0,
            "max": 3.5996e-05,
            "mean": 1.567982863425926e-05,
            "median": 1.5476e-05,
            "variance": 3.776438252645859e-11,
            "std_deviation": 6.145273185665434e-06,
            "interval_size": 3.5996e-05,
            "jitter": 2.031617136574074e-05
          }
        }
      }
    },
    "s4": {
      "port_1": {
        "queue_7": {
          "queueLength": {
            "min": 0,
            "max": 1,
            "mean": 0.49999710649822626,
            "median": 0,
            "variance": 0.25000144675088687,
            "std_deviation": 0.5000014467487938,
            "interval_size": 1,
            "jitter": 0.5000028935017737
          },
          "queueingTime": {
            "min": 1.1956e-05,
            "max": 5.2476e-05,
            "mean": 3.197737685185185e-05,
            "median": 3.1956e-05,
            "variance": 6.11500080164088e-11,
            "std_deviation": 7.819847058377088e-06,
            "interval_size": 4.052e-05,
            "jitter": 2.0498623148148146e-05
          }
        }
      },
      "port_2": {
        "queue_7": {
          "queueLength": {
            "min": 0,
            "max": 1,
            "mean": 0.49999710649822626,
            "median": 0,
            "variance": 0.25000144675088687,
            "std_deviation": 0.5000014467487938,
            "interval_size": 1,
            "jitter": 0.5000028935017737
          },
          "queueingTime": {
            "min": 0.0,
            "max": 2.7476e-05,
            "mean": 8.180388055555555e-06,
            "median": 7.476e-06,
            "variance": 4.514641775813694e-11,
            "std_deviation": 6.71910840499965e-06,
            "interval_size": 2.7476e-05,
            "jitter": 1.9295611944444442e-05
          }
        }
      }
    }
  }
}