{
  "general": {
    "validation": {
      "valid": false,
      "errors": [
        "Host h3: No periodicity found in the streams received",
        "Stream 1---2---6000 (-> vid 1907): max latency (145.00010952400044) higher than allowed (0.01)",
        "Stream 1---2---6001 (-> vid 1908): max latency (151.00011804800306) higher than allowed (0.01)"
      ]
    }
  },
  "sim_parameters": {
    "**.displayAddresses": "false",
    "**.verbose": "false",
    "**.promiscuous": "true",
    "**.registerProtocol": "true",
    "**.*.clock.clockRate": "\"1us\"",
    "**.h1.eth.address": "\"12:23:34:45:56:67\"",
    "**.h3.eth.address": "\"aa:aa:aa:aa:aa:bb\"",
    "**.h2.eth.address": "\"aa:bb:cc:dd:ee:aa\"",
    "**.*.processingDelay[*].delay": "5us",
    "**.filteringDatabase.database": "xmldoc(\"xml/routing.xml\", \"/filteringDatabases/\")",
    "**.filteringDatabase.cycle": "xmldoc(\"xml/tas.xml\", \"/schedule/\")",
    "**.gateController.initialSchedule": "xmldoc(\"xml/tas.xml\")",
    "**.gateController.enableHoldAndRelease": "false",
    "**.*.eth[*].queuing.tsAlgorithms[*].typename": "\"StrictPriority\"",
    "**.s5.eth[1].queuing.queuingFrames.tciToQueueMapping": "xmldoc(\"xml/tci-maps/tci-map-s5-1.xml\")",
    "**.s3.eth[2].queuing.queuingFrames.tciToQueueMapping": "xmldoc(\"xml/tci-maps/tci-map-s3-2.xml\")",
    "**.s2.eth[1].queuing.queuingFrames.tciToQueueMapping": "xmldoc(\"xml/tci-maps/tci-map-s2-1.xml\")",
    "**.s7.eth[0].queuing.queuingFrames.tciToQueueMapping": "xmldoc(\"xml/tci-maps/tci-map-s7-0.xml\")",
    "**.s4.eth[2].queuing.queuingFrames.tciToQueueMapping": "xmldoc(\"xml/tci-maps/tci-map-s4-2.xml\")",
    "**.s1.eth[1].queuing.queuingFrames.tciToQueueMapping": "xmldoc(\"xml/tci-maps/tci-map-s1-1.xml\")",
    "**.s6.eth[1].queuing.queuingFrames.tciToQueueMapping": "xmldoc(\"xml/tci-maps/tci-map-s6-1.xml\")",
    "**.s4.eth[1].queuing.queuingFrames.tciToQueueMapping": "xmldoc(\"xml/tci-maps/tci-map-s4-1.xml\")",
    "**.*.eth[*].queuing.queues[*].bufferCapacity": "365280b",
    "**.*.eth[*].queuing.queues[*].expressQueue": "true",
    "**.*.eth[*].mac.enablePreemptingFrames": "false",
    "**.*.trafGenSchedApp.jitter": "0.000017",
    "**.*.eth[*].queuing.gateController.jitter": "0.000017",
    "**.*.trafGenSchedApp.initialSchedule": "xmldoc(\"xml/traf-gen.xml\")"
  },
  "streams": {
    "1907": {
      "latency_stats": {
        "min": 0.00010552399999999999,
        "max": 145.00010952400044,
        "mean": 94.58075560492054,
        "median": 95.00011152400111,
        "variance": 282.2198001771085,
        "std_deviation": 16.799398804037853,
        "interval_size": 145.00000400000044,
        "jitter": 94.58065008092053,
        "packages_received": 74698
      },
      "udp_dest_port": 6000,
      "name": "1---2---6000",
      "max_allowed_latency": 10000000,
      "talker": "h1",
      "listener": "h3"
    },
    "1908": {
      "latency_stats": {
        "min": 0.000124048,
        "max": 151.00011804800306,
        "mean": 94.15525465287823,
        "median": 95.0001230479993,
        "variance": 310.41406655010087,
        "std_deviation": 17.618571637624342,
        "interval_size": 150.99999400000306,
        "jitter": 94.15513060487822,
        "packages_received": 74729
      },
      "udp_dest_port": 6001,
      "name": "1---2---6001",
      "max_allowed_latency": 10000000,
      "talker": "h2",
      "listener": "h3"
    }
  },
  "hosts": {
    "h3": {
      "received_periodically": {
        "is_periodic": false,
        "max-period-length": 250,
        "skipped": "first 0s"
      }
    }
  },
  "switches": {
    "s5": {
      "port_1": {
        "queue_7": {
          "queueLength": {
            "min": 0,
            "max": 44,
            "mean": 19.374299071644533,
            "median": 18.0,
            "variance": 157.87245945894824,
            "std_deviation": 12.564730775426437,
            "interval_size": 44,
            "jitter": 24.625700928355467
          },
          "queueingTime": {
            "min": 0.0,
            "max": 67.999998956,
            "mean": 21.814456027282368,
            "median": 20.000006476,
            "variance": 216.87438387869608,
            "std_deviation": 14.72665555646278,
            "interval_size": 67.999998956,
            "jitter": 46.18554292871763
          }
        }
      }
    },
    "s6": {
      "port_1": {
        "queue_7": {
          "queueLength": {
            "min": 0,
            "max": 44,
            "mean": 18.58896987171786,
            "median": 17.0,
            "variance": 146.32583702059068,
            "std_deviation": 12.096521690989963,
            "interval_size": 44,
            "jitter": 25.41103012828214
          },
          "queueingTime": {
            "min": 0.0,
            "max": 65.000003956,
            "mean": 20.918719149902273,
            "median": 19.000013476,
            "variance": 197.3260008497681,
            "std_deviation": 14.047277346509825,
            "interval_size": 65.000003956,
            "jitter": 44.08128480609773
          }
        }
      }
    },
    "s7": {
      "port_0": {
        "queue_7": {
          "queueLength": {
            "min": 0,
            "max": 6,
            "mean": 0.6955245855013301,
            "median": 1,
            "variance": 0.4582390201673996,
            "std_deviation": 0.6769335419133843,
            "interval_size": 6,
            "jitter": 5.30447541449867
          },
          "queueingTime": {
            "min": 0.0,
            "max": 2.000014476,
            "mean": 0.04489715286099567,
            "median": 5.476e-06,
            "variance": 0.043156128955596736,
            "std_deviation": 0.20774053277008012,
            "interval_size": 2.000014476,
            "jitter": 1.9551173231390044
          }
        }
      }
    },
    "s1": {
      "port_1": {
        "queue_7": {
          "queueLength": {
            "min": 0,
            "max": 44,
            "mean": 41.52605472783596,
            "median": 42.0,
            "variance": 8.327628716363154,
            "std_deviation": 2.8857631081506248,
            "interval_size": 44,
            "jitter": 41.52605472783596
          },
          "queueingTime": {
            "min": 4.476e-06,
            "max": 75.000003476,
            "mean": 46.900771356208665,
            "median": 47.000000996,
            "variance": 41.827712355072016,
            "std_deviation": 6.467434758470472,
            "interval_size": 74.999999,
            "jitter": 46.900766880208664
          }
        }
      }
    },
    "s2": {
      "port_1": {
        "queue_7": {
          "queueLength": {
            "min": 0,
            "max": 44,
            "mean": 41.500678251155485,
            "median": 42,
            "variance": 7.623857861336668,
            "std_deviation": 2.761133437799895,
            "interval_size": 44,
            "jitter": 41.500678251155485
          },
          "queueingTime": {
            "min": 4.476e-06,
            "max": 72.000008476,
            "mean": 46.73949073401772,
            "median": 47.000000476,
            "variance": 39.22193398474537,
            "std_deviation": 6.262741730643646,
            "interval_size": 72.000004,
            "jitter": 46.73948625801772
          }
        }
      }
    },
    "s3": {
      "port_2": {
        "queue_7": {
          "queueLength": {
            "min": 0,
            "max": 7,
            "mean": 1.1700635087868545,
            "median": 1,
            "variance": 0.912483817042053,
            "std_deviation": 0.9552401881422562,
            "interval_size": 7,
            "jitter": 5.829936491213146
          },
          "queueingTime": {
            "min": 0.0,
            "max": 2.000012476,
            "mean": 0.04640350503263466,
            "median": 1.4476e-05,
            "variance": 0.04451246996748282,
            "std_deviation": 0.21097978568451248,
            "interval_size": 2.000012476,
            "jitter": 1.9536089709673656
          }
        }
      }
    },
    "s4": {
      "port_1": {
        "queue_7": {
          "queueLength": {
            "min": 0,
            "max": 44,
            "mean": 22.594180865696593,
            "median": 23,
            "variance": 161.0062323109621,
            "std_deviation": 12.688823125529101,
            "interval_size": 44,
            "jitter": 22.594180865696593
          },
          "queueingTime": {
            "min": 4.36e-07,
            "max": 68.000013956,
            "mean": 25.289898434799756,
            "median": 25.000023476,
            "variance": 221.9787936241659,
            "std_deviation": 14.898952769378319,
            "interval_size": 68.00001352000001,
            "jitter": 42.71011552120025
          }
        }
      },
      "port_2": {
        "queue_7": {
          "queueLength": {
            "min": 0,
            "max": 44,
            "mean": 23.182878426659094,
            "median": 24,
            "variance": 156.756506522229,
            "std_deviation": 12.520243868320975,
            "interval_size": 44,
            "jitter": 23.182878426659094
          },
          "queueingTime": {
            "min": 0.0,
            "max": 70.000004956,
            "mean": 26.553542288433505,
            "median": 26.999991476,
            "variance": 218.4285055448136,
            "std_deviation": 14.779326965217786,
            "interval_size": 70.000004956,
            "jitter": 43.44646266756649
          }
        }
      }
    }
  }
}