{
  "general": {
    "validation": {
      "valid": true,
      "errors": []
    }
  },
  "sim_parameters": {
    "**.displayAddresses": "false",
    "**.verbose": "false",
    "**.promiscuous": "true",
    "**.registerProtocol": "true",
    "**.*.clock.clockRate": "\"1us\"",
    "**.h1.eth.address": "\"12:23:34:45:56:67\"",
    "**.h3.eth.address": "\"aa:aa:aa:aa:aa:bb\"",
    "**.h2.eth.address": "\"aa:bb:cc:dd:ee:aa\"",
    "**.*.processingDelay[*].delay": "5us",
    "**.filteringDatabase.database": "xmldoc(\"xml/routing.xml\", \"/filteringDatabases/\")",
    "**.filteringDatabase.cycle": "xmldoc(\"xml/tas.xml\", \"/schedule/\")",
    "**.gateController.initialSchedule": "xmldoc(\"xml/tas.xml\")",
    "**.gateController.enableHoldAndRelease": "false",
    "**.*.eth[*].queuing.tsAlgorithms[*].typename": "\"StrictPriority\"",
    "**.s5.eth[1].queuing.queuingFrames.tciToQueueMapping": "xmldoc(\"xml/tci-maps/tci-map-s5-1.xml\")",
    "**.s3.eth[2].queuing.queuingFrames.tciToQueueMapping": "xmldoc(\"xml/tci-maps/tci-map-s3-2.xml\")",
    "**.s2.eth[1].queuing.queuingFrames.tciToQueueMapping": "xmldoc(\"xml/tci-maps/tci-map-s2-1.xml\")",
    "**.s7.eth[0].queuing.queuingFrames.tciToQueueMapping": "xmldoc(\"xml/tci-maps/tci-map-s7-0.xml\")",
    "**.s4.eth[2].queuing.queuingFrames.tciToQueueMapping": "xmldoc(\"xml/tci-maps/tci-map-s4-2.xml\")",
    "**.s1.eth[1].queuing.queuingFrames.tciToQueueMapping": "xmldoc(\"xml/tci-maps/tci-map-s1-1.xml\")",
    "**.s6.eth[1].queuing.queuingFrames.tciToQueueMapping": "xmldoc(\"xml/tci-maps/tci-map-s6-1.xml\")",
    "**.s4.eth[1].queuing.queuingFrames.tciToQueueMapping": "xmldoc(\"xml/tci-maps/tci-map-s4-1.xml\")",
    "**.*.eth[*].queuing.queues[*].bufferCapacity": "365280b",
    "**.*.eth[*].queuing.queues[*].expressQueue": "true",
    "**.*.eth[*].mac.enablePreemptingFrames": "false",
    "**.*.trafGenSchedApp.jitter": "0.000014",
    "**.*.eth[*].queuing.gateController.jitter": "0.000014",
    "**.*.trafGenSchedApp.initialSchedule": "xmldoc(\"xml/traf-gen.xml\")"
  },
  "streams": {
    "1907": {
      "latency_stats": {
        "min": 0.00011952398926950991,
        "max": 0.00014752400056750048,
        "mean": 0.00013352296131299743,
        "median": 0.0001335240012849681,
        "variance": 3.276896517003052e-11,
        "std_deviation": 5.724418325911421e-06,
        "interval_size": 2.8000011297990568e-05,
        "jitter": 1.4001039254503053e-05,
        "packages_received": 86400
      },
      "udp_dest_port": 6000,
      "name": "1---2---6000",
      "max_allowed_latency": 10000000,
      "talker": "h1",
      "listener": "h3"
    },
    "1908": {
      "latency_stats": {
        "min": 0.0001330479972239118,
        "max": 0.00016104800306493416,
        "mean": 0.00014767694856788563,
        "median": 0.00014804400052526034,
        "variance": 2.949459680862482e-11,
        "std_deviation": 5.430892818738446e-06,
        "interval_size": 2.8000005841022357e-05,
        "jitter": 1.4628951343973823e-05,
        "packages_received": 86400
      },
      "udp_dest_port": 6001,
      "name": "1---2---6001",
      "max_allowed_latency": 10000000,
      "talker": "h2",
      "listener": "h3"
    }
  },
  "hosts": {
    "h3": {
      "received_periodically": {
        "is_periodic": true,
        "max-period-length": 250,
        "period": [
          1907,
          1908
        ],
        "period_length": 2,
        "skipped": "first 0s"
      }
    }
  },
  "switches": {
    "s5": {
      "port_1": {
        "queue_7": {
          "queueLength": {
            "min": 0,
            "max": 1,
            "mean": 0.49999710649822626,
            "median": 0,
            "variance": 0.25000144675088687,
            "std_deviation": 0.5000014467487938,
            "interval_size": 1,
            "jitter": 0.5000028935017737
          },
          "queueingTime": {
            "min": 0.0,
            "max": 2.5476e-05,
            "mean": 1.1507259212962964e-05,
            "median": 1.1476e-05,
            "variance": 3.27966393169674e-11,
            "std_deviation": 5.726835017439161e-06,
            "interval_size": 2.5476e-05,
            "jitter": 1.3968740787037038e-05
          }
        }
      }
    },
    "s6": {
      "port_1": {
        "queue_7": {
          "queueLength": {
            "min": 0,
            "max": 1,
            "mean": 0.49999710649822626,
            "median": 0,
            "variance": 0.25000144675088687,
            "std_deviation": 0.5000014467487938,
            "interval_size": 1,
            "jitter": 0.5000028935017737
          },
          "queueingTime": {
            "min": 0.0,
            "max": 2.5476e-05,
            "mean": 1.0941933287037038e-05,
            "median": 1.0476e-05,
            "variance": 3.050479520697539e-11,
            "std_deviation": 5.523114629172148e-06,
            "interval_size": 2.5476e-05,
            "jitter": 1.4534066712962964e-05
          }
        }
      }
    },
    "s7": {
      "port_0": {
        "queue_7": {
          "queueLength": {
            "min": 0,
            "max": 2,
            "mean": 0.5004904499697628,
            "median": 1,
            "variance": 0.2504923809859089,
            "std_deviation": 0.500492138785325,
            "interval_size": 2,
            "jitter": 1.4995095500302371
          },
          "queueingTime": {
            "min": 0.0,
            "max": 2.5476e-05,
            "mean": 6.03085212962963e-06,
            "median": 3.472e-06,
            "variance": 4.6735926285300357e-11,
            "std_deviation": 6.8363679161745205e-06,
            "interval_size": 2.5476e-05,
            "jitter": 1.9445147870370372e-05
          }
        }
      }
    },
    "s1": {
      "port_1": {
        "queue_7": {
          "queueLength": {
            "min": 0,
            "max": 1,
            "mean": 0.49999710649822626,
            "median": 0,
            "variance": 0.25000144675088687,
            "std_deviation": 0.5000014467487938,
            "interval_size": 1,
            "jitter": 0.5000028935017737
          },
          "queueingTime": {
            "min": 0.0,
            "max": 2.5476e-05,
            "mean": 1.1483765648148149e-05,
            "median": 1.1476e-05,
            "variance": 3.2679744632123564e-11,
            "std_deviation": 5.716620035661244e-06,
            "interval_size": 2.5476e-05,
            "jitter": 1.3992234351851853e-05
          }
        }
      }
    },
    "s2": {
      "port_1": {
        "queue_7": {
          "queueLength": {
            "min": 0,
            "max": 1,
            "mean": 0.49999710649822626,
            "median": 0,
            "variance": 0.25000144675088687,
            "std_deviation": 0.5000014467487938,
            "interval_size": 1,
            "jitter": 0.5000028935017737
          },
          "queueingTime": {
            "min": 0.0,
            "max": 2.5476e-05,
            "mean": 1.1476246296296297e-05,
            "median": 1.1476e-05,
            "variance": 3.2709868186886593e-11,
            "std_deviation": 5.719254163515256e-06,
            "interval_size": 2.5476e-05,
            "jitter": 1.3999753703703704e-05
          }
        }
      }
    },
    "s3": {
      "port_2": {
        "queue_7": {
          "queueLength": {
            "min": 0,
            "max": 2,
            "mean": 0.985089742217181,
            "median": 1,
            "variance": 0.49978057708809365,
            "std_deviation": 0.7069516087315267,
            "interval_size": 2,
            "jitter": 1.014910257782819
          },
          "queueingTime": {
            "min": 0.0,
            "max": 3.3996e-05,
            "mean": 1.5719441481481482e-05,
            "median": 1.5476e-05,
            "variance": 3.1078072683755465e-11,
            "std_deviation": 5.574771088013881e-06,
            "interval_size": 3.3996e-05,
            "jitter": 1.8276558518518516e-05
          }
        }
      }
    },
    "s4": {
      "port_1": {
        "queue_7": {
          "queueLength": {
            "min": 0,
            "max": 1,
            "mean": 0.49999710649822626,
            "median": 0,
            "variance": 0.25000144675088687,
            "std_deviation": 0.5000014467487938,
            "interval_size": 1,
            "jitter": 0.5000028935017737
          },
          "queueingTime": {
            "min": 1.3956e-05,
            "max": 5.0476e-05,
            "mean": 3.1940499305555556e-05,
            "median": 3.1956e-05,
            "variance": 5.123775579601568e-11,
            "std_deviation": 7.15805530825347e-06,
            "interval_size": 3.652e-05,
            "jitter": 1.8535500694444447e-05
          }
        }
      },
      "port_2": {
        "queue_7": {
          "queueLength": {
            "min": 0,
            "max": 1,
            "mean": 0.49999710649822626,
            "median": 0,
            "variance": 0.25000144675088687,
            "std_deviation": 0.5000014467487938,
            "interval_size": 1,
            "jitter": 0.5000028935017737
          },
          "queueingTime": {
            "min": 0.0,
            "max": 2.5476e-05,
            "mean": 8.06161875e-06,
            "median": 7.476e-06,
            "variance": 3.9586417162254484e-11,
            "std_deviation": 6.291773769157191e-06,
            "interval_size": 2.5476e-05,
            "jitter": 1.741438125e-05
          }
        }
      }
    }
  }
}