{
  "general": {
    "validation": {
      "valid": true,
      "errors": []
    }
  },
  "sim_parameters": {
    "**.displayAddresses": "false",
    "**.verbose": "false",
    "**.promiscuous": "true",
    "**.registerProtocol": "true",
    "**.*.clock.clockRate": "\"1us\"",
    "**.h1.eth.address": "\"12:23:34:45:56:67\"",
    "**.h3.eth.address": "\"aa:aa:aa:aa:aa:bb\"",
    "**.h2.eth.address": "\"aa:bb:cc:dd:ee:aa\"",
    "**.*.processingDelay[*].delay": "5us",
    "**.filteringDatabase.database": "xmldoc(\"xml/routing.xml\", \"/filteringDatabases/\")",
    "**.filteringDatabase.cycle": "xmldoc(\"xml/tas.xml\", \"/schedule/\")",
    "**.gateController.initialSchedule": "xmldoc(\"xml/tas.xml\")",
    "**.gateController.enableHoldAndRelease": "false",
    "**.*.eth[*].queuing.tsAlgorithms[*].typename": "\"StrictPriority\"",
    "**.s5.eth[1].queuing.queuingFrames.tciToQueueMapping": "xmldoc(\"xml/tci-maps/tci-map-s5-1.xml\")",
    "**.s3.eth[2].queuing.queuingFrames.tciToQueueMapping": "xmldoc(\"xml/tci-maps/tci-map-s3-2.xml\")",
    "**.s2.eth[1].queuing.queuingFrames.tciToQueueMapping": "xmldoc(\"xml/tci-maps/tci-map-s2-1.xml\")",
    "**.s7.eth[0].queuing.queuingFrames.tciToQueueMapping": "xmldoc(\"xml/tci-maps/tci-map-s7-0.xml\")",
    "**.s4.eth[2].queuing.queuingFrames.tciToQueueMapping": "xmldoc(\"xml/tci-maps/tci-map-s4-2.xml\")",
    "**.s1.eth[1].queuing.queuingFrames.tciToQueueMapping": "xmldoc(\"xml/tci-maps/tci-map-s1-1.xml\")",
    "**.s6.eth[1].queuing.queuingFrames.tciToQueueMapping": "xmldoc(\"xml/tci-maps/tci-map-s6-1.xml\")",
    "**.s4.eth[1].queuing.queuingFrames.tciToQueueMapping": "xmldoc(\"xml/tci-maps/tci-map-s4-1.xml\")",
    "**.*.eth[*].queuing.queues[*].bufferCapacity": "365280b",
    "**.*.eth[*].queuing.queues[*].expressQueue": "true",
    "**.*.eth[*].mac.enablePreemptingFrames": "false",
    "**.*.trafGenSchedApp.jitter": "0.000014",
    "**.*.eth[*].queuing.gateController.jitter": "0.000014",
    "**.*.trafGenSchedApp.initialSchedule": "xmldoc(\"xml/traf-gen.xml\")"
  },
  "streams": {
    "1907": {
      "latency_stats": {
        "min": 0.0002445239952066913,
        "max": 0.0002725240046856925,
        "mean": 0.00025850217124735926,
        "median": 0.0002585239999461919,
        "variance": 3.277967057999465e-11,
        "std_deviation": 5.72535331486142e-06,
        "interval_size": 2.8000009479001164e-05,
        "jitter": 1.4021833438333233e-05,
        "packages_received": 86400
      }
    },
    "1908": {
      "latency_stats": {
        "min": 0.00020804798987228423,
        "max": 0.0002360480029892642,
        "mean": 0.00022268701696971855,
        "median": 0.00022304400044959038,
        "variance": 2.969374414203659e-11,
        "std_deviation": 5.449196651070375e-06,
        "interval_size": 2.800001311697997e-05,
        "jitter": 1.4639027097434316e-05,
        "packages_received": 86400
      }
    }
  },
  "hosts": {
    "h3": {
      "received_periodically": {
        "is_periodic": true,
        "max-period-length": 250,
        "period": [
          1907,
          1908
        ],
        "period_length": 2,
        "skipped": "first 0s"
      }
    }
  },
  "switches": {
    "s5": {
      "port_1": {
        "queue_7": {
          "queueLength": {
            "min": 0,
            "max": 1,
            "mean": 0.49999710649822626,
            "median": 0,
            "variance": 0.25000144675088687,
            "std_deviation": 0.5000014467487938,
            "interval_size": 1,
            "jitter": 0.5000028935017737
          },
          "queueingTime": {
            "min": 2.2476e-05,
            "max": 5.0476e-05,
            "mean": 3.648265509259259e-05,
            "median": 3.6476e-05,
            "variance": 3.322560646907672e-11,
            "std_deviation": 5.764165721860946e-06,
            "interval_size": 2.8000000000000003e-05,
            "jitter": 1.4006655092592593e-05
          }
        }
      }
    },
    "s6": {
      "port_1": {
        "queue_7": {
          "queueLength": {
            "min": 0,
            "max": 1,
            "mean": 0.49999710649822626,
            "median": 0,
            "variance": 0.25000144675088687,
            "std_deviation": 0.5000014467487938,
            "interval_size": 1,
            "jitter": 0.5000028935017737
          },
          "queueingTime": {
            "min": 2.2476e-05,
            "max": 5.0476e-05,
            "mean": 3.649112731481481e-05,
            "median": 3.6476e-05,
            "variance": 3.318998169654205e-11,
            "std_deviation": 5.761074699788404e-06,
            "interval_size": 2.8000000000000003e-05,
            "jitter": 1.4015127314814812e-05
          }
        }
      }
    },
    "s7": {
      "port_0": {
        "queue_7": {
          "queueLength": {
            "min": 0,
            "max": 2,
            "mean": 0.5006582735582362,
            "median": 1,
            "variance": 0.2506600122765205,
            "std_deviation": 0.5006595772343924,
            "interval_size": 2,
            "jitter": 1.499341726441764
          },
          "queueingTime": {
            "min": 0.0,
            "max": 5.0476e-05,
            "mean": 1.853555835648148e-05,
            "median": 1.5736e-05,
            "variance": 3.386258104173724e-10,
            "std_deviation": 1.8401788239662265e-05,
            "interval_size": 5.0476e-05,
            "jitter": 3.194044164351852e-05
          }
        }
      }
    },
    "s1": {
      "port_1": {
        "queue_7": {
          "queueLength": {
            "min": 0,
            "max": 1,
            "mean": 0.49999710649822626,
            "median": 0,
            "variance": 0.25000144675088687,
            "std_deviation": 0.5000014467487938,
            "interval_size": 1,
            "jitter": 0.5000028935017737
          },
          "queueingTime": {
            "min": 2.2476e-05,
            "max": 5.0476e-05,
            "mean": 3.6474310185185185e-05,
            "median": 3.6476e-05,
            "variance": 3.300644397836823e-11,
            "std_deviation": 5.745123495484517e-06,
            "interval_size": 2.8000000000000003e-05,
            "jitter": 1.4001689814814818e-05
          }
        }
      }
    },
    "s2": {
      "port_1": {
        "queue_7": {
          "queueLength": {
            "min": 0,
            "max": 1,
            "mean": 0.49999710649822626,
            "median": 0,
            "variance": 0.25000144675088687,
            "std_deviation": 0.5000014467487938,
            "interval_size": 1,
            "jitter": 0.5000028935017737
          },
          "queueingTime": {
            "min": 2.2476e-05,
            "max": 5.0476e-05,
            "mean": 3.6477238425925924e-05,
            "median": 3.6476e-05,
            "variance": 3.315701417248378e-11,
            "std_deviation": 5.7582127585287935e-06,
            "interval_size": 2.8000000000000003e-05,
            "jitter": 1.4001238425925925e-05
          }
        }
      }
    },
    "s3": {
      "port_2": {
        "queue_7": {
          "queueLength": {
            "min": 0,
            "max": 2,
            "mean": 0.5006293384567753,
            "median": 1,
            "variance": 0.25063111434862745,
            "std_deviation": 0.500630716545267,
            "interval_size": 2,
            "jitter": 1.4993706615432247
          },
          "queueingTime": {
            "min": 0.0,
            "max": 5.0476e-05,
            "mean": 1.854483983796296e-05,
            "median": 1.5736e-05,
            "variance": 3.388315806984494e-10,
            "std_deviation": 1.840737843090236e-05,
            "interval_size": 5.0476e-05,
            "jitter": 3.193116016203704e-05
          }
        }
      }
    },
    "s4": {
      "port_1": {
        "queue_7": {
          "queueLength": {
            "min": 0,
            "max": 1,
            "mean": 0.49999710649822626,
            "median": 0,
            "variance": 0.25000144675088687,
            "std_deviation": 0.5000014467487938,
            "interval_size": 1,
            "jitter": 0.5000028935017737
          },
          "queueingTime": {
            "min": 2.2476e-05,
            "max": 5.0476e-05,
            "mean": 3.64884537037037e-05,
            "median": 3.6476e-05,
            "variance": 3.2954555027428727e-11,
            "std_deviation": 5.740605806657406e-06,
            "interval_size": 2.8000000000000003e-05,
            "jitter": 1.4012453703703704e-05
          }
        }
      },
      "port_2": {
        "queue_7": {
          "queueLength": {
            "min": 0,
            "max": 1,
            "mean": 0.49999710649822626,
            "median": 0,
            "variance": 0.25000144675088687,
            "std_deviation": 0.5000014467487938,
            "interval_size": 1,
            "jitter": 0.5000028935017737
          },
          "queueingTime": {
            "min": 5.8952e-05,
            "max": 8.6952e-05,
            "mean": 7.232660736111111e-05,
            "median": 7.1956e-05,
            "variance": 2.972605625046723e-11,
            "std_deviation": 5.4521606955836535e-06,
            "interval_size": 2.8000000000000003e-05,
            "jitter": 1.4625392638888894e-05
          }
        }
      }
    }
  }
}