{
  "general": {
    "validation": {
      "valid": false,
      "errors": [
        "Host h3: No periodicity found in the streams received",
        "Stream 1---2---6001 (-> vid 1908): max latency (11.000061044000176) higher than allowed (0.01)",
        "Stream 1---2---6000 (-> vid 1907): max latency (11.000047524001275) higher than allowed (0.01)"
      ]
    }
  },
  "sim_parameters": {
    "**.displayAddresses": "false",
    "**.verbose": "false",
    "**.promiscuous": "true",
    "**.registerProtocol": "true",
    "**.*.clock.clockRate": "\"1us\"",
    "**.h3.eth.address": "\"aa:aa:aa:aa:aa:bb\"",
    "**.h1.eth.address": "\"12:23:34:45:56:67\"",
    "**.h2.eth.address": "\"aa:bb:cc:dd:ee:aa\"",
    "**.*.processingDelay[*].delay": "5us",
    "**.filteringDatabase.database": "xmldoc(\"xml/routing.xml\", \"/filteringDatabases/\")",
    "**.filteringDatabase.cycle": "xmldoc(\"xml/tas.xml\", \"/schedule/\")",
    "**.gateController.initialSchedule": "xmldoc(\"xml/tas.xml\")",
    "**.gateController.enableHoldAndRelease": "false",
    "**.*.eth[*].queuing.tsAlgorithms[*].typename": "\"StrictPriority\"",
    "**.s2.eth[1].queuing.queuingFrames.tciToQueueMapping": "xmldoc(\"xml/tci-maps/tci-map-s2-1.xml\")",
    "**.s3.eth[0].queuing.queuingFrames.tciToQueueMapping": "xmldoc(\"xml/tci-maps/tci-map-s3-0.xml\")",
    "**.s1.eth[1].queuing.queuingFrames.tciToQueueMapping": "xmldoc(\"xml/tci-maps/tci-map-s1-1.xml\")",
    "**.*.eth[*].queuing.queues[*].bufferCapacity": "365280b",
    "**.*.eth[*].queuing.queues[*].expressQueue": "true",
    "**.*.eth[*].mac.enablePreemptingFrames": "false",
    "**.*.trafGenSchedApp.jitter": "0.000013",
    "**.*.eth[*].queuing.gateController.jitter": "0.000013",
    "**.*.trafGenSchedApp.initialSchedule": "xmldoc(\"xml/traf-gen.xml\")"
  },
  "streams": {
    "1908": {
      "latency_stats": {
        "min": 3.557199670467526e-05,
        "max": 11.000061044000176,
        "mean": 0.7521056488969593,
        "median": 6.304400449153036e-05,
        "variance": 1.3415094842320967,
        "std_deviation": 1.1582355046501107,
        "interval_size": 11.000025472003472,
        "jitter": 10.247955395103217,
        "packages_received": 86393
      },
      "udp_dest_port": 6001,
      "name": "1---2---6001",
      "max_allowed_latency": 10000000,
      "talker": "h2",
      "listener": "h3"
    },
    "1907": {
      "latency_stats": {
        "min": 3.557199670467526e-05,
        "max": 11.000047524001275,
        "mean": 0.7823054622272977,
        "median": 6.35639953543432e-05,
        "variance": 1.3884104440270013,
        "std_deviation": 1.1783082975295562,
        "interval_size": 11.00001195200457,
        "jitter": 10.217742061773977,
        "packages_received": 86398
      },
      "udp_dest_port": 6000,
      "name": "1---2---6000",
      "max_allowed_latency": 10000000,
      "talker": "h1",
      "listener": "h3"
    }
  },
  "hosts": {
    "h3": {
      "received_periodically": {
        "is_periodic": false,
        "max-period-length": 250,
        "skipped": "first 0s"
      }
    }
  },
  "switches": {
    "s1": {
      "port_1": {
        "queue_7": {
          "queueLength": {
            "min": 0,
            "max": 11,
            "mean": 1.22566102813095,
            "median": 1,
            "variance": 1.5773595404406402,
            "std_deviation": 1.2559297513956105,
            "interval_size": 11,
            "jitter": 9.77433897186905
          },
          "queueingTime": {
            "min": 0.0,
            "max": 11.000001476,
            "mean": 0.7792142519034236,
            "median": 1.2476e-05,
            "variance": 1.384424851882236,
            "std_deviation": 1.1766158472000265,
            "interval_size": 11.000001476,
            "jitter": 10.220787224096576
          }
        }
      }
    },
    "s2": {
      "port_1": {
        "queue_7": {
          "queueLength": {
            "min": 0,
            "max": 11,
            "mean": 1.193380557195273,
            "median": 1.0,
            "variance": 1.5300109881842434,
            "std_deviation": 1.2369361293875458,
            "interval_size": 11,
            "jitter": 9.806619442804728
          },
          "queueingTime": {
            "min": 0.0,
            "max": 11.000003476,
            "mean": 0.7476479785379371,
            "median": 1.2476e-05,
            "variance": 1.3369995622203783,
            "std_deviation": 1.1562869722609428,
            "interval_size": 11.000003476,
            "jitter": 10.252355497462062
          }
        }
      }
    },
    "s3": {
      "port_0": {
        "queue_7": {
          "queueLength": {
            "min": 0,
            "max": 5,
            "mean": 1.0313672836916168,
            "median": 1,
            "variance": 0.6645021402873497,
            "std_deviation": 0.8151700069846471,
            "interval_size": 5,
            "jitter": 3.968632716308383
          },
          "queueingTime": {
            "min": 0.0,
            "max": 1.000014476,
            "mean": 0.003738848571140858,
            "median": 1.1476e-05,
            "variance": 0.0037131055581434724,
            "std_deviation": 0.06093525710246468,
            "interval_size": 1.000014476,
            "jitter": 0.9962756274288592
          }
        }
      }
    }
  }
}