{
  "switches": {
    "s12": {
      "num_ports": 2
    },
    "s11": {
      "num_ports": 3
    },
    "s22": {
      "num_ports": 3
    },
    "s21": {
      "num_ports": 2
    }
  },
  "hosts": {
    "h1": {
      "mac": "12:23:34:45:56:67"
    },
    "h2": {
      "mac": "aa:bb:cc:dd:ee:aa"
    }
  },
  "links": [
    {
      "A": {
        "node": "h1"
      },
      "B": {
        "node": "s11",
        "port": 0
      }
    },
    {
      "A": {
        "node": "s22",
        "port": 1
      },
      "B": {
        "node": "s21",
        "port": 1
      }
    },
    {
      "A": {
        "node": "s12",
        "port": 0
      },
      "B": {
        "node": "s11",
        "port": 1
      }
    },
    {
      "A": {
        "node": "s22",
        "port": 0
      },
      "B": {
        "node": "s12",
        "port": 1
      }
    },
    {
      "A": {
        "node": "s21",
        "port": 0
      },
      "B": {
        "node": "s11",
        "port": 2
      }
    },
    {
      "A": {
        "node": "s22",
        "port": 2
      },
      "B": {
        "node": "h2"
      }
    }
  ]
}