[
  {
    "switch": "s12",
    "controls": [
      {
        "port": "0",
        "entries": [
          {
            "gate-status": "11111111"
          }
        ]
      },
      {
        "port": "1",
        "entries": [
          {
            "gate-status": "11111110",
            "length": 150
          },
          {
            "gate-status": "11111111",
            "length": 50
          },
          {
            "gate-status": "11111110",
            "length": 999800
          }
        ]
      }
    ]
  },
  {
    "switch": "s22",
    "controls": [
      {
        "port": "0",
        "entries": [
          {
            "gate-status": "11111111"
          }
        ]
      },
      {
        "port": "2",
        "entries": [
          {
            "gate-status": "11111110",
            "length": 150
          },
          {
            "gate-status": "11111111",
            "length": 100
          },
          {
            "gate-status": "11111110",
            "length": 999750
          }
        ]
      },
      {
        "port": "1",
        "entries": [
          {
            "gate-status": "11111111"
          }
        ]
      }
    ]
  },
  {
    "switch": "s21",
    "controls": [
      {
        "port": "1",
        "entries": [
          {
            "gate-status": "11111110",
            "length": 100
          },
          {
            "gate-status": "11111111",
            "length": 50
          },
          {
            "gate-status": "11111110",
            "length": 999850
          }
        ]
      },
      {
        "port": "0",
        "entries": [
          {
            "gate-status": "11111111"
          }
        ]
      }
    ]
  },
  {
    "switch": "s11",
    "controls": [
      {
        "port": "2",
        "entries": [
          {
            "gate-status": "11111110",
            "length": 50
          },
          {
            "gate-status": "11111111",
            "length": 50
          },
          {
            "gate-status": "11111110",
            "length": 999900
          }
        ]
      },
      {
        "port": "1",
        "entries": [
          {
            "gate-status": "11111110",
            "length": 100
          },
          {
            "gate-status": "11111111",
            "length": 50
          },
          {
            "gate-status": "11111110",
            "length": 999850
          }
        ]
      },
      {
        "port": "0",
        "entries": [
          {
            "gate-status": "11111111"
          }
        ]
      }
    ]
  }
]