{
  "general": {
    "validation": {
      "valid": true,
      "errors": []
    }
  },
  "sim_parameters": {
    "**.displayAddresses": "false",
    "**.verbose": "false",
    "**.promiscuous": "true",
    "**.registerProtocol": "true",
    "**.*.clock.clockRate": "\"1us\"",
    "**.h1.eth.address": "\"12:23:34:45:56:67\"",
    "**.h3.eth.address": "\"aa:aa:aa:aa:aa:bb\"",
    "**.h2.eth.address": "\"aa:bb:cc:dd:ee:aa\"",
    "**.*.processingDelay[*].delay": "5us",
    "**.filteringDatabase.database": "xmldoc(\"xml/routing.xml\", \"/filteringDatabases/\")",
    "**.filteringDatabase.cycle": "xmldoc(\"xml/tas.xml\", \"/schedule/\")",
    "**.gateController.initialSchedule": "xmldoc(\"xml/tas.xml\")",
    "**.gateController.enableHoldAndRelease": "false",
    "**.*.eth[*].queuing.tsAlgorithms[*].typename": "\"StrictPriority\"",
    "**.s5.eth[1].queuing.queuingFrames.tciToQueueMapping": "xmldoc(\"xml/tci-maps/tci-map-s5-1.xml\")",
    "**.s3.eth[2].queuing.queuingFrames.tciToQueueMapping": "xmldoc(\"xml/tci-maps/tci-map-s3-2.xml\")",
    "**.s2.eth[1].queuing.queuingFrames.tciToQueueMapping": "xmldoc(\"xml/tci-maps/tci-map-s2-1.xml\")",
    "**.s7.eth[0].queuing.queuingFrames.tciToQueueMapping": "xmldoc(\"xml/tci-maps/tci-map-s7-0.xml\")",
    "**.s4.eth[2].queuing.queuingFrames.tciToQueueMapping": "xmldoc(\"xml/tci-maps/tci-map-s4-2.xml\")",
    "**.s1.eth[1].queuing.queuingFrames.tciToQueueMapping": "xmldoc(\"xml/tci-maps/tci-map-s1-1.xml\")",
    "**.s6.eth[1].queuing.queuingFrames.tciToQueueMapping": "xmldoc(\"xml/tci-maps/tci-map-s6-1.xml\")",
    "**.s4.eth[1].queuing.queuingFrames.tciToQueueMapping": "xmldoc(\"xml/tci-maps/tci-map-s4-1.xml\")",
    "**.*.eth[*].queuing.queues[*].bufferCapacity": "365280b",
    "**.*.eth[*].queuing.queues[*].expressQueue": "true",
    "**.*.eth[*].mac.enablePreemptingFrames": "false",
    "**.*.trafGenSchedApp.jitter": "0.000008",
    "**.*.eth[*].queuing.gateController.jitter": "0.000008",
    "**.*.trafGenSchedApp.initialSchedule": "xmldoc(\"xml/traf-gen.xml\")"
  },
  "streams": {
    "1907": {
      "latency_stats": {
        "min": 0.00010052399011328816,
        "max": 0.00011652400280581787,
        "mean": 0.00010852412437968776,
        "median": 0.00010852400009753183,
        "variance": 1.0827892693205031e-11,
        "std_deviation": 3.290576346661027e-06,
        "interval_size": 1.6000012692529708e-05,
        "jitter": 8.000134266399598e-06,
        "packages_received": 86400
      }
    },
    "1908": {
      "latency_stats": {
        "min": 9.404799493495375e-05,
        "max": 0.00011004800035152584,
        "mean": 0.00010214539641126305,
        "median": 0.0001020479976432398,
        "variance": 1.0591624228018854e-11,
        "std_deviation": 3.2544775660647676e-06,
        "interval_size": 1.6000005416572094e-05,
        "jitter": 8.097401476309297e-06,
        "packages_received": 86400
      }
    }
  },
  "hosts": {
    "h3": {
      "received_periodically": {
        "is_periodic": true,
        "max-period-length": 250,
        "period": [
          1907,
          1908
        ],
        "period_length": 2,
        "skipped": "first 0s"
      }
    }
  },
  "switches": {
    "s5": {
      "port_1": {
        "queue_7": {
          "queueLength": {
            "min": 0,
            "max": 1,
            "mean": 0.49999710649822626,
            "median": 0,
            "variance": 0.25000144675088687,
            "std_deviation": 0.5000014467487938,
            "interval_size": 1,
            "jitter": 0.5000028935017737
          },
          "queueingTime": {
            "min": 0.0,
            "max": 1.4476e-05,
            "mean": 6.499976990740741e-06,
            "median": 6.476e-06,
            "variance": 1.0866076108129232e-11,
            "std_deviation": 3.2963731748892196e-06,
            "interval_size": 1.4476e-05,
            "jitter": 7.976023009259258e-06
          }
        }
      }
    },
    "s6": {
      "port_1": {
        "queue_7": {
          "queueLength": {
            "min": 0,
            "max": 1,
            "mean": 0.49999710649822626,
            "median": 0,
            "variance": 0.25000144675088687,
            "std_deviation": 0.5000014467487938,
            "interval_size": 1,
            "jitter": 0.5000028935017737
          },
          "queueingTime": {
            "min": 0.0,
            "max": 1.4476e-05,
            "mean": 6.480810972222222e-06,
            "median": 6.476e-06,
            "variance": 1.0767054880459246e-11,
            "std_deviation": 3.28131907629527e-06,
            "interval_size": 1.4476e-05,
            "jitter": 7.995189027777779e-06
          }
        }
      }
    },
    "s7": {
      "port_0": {
        "queue_7": {
          "queueLength": {
            "min": 0,
            "max": 1,
            "mean": 0.499998553244927,
            "median": 0,
            "variance": 0.25000072337753654,
            "std_deviation": 0.5000007233770133,
            "interval_size": 1,
            "jitter": 0.5000014467550731
          },
          "queueingTime": {
            "min": 0.0,
            "max": 1.4476e-05,
            "mean": 3.2652458333333335e-06,
            "median": 4.76e-07,
            "variance": 1.558497489113363e-11,
            "std_deviation": 3.947781008507644e-06,
            "interval_size": 1.4476e-05,
            "jitter": 1.1210754166666667e-05
          }
        }
      }
    },
    "s1": {
      "port_1": {
        "queue_7": {
          "queueLength": {
            "min": 0,
            "max": 1,
            "mean": 0.49999710649822626,
            "median": 0,
            "variance": 0.25000144675088687,
            "std_deviation": 0.5000014467487938,
            "interval_size": 1,
            "jitter": 0.5000028935017737
          },
          "queueingTime": {
            "min": 0.0,
            "max": 1.4476e-05,
            "mean": 6.491164675925926e-06,
            "median": 6.476e-06,
            "variance": 1.0817739722554555e-11,
            "std_deviation": 3.289033250448307e-06,
            "interval_size": 1.4476e-05,
            "jitter": 7.984835324074075e-06
          }
        }
      }
    },
    "s2": {
      "port_1": {
        "queue_7": {
          "queueLength": {
            "min": 0,
            "max": 1,
            "mean": 0.49999710649822626,
            "median": 0,
            "variance": 0.25000144675088687,
            "std_deviation": 0.5000014467487938,
            "interval_size": 1,
            "jitter": 0.5000028935017737
          },
          "queueingTime": {
            "min": 0.0,
            "max": 1.4476e-05,
            "mean": 6.487868842592592e-06,
            "median": 6.476e-06,
            "variance": 1.0833539486726978e-11,
            "std_deviation": 3.2914342598215413e-06,
            "interval_size": 1.4476e-05,
            "jitter": 7.988131157407408e-06
          }
        }
      }
    },
    "s3": {
      "port_2": {
        "queue_7": {
          "queueLength": {
            "min": 0,
            "max": 1,
            "mean": 0.499998553244927,
            "median": 0,
            "variance": 0.25000072337753654,
            "std_deviation": 0.5000007233770133,
            "interval_size": 1,
            "jitter": 0.5000014467550731
          },
          "queueingTime": {
            "min": 0.0,
            "max": 1.4476e-05,
            "mean": 3.268375625e-06,
            "median": 4.76e-07,
            "variance": 1.564782458483517e-11,
            "std_deviation": 3.9557331286166374e-06,
            "interval_size": 1.4476e-05,
            "jitter": 1.1207624375e-05
          }
        }
      }
    },
    "s4": {
      "port_1": {
        "queue_7": {
          "queueLength": {
            "min": 0,
            "max": 1,
            "mean": 0.49999710649822626,
            "median": 0,
            "variance": 0.25000144675088687,
            "std_deviation": 0.5000014467487938,
            "interval_size": 1,
            "jitter": 0.5000028935017737
          },
          "queueingTime": {
            "min": 4.952e-06,
            "max": 2.0952e-05,
            "mean": 1.2870031851851852e-05,
            "median": 1.2952e-05,
            "variance": 1.0642302399337303e-11,
            "std_deviation": 3.262254189871982e-06,
            "interval_size": 1.6e-05,
            "jitter": 8.081968148148147e-06
          }
        }
      },
      "port_2": {
        "queue_7": {
          "queueLength": {
            "min": 0,
            "max": 1,
            "mean": 0.49999710649822626,
            "median": 0,
            "variance": 0.25000144675088687,
            "std_deviation": 0.5000014467487938,
            "interval_size": 1,
            "jitter": 0.5000028935017737
          },
          "queueingTime": {
            "min": 0.0,
            "max": 1.4476e-05,
            "mean": 6.4844243981481485e-06,
            "median": 6.476e-06,
            "variance": 1.06949497756938e-11,
            "std_deviation": 3.2703134063410193e-06,
            "interval_size": 1.4476e-05,
            "jitter": 7.991575601851852e-06
          }
        }
      }
    }
  }
}