{
  "s43": [
    {
      "queue": 7,
      "port": 1,
      "vid": 1908
    }
  ],
  "s49": [
    {
      "queue": 7,
      "port": 1,
      "vid": 1908
    }
  ],
  "s34": [
    {
      "queue": 7,
      "port": 1,
      "vid": 1907
    }
  ],
  "s33": [
    {
      "queue": 7,
      "port": 1,
      "vid": 1908
    }
  ],
  "s35": [
    {
      "queue": 7,
      "port": 1,
      "vid": 1908
    }
  ],
  "s4": [
    {
      "queue": 7,
      "port": 1,
      "vid": 1907
    }
  ],
  "s62": [
    {
      "queue": 7,
      "port": 2,
      "vid": 1908
    },
    {
      "queue": 7,
      "port": 2,
      "vid": 1907
    }
  ],
  "s11": [
    {
      "queue": 7,
      "port": 1,
      "vid": 1908
    }
  ],
  "s53": [
    {
      "queue": 7,
      "port": 1,
      "vid": 1908
    }
  ],
  "s23": [
    {
      "queue": 7,
      "port": 1,
      "vid": 1908
    }
  ],
  "s16": [
    {
      "queue": 7,
      "port": 1,
      "vid": 1907
    }
  ],
  "s15": [
    {
      "queue": 7,
      "port": 1,
      "vid": 1908
    }
  ],
  "s28": [
    {
      "queue": 7,
      "port": 1,
      "vid": 1907
    }
  ],
  "s10": [
    {
      "queue": 7,
      "port": 1,
      "vid": 1907
    }
  ],
  "s31": [
    {
      "queue": 7,
      "port": 1,
      "vid": 1908
    }
  ],
  "s59": [
    {
      "queue": 7,
      "port": 1,
      "vid": 1908
    }
  ],
  "s25": [
    {
      "queue": 7,
      "port": 1,
      "vid": 1908
    }
  ],
  "s30": [
    {
      "queue": 7,
      "port": 1,
      "vid": 1907
    }
  ],
  "s21": [
    {
      "queue": 7,
      "port": 1,
      "vid": 1908
    }
  ],
  "s37": [
    {
      "queue": 7,
      "port": 1,
      "vid": 1908
    }
  ],
  "s57": [
    {
      "queue": 7,
      "port": 1,
      "vid": 1908
    }
  ],
  "s14": [
    {
      "queue": 7,
      "port": 1,
      "vid": 1907
    }
  ],
  "s36": [
    {
      "queue": 7,
      "port": 1,
      "vid": 1907
    }
  ],
  "s48": [
    {
      "queue": 7,
      "port": 1,
      "vid": 1907
    }
  ],
  "s22": [
    {
      "queue": 7,
      "port": 1,
      "vid": 1907
    }
  ],
  "s19": [
    {
      "queue": 7,
      "port": 1,
      "vid": 1908
    }
  ],
  "s6": [
    {
      "queue": 7,
      "port": 1,
      "vid": 1907
    }
  ],
  "s40": [
    {
      "queue": 7,
      "port": 1,
      "vid": 1907
    }
  ],
  "s29": [
    {
      "queue": 7,
      "port": 1,
      "vid": 1908
    }
  ],
  "s20": [
    {
      "queue": 7,
      "port": 1,
      "vid": 1907
    }
  ],
  "s56": [
    {
      "queue": 7,
      "port": 1,
      "vid": 1907
    }
  ],
  "s32": [
    {
      "queue": 7,
      "port": 1,
      "vid": 1907
    }
  ],
  "s44": [
    {
      "queue": 7,
      "port": 1,
      "vid": 1907
    }
  ],
  "s51": [
    {
      "queue": 7,
      "port": 1,
      "vid": 1908
    }
  ],
  "s8": [
    {
      "queue": 7,
      "port": 1,
      "vid": 1907
    }
  ],
  "s54": [
    {
      "queue": 7,
      "port": 1,
      "vid": 1907
    }
  ],
  "s18": [
    {
      "queue": 7,
      "port": 1,
      "vid": 1907
    }
  ],
  "s9": [
    {
      "queue": 7,
      "port": 1,
      "vid": 1908
    }
  ],
  "s17": [
    {
      "queue": 7,
      "port": 1,
      "vid": 1908
    }
  ],
  "s61": [
    {
      "queue": 7,
      "port": 1,
      "vid": 1908
    }
  ],
  "s1": [
    {
      "queue": 7,
      "port": 2,
      "vid": 1908
    },
    {
      "queue": 7,
      "port": 1,
      "vid": 1907
    }
  ],
  "s52": [
    {
      "queue": 7,
      "port": 1,
      "vid": 1907
    }
  ],
  "s45": [
    {
      "queue": 7,
      "port": 1,
      "vid": 1908
    }
  ],
  "s60": [
    {
      "queue": 7,
      "port": 1,
      "vid": 1907
    }
  ],
  "s42": [
    {
      "queue": 7,
      "port": 1,
      "vid": 1907
    }
  ],
  "s3": [
    {
      "queue": 7,
      "port": 1,
      "vid": 1908
    }
  ],
  "s55": [
    {
      "queue": 7,
      "port": 1,
      "vid": 1908
    }
  ],
  "s24": [
    {
      "queue": 7,
      "port": 1,
      "vid": 1907
    }
  ],
  "s13": [
    {
      "queue": 7,
      "port": 1,
      "vid": 1908
    }
  ],
  "s26": [
    {
      "queue": 7,
      "port": 1,
      "vid": 1907
    }
  ],
  "s46": [
    {
      "queue": 7,
      "port": 1,
      "vid": 1907
    }
  ],
  "s39": [
    {
      "queue": 7,
      "port": 1,
      "vid": 1908
    }
  ],
  "s7": [
    {
      "queue": 7,
      "port": 1,
      "vid": 1908
    }
  ],
  "s27": [
    {
      "queue": 7,
      "port": 1,
      "vid": 1908
    }
  ],
  "s2": [
    {
      "queue": 7,
      "port": 1,
      "vid": 1907
    }
  ],
  "s5": [
    {
      "queue": 7,
      "port": 1,
      "vid": 1908
    }
  ],
  "s12": [
    {
      "queue": 7,
      "port": 1,
      "vid": 1907
    }
  ],
  "s47": [
    {
      "queue": 7,
      "port": 1,
      "vid": 1908
    }
  ],
  "s50": [
    {
      "queue": 7,
      "port": 1,
      "vid": 1907
    }
  ],
  "s58": [
    {
      "queue": 7,
      "port": 1,
      "vid": 1907
    }
  ],
  "s41": [
    {
      "queue": 7,
      "port": 1,
      "vid": 1908
    }
  ],
  "s38": [
    {
      "queue": 7,
      "port": 1,
      "vid": 1907
    }
  ]
}