{
  "general": {
    "validation": {
      "valid": false,
      "errors": [
        "Host h2: No periodicity found in the streams received",
        "Stream 1---2---6001 (-> vid 1908): max latency (11.00007504801033) higher than allowed (0.01)",
        "Stream 1---2---6000 (-> vid 1907): max latency (9.000092523998319) higher than allowed (0.01)"
      ]
    }
  },
  "sim_parameters": {
    "**.displayAddresses": "false",
    "**.verbose": "false",
    "**.promiscuous": "true",
    "**.registerProtocol": "true",
    "**.*.clock.clockRate": "\"1us\"",
    "**.h1.eth.address": "\"12:23:34:45:56:67\"",
    "**.h2.eth.address": "\"aa:bb:cc:dd:ee:aa\"",
    "**.*.processingDelay[*].delay": "5us",
    "**.filteringDatabase.database": "xmldoc(\"xml/routing.xml\", \"/filteringDatabases/\")",
    "**.filteringDatabase.cycle": "xmldoc(\"xml/tas.xml\", \"/schedule/\")",
    "**.gateController.initialSchedule": "xmldoc(\"xml/tas.xml\")",
    "**.gateController.enableHoldAndRelease": "false",
    "**.*.eth[*].queuing.tsAlgorithms[*].typename": "\"StrictPriority\"",
    "**.s11.eth[1].queuing.queuingFrames.tciToQueueMapping": "xmldoc(\"xml/tci-maps/tci-map-s11-1.xml\")",
    "**.s22.eth[2].queuing.queuingFrames.tciToQueueMapping": "xmldoc(\"xml/tci-maps/tci-map-s22-2.xml\")",
    "**.s11.eth[2].queuing.queuingFrames.tciToQueueMapping": "xmldoc(\"xml/tci-maps/tci-map-s11-2.xml\")",
    "**.s21.eth[1].queuing.queuingFrames.tciToQueueMapping": "xmldoc(\"xml/tci-maps/tci-map-s21-1.xml\")",
    "**.s12.eth[1].queuing.queuingFrames.tciToQueueMapping": "xmldoc(\"xml/tci-maps/tci-map-s12-1.xml\")",
    "**.*.eth[*].queuing.queues[*].bufferCapacity": "365280b",
    "**.*.eth[*].queuing.queues[*].expressQueue": "true",
    "**.*.eth[*].mac.enablePreemptingFrames": "false",
    "**.*.trafGenSchedApp.jitter": "0.000019",
    "**.*.eth[*].queuing.gateController.jitter": "0.000019",
    "**.*.trafGenSchedApp.initialSchedule": "xmldoc(\"xml/traf-gen.xml\")"
  },
  "streams": {
    "1908": {
      "latency_stats": {
        "min": 5.3047999244881794e-05,
        "max": 11.00007504801033,
        "mean": 1.0705608298460312,
        "median": 1.000070048001362,
        "variance": 1.4238140385390556,
        "std_deviation": 1.1932367906409254,
        "interval_size": 11.000022000011086,
        "jitter": 9.9295142181643,
        "packages_received": 86399
      },
      "udp_dest_port": 6001,
      "name": "1---2---6001",
      "max_allowed_latency": 10000000,
      "talker": "h1",
      "listener": "h2"
    },
    "1907": {
      "latency_stats": {
        "min": 6.45239997538738e-05,
        "max": 9.000092523998319,
        "mean": 1.051974368416387,
        "median": 1.0000805240051704,
        "variance": 1.3957558265569026,
        "std_deviation": 1.1814211046688232,
        "interval_size": 9.000027999998565,
        "jitter": 7.948118155581932,
        "packages_received": 86396
      },
      "udp_dest_port": 6000,
      "name": "1---2---6000",
      "max_allowed_latency": 10000000,
      "talker": "h1",
      "listener": "h2"
    }
  },
  "hosts": {
    "h2": {
      "received_periodically": {
        "is_periodic": false,
        "max-period-length": 250,
        "skipped": "first 0s"
      }
    }
  },
  "switches": {
    "s12": {
      "port_1": {
        "queue_7": {
          "queueLength": {
            "min": 0,
            "max": 10,
            "mean": 1.2064583333333334,
            "median": 1.0,
            "variance": 1.2377524898870942,
            "std_deviation": 1.1125432530410195,
            "interval_size": 10,
            "jitter": 8.793541666666666
          },
          "queueingTime": {
            "min": 0.0,
            "max": 9.000002956,
            "mean": 0.6277272774519612,
            "median": 1.8952e-05,
            "variance": 0.8891919760222521,
            "std_deviation": 0.9429697641081882,
            "interval_size": 9.000002956,
            "jitter": 8.372275678548037
          }
        }
      }
    },
    "s11": {
      "port_1": {
        "queue_7": {
          "queueLength": {
            "min": 0,
            "max": 10,
            "mean": 0.9135826760261804,
            "median": 1,
            "variance": 0.8683248269739523,
            "std_deviation": 0.9318394856271933,
            "interval_size": 10,
            "jitter": 9.08641732397382
          },
          "queueingTime": {
            "min": 0.0,
            "max": 9.000002476,
            "mean": 0.43723316322337963,
            "median": 1.5476e-05,
            "variance": 0.6429412785747749,
            "std_deviation": 0.8018361918588951,
            "interval_size": 9.000002476,
            "jitter": 8.562769312776622
          }
        }
      },
      "port_2": {
        "queue_7": {
          "queueLength": {
            "min": 0,
            "max": 9,
            "mean": 0.8988721130086053,
            "median": 1,
            "variance": 0.8276492486969061,
            "std_deviation": 0.9097523007373525,
            "interval_size": 9,
            "jitter": 8.101127886991394
          },
          "queueingTime": {
            "min": 0.0,
            "max": 8.000013476,
            "mean": 0.4213535469602315,
            "median": 1.5476e-05,
            "variance": 0.6010883901097936,
            "std_deviation": 0.775298903720232,
            "interval_size": 8.000013476,
            "jitter": 7.578659929039768
          }
        }
      }
    },
    "s22": {
      "port_2": {
        "queue_7": {
          "queueLength": {
            "min": 0,
            "max": 4,
            "mean": 0.6491517429562691,
            "median": 1,
            "variance": 0.3898019295507614,
            "std_deviation": 0.6243411964228865,
            "interval_size": 4,
            "jitter": 3.350848257043731
          },
          "queueingTime": {
            "min": 0.0,
            "max": 0.999996956,
            "mean": 0.002779994870291386,
            "median": 6.476e-06,
            "variance": 0.00276426334063854,
            "std_deviation": 0.0525762621402334,
            "interval_size": 0.999996956,
            "jitter": 0.9972169611297087
          }
        }
      }
    },
    "s21": {
      "port_1": {
        "queue_7": {
          "queueLength": {
            "min": 0,
            "max": 10,
            "mean": 1.2050093462270757,
            "median": 1,
            "variance": 1.2476246204189092,
            "std_deviation": 1.1169711815525543,
            "interval_size": 10,
            "jitter": 8.794990653772924
          },
          "queueingTime": {
            "min": 0.0,
            "max": 9.000008956,
            "mean": 0.6305385477335987,
            "median": 1.8476e-05,
            "variance": 0.9098326461097213,
            "std_deviation": 0.9538514801108825,
            "interval_size": 9.000008956,
            "jitter": 8.369470408266402
          }
        }
      }
    }
  }
}