{
  "general": {
    "validation": {
      "valid": false,
      "errors": [
        "Host h3: No periodicity found in the streams received",
        "Stream 1---2---6000 (-> vid 1907): max latency (78.00003804399967) higher than allowed (0.01)",
        "Stream 1---2---6001 (-> vid 1908): max latency (85.00002852399848) higher than allowed (0.01)"
      ]
    }
  },
  "sim_parameters": {
    "**.displayAddresses": "false",
    "**.verbose": "false",
    "**.promiscuous": "true",
    "**.registerProtocol": "true",
    "**.*.clock.clockRate": "\"1us\"",
    "**.h1.eth.address": "\"12:23:34:45:56:67\"",
    "**.h3.eth.address": "\"aa:aa:aa:aa:aa:bb\"",
    "**.h2.eth.address": "\"aa:bb:cc:dd:ee:aa\"",
    "**.*.processingDelay[*].delay": "5us",
    "**.filteringDatabase.database": "xmldoc(\"xml/routing.xml\", \"/filteringDatabases/\")",
    "**.filteringDatabase.cycle": "xmldoc(\"xml/tas.xml\", \"/schedule/\")",
    "**.gateController.initialSchedule": "xmldoc(\"xml/tas.xml\")",
    "**.gateController.enableHoldAndRelease": "false",
    "**.*.eth[*].queuing.tsAlgorithms[*].typename": "\"StrictPriority\"",
    "**.s2.eth[1].queuing.queuingFrames.tciToQueueMapping": "xmldoc(\"xml/tci-maps/tci-map-s2-1.xml\")",
    "**.s3.eth[0].queuing.queuingFrames.tciToQueueMapping": "xmldoc(\"xml/tci-maps/tci-map-s3-0.xml\")",
    "**.s1.eth[1].queuing.queuingFrames.tciToQueueMapping": "xmldoc(\"xml/tci-maps/tci-map-s1-1.xml\")",
    "**.*.eth[*].queuing.queues[*].bufferCapacity": "365280b",
    "**.*.eth[*].queuing.queues[*].expressQueue": "true",
    "**.*.eth[*].mac.enablePreemptingFrames": "false",
    "**.*.trafGenSchedApp.jitter": "0.000002",
    "**.*.eth[*].queuing.gateController.jitter": "0.000002",
    "**.*.trafGenSchedApp.initialSchedule": "xmldoc(\"xml/traf-gen.xml\")"
  },
  "streams": {
    "1907": {
      "latency_stats": {
        "min": 1.000030048,
        "max": 78.00003804399967,
        "mean": 58.64370049490978,
        "median": 58.000038043999666,
        "variance": 23.109055441368834,
        "std_deviation": 4.807187893287388,
        "interval_size": 77.00000799599967,
        "jitter": 57.64367044690978,
        "packages_received": 64928
      },
      "udp_dest_port": 6000,
      "name": "1---2---6000",
      "max_allowed_latency": 10000000,
      "talker": "h1",
      "listener": "h3"
    },
    "1908": {
      "latency_stats": {
        "min": 1.0000310480000003,
        "max": 85.00002852399848,
        "mean": 59.04738310715476,
        "median": 59.000028524009394,
        "variance": 22.606777693719536,
        "std_deviation": 4.754658525458956,
        "interval_size": 83.99999747599848,
        "jitter": 58.04735205915476,
        "packages_received": 64918
      },
      "udp_dest_port": 6001,
      "name": "1---2---6001",
      "max_allowed_latency": 10000000,
      "talker": "h2",
      "listener": "h3"
    }
  },
  "hosts": {
    "h3": {
      "received_periodically": {
        "is_periodic": false,
        "max-period-length": 250,
        "skipped": "first 0s"
      }
    }
  },
  "switches": {
    "s1": {
      "port_1": {
        "queue_7": {
          "queueLength": {
            "min": 0,
            "max": 44,
            "mean": 43.53008346053962,
            "median": 44,
            "variance": 1.3694841341053432,
            "std_deviation": 1.1702496033348369,
            "interval_size": 44,
            "jitter": 43.53008346053962
          },
          "queueingTime": {
            "min": 0.999994476,
            "max": 77.999996476,
            "mean": 58.476385376813205,
            "median": 57.999996476,
            "variance": 22.966651856494064,
            "std_deviation": 4.7923534778325845,
            "interval_size": 77.00000200000001,
            "jitter": 57.47639090081321
          }
        }
      }
    },
    "s2": {
      "port_1": {
        "queue_7": {
          "queueLength": {
            "min": 0,
            "max": 44,
            "mean": 43.51692439862543,
            "median": 44.0,
            "variance": 1.897161999584456,
            "std_deviation": 1.3773750395533004,
            "interval_size": 44,
            "jitter": 43.51692439862543
          },
          "queueingTime": {
            "min": 0.999994476,
            "max": 83.999996476,
            "mean": 58.464559676033886,
            "median": 57.999996476,
            "variance": 22.36018096676877,
            "std_deviation": 4.728655302172994,
            "interval_size": 83.00000200000001,
            "jitter": 57.46456520003389
          }
        }
      }
    },
    "s3": {
      "port_0": {
        "queue_7": {
          "queueLength": {
            "min": 0,
            "max": 2,
            "mean": 0.8029719593059524,
            "median": 1.0,
            "variance": 0.4611817270461956,
            "std_deviation": 0.6791036202570235,
            "interval_size": 2,
            "jitter": 1.1970280406940477
          },
          "queueingTime": {
            "min": 0.0,
            "max": 0.999998476,
            "mean": 0.375106541926744,
            "median": 5.996e-06,
            "variance": 0.23440022459037957,
            "std_deviation": 0.48414896941992924,
            "interval_size": 0.999998476,
            "jitter": 0.624891934073256
          }
        }
      }
    }
  }
}