{
  "general": {
    "validation": {
      "valid": true,
      "errors": []
    }
  },
  "sim_parameters": {
    "**.displayAddresses": "false",
    "**.verbose": "false",
    "**.promiscuous": "true",
    "**.registerProtocol": "true",
    "**.*.clock.clockRate": "\"1us\"",
    "**.h3.eth.address": "\"aa:aa:aa:aa:aa:bb\"",
    "**.h1.eth.address": "\"12:23:34:45:56:67\"",
    "**.h2.eth.address": "\"aa:bb:cc:dd:ee:aa\"",
    "**.*.processingDelay[*].delay": "5us",
    "**.filteringDatabase.database": "xmldoc(\"xml/routing.xml\", \"/filteringDatabases/\")",
    "**.filteringDatabase.cycle": "xmldoc(\"xml/tas.xml\", \"/schedule/\")",
    "**.gateController.initialSchedule": "xmldoc(\"xml/tas.xml\")",
    "**.gateController.enableHoldAndRelease": "false",
    "**.*.eth[*].queuing.tsAlgorithms[*].typename": "\"StrictPriority\"",
    "**.s2.eth[1].queuing.queuingFrames.tciToQueueMapping": "xmldoc(\"xml/tci-maps/tci-map-s2-1.xml\")",
    "**.s3.eth[0].queuing.queuingFrames.tciToQueueMapping": "xmldoc(\"xml/tci-maps/tci-map-s3-0.xml\")",
    "**.s1.eth[1].queuing.queuingFrames.tciToQueueMapping": "xmldoc(\"xml/tci-maps/tci-map-s1-1.xml\")",
    "**.*.eth[*].queuing.queues[*].bufferCapacity": "365280b",
    "**.*.eth[*].queuing.queues[*].expressQueue": "true",
    "**.*.eth[*].mac.enablePreemptingFrames": "false",
    "**.*.trafGenSchedApp.jitter": "0.000008",
    "**.*.eth[*].queuing.gateController.jitter": "0.000008",
    "**.*.trafGenSchedApp.initialSchedule": "xmldoc(\"xml/traf-gen.xml\")"
  },
  "streams": {
    "1907": {
      "latency_stats": {
        "min": 4.052399890497327e-05,
        "max": 5.652400432154536e-05,
        "mean": 4.8542054299841754e-05,
        "median": 4.8524001613259315e-05,
        "variance": 1.0942984114787797e-11,
        "std_deviation": 3.308018155147852e-06,
        "interval_size": 1.6000005416572094e-05,
        "jitter": 8.018055394868485e-06,
        "packages_received": 86400
      }
    },
    "1908": {
      "latency_stats": {
        "min": 3.557199670467526e-05,
        "max": 5.004800186725333e-05,
        "mean": 4.212071435619953e-05,
        "median": 4.2047999158967286e-05,
        "variance": 1.049303711274698e-11,
        "std_deviation": 3.2392957741995374e-06,
        "interval_size": 1.4476005162578076e-05,
        "jitter": 7.927287511053804e-06,
        "packages_received": 86400
      }
    }
  },
  "hosts": {
    "h3": {
      "received_periodically": {
        "is_periodic": true,
        "max-period-length": 250,
        "period": [
          1907,
          1908
        ],
        "period_length": 2,
        "skipped": "first 0s"
      }
    }
  },
  "switches": {
    "s1": {
      "port_1": {
        "queue_7": {
          "queueLength": {
            "min": 0,
            "max": 1,
            "mean": 0.49999710649822626,
            "median": 0,
            "variance": 0.25000144675088687,
            "std_deviation": 0.5000014467487938,
            "interval_size": 1,
            "jitter": 0.5000028935017737
          },
          "queueingTime": {
            "min": 0.0,
            "max": 1.4476e-05,
            "mean": 6.483824166666667e-06,
            "median": 6.476e-06,
            "variance": 1.0821602553186263e-11,
            "std_deviation": 3.289620426916495e-06,
            "interval_size": 1.4476e-05,
            "jitter": 7.992175833333334e-06
          }
        }
      }
    },
    "s2": {
      "port_1": {
        "queue_7": {
          "queueLength": {
            "min": 0,
            "max": 1,
            "mean": 0.49999710649822626,
            "median": 0,
            "variance": 0.25000144675088687,
            "std_deviation": 0.5000014467487938,
            "interval_size": 1,
            "jitter": 0.5000028935017737
          },
          "queueingTime": {
            "min": 0.0,
            "max": 1.4476e-05,
            "mean": 6.477629212962963e-06,
            "median": 6.476e-06,
            "variance": 1.0826590620278781e-11,
            "std_deviation": 3.290378491948727e-06,
            "interval_size": 1.4476e-05,
            "jitter": 7.998370787037037e-06
          }
        }
      }
    },
    "s3": {
      "port_0": {
        "queue_7": {
          "queueLength": {
            "min": 0,
            "max": 1,
            "mean": 0.499998553244927,
            "median": 0,
            "variance": 0.25000072337753654,
            "std_deviation": 0.5000007233770133,
            "interval_size": 1,
            "jitter": 0.5000014467550731
          },
          "queueingTime": {
            "min": 0.0,
            "max": 1.4476e-05,
            "mean": 3.2786575925925927e-06,
            "median": 4.76e-07,
            "variance": 1.5729351875765706e-11,
            "std_deviation": 3.966024694296003e-06,
            "interval_size": 1.4476e-05,
            "jitter": 1.1197342407407408e-05
          }
        }
      }
    }
  }
}