{
  "general": {
    "validation": {
      "valid": false,
      "errors": [
        "Host h3: No periodicity found in the streams received"
      ]
    }
  },
  "sim_parameters": {
    "**.displayAddresses": "false",
    "**.verbose": "false",
    "**.promiscuous": "true",
    "**.registerProtocol": "true",
    "**.*.clock.clockRate": "\"1us\"",
    "**.h3.eth.address": "\"aa:aa:aa:aa:aa:bb\"",
    "**.h1.eth.address": "\"12:23:34:45:56:67\"",
    "**.h2.eth.address": "\"aa:bb:cc:dd:ee:aa\"",
    "**.*.processingDelay[*].delay": "5us",
    "**.filteringDatabase.database": "xmldoc(\"xml/routing.xml\", \"/filteringDatabases/\")",
    "**.filteringDatabase.cycle": "xmldoc(\"xml/tas.xml\", \"/schedule/\")",
    "**.gateController.initialSchedule": "xmldoc(\"xml/tas.xml\")",
    "**.gateController.enableHoldAndRelease": "false",
    "**.*.eth[*].queuing.tsAlgorithms[*].typename": "\"StrictPriority\"",
    "**.s2.eth[1].queuing.queuingFrames.tciToQueueMapping": "xmldoc(\"xml/tci-maps/tci-map-s2-1.xml\")",
    "**.s3.eth[0].queuing.queuingFrames.tciToQueueMapping": "xmldoc(\"xml/tci-maps/tci-map-s3-0.xml\")",
    "**.s1.eth[1].queuing.queuingFrames.tciToQueueMapping": "xmldoc(\"xml/tci-maps/tci-map-s1-1.xml\")",
    "**.*.eth[*].queuing.queues[*].bufferCapacity": "365280b",
    "**.*.eth[*].queuing.queues[*].expressQueue": "true",
    "**.*.eth[*].mac.enablePreemptingFrames": "false",
    "**.*.trafGenSchedApp.jitter": "0.00001",
    "**.*.eth[*].queuing.gateController.jitter": "0.00001",
    "**.*.trafGenSchedApp.initialSchedule": "xmldoc(\"xml/traf-gen.xml\")"
  },
  "streams": {
    "1908": {
      "latency_stats": {
        "min": 0.00019852399418596178,
        "max": 0.0002270440018037334,
        "mean": 0.00021318401783606232,
        "median": 0.00021304401161614805,
        "variance": 3.523974211603914e-11,
        "std_deviation": 5.9363071109941016e-06,
        "interval_size": 2.8520007617771626e-05,
        "jitter": 1.466002365010054e-05,
        "packages_received": 86400
      },
      "udp_dest_port": 6001,
      "name": "1---2---6001",
      "max_allowed_latency": 10000000,
      "talker": "h2",
      "listener": "h3"
    },
    "1907": {
      "latency_stats": {
        "min": 0.00019852399418596178,
        "max": 0.0002270440018037334,
        "mean": 0.00021240842617434668,
        "median": 0.00021252399892546237,
        "variance": 3.487983639010591e-11,
        "std_deviation": 5.905915372751789e-06,
        "interval_size": 2.8520007617771626e-05,
        "jitter": 1.4635575629386724e-05,
        "packages_received": 86400
      },
      "udp_dest_port": 6000,
      "name": "1---2---6000",
      "max_allowed_latency": 10000000,
      "talker": "h1",
      "listener": "h3"
    }
  },
  "hosts": {
    "h3": {
      "received_periodically": {
        "is_periodic": false,
        "max-period-length": 250,
        "skipped": "first 0s"
      }
    }
  },
  "switches": {
    "s1": {
      "port_1": {
        "queue_7": {
          "queueLength": {
            "min": 0,
            "max": 1,
            "mean": 0.49999710649822626,
            "median": 0,
            "variance": 0.25000144675088687,
            "std_deviation": 0.5000014467487938,
            "interval_size": 1,
            "jitter": 0.5000028935017737
          },
          "queueingTime": {
            "min": 7.6476e-05,
            "max": 9.6476e-05,
            "mean": 8.647389351851852e-05,
            "median": 8.6476e-05,
            "variance": 1.6848454456884572e-11,
            "std_deviation": 4.104686889019012e-06,
            "interval_size": 1.9999999999999998e-05,
            "jitter": 1.0002106481481486e-05
          }
        }
      }
    },
    "s2": {
      "port_1": {
        "queue_7": {
          "queueLength": {
            "min": 0,
            "max": 1,
            "mean": 0.49999710649822626,
            "median": 0,
            "variance": 0.25000144675088687,
            "std_deviation": 0.5000014467487938,
            "interval_size": 1,
            "jitter": 0.5000028935017737
          },
          "queueingTime": {
            "min": 7.6476e-05,
            "max": 9.6476e-05,
            "mean": 8.647641666666667e-05,
            "median": 8.6476e-05,
            "variance": 1.7062558420815054e-11,
            "std_deviation": 4.130684982035674e-06,
            "interval_size": 1.9999999999999998e-05,
            "jitter": 1.0000416666666663e-05
          }
        }
      }
    },
    "s3": {
      "port_0": {
        "queue_7": {
          "queueLength": {
            "min": 0,
            "max": 2,
            "mean": 0.999997106489854,
            "median": 1,
            "variance": 0.5000028935101462,
            "std_deviation": 0.7071088272042332,
            "interval_size": 2,
            "jitter": 1.0000028935101462
          },
          "queueingTime": {
            "min": 7.6476e-05,
            "max": 0.000104996,
            "mean": 9.074906712962964e-05,
            "median": 9.0996e-05,
            "variance": 2.0879570451341127e-11,
            "std_deviation": 4.5694168611914946e-06,
            "interval_size": 2.851999999999999e-05,
            "jitter": 1.4273067129629631e-05
          }
        }
      }
    }
  }
}