{
  "general": {
    "validation": {
      "valid": true,
      "errors": []
    }
  },
  "sim_parameters": {
    "**.displayAddresses": "false",
    "**.verbose": "false",
    "**.promiscuous": "true",
    "**.registerProtocol": "true",
    "**.*.clock.clockRate": "\"1us\"",
    "**.h1.eth.address": "\"12:23:34:45:56:67\"",
    "**.h2.eth.address": "\"aa:bb:cc:dd:ee:aa\"",
    "**.*.processingDelay[*].delay": "5us",
    "**.filteringDatabase.database": "xmldoc(\"xml/routing.xml\", \"/filteringDatabases/\")",
    "**.filteringDatabase.cycle": "xmldoc(\"xml/tas.xml\", \"/schedule/\")",
    "**.gateController.initialSchedule": "xmldoc(\"xml/tas.xml\")",
    "**.gateController.enableHoldAndRelease": "false",
    "**.*.eth[*].queuing.tsAlgorithms[*].typename": "\"StrictPriority\"",
    "**.s17.eth[1].queuing.queuingFrames.tciToQueueMapping": "xmldoc(\"xml/tci-maps/tci-map-s17-1.xml\")",
    "**.s62.eth[2].queuing.queuingFrames.tciToQueueMapping": "xmldoc(\"xml/tci-maps/tci-map-s62-2.xml\")",
    "**.s11.eth[1].queuing.queuingFrames.tciToQueueMapping": "xmldoc(\"xml/tci-maps/tci-map-s11-1.xml\")",
    "**.s53.eth[1].queuing.queuingFrames.tciToQueueMapping": "xmldoc(\"xml/tci-maps/tci-map-s53-1.xml\")",
    "**.s51.eth[1].queuing.queuingFrames.tciToQueueMapping": "xmldoc(\"xml/tci-maps/tci-map-s51-1.xml\")",
    "**.s45.eth[1].queuing.queuingFrames.tciToQueueMapping": "xmldoc(\"xml/tci-maps/tci-map-s45-1.xml\")",
    "**.s42.eth[1].queuing.queuingFrames.tciToQueueMapping": "xmldoc(\"xml/tci-maps/tci-map-s42-1.xml\")",
    "**.s5.eth[1].queuing.queuingFrames.tciToQueueMapping": "xmldoc(\"xml/tci-maps/tci-map-s5-1.xml\")",
    "**.s36.eth[1].queuing.queuingFrames.tciToQueueMapping": "xmldoc(\"xml/tci-maps/tci-map-s36-1.xml\")",
    "**.s15.eth[1].queuing.queuingFrames.tciToQueueMapping": "xmldoc(\"xml/tci-maps/tci-map-s15-1.xml\")",
    "**.s16.eth[1].queuing.queuingFrames.tciToQueueMapping": "xmldoc(\"xml/tci-maps/tci-map-s16-1.xml\")",
    "**.s43.eth[1].queuing.queuingFrames.tciToQueueMapping": "xmldoc(\"xml/tci-maps/tci-map-s43-1.xml\")",
    "**.s52.eth[1].queuing.queuingFrames.tciToQueueMapping": "xmldoc(\"xml/tci-maps/tci-map-s52-1.xml\")",
    "**.s49.eth[1].queuing.queuingFrames.tciToQueueMapping": "xmldoc(\"xml/tci-maps/tci-map-s49-1.xml\")",
    "**.s13.eth[1].queuing.queuingFrames.tciToQueueMapping": "xmldoc(\"xml/tci-maps/tci-map-s13-1.xml\")",
    "**.s9.eth[1].queuing.queuingFrames.tciToQueueMapping": "xmldoc(\"xml/tci-maps/tci-map-s9-1.xml\")",
    "**.s47.eth[1].queuing.queuingFrames.tciToQueueMapping": "xmldoc(\"xml/tci-maps/tci-map-s47-1.xml\")",
    "**.s48.eth[1].queuing.queuingFrames.tciToQueueMapping": "xmldoc(\"xml/tci-maps/tci-map-s48-1.xml\")",
    "**.s2.eth[1].queuing.queuingFrames.tciToQueueMapping": "xmldoc(\"xml/tci-maps/tci-map-s2-1.xml\")",
    "**.s57.eth[1].queuing.queuingFrames.tciToQueueMapping": "xmldoc(\"xml/tci-maps/tci-map-s57-1.xml\")",
    "**.s22.eth[1].queuing.queuingFrames.tciToQueueMapping": "xmldoc(\"xml/tci-maps/tci-map-s22-1.xml\")",
    "**.s38.eth[1].queuing.queuingFrames.tciToQueueMapping": "xmldoc(\"xml/tci-maps/tci-map-s38-1.xml\")",
    "**.s37.eth[1].queuing.queuingFrames.tciToQueueMapping": "xmldoc(\"xml/tci-maps/tci-map-s37-1.xml\")",
    "**.s39.eth[1].queuing.queuingFrames.tciToQueueMapping": "xmldoc(\"xml/tci-maps/tci-map-s39-1.xml\")",
    "**.s61.eth[1].queuing.queuingFrames.tciToQueueMapping": "xmldoc(\"xml/tci-maps/tci-map-s61-1.xml\")",
    "**.s60.eth[1].queuing.queuingFrames.tciToQueueMapping": "xmldoc(\"xml/tci-maps/tci-map-s60-1.xml\")",
    "**.s56.eth[1].queuing.queuingFrames.tciToQueueMapping": "xmldoc(\"xml/tci-maps/tci-map-s56-1.xml\")",
    "**.s23.eth[1].queuing.queuingFrames.tciToQueueMapping": "xmldoc(\"xml/tci-maps/tci-map-s23-1.xml\")",
    "**.s30.eth[1].queuing.queuingFrames.tciToQueueMapping": "xmldoc(\"xml/tci-maps/tci-map-s30-1.xml\")",
    "**.s34.eth[1].queuing.queuingFrames.tciToQueueMapping": "xmldoc(\"xml/tci-maps/tci-map-s34-1.xml\")",
    "**.s10.eth[1].queuing.queuingFrames.tciToQueueMapping": "xmldoc(\"xml/tci-maps/tci-map-s10-1.xml\")",
    "**.s54.eth[1].queuing.queuingFrames.tciToQueueMapping": "xmldoc(\"xml/tci-maps/tci-map-s54-1.xml\")",
    "**.s25.eth[1].queuing.queuingFrames.tciToQueueMapping": "xmldoc(\"xml/tci-maps/tci-map-s25-1.xml\")",
    "**.s24.eth[1].queuing.queuingFrames.tciToQueueMapping": "xmldoc(\"xml/tci-maps/tci-map-s24-1.xml\")",
    "**.s27.eth[1].queuing.queuingFrames.tciToQueueMapping": "xmldoc(\"xml/tci-maps/tci-map-s27-1.xml\")",
    "**.s21.eth[1].queuing.queuingFrames.tciToQueueMapping": "xmldoc(\"xml/tci-maps/tci-map-s21-1.xml\")",
    "**.s12.eth[1].queuing.queuingFrames.tciToQueueMapping": "xmldoc(\"xml/tci-maps/tci-map-s12-1.xml\")",
    "**.s46.eth[1].queuing.queuingFrames.tciToQueueMapping": "xmldoc(\"xml/tci-maps/tci-map-s46-1.xml\")",
    "**.s32.eth[1].queuing.queuingFrames.tciToQueueMapping": "xmldoc(\"xml/tci-maps/tci-map-s32-1.xml\")",
    "**.s14.eth[1].queuing.queuingFrames.tciToQueueMapping": "xmldoc(\"xml/tci-maps/tci-map-s14-1.xml\")",
    "**.s1.eth[1].queuing.queuingFrames.tciToQueueMapping": "xmldoc(\"xml/tci-maps/tci-map-s1-1.xml\")",
    "**.s41.eth[1].queuing.queuingFrames.tciToQueueMapping": "xmldoc(\"xml/tci-maps/tci-map-s41-1.xml\")",
    "**.s29.eth[1].queuing.queuingFrames.tciToQueueMapping": "xmldoc(\"xml/tci-maps/tci-map-s29-1.xml\")",
    "**.s55.eth[1].queuing.queuingFrames.tciToQueueMapping": "xmldoc(\"xml/tci-maps/tci-map-s55-1.xml\")",
    "**.s35.eth[1].queuing.queuingFrames.tciToQueueMapping": "xmldoc(\"xml/tci-maps/tci-map-s35-1.xml\")",
    "**.s18.eth[1].queuing.queuingFrames.tciToQueueMapping": "xmldoc(\"xml/tci-maps/tci-map-s18-1.xml\")",
    "**.s19.eth[1].queuing.queuingFrames.tciToQueueMapping": "xmldoc(\"xml/tci-maps/tci-map-s19-1.xml\")",
    "**.s59.eth[1].queuing.queuingFrames.tciToQueueMapping": "xmldoc(\"xml/tci-maps/tci-map-s59-1.xml\")",
    "**.s50.eth[1].queuing.queuingFrames.tciToQueueMapping": "xmldoc(\"xml/tci-maps/tci-map-s50-1.xml\")",
    "**.s7.eth[1].queuing.queuingFrames.tciToQueueMapping": "xmldoc(\"xml/tci-maps/tci-map-s7-1.xml\")",
    "**.s31.eth[1].queuing.queuingFrames.tciToQueueMapping": "xmldoc(\"xml/tci-maps/tci-map-s31-1.xml\")",
    "**.s3.eth[1].queuing.queuingFrames.tciToQueueMapping": "xmldoc(\"xml/tci-maps/tci-map-s3-1.xml\")",
    "**.s26.eth[1].queuing.queuingFrames.tciToQueueMapping": "xmldoc(\"xml/tci-maps/tci-map-s26-1.xml\")",
    "**.s28.eth[1].queuing.queuingFrames.tciToQueueMapping": "xmldoc(\"xml/tci-maps/tci-map-s28-1.xml\")",
    "**.s1.eth[2].queuing.queuingFrames.tciToQueueMapping": "xmldoc(\"xml/tci-maps/tci-map-s1-2.xml\")",
    "**.s20.eth[1].queuing.queuingFrames.tciToQueueMapping": "xmldoc(\"xml/tci-maps/tci-map-s20-1.xml\")",
    "**.s8.eth[1].queuing.queuingFrames.tciToQueueMapping": "xmldoc(\"xml/tci-maps/tci-map-s8-1.xml\")",
    "**.s6.eth[1].queuing.queuingFrames.tciToQueueMapping": "xmldoc(\"xml/tci-maps/tci-map-s6-1.xml\")",
    "**.s58.eth[1].queuing.queuingFrames.tciToQueueMapping": "xmldoc(\"xml/tci-maps/tci-map-s58-1.xml\")",
    "**.s33.eth[1].queuing.queuingFrames.tciToQueueMapping": "xmldoc(\"xml/tci-maps/tci-map-s33-1.xml\")",
    "**.s44.eth[1].queuing.queuingFrames.tciToQueueMapping": "xmldoc(\"xml/tci-maps/tci-map-s44-1.xml\")",
    "**.s40.eth[1].queuing.queuingFrames.tciToQueueMapping": "xmldoc(\"xml/tci-maps/tci-map-s40-1.xml\")",
    "**.s4.eth[1].queuing.queuingFrames.tciToQueueMapping": "xmldoc(\"xml/tci-maps/tci-map-s4-1.xml\")",
    "**.*.eth[*].queuing.queues[*].bufferCapacity": "365280b",
    "**.*.eth[*].queuing.queues[*].expressQueue": "true",
    "**.*.eth[*].mac.enablePreemptingFrames": "false",
    "**.*.trafGenSchedApp.jitter": "0.000001",
    "**.*.eth[*].queuing.gateController.jitter": "0.000001",
    "**.*.trafGenSchedApp.initialSchedule": "xmldoc(\"xml/traf-gen.xml\")"
  },
  "streams": {
    "1907": {
      "latency_stats": {
        "min": 0.0005195239991735434,
        "max": 0.0005215240016696043,
        "mean": 0.000520527473240532,
        "median": 0.0005205240013310686,
        "variance": 4.973302304703369e-13,
        "std_deviation": 7.05216442285868e-07,
        "interval_size": 2.0000024960609153e-06,
        "jitter": 1.003474066988536e-06,
        "packages_received": 86400
      },
      "udp_dest_port": 6000,
      "name": "1---2---6000",
      "max_allowed_latency": 10000000,
      "talker": "h1",
      "listener": "h2"
    },
    "1908": {
      "latency_stats": {
        "min": 0.0005170479998923838,
        "max": 0.0005190480005694553,
        "mean": 0.0005180513679190343,
        "median": 0.0005180480002309196,
        "variance": 4.999596768285344e-13,
        "std_deviation": 7.07078267823679e-07,
        "interval_size": 2.0000006770715117e-06,
        "jitter": 1.0033680266504589e-06,
        "packages_received": 86400
      },
      "udp_dest_port": 6001,
      "name": "1---2---6001",
      "max_allowed_latency": 10000000,
      "talker": "h1",
      "listener": "h2"
    }
  },
  "hosts": {
    "h2": {
      "received_periodically": {
        "is_periodic": true,
        "max-period-length": 250,
        "period": [
          1907,
          1908
        ],
        "period_length": 2,
        "skipped": "first 0s"
      }
    }
  },
  "switches": {
    "s60": {
      "port_1": {
        "queue_7": {
          "queueLength": {
            "min": 0,
            "max": 1,
            "mean": 0.49999710649822626,
            "median": 0,
            "variance": 0.25000144675088687,
            "std_deviation": 0.5000014467487938,
            "interval_size": 1,
            "jitter": 0.5000028935017737
          },
          "queueingTime": {
            "min": 1.476e-06,
            "max": 3.476e-06,
            "mean": 2.476150462962963e-06,
            "median": 2.476e-06,
            "variance": 5.016840246297003e-13,
            "std_deviation": 7.082965654510124e-07,
            "interval_size": 2e-06,
            "jitter": 1.0001504629629632e-06
          }
        }
      }
    },
    "s62": {
      "port_2": {
        "queue_7": {
          "queueLength": {
            "min": 0,
            "max": 1,
            "mean": 0.499998553244927,
            "median": 0,
            "variance": 0.25000072337753654,
            "std_deviation": 0.5000007233770133,
            "interval_size": 1,
            "jitter": 0.5000014467550731
          },
          "queueingTime": {
            "min": 0.0,
            "max": 3.476e-06,
            "mean": 1.2393483796296296e-06,
            "median": 7.38e-07,
            "variance": 1.7871195841847828e-12,
            "std_deviation": 1.3368319206933918e-06,
            "interval_size": 3.476e-06,
            "jitter": 2.23665162037037e-06
          }
        }
      }
    },
    "s61": {
      "port_1": {
        "queue_7": {
          "queueLength": {
            "min": 0,
            "max": 1,
            "mean": 0.49999710649822626,
            "median": 0,
            "variance": 0.25000144675088687,
            "std_deviation": 0.5000014467487938,
            "interval_size": 1,
            "jitter": 0.5000028935017737
          },
          "queueingTime": {
            "min": 1.476e-06,
            "max": 3.476e-06,
            "mean": 2.474611111111111e-06,
            "median": 2.476e-06,
            "variance": 5.016936924424279e-13,
            "std_deviation": 7.083033901107829e-07,
            "interval_size": 2e-06,
            "jitter": 1.0013888888888889e-06
          }
        }
      }
    },
    "s20": {
      "port_1": {
        "queue_7": {
          "queueLength": {
            "min": 0,
            "max": 1,
            "mean": 0.49999710649822626,
            "median": 0,
            "variance": 0.25000144675088687,
            "std_deviation": 0.5000014467487938,
            "interval_size": 1,
            "jitter": 0.5000028935017737
          },
          "queueingTime": {
            "min": 1.476e-06,
            "max": 3.476e-06,
            "mean": 2.4800162037037035e-06,
            "median": 2.476e-06,
            "variance": 4.978715769547658e-13,
            "std_deviation": 7.056001537377708e-07,
            "interval_size": 2e-06,
            "jitter": 1.0040162037037036e-06
          }
        }
      }
    },
    "s22": {
      "port_1": {
        "queue_7": {
          "queueLength": {
            "min": 0,
            "max": 1,
            "mean": 0.49999710649822626,
            "median": 0,
            "variance": 0.25000144675088687,
            "std_deviation": 0.5000014467487938,
            "interval_size": 1,
            "jitter": 0.5000028935017737
          },
          "queueingTime": {
            "min": 1.476e-06,
            "max": 3.476e-06,
            "mean": 2.472296296296296e-06,
            "median": 2.476e-06,
            "variance": 4.971448143475597e-13,
            "std_deviation": 7.050849695941332e-07,
            "interval_size": 2e-06,
            "jitter": 1.0037037037037038e-06
          }
        }
      }
    },
    "s21": {
      "port_1": {
        "queue_7": {
          "queueLength": {
            "min": 0,
            "max": 1,
            "mean": 0.49999710649822626,
            "median": 0,
            "variance": 0.25000144675088687,
            "std_deviation": 0.5000014467487938,
            "interval_size": 1,
            "jitter": 0.5000028935017737
          },
          "queueingTime": {
            "min": 1.476e-06,
            "max": 3.476e-06,
            "mean": 2.4763125e-06,
            "median": 2.476e-06,
            "variance": 4.992302175083045e-13,
            "std_deviation": 7.065622531018087e-07,
            "interval_size": 2e-06,
            "jitter": 1.0003125e-06
          }
        }
      }
    },
    "s24": {
      "port_1": {
        "queue_7": {
          "queueLength": {
            "min": 0,
            "max": 1,
            "mean": 0.49999710649822626,
            "median": 0,
            "variance": 0.25000144675088687,
            "std_deviation": 0.5000014467487938,
            "interval_size": 1,
            "jitter": 0.5000028935017737
          },
          "queueingTime": {
            "min": 1.476e-06,
            "max": 3.476e-06,
            "mean": 2.4778171296296297e-06,
            "median": 2.476e-06,
            "variance": 4.999446140655349e-13,
            "std_deviation": 7.070676163320838e-07,
            "interval_size": 2e-06,
            "jitter": 1.0018171296296297e-06
          }
        }
      }
    },
    "s23": {
      "port_1": {
        "queue_7": {
          "queueLength": {
            "min": 0,
            "max": 1,
            "mean": 0.49999710649822626,
            "median": 0,
            "variance": 0.25000144675088687,
            "std_deviation": 0.5000014467487938,
            "interval_size": 1,
            "jitter": 0.5000028935017737
          },
          "queueingTime": {
            "min": 1.476e-06,
            "max": 3.476e-06,
            "mean": 2.477111111111111e-06,
            "median": 2.476e-06,
            "variance": 4.96555438527452e-13,
            "std_deviation": 7.046668989866431e-07,
            "interval_size": 2e-06,
            "jitter": 1.001111111111111e-06
          }
        }
      }
    },
    "s26": {
      "port_1": {
        "queue_7": {
          "queueLength": {
            "min": 0,
            "max": 1,
            "mean": 0.49999710649822626,
            "median": 0,
            "variance": 0.25000144675088687,
            "std_deviation": 0.5000014467487938,
            "interval_size": 1,
            "jitter": 0.5000028935017737
          },
          "queueingTime": {
            "min": 1.476e-06,
            "max": 3.476e-06,
            "mean": 2.4760115740740742e-06,
            "median": 2.476e-06,
            "variance": 4.998784706816736e-13,
            "std_deviation": 7.070208417590486e-07,
            "interval_size": 2e-06,
            "jitter": 1.0000115740740743e-06
          }
        }
      }
    },
    "s25": {
      "port_1": {
        "queue_7": {
          "queueLength": {
            "min": 0,
            "max": 1,
            "mean": 0.49999710649822626,
            "median": 0,
            "variance": 0.25000144675088687,
            "std_deviation": 0.5000014467487938,
            "interval_size": 1,
            "jitter": 0.5000028935017737
          },
          "queueingTime": {
            "min": 1.476e-06,
            "max": 3.476e-06,
            "mean": 2.4736967592592593e-06,
            "median": 2.476e-06,
            "variance": 5.0140096129692e-13,
            "std_deviation": 7.080967174736231e-07,
            "interval_size": 2e-06,
            "jitter": 1.0023032407407405e-06
          }
        }
      }
    },
    "s28": {
      "port_1": {
        "queue_7": {
          "queueLength": {
            "min": 0,
            "max": 1,
            "mean": 0.49999710649822626,
            "median": 0,
            "variance": 0.25000144675088687,
            "std_deviation": 0.5000014467487938,
            "interval_size": 1,
            "jitter": 0.5000028935017737
          },
          "queueingTime": {
            "min": 1.476e-06,
            "max": 3.476e-06,
            "mean": 2.4760694444444446e-06,
            "median": 2.476e-06,
            "variance": 5.016724682384441e-13,
            "std_deviation": 7.082884075279251e-07,
            "interval_size": 2e-06,
            "jitter": 1.0000694444444446e-06
          }
        }
      }
    },
    "s27": {
      "port_1": {
        "queue_7": {
          "queueLength": {
            "min": 0,
            "max": 1,
            "mean": 0.49999710649822626,
            "median": 0,
            "variance": 0.25000144675088687,
            "std_deviation": 0.5000014467487938,
            "interval_size": 1,
            "jitter": 0.5000028935017737
          },
          "queueingTime": {
            "min": 1.476e-06,
            "max": 3.476e-06,
            "mean": 2.4774236111111112e-06,
            "median": 2.476e-06,
            "variance": 5.019366531537787e-13,
            "std_deviation": 7.084748782799421e-07,
            "interval_size": 2e-06,
            "jitter": 1.0014236111111113e-06
          }
        }
      }
    },
    "s29": {
      "port_1": {
        "queue_7": {
          "queueLength": {
            "min": 0,
            "max": 1,
            "mean": 0.49999710649822626,
            "median": 0,
            "variance": 0.25000144675088687,
            "std_deviation": 0.5000014467487938,
            "interval_size": 1,
            "jitter": 0.5000028935017737
          },
          "queueingTime": {
            "min": 1.476e-06,
            "max": 3.476e-06,
            "mean": 2.4794027777777776e-06,
            "median": 2.476e-06,
            "variance": 4.995775365841425e-13,
            "std_deviation": 7.068079913131589e-07,
            "interval_size": 2e-06,
            "jitter": 1.0034027777777776e-06
          }
        }
      }
    },
    "s31": {
      "port_1": {
        "queue_7": {
          "queueLength": {
            "min": 0,
            "max": 1,
            "mean": 0.49999710649822626,
            "median": 0,
            "variance": 0.25000144675088687,
            "std_deviation": 0.5000014467487938,
            "interval_size": 1,
            "jitter": 0.5000028935017737
          },
          "queueingTime": {
            "min": 1.476e-06,
            "max": 3.476e-06,
            "mean": 2.474564814814815e-06,
            "median": 2.476e-06,
            "variance": 5.010454060467949e-13,
            "std_deviation": 7.078456089054978e-07,
            "interval_size": 2e-06,
            "jitter": 1.001435185185185e-06
          }
        }
      }
    },
    "s30": {
      "port_1": {
        "queue_7": {
          "queueLength": {
            "min": 0,
            "max": 1,
            "mean": 0.49999710649822626,
            "median": 0,
            "variance": 0.25000144675088687,
            "std_deviation": 0.5000014467487938,
            "interval_size": 1,
            "jitter": 0.5000028935017737
          },
          "queueingTime": {
            "min": 1.476e-06,
            "max": 3.476e-06,
            "mean": 2.4749236111111112e-06,
            "median": 2.476e-06,
            "variance": 5.01081029824805e-13,
            "std_deviation": 7.078707719808785e-07,
            "interval_size": 2e-06,
            "jitter": 1.0010763888888886e-06
          }
        }
      }
    },
    "s33": {
      "port_1": {
        "queue_7": {
          "queueLength": {
            "min": 0,
            "max": 1,
            "mean": 0.49999710649822626,
            "median": 0,
            "variance": 0.25000144675088687,
            "std_deviation": 0.5000014467487938,
            "interval_size": 1,
            "jitter": 0.5000028935017737
          },
          "queueingTime": {
            "min": 1.476e-06,
            "max": 3.476e-06,
            "mean": 2.4807453703703705e-06,
            "median": 2.476e-06,
            "variance": 5.005156818730326e-13,
            "std_deviation": 7.074713293646835e-07,
            "interval_size": 2e-06,
            "jitter": 1.0047453703703706e-06
          }
        }
      }
    },
    "s32": {
      "port_1": {
        "queue_7": {
          "queueLength": {
            "min": 0,
            "max": 1,
            "mean": 0.49999710649822626,
            "median": 0,
            "variance": 0.25000144675088687,
            "std_deviation": 0.5000014467487938,
            "interval_size": 1,
            "jitter": 0.5000028935017737
          },
          "queueingTime": {
            "min": 1.476e-06,
            "max": 3.476e-06,
            "mean": 2.479425925925926e-06,
            "median": 2.476e-06,
            "variance": 4.984199577069864e-13,
            "std_deviation": 7.059886385112628e-07,
            "interval_size": 2e-06,
            "jitter": 1.003425925925926e-06
          }
        }
      }
    },
    "s35": {
      "port_1": {
        "queue_7": {
          "queueLength": {
            "min": 0,
            "max": 1,
            "mean": 0.49999710649822626,
            "median": 0,
            "variance": 0.25000144675088687,
            "std_deviation": 0.5000014467487938,
            "interval_size": 1,
            "jitter": 0.5000028935017737
          },
          "queueingTime": {
            "min": 1.476e-06,
            "max": 3.476e-06,
            "mean": 2.469587962962963e-06,
            "median": 2.476e-06,
            "variance": 4.996405945842137e-13,
            "std_deviation": 7.068525974941407e-07,
            "interval_size": 2e-06,
            "jitter": 1.0064120370370367e-06
          }
        }
      }
    },
    "s34": {
      "port_1": {
        "queue_7": {
          "queueLength": {
            "min": 0,
            "max": 1,
            "mean": 0.49999710649822626,
            "median": 0,
            "variance": 0.25000144675088687,
            "std_deviation": 0.5000014467487938,
            "interval_size": 1,
            "jitter": 0.5000028935017737
          },
          "queueingTime": {
            "min": 1.476e-06,
            "max": 3.476e-06,
            "mean": 2.473384259259259e-06,
            "median": 2.476e-06,
            "variance": 4.985868915449552e-13,
            "std_deviation": 7.061068556139044e-07,
            "interval_size": 2e-06,
            "jitter": 1.0026157407407408e-06
          }
        }
      }
    },
    "s37": {
      "port_1": {
        "queue_7": {
          "queueLength": {
            "min": 0,
            "max": 1,
            "mean": 0.49999710649822626,
            "median": 0,
            "variance": 0.25000144675088687,
            "std_deviation": 0.5000014467487938,
            "interval_size": 1,
            "jitter": 0.5000028935017737
          },
          "queueingTime": {
            "min": 1.476e-06,
            "max": 3.476e-06,
            "mean": 2.4791712962962963e-06,
            "median": 2.476e-06,
            "variance": 4.972873651872686e-13,
            "std_deviation": 7.051860500515226e-07,
            "interval_size": 2e-06,
            "jitter": 1.0031712962962964e-06
          }
        }
      }
    },
    "s36": {
      "port_1": {
        "queue_7": {
          "queueLength": {
            "min": 0,
            "max": 1,
            "mean": 0.49999710649822626,
            "median": 0,
            "variance": 0.25000144675088687,
            "std_deviation": 0.5000014467487938,
            "interval_size": 1,
            "jitter": 0.5000028935017737
          },
          "queueingTime": {
            "min": 1.476e-06,
            "max": 3.476e-06,
            "mean": 2.4749699074074074e-06,
            "median": 2.476e-06,
            "variance": 4.971227482003178e-13,
            "std_deviation": 7.050693215566238e-07,
            "interval_size": 2e-06,
            "jitter": 1.0010300925925924e-06
          }
        }
      }
    },
    "s39": {
      "port_1": {
        "queue_7": {
          "queueLength": {
            "min": 0,
            "max": 1,
            "mean": 0.49999710649822626,
            "median": 0,
            "variance": 0.25000144675088687,
            "std_deviation": 0.5000014467487938,
            "interval_size": 1,
            "jitter": 0.5000028935017737
          },
          "queueingTime": {
            "min": 1.476e-06,
            "max": 3.476e-06,
            "mean": 2.4742638888888887e-06,
            "median": 2.476e-06,
            "variance": 4.984518291106764e-13,
            "std_deviation": 7.060112103293236e-07,
            "interval_size": 2e-06,
            "jitter": 1.0017361111111111e-06
          }
        }
      }
    },
    "s38": {
      "port_1": {
        "queue_7": {
          "queueLength": {
            "min": 0,
            "max": 1,
            "mean": 0.49999710649822626,
            "median": 0,
            "variance": 0.25000144675088687,
            "std_deviation": 0.5000014467487938,
            "interval_size": 1,
            "jitter": 0.5000028935017737
          },
          "queueingTime": {
            "min": 1.476e-06,
            "max": 3.476e-06,
            "mean": 2.4756064814814817e-06,
            "median": 2.476e-06,
            "variance": 4.997741480847044e-13,
            "std_deviation": 7.069470617271878e-07,
            "interval_size": 2e-06,
            "jitter": 1.0003935185185182e-06
          }
        }
      }
    },
    "s40": {
      "port_1": {
        "queue_7": {
          "queueLength": {
            "min": 0,
            "max": 1,
            "mean": 0.49999710649822626,
            "median": 0,
            "variance": 0.25000144675088687,
            "std_deviation": 0.5000014467487938,
            "interval_size": 1,
            "jitter": 0.5000028935017737
          },
          "queueingTime": {
            "min": 1.476e-06,
            "max": 3.476e-06,
            "mean": 2.4779675925925927e-06,
            "median": 2.476e-06,
            "variance": 5.005574776242695e-13,
            "std_deviation": 7.075008675784571e-07,
            "interval_size": 2e-06,
            "jitter": 1.0019675925925928e-06
          }
        }
      }
    },
    "s42": {
      "port_1": {
        "queue_7": {
          "queueLength": {
            "min": 0,
            "max": 1,
            "mean": 0.49999710649822626,
            "median": 0,
            "variance": 0.25000144675088687,
            "std_deviation": 0.5000014467487938,
            "interval_size": 1,
            "jitter": 0.5000028935017737
          },
          "queueingTime": {
            "min": 1.476e-06,
            "max": 3.476e-06,
            "mean": 2.4736157407407407e-06,
            "median": 2.476e-06,
            "variance": 5.033797710921723e-13,
            "std_deviation": 7.094926152485115e-07,
            "interval_size": 2e-06,
            "jitter": 1.002384259259259e-06
          }
        }
      }
    },
    "s41": {
      "port_1": {
        "queue_7": {
          "queueLength": {
            "min": 0,
            "max": 1,
            "mean": 0.49999710649822626,
            "median": 0,
            "variance": 0.25000144675088687,
            "std_deviation": 0.5000014467487938,
            "interval_size": 1,
            "jitter": 0.5000028935017737
          },
          "queueingTime": {
            "min": 1.476e-06,
            "max": 3.476e-06,
            "mean": 2.4749236111111112e-06,
            "median": 2.476e-06,
            "variance": 4.976550642464997e-13,
            "std_deviation": 7.054467125492185e-07,
            "interval_size": 2e-06,
            "jitter": 1.0010763888888886e-06
          }
        }
      }
    },
    "s44": {
      "port_1": {
        "queue_7": {
          "queueLength": {
            "min": 0,
            "max": 1,
            "mean": 0.49999710649822626,
            "median": 0,
            "variance": 0.25000144675088687,
            "std_deviation": 0.5000014467487938,
            "interval_size": 1,
            "jitter": 0.5000028935017737
          },
          "queueingTime": {
            "min": 1.476e-06,
            "max": 3.476e-06,
            "mean": 2.476185185185185e-06,
            "median": 2.476e-06,
            "variance": 4.98663144678029e-13,
            "std_deviation": 7.061608490124817e-07,
            "interval_size": 2e-06,
            "jitter": 1.0001851851851852e-06
          }
        }
      }
    },
    "s43": {
      "port_1": {
        "queue_7": {
          "queueLength": {
            "min": 0,
            "max": 1,
            "mean": 0.49999710649822626,
            "median": 0,
            "variance": 0.25000144675088687,
            "std_deviation": 0.5000014467487938,
            "interval_size": 1,
            "jitter": 0.5000028935017737
          },
          "queueingTime": {
            "min": 1.476e-06,
            "max": 3.476e-06,
            "mean": 2.476474537037037e-06,
            "median": 2.476e-06,
            "variance": 5.021467904024524e-13,
            "std_deviation": 7.086231653018777e-07,
            "interval_size": 2e-06,
            "jitter": 1.0004745370370372e-06
          }
        }
      }
    },
    "s46": {
      "port_1": {
        "queue_7": {
          "queueLength": {
            "min": 0,
            "max": 1,
            "mean": 0.49999710649822626,
            "median": 0,
            "variance": 0.25000144675088687,
            "std_deviation": 0.5000014467487938,
            "interval_size": 1,
            "jitter": 0.5000028935017737
          },
          "queueingTime": {
            "min": 1.476e-06,
            "max": 3.476e-06,
            "mean": 2.4795185185185186e-06,
            "median": 2.476e-06,
            "variance": 5.00734156302392e-13,
            "std_deviation": 7.076257176660498e-07,
            "interval_size": 2e-06,
            "jitter": 1.0035185185185187e-06
          }
        }
      }
    },
    "s45": {
      "port_1": {
        "queue_7": {
          "queueLength": {
            "min": 0,
            "max": 1,
            "mean": 0.49999710649822626,
            "median": 0,
            "variance": 0.25000144675088687,
            "std_deviation": 0.5000014467487938,
            "interval_size": 1,
            "jitter": 0.5000028935017737
          },
          "queueingTime": {
            "min": 1.476e-06,
            "max": 3.476e-06,
            "mean": 2.476023148148148e-06,
            "median": 2.476e-06,
            "variance": 5.010011684591685e-13,
            "std_deviation": 7.078143601673877e-07,
            "interval_size": 2e-06,
            "jitter": 1.000023148148148e-06
          }
        }
      }
    },
    "s48": {
      "port_1": {
        "queue_7": {
          "queueLength": {
            "min": 0,
            "max": 1,
            "mean": 0.49999710649822626,
            "median": 0,
            "variance": 0.25000144675088687,
            "std_deviation": 0.5000014467487938,
            "interval_size": 1,
            "jitter": 0.5000028935017737
          },
          "queueingTime": {
            "min": 1.476e-06,
            "max": 3.476e-06,
            "mean": 2.474946759259259e-06,
            "median": 2.476e-06,
            "variance": 4.993217995010659e-13,
            "std_deviation": 7.066270582853914e-07,
            "interval_size": 2e-06,
            "jitter": 1.0010532407407407e-06
          }
        }
      }
    },
    "s47": {
      "port_1": {
        "queue_7": {
          "queueLength": {
            "min": 0,
            "max": 1,
            "mean": 0.49999710649822626,
            "median": 0,
            "variance": 0.25000144675088687,
            "std_deviation": 0.5000014467487938,
            "interval_size": 1,
            "jitter": 0.5000028935017737
          },
          "queueingTime": {
            "min": 1.476e-06,
            "max": 3.476e-06,
            "mean": 2.4756412037037037e-06,
            "median": 2.476e-06,
            "variance": 4.987672181080199e-13,
            "std_deviation": 7.062345347744048e-07,
            "interval_size": 2e-06,
            "jitter": 1.0003587962962962e-06
          }
        }
      }
    },
    "s49": {
      "port_1": {
        "queue_7": {
          "queueLength": {
            "min": 0,
            "max": 1,
            "mean": 0.49999710649822626,
            "median": 0,
            "variance": 0.25000144675088687,
            "std_deviation": 0.5000014467487938,
            "interval_size": 1,
            "jitter": 0.5000028935017737
          },
          "queueingTime": {
            "min": 1.476e-06,
            "max": 3.476e-06,
            "mean": 2.4768680555555556e-06,
            "median": 2.476e-06,
            "variance": 5.011508801702951e-13,
            "std_deviation": 7.079201086071049e-07,
            "interval_size": 2e-06,
            "jitter": 1.0008680555555556e-06
          }
        }
      }
    },
    "s9": {
      "port_1": {
        "queue_7": {
          "queueLength": {
            "min": 0,
            "max": 1,
            "mean": 0.49999710649822626,
            "median": 0,
            "variance": 0.25000144675088687,
            "std_deviation": 0.5000014467487938,
            "interval_size": 1,
            "jitter": 0.5000028935017737
          },
          "queueingTime": {
            "min": 1.476e-06,
            "max": 3.476e-06,
            "mean": 2.4749699074074074e-06,
            "median": 2.476e-06,
            "variance": 4.988125825734008e-13,
            "std_deviation": 7.062666511831072e-07,
            "interval_size": 2e-06,
            "jitter": 1.0010300925925924e-06
          }
        }
      }
    },
    "s51": {
      "port_1": {
        "queue_7": {
          "queueLength": {
            "min": 0,
            "max": 1,
            "mean": 0.49999710649822626,
            "median": 0,
            "variance": 0.25000144675088687,
            "std_deviation": 0.5000014467487938,
            "interval_size": 1,
            "jitter": 0.5000028935017737
          },
          "queueingTime": {
            "min": 1.476e-06,
            "max": 3.476e-06,
            "mean": 2.4733263888888888e-06,
            "median": 2.476e-06,
            "variance": 5.010981885882166e-13,
            "std_deviation": 7.07882891860099e-07,
            "interval_size": 2e-06,
            "jitter": 1.002673611111111e-06
          }
        }
      }
    },
    "s50": {
      "port_1": {
        "queue_7": {
          "queueLength": {
            "min": 0,
            "max": 1,
            "mean": 0.49999710649822626,
            "median": 0,
            "variance": 0.25000144675088687,
            "std_deviation": 0.5000014467487938,
            "interval_size": 1,
            "jitter": 0.5000028935017737
          },
          "queueingTime": {
            "min": 1.476e-06,
            "max": 3.476e-06,
            "mean": 2.476358796296296e-06,
            "median": 2.476e-06,
            "variance": 5.000403809918495e-13,
            "std_deviation": 7.071353342832258e-07,
            "interval_size": 2e-06,
            "jitter": 1.0003587962962962e-06
          }
        }
      }
    },
    "s53": {
      "port_1": {
        "queue_7": {
          "queueLength": {
            "min": 0,
            "max": 1,
            "mean": 0.49999710649822626,
            "median": 0,
            "variance": 0.25000144675088687,
            "std_deviation": 0.5000014467487938,
            "interval_size": 1,
            "jitter": 0.5000028935017737
          },
          "queueingTime": {
            "min": 1.476e-06,
            "max": 3.476e-06,
            "mean": 2.4800625e-06,
            "median": 2.476e-06,
            "variance": 5.008573486093589e-13,
            "std_deviation": 7.077127585464027e-07,
            "interval_size": 2e-06,
            "jitter": 1.0040625000000002e-06
          }
        }
      }
    },
    "s5": {
      "port_1": {
        "queue_7": {
          "queueLength": {
            "min": 0,
            "max": 1,
            "mean": 0.49999710649822626,
            "median": 0,
            "variance": 0.25000144675088687,
            "std_deviation": 0.5000014467487938,
            "interval_size": 1,
            "jitter": 0.5000028935017737
          },
          "queueingTime": {
            "min": 1.476e-06,
            "max": 3.476e-06,
            "mean": 2.4782800925925926e-06,
            "median": 2.476e-06,
            "variance": 4.984149217208446e-13,
            "std_deviation": 7.059850718824334e-07,
            "interval_size": 2e-06,
            "jitter": 1.0022800925925926e-06
          }
        }
      }
    },
    "s52": {
      "port_1": {
        "queue_7": {
          "queueLength": {
            "min": 0,
            "max": 1,
            "mean": 0.49999710649822626,
            "median": 0,
            "variance": 0.25000144675088687,
            "std_deviation": 0.5000014467487938,
            "interval_size": 1,
            "jitter": 0.5000028935017737
          },
          "queueingTime": {
            "min": 1.476e-06,
            "max": 3.476e-06,
            "mean": 2.4768217592592594e-06,
            "median": 2.476e-06,
            "variance": 5.021000434622228e-13,
            "std_deviation": 7.085901801903712e-07,
            "interval_size": 2e-06,
            "jitter": 1.0008217592592595e-06
          }
        }
      }
    },
    "s6": {
      "port_1": {
        "queue_7": {
          "queueLength": {
            "min": 0,
            "max": 1,
            "mean": 0.49999710649822626,
            "median": 0,
            "variance": 0.25000144675088687,
            "std_deviation": 0.5000014467487938,
            "interval_size": 1,
            "jitter": 0.5000028935017737
          },
          "queueingTime": {
            "min": 1.476e-06,
            "max": 3.476e-06,
            "mean": 2.4769027777777776e-06,
            "median": 2.476e-06,
            "variance": 5.006068309046787e-13,
            "std_deviation": 7.075357453193999e-07,
            "interval_size": 2e-06,
            "jitter": 1.0009027777777777e-06
          }
        }
      }
    },
    "s7": {
      "port_1": {
        "queue_7": {
          "queueLength": {
            "min": 0,
            "max": 1,
            "mean": 0.49999710649822626,
            "median": 0,
            "variance": 0.25000144675088687,
            "std_deviation": 0.5000014467487938,
            "interval_size": 1,
            "jitter": 0.5000028935017737
          },
          "queueingTime": {
            "min": 1.476e-06,
            "max": 3.476e-06,
            "mean": 2.4741828703703705e-06,
            "median": 2.476e-06,
            "variance": 5.009168475404593e-13,
            "std_deviation": 7.07754793371588e-07,
            "interval_size": 2e-06,
            "jitter": 1.0018171296296293e-06
          }
        }
      }
    },
    "s55": {
      "port_1": {
        "queue_7": {
          "queueLength": {
            "min": 0,
            "max": 1,
            "mean": 0.49999710649822626,
            "median": 0,
            "variance": 0.25000144675088687,
            "std_deviation": 0.5000014467487938,
            "interval_size": 1,
            "jitter": 0.5000028935017737
          },
          "queueingTime": {
            "min": 1.476e-06,
            "max": 3.476e-06,
            "mean": 2.475039351851852e-06,
            "median": 2.476e-06,
            "variance": 5.013127497564057e-13,
            "std_deviation": 7.080344269570553e-07,
            "interval_size": 2e-06,
            "jitter": 1.000960648148148e-06
          }
        }
      }
    },
    "s11": {
      "port_1": {
        "queue_7": {
          "queueLength": {
            "min": 0,
            "max": 1,
            "mean": 0.49999710649822626,
            "median": 0,
            "variance": 0.25000144675088687,
            "std_deviation": 0.5000014467487938,
            "interval_size": 1,
            "jitter": 0.5000028935017737
          },
          "queueingTime": {
            "min": 1.476e-06,
            "max": 3.476e-06,
            "mean": 2.4752824074074072e-06,
            "median": 2.476e-06,
            "variance": 5.021349264373344e-13,
            "std_deviation": 7.08614794114076e-07,
            "interval_size": 2e-06,
            "jitter": 1.0007175925925926e-06
          }
        }
      }
    },
    "s10": {
      "port_1": {
        "queue_7": {
          "queueLength": {
            "min": 0,
            "max": 1,
            "mean": 0.49999710649822626,
            "median": 0,
            "variance": 0.25000144675088687,
            "std_deviation": 0.5000014467487938,
            "interval_size": 1,
            "jitter": 0.5000028935017737
          },
          "queueingTime": {
            "min": 1.476e-06,
            "max": 3.476e-06,
            "mean": 2.4739398148148147e-06,
            "median": 2.476e-06,
            "variance": 5.018534159774655e-13,
            "std_deviation": 7.084161319291546e-07,
            "interval_size": 2e-06,
            "jitter": 1.0020601851851851e-06
          }
        }
      }
    },
    "s54": {
      "port_1": {
        "queue_7": {
          "queueLength": {
            "min": 0,
            "max": 1,
            "mean": 0.49999710649822626,
            "median": 0,
            "variance": 0.25000144675088687,
            "std_deviation": 0.5000014467487938,
            "interval_size": 1,
            "jitter": 0.5000028935017737
          },
          "queueingTime": {
            "min": 1.476e-06,
            "max": 3.476e-06,
            "mean": 2.4738125e-06,
            "median": 2.476e-06,
            "variance": 5.023968629555898e-13,
            "std_deviation": 7.08799592942596e-07,
            "interval_size": 2e-06,
            "jitter": 1.0021874999999999e-06
          }
        }
      }
    },
    "s8": {
      "port_1": {
        "queue_7": {
          "queueLength": {
            "min": 0,
            "max": 1,
            "mean": 0.49999710649822626,
            "median": 0,
            "variance": 0.25000144675088687,
            "std_deviation": 0.5000014467487938,
            "interval_size": 1,
            "jitter": 0.5000028935017737
          },
          "queueingTime": {
            "min": 1.476e-06,
            "max": 3.476e-06,
            "mean": 2.4800625e-06,
            "median": 2.476e-06,
            "variance": 5.012740200986122e-13,
            "std_deviation": 7.080070763054647e-07,
            "interval_size": 2e-06,
            "jitter": 1.0040625000000002e-06
          }
        }
      }
    },
    "s1": {
      "port_1": {
        "queue_7": {
          "queueLength": {
            "min": 0,
            "max": 1,
            "mean": 0.49999710649822626,
            "median": 0,
            "variance": 0.25000144675088687,
            "std_deviation": 0.5000014467487938,
            "interval_size": 1,
            "jitter": 0.5000028935017737
          },
          "queueingTime": {
            "min": 1.476e-06,
            "max": 3.476e-06,
            "mean": 2.4778055555555555e-06,
            "median": 2.476e-06,
            "variance": 4.985904736551734e-13,
            "std_deviation": 7.061093921306906e-07,
            "interval_size": 2e-06,
            "jitter": 1.0018055555555556e-06
          }
        }
      },
      "port_2": {
        "queue_7": {
          "queueLength": {
            "min": 0,
            "max": 1,
            "mean": 0.49999710649822626,
            "median": 0,
            "variance": 0.25000144675088687,
            "std_deviation": 0.5000014467487938,
            "interval_size": 1,
            "jitter": 0.5000028935017737
          },
          "queueingTime": {
            "min": 1.476e-06,
            "max": 3.476e-06,
            "mean": 2.477828703703704e-06,
            "median": 2.476e-06,
            "variance": 5.008357858865821e-13,
            "std_deviation": 7.076975242902734e-07,
            "interval_size": 2e-06,
            "jitter": 1.0018287037037039e-06
          }
        }
      }
    },
    "s13": {
      "port_1": {
        "queue_7": {
          "queueLength": {
            "min": 0,
            "max": 1,
            "mean": 0.49999710649822626,
            "median": 0,
            "variance": 0.25000144675088687,
            "std_deviation": 0.5000014467487938,
            "interval_size": 1,
            "jitter": 0.5000028935017737
          },
          "queueingTime": {
            "min": 1.476e-06,
            "max": 3.476e-06,
            "mean": 2.478962962962963e-06,
            "median": 2.476e-06,
            "variance": 4.977979083262709e-13,
            "std_deviation": 7.055479489916124e-07,
            "interval_size": 2e-06,
            "jitter": 1.002962962962963e-06
          }
        }
      }
    },
    "s57": {
      "port_1": {
        "queue_7": {
          "queueLength": {
            "min": 0,
            "max": 1,
            "mean": 0.49999710649822626,
            "median": 0,
            "variance": 0.25000144675088687,
            "std_deviation": 0.5000014467487938,
            "interval_size": 1,
            "jitter": 0.5000028935017737
          },
          "queueingTime": {
            "min": 1.476e-06,
            "max": 3.476e-06,
            "mean": 2.474715277777778e-06,
            "median": 2.476e-06,
            "variance": 5.026777786297681e-13,
            "std_deviation": 7.089977282260981e-07,
            "interval_size": 2e-06,
            "jitter": 1.001284722222222e-06
          }
        }
      }
    },
    "s12": {
      "port_1": {
        "queue_7": {
          "queueLength": {
            "min": 0,
            "max": 1,
            "mean": 0.49999710649822626,
            "median": 0,
            "variance": 0.25000144675088687,
            "std_deviation": 0.5000014467487938,
            "interval_size": 1,
            "jitter": 0.5000028935017737
          },
          "queueingTime": {
            "min": 1.476e-06,
            "max": 3.476e-06,
            "mean": 2.475837962962963e-06,
            "median": 2.476e-06,
            "variance": 5.025752350314411e-13,
            "std_deviation": 7.0892540865132e-07,
            "interval_size": 2e-06,
            "jitter": 1.000162037037037e-06
          }
        }
      }
    },
    "s2": {
      "port_1": {
        "queue_7": {
          "queueLength": {
            "min": 0,
            "max": 1,
            "mean": 0.49999710649822626,
            "median": 0,
            "variance": 0.25000144675088687,
            "std_deviation": 0.5000014467487938,
            "interval_size": 1,
            "jitter": 0.5000028935017737
          },
          "queueingTime": {
            "min": 1.476e-06,
            "max": 3.476e-06,
            "mean": 2.4763472222222224e-06,
            "median": 2.476e-06,
            "variance": 5.016723524963637e-13,
            "std_deviation": 7.082883258224462e-07,
            "interval_size": 2e-06,
            "jitter": 1.0003472222222224e-06
          }
        }
      }
    },
    "s56": {
      "port_1": {
        "queue_7": {
          "queueLength": {
            "min": 0,
            "max": 1,
            "mean": 0.49999710649822626,
            "median": 0,
            "variance": 0.25000144675088687,
            "std_deviation": 0.5000014467487938,
            "interval_size": 1,
            "jitter": 0.5000028935017737
          },
          "queueingTime": {
            "min": 1.476e-06,
            "max": 3.476e-06,
            "mean": 2.4768101851851853e-06,
            "median": 2.476e-06,
            "variance": 5.019033008140955e-13,
            "std_deviation": 7.084513397644862e-07,
            "interval_size": 2e-06,
            "jitter": 1.0008101851851853e-06
          }
        }
      }
    },
    "s3": {
      "port_1": {
        "queue_7": {
          "queueLength": {
            "min": 0,
            "max": 1,
            "mean": 0.49999710649822626,
            "median": 0,
            "variance": 0.25000144675088687,
            "std_deviation": 0.5000014467487938,
            "interval_size": 1,
            "jitter": 0.5000028935017737
          },
          "queueingTime": {
            "min": 1.476e-06,
            "max": 3.476e-06,
            "mean": 2.4762314814814813e-06,
            "median": 2.476e-06,
            "variance": 5.009548185785758e-13,
            "std_deviation": 7.077816178586272e-07,
            "interval_size": 2e-06,
            "jitter": 1.0002314814814814e-06
          }
        }
      }
    },
    "s15": {
      "port_1": {
        "queue_7": {
          "queueLength": {
            "min": 0,
            "max": 1,
            "mean": 0.49999710649822626,
            "median": 0,
            "variance": 0.25000144675088687,
            "std_deviation": 0.5000014467487938,
            "interval_size": 1,
            "jitter": 0.5000028935017737
          },
          "queueingTime": {
            "min": 1.476e-06,
            "max": 3.476e-06,
            "mean": 2.4755717592592592e-06,
            "median": 2.476e-06,
            "variance": 4.989292023645249e-13,
            "std_deviation": 7.06349207095559e-07,
            "interval_size": 2e-06,
            "jitter": 1.0004282407407406e-06
          }
        }
      }
    },
    "s59": {
      "port_1": {
        "queue_7": {
          "queueLength": {
            "min": 0,
            "max": 1,
            "mean": 0.49999710649822626,
            "median": 0,
            "variance": 0.25000144675088687,
            "std_deviation": 0.5000014467487938,
            "interval_size": 1,
            "jitter": 0.5000028935017737
          },
          "queueingTime": {
            "min": 1.476e-06,
            "max": 3.476e-06,
            "mean": 2.4782453703703705e-06,
            "median": 2.476e-06,
            "variance": 4.976859037506007e-13,
            "std_deviation": 7.054685703492401e-07,
            "interval_size": 2e-06,
            "jitter": 1.0022453703703706e-06
          }
        }
      }
    },
    "s58": {
      "port_1": {
        "queue_7": {
          "queueLength": {
            "min": 0,
            "max": 1,
            "mean": 0.49999710649822626,
            "median": 0,
            "variance": 0.25000144675088687,
            "std_deviation": 0.5000014467487938,
            "interval_size": 1,
            "jitter": 0.5000028935017737
          },
          "queueingTime": {
            "min": 1.476e-06,
            "max": 3.476e-06,
            "mean": 2.4763009259259258e-06,
            "median": 2.476e-06,
            "variance": 5.002140322911831e-13,
            "std_deviation": 7.072581086782837e-07,
            "interval_size": 2e-06,
            "jitter": 1.0003009259259259e-06
          }
        }
      }
    },
    "s14": {
      "port_1": {
        "queue_7": {
          "queueLength": {
            "min": 0,
            "max": 1,
            "mean": 0.49999710649822626,
            "median": 0,
            "variance": 0.25000144675088687,
            "std_deviation": 0.5000014467487938,
            "interval_size": 1,
            "jitter": 0.5000028935017737
          },
          "queueingTime": {
            "min": 1.476e-06,
            "max": 3.476e-06,
            "mean": 2.474148148148148e-06,
            "median": 2.476e-06,
            "variance": 5.03011651798096e-13,
            "std_deviation": 7.092331434712397e-07,
            "interval_size": 2e-06,
            "jitter": 1.0018518518518517e-06
          }
        }
      }
    },
    "s4": {
      "port_1": {
        "queue_7": {
          "queueLength": {
            "min": 0,
            "max": 1,
            "mean": 0.49999710649822626,
            "median": 0,
            "variance": 0.25000144675088687,
            "std_deviation": 0.5000014467487938,
            "interval_size": 1,
            "jitter": 0.5000028935017737
          },
          "queueingTime": {
            "min": 1.476e-06,
            "max": 3.476e-06,
            "mean": 2.4707569444444443e-06,
            "median": 2.476e-06,
            "variance": 4.974666940107331e-13,
            "std_deviation": 7.053131885983226e-07,
            "interval_size": 2e-06,
            "jitter": 1.0052430555555555e-06
          }
        }
      }
    },
    "s17": {
      "port_1": {
        "queue_7": {
          "queueLength": {
            "min": 0,
            "max": 1,
            "mean": 0.49999710649822626,
            "median": 0,
            "variance": 0.25000144675088687,
            "std_deviation": 0.5000014467487938,
            "interval_size": 1,
            "jitter": 0.5000028935017737
          },
          "queueingTime": {
            "min": 1.476e-06,
            "max": 3.476e-06,
            "mean": 2.4770300925925928e-06,
            "median": 2.476e-06,
            "variance": 5.005718621946927e-13,
            "std_deviation": 7.075110332671094e-07,
            "interval_size": 2e-06,
            "jitter": 1.0010300925925929e-06
          }
        }
      }
    },
    "s16": {
      "port_1": {
        "queue_7": {
          "queueLength": {
            "min": 0,
            "max": 1,
            "mean": 0.49999710649822626,
            "median": 0,
            "variance": 0.25000144675088687,
            "std_deviation": 0.5000014467487938,
            "interval_size": 1,
            "jitter": 0.5000028935017737
          },
          "queueingTime": {
            "min": 1.476e-06,
            "max": 3.476e-06,
            "mean": 2.4777708333333335e-06,
            "median": 2.476e-06,
            "variance": 4.993429213590434e-13,
            "std_deviation": 7.066420036758666e-07,
            "interval_size": 2e-06,
            "jitter": 1.0017708333333336e-06
          }
        }
      }
    },
    "s19": {
      "port_1": {
        "queue_7": {
          "queueLength": {
            "min": 0,
            "max": 1,
            "mean": 0.49999710649822626,
            "median": 0,
            "variance": 0.25000144675088687,
            "std_deviation": 0.5000014467487938,
            "interval_size": 1,
            "jitter": 0.5000028935017737
          },
          "queueingTime": {
            "min": 1.476e-06,
            "max": 3.476e-06,
            "mean": 2.4728171296296297e-06,
            "median": 2.476e-06,
            "variance": 5.009563155898581e-13,
            "std_deviation": 7.077826753953915e-07,
            "interval_size": 2e-06,
            "jitter": 1.0031828703703701e-06
          }
        }
      }
    },
    "s18": {
      "port_1": {
        "queue_7": {
          "queueLength": {
            "min": 0,
            "max": 1,
            "mean": 0.49999710649822626,
            "median": 0,
            "variance": 0.25000144675088687,
            "std_deviation": 0.5000014467487938,
            "interval_size": 1,
            "jitter": 0.5000028935017737
          },
          "queueingTime": {
            "min": 1.476e-06,
            "max": 3.476e-06,
            "mean": 2.4741944444444443e-06,
            "median": 2.476e-06,
            "variance": 5.015766193281558e-13,
            "std_deviation": 7.082207419499628e-07,
            "interval_size": 2e-06,
            "jitter": 1.0018055555555556e-06
          }
        }
      }
    }
  }
}