{
  "general": {
    "validation": {
      "valid": true,
      "errors": []
    }
  },
  "sim_parameters": {
    "**.displayAddresses": "false",
    "**.verbose": "false",
    "**.promiscuous": "true",
    "**.registerProtocol": "true",
    "**.*.clock.clockRate": "\"1us\"",
    "**.h1.eth.address": "\"12:23:34:45:56:67\"",
    "**.h3.eth.address": "\"aa:aa:aa:aa:aa:bb\"",
    "**.h2.eth.address": "\"aa:bb:cc:dd:ee:aa\"",
    "**.*.processingDelay[*].delay": "5us",
    "**.filteringDatabase.database": "xmldoc(\"xml/routing.xml\", \"/filteringDatabases/\")",
    "**.filteringDatabase.cycle": "xmldoc(\"xml/tas.xml\", \"/schedule/\")",
    "**.gateController.initialSchedule": "xmldoc(\"xml/tas.xml\")",
    "**.gateController.enableHoldAndRelease": "false",
    "**.*.eth[*].queuing.tsAlgorithms[*].typename": "\"StrictPriority\"",
    "**.s5.eth[1].queuing.queuingFrames.tciToQueueMapping": "xmldoc(\"xml/tci-maps/tci-map-s5-1.xml\")",
    "**.s3.eth[2].queuing.queuingFrames.tciToQueueMapping": "xmldoc(\"xml/tci-maps/tci-map-s3-2.xml\")",
    "**.s2.eth[1].queuing.queuingFrames.tciToQueueMapping": "xmldoc(\"xml/tci-maps/tci-map-s2-1.xml\")",
    "**.s7.eth[0].queuing.queuingFrames.tciToQueueMapping": "xmldoc(\"xml/tci-maps/tci-map-s7-0.xml\")",
    "**.s4.eth[2].queuing.queuingFrames.tciToQueueMapping": "xmldoc(\"xml/tci-maps/tci-map-s4-2.xml\")",
    "**.s1.eth[1].queuing.queuingFrames.tciToQueueMapping": "xmldoc(\"xml/tci-maps/tci-map-s1-1.xml\")",
    "**.s6.eth[1].queuing.queuingFrames.tciToQueueMapping": "xmldoc(\"xml/tci-maps/tci-map-s6-1.xml\")",
    "**.s4.eth[1].queuing.queuingFrames.tciToQueueMapping": "xmldoc(\"xml/tci-maps/tci-map-s4-1.xml\")",
    "**.*.eth[*].queuing.queues[*].bufferCapacity": "365280b",
    "**.*.eth[*].queuing.queues[*].expressQueue": "true",
    "**.*.eth[*].mac.enablePreemptingFrames": "false",
    "**.*.trafGenSchedApp.jitter": "0.000020",
    "**.*.eth[*].queuing.gateController.jitter": "0.000020",
    "**.*.trafGenSchedApp.initialSchedule": "xmldoc(\"xml/traf-gen.xml\")"
  },
  "streams": {
    "1907": {
      "latency_stats": {
        "min": 0.0002385239931754768,
        "max": 0.000278524006716907,
        "mean": 0.00025849106012111665,
        "median": 0.0002585239999461919,
        "variance": 6.647007745509152e-11,
        "std_deviation": 8.152918339778189e-06,
        "interval_size": 4.0000013541430235e-05,
        "jitter": 2.0032946595790373e-05,
        "packages_received": 86400
      }
    },
    "1908": {
      "latency_stats": {
        "min": 0.0002020479951170273,
        "max": 0.00024204800138249993,
        "mean": 0.00022347463229134456,
        "median": 0.00022304800222627819,
        "variance": 5.842114869089098e-11,
        "std_deviation": 7.643372860909704e-06,
        "interval_size": 4.000000626547262e-05,
        "jitter": 2.142663717431725e-05,
        "packages_received": 86400
      }
    }
  },
  "hosts": {
    "h3": {
      "received_periodically": {
        "is_periodic": true,
        "max-period-length": 250,
        "period": [
          1907,
          1908
        ],
        "period_length": 2,
        "skipped": "first 0s"
      }
    }
  },
  "switches": {
    "s5": {
      "port_1": {
        "queue_7": {
          "queueLength": {
            "min": 0,
            "max": 1,
            "mean": 0.49999710649822626,
            "median": 0,
            "variance": 0.25000144675088687,
            "std_deviation": 0.5000014467487938,
            "interval_size": 1,
            "jitter": 0.5000028935017737
          },
          "queueingTime": {
            "min": 1.6476e-05,
            "max": 5.6476e-05,
            "mean": 3.648171759259259e-05,
            "median": 3.6476e-05,
            "variance": 6.73721822649482e-11,
            "std_deviation": 8.20805593700166e-06,
            "interval_size": 3.9999999999999996e-05,
            "jitter": 2.0005717592592592e-05
          }
        }
      }
    },
    "s6": {
      "port_1": {
        "queue_7": {
          "queueLength": {
            "min": 0,
            "max": 1,
            "mean": 0.49999710649822626,
            "median": 0,
            "variance": 0.25000144675088687,
            "std_deviation": 0.5000014467487938,
            "interval_size": 1,
            "jitter": 0.5000028935017737
          },
          "queueingTime": {
            "min": 1.6476e-05,
            "max": 5.6476e-05,
            "mean": 3.6499564814814816e-05,
            "median": 3.6476e-05,
            "variance": 6.741409069592283e-11,
            "std_deviation": 8.21060842422307e-06,
            "interval_size": 3.9999999999999996e-05,
            "jitter": 2.0023564814814817e-05
          }
        }
      }
    },
    "s7": {
      "port_0": {
        "queue_7": {
          "queueLength": {
            "min": 0,
            "max": 2,
            "mean": 0.526942919725348,
            "median": 1,
            "variance": 0.2762192448002819,
            "std_deviation": 0.5255656427129555,
            "interval_size": 2,
            "jitter": 1.473057080274652
          },
          "queueingTime": {
            "min": 0.0,
            "max": 5.6476e-05,
            "mean": 1.8918434189814816e-05,
            "median": 1.5736e-05,
            "variance": 3.4467958885817397e-10,
            "std_deviation": 1.8565548439466417e-05,
            "interval_size": 5.6476e-05,
            "jitter": 3.755756581018518e-05
          }
        }
      }
    },
    "s1": {
      "port_1": {
        "queue_7": {
          "queueLength": {
            "min": 0,
            "max": 1,
            "mean": 0.49999710649822626,
            "median": 0,
            "variance": 0.25000144675088687,
            "std_deviation": 0.5000014467487938,
            "interval_size": 1,
            "jitter": 0.5000028935017737
          },
          "queueingTime": {
            "min": 1.6476e-05,
            "max": 5.6476e-05,
            "mean": 3.647304861111111e-05,
            "median": 3.6476e-05,
            "variance": 6.696212048051289e-11,
            "std_deviation": 8.183038584811445e-06,
            "interval_size": 3.9999999999999996e-05,
            "jitter": 2.000295138888889e-05
          }
        }
      }
    },
    "s2": {
      "port_1": {
        "queue_7": {
          "queueLength": {
            "min": 0,
            "max": 1,
            "mean": 0.49999710649822626,
            "median": 0,
            "variance": 0.25000144675088687,
            "std_deviation": 0.5000014467487938,
            "interval_size": 1,
            "jitter": 0.5000028935017737
          },
          "queueingTime": {
            "min": 1.6476e-05,
            "max": 5.6476e-05,
            "mean": 3.6481e-05,
            "median": 3.6476e-05,
            "variance": 6.731924952835102e-11,
            "std_deviation": 8.20483086531045e-06,
            "interval_size": 3.9999999999999996e-05,
            "jitter": 2.0005e-05
          }
        }
      }
    },
    "s3": {
      "port_2": {
        "queue_7": {
          "queueLength": {
            "min": 0,
            "max": 2,
            "mean": 0.526786670177459,
            "median": 1,
            "variance": 0.27607139004870423,
            "std_deviation": 0.5254249613871654,
            "interval_size": 2,
            "jitter": 1.4732133298225412
          },
          "queueingTime": {
            "min": 0.0,
            "max": 5.6476e-05,
            "mean": 1.893688863425926e-05,
            "median": 1.5736e-05,
            "variance": 3.4496798141475864e-10,
            "std_deviation": 1.8573313689666653e-05,
            "interval_size": 5.6476e-05,
            "jitter": 3.753911136574074e-05
          }
        }
      }
    },
    "s4": {
      "port_1": {
        "queue_7": {
          "queueLength": {
            "min": 0,
            "max": 1,
            "mean": 0.49999710649822626,
            "median": 0,
            "variance": 0.25000144675088687,
            "std_deviation": 0.5000014467487938,
            "interval_size": 1,
            "jitter": 0.5000028935017737
          },
          "queueingTime": {
            "min": 1.6476e-05,
            "max": 5.6476e-05,
            "mean": 3.6494333333333334e-05,
            "median": 3.6476e-05,
            "variance": 6.688157224041945e-11,
            "std_deviation": 8.178115445530189e-06,
            "interval_size": 3.9999999999999996e-05,
            "jitter": 2.0018333333333335e-05
          }
        }
      },
      "port_2": {
        "queue_7": {
          "queueLength": {
            "min": 0,
            "max": 1,
            "mean": 0.49999710649822626,
            "median": 0,
            "variance": 0.25000144675088687,
            "std_deviation": 0.5000014467487938,
            "interval_size": 1,
            "jitter": 0.5000028935017737
          },
          "queueingTime": {
            "min": 5.2952e-05,
            "max": 9.2952e-05,
            "mean": 7.15373824537037e-05,
            "median": 7.1952e-05,
            "variance": 5.844637185682936e-11,
            "std_deviation": 7.64502268517428e-06,
            "interval_size": 4e-05,
            "jitter": 2.1414617546296294e-05
          }
        }
      }
    }
  }
}