{
  "general": {
    "validation": {
      "valid": true,
      "errors": []
    }
  },
  "sim_parameters": {
    "**.displayAddresses": "false",
    "**.verbose": "false",
    "**.promiscuous": "true",
    "**.registerProtocol": "true",
    "**.*.clock.clockRate": "\"1us\"",
    "**.h1.eth.address": "\"12:23:34:45:56:67\"",
    "**.h3.eth.address": "\"aa:aa:aa:aa:aa:bb\"",
    "**.h2.eth.address": "\"aa:bb:cc:dd:ee:aa\"",
    "**.*.processingDelay[*].delay": "5us",
    "**.filteringDatabase.database": "xmldoc(\"xml/routing.xml\", \"/filteringDatabases/\")",
    "**.filteringDatabase.cycle": "xmldoc(\"xml/tas.xml\", \"/schedule/\")",
    "**.gateController.initialSchedule": "xmldoc(\"xml/tas.xml\")",
    "**.gateController.enableHoldAndRelease": "false",
    "**.*.eth[*].queuing.tsAlgorithms[*].typename": "\"StrictPriority\"",
    "**.s5.eth[1].queuing.queuingFrames.tciToQueueMapping": "xmldoc(\"xml/tci-maps/tci-map-s5-1.xml\")",
    "**.s3.eth[2].queuing.queuingFrames.tciToQueueMapping": "xmldoc(\"xml/tci-maps/tci-map-s3-2.xml\")",
    "**.s2.eth[1].queuing.queuingFrames.tciToQueueMapping": "xmldoc(\"xml/tci-maps/tci-map-s2-1.xml\")",
    "**.s7.eth[0].queuing.queuingFrames.tciToQueueMapping": "xmldoc(\"xml/tci-maps/tci-map-s7-0.xml\")",
    "**.s4.eth[2].queuing.queuingFrames.tciToQueueMapping": "xmldoc(\"xml/tci-maps/tci-map-s4-2.xml\")",
    "**.s1.eth[1].queuing.queuingFrames.tciToQueueMapping": "xmldoc(\"xml/tci-maps/tci-map-s1-1.xml\")",
    "**.s6.eth[1].queuing.queuingFrames.tciToQueueMapping": "xmldoc(\"xml/tci-maps/tci-map-s6-1.xml\")",
    "**.s4.eth[1].queuing.queuingFrames.tciToQueueMapping": "xmldoc(\"xml/tci-maps/tci-map-s4-1.xml\")",
    "**.*.eth[*].queuing.queues[*].bufferCapacity": "365280b",
    "**.*.eth[*].queuing.queues[*].expressQueue": "true",
    "**.*.eth[*].mac.enablePreemptingFrames": "false",
    "**.*.trafGenSchedApp.jitter": "0.000003",
    "**.*.eth[*].queuing.gateController.jitter": "0.000003",
    "**.*.trafGenSchedApp.initialSchedule": "xmldoc(\"xml/traf-gen.xml\")"
  },
  "streams": {
    "1907": {
      "latency_stats": {
        "min": 0.0005055239962530322,
        "max": 0.0005115240055602044,
        "mean": 0.0005085179237221479,
        "median": 0.0005085239972686395,
        "variance": 1.822982480867012e-12,
        "std_deviation": 1.3501786847921323e-06,
        "interval_size": 6.000009307172149e-06,
        "jitter": 3.0060818380564644e-06,
        "packages_received": 86400
      }
    },
    "1908": {
      "latency_stats": {
        "min": 0.0004190479958197102,
        "max": 0.00042504800512688234,
        "mean": 0.0004220521439965514,
        "median": 0.0004220480041112751,
        "variance": 1.84194897888339e-12,
        "std_deviation": 1.3571842096352985e-06,
        "interval_size": 6.000009307172149e-06,
        "jitter": 3.004148176841213e-06,
        "packages_received": 86400
      }
    }
  },
  "hosts": {
    "h3": {
      "received_periodically": {
        "is_periodic": true,
        "max-period-length": 250,
        "period": [
          1907,
          1908
        ],
        "period_length": 2,
        "skipped": "first 0s"
      }
    }
  },
  "switches": {
    "s5": {
      "port_1": {
        "queue_7": {
          "queueLength": {
            "min": 0,
            "max": 1,
            "mean": 0.49999710649822626,
            "median": 0,
            "variance": 0.25000144675088687,
            "std_deviation": 0.5000014467487938,
            "interval_size": 1,
            "jitter": 0.5000028935017737
          },
          "queueingTime": {
            "min": 8.3476e-05,
            "max": 8.9476e-05,
            "mean": 8.647986574074074e-05,
            "median": 8.6476e-05,
            "variance": 1.8385480022059563e-12,
            "std_deviation": 1.355930677507503e-06,
            "interval_size": 5.999999999999997e-06,
            "jitter": 3.0038657407407455e-06
          }
        }
      }
    },
    "s6": {
      "port_1": {
        "queue_7": {
          "queueLength": {
            "min": 0,
            "max": 1,
            "mean": 0.49999710649822626,
            "median": 0,
            "variance": 0.25000144675088687,
            "std_deviation": 0.5000014467487938,
            "interval_size": 1,
            "jitter": 0.5000028935017737
          },
          "queueingTime": {
            "min": 8.3476e-05,
            "max": 8.9476e-05,
            "mean": 8.64776087962963e-05,
            "median": 8.6476e-05,
            "variance": 1.8435719901539907e-12,
            "std_deviation": 1.3577820112794214e-06,
            "interval_size": 5.999999999999997e-06,
            "jitter": 3.001608796296301e-06
          }
        }
      }
    },
    "s7": {
      "port_0": {
        "queue_7": {
          "queueLength": {
            "min": 0,
            "max": 1,
            "mean": 0.499998553244927,
            "median": 0,
            "variance": 0.25000072337753654,
            "std_deviation": 0.5000007233770133,
            "interval_size": 1,
            "jitter": 0.5000014467550731
          },
          "queueingTime": {
            "min": 0.0,
            "max": 8.9476e-05,
            "mean": 4.323543055555556e-05,
            "median": 4.1738e-05,
            "variance": 1.870224422585586e-09,
            "std_deviation": 4.324609141397157e-05,
            "interval_size": 8.9476e-05,
            "jitter": 4.6240569444444436e-05
          }
        }
      }
    },
    "s1": {
      "port_1": {
        "queue_7": {
          "queueLength": {
            "min": 0,
            "max": 1,
            "mean": 0.49999710649822626,
            "median": 0,
            "variance": 0.25000144675088687,
            "std_deviation": 0.5000014467487938,
            "interval_size": 1,
            "jitter": 0.5000028935017737
          },
          "queueingTime": {
            "min": 8.3476e-05,
            "max": 8.9476e-05,
            "mean": 8.647406712962963e-05,
            "median": 8.6476e-05,
            "variance": 1.834566108527274e-12,
            "std_deviation": 1.3544615566812055e-06,
            "interval_size": 5.999999999999997e-06,
            "jitter": 3.0019328703703686e-06
          }
        }
      }
    },
    "s2": {
      "port_1": {
        "queue_7": {
          "queueLength": {
            "min": 0,
            "max": 1,
            "mean": 0.49999710649822626,
            "median": 0,
            "variance": 0.25000144675088687,
            "std_deviation": 0.5000014467487938,
            "interval_size": 1,
            "jitter": 0.5000028935017737
          },
          "queueingTime": {
            "min": 8.3476e-05,
            "max": 8.9476e-05,
            "mean": 8.647745833333333e-05,
            "median": 8.6476e-05,
            "variance": 1.849510020370604e-12,
            "std_deviation": 1.3599669188515594e-06,
            "interval_size": 5.999999999999997e-06,
            "jitter": 3.00145833333333e-06
          }
        }
      }
    },
    "s3": {
      "port_2": {
        "queue_7": {
          "queueLength": {
            "min": 0,
            "max": 1,
            "mean": 0.499998553244927,
            "median": 0,
            "variance": 0.25000072337753654,
            "std_deviation": 0.5000007233770133,
            "interval_size": 1,
            "jitter": 0.5000014467550731
          },
          "queueingTime": {
            "min": 0.0,
            "max": 8.9476e-05,
            "mean": 4.323647800925926e-05,
            "median": 4.1738e-05,
            "variance": 1.8703219688477156e-09,
            "std_deviation": 4.3247219203640314e-05,
            "interval_size": 8.9476e-05,
            "jitter": 4.6239521990740734e-05
          }
        }
      }
    },
    "s4": {
      "port_1": {
        "queue_7": {
          "queueLength": {
            "min": 0,
            "max": 1,
            "mean": 0.49999710649822626,
            "median": 0,
            "variance": 0.25000144675088687,
            "std_deviation": 0.5000014467487938,
            "interval_size": 1,
            "jitter": 0.5000028935017737
          },
          "queueingTime": {
            "min": 0.000169952,
            "max": 0.000175952,
            "mean": 0.00017295081944444446,
            "median": 0.000172952,
            "variance": 1.8528672737338724e-12,
            "std_deviation": 1.3612006735723696e-06,
            "interval_size": 6.00000000000001e-06,
            "jitter": 3.00118055555554e-06
          }
        }
      },
      "port_2": {
        "queue_7": {
          "queueLength": {
            "min": 0,
            "max": 1,
            "mean": 0.49999710649822626,
            "median": 0,
            "variance": 0.25000144675088687,
            "std_deviation": 0.5000014467487938,
            "interval_size": 1,
            "jitter": 0.5000028935017737
          },
          "queueingTime": {
            "min": 8.3476e-05,
            "max": 8.9476e-05,
            "mean": 8.647843055555556e-05,
            "median": 8.6476e-05,
            "variance": 1.8306402803658973e-12,
            "std_deviation": 1.3530115595832496e-06,
            "interval_size": 5.999999999999997e-06,
            "jitter": 3.00243055555556e-06
          }
        }
      }
    }
  }
}