{
  "general": {
    "validation": {
      "valid": true,
      "errors": []
    }
  },
  "sim_parameters": {
    "**.displayAddresses": "false",
    "**.verbose": "false",
    "**.promiscuous": "true",
    "**.registerProtocol": "true",
    "**.*.clock.clockRate": "\"1us\"",
    "**.h1.eth.address": "\"12:23:34:45:56:67\"",
    "**.h2.eth.address": "\"aa:bb:cc:dd:ee:aa\"",
    "**.*.processingDelay[*].delay": "5us",
    "**.filteringDatabase.database": "xmldoc(\"xml/routing.xml\", \"/filteringDatabases/\")",
    "**.filteringDatabase.cycle": "xmldoc(\"xml/tas.xml\", \"/schedule/\")",
    "**.gateController.initialSchedule": "xmldoc(\"xml/tas.xml\")",
    "**.gateController.enableHoldAndRelease": "false",
    "**.*.eth[*].queuing.tsAlgorithms[*].typename": "\"StrictPriority\"",
    "**.s11.eth[1].queuing.queuingFrames.tciToQueueMapping": "xmldoc(\"xml/tci-maps/tci-map-s11-1.xml\")",
    "**.s22.eth[2].queuing.queuingFrames.tciToQueueMapping": "xmldoc(\"xml/tci-maps/tci-map-s22-2.xml\")",
    "**.s11.eth[2].queuing.queuingFrames.tciToQueueMapping": "xmldoc(\"xml/tci-maps/tci-map-s11-2.xml\")",
    "**.s21.eth[1].queuing.queuingFrames.tciToQueueMapping": "xmldoc(\"xml/tci-maps/tci-map-s21-1.xml\")",
    "**.s12.eth[1].queuing.queuingFrames.tciToQueueMapping": "xmldoc(\"xml/tci-maps/tci-map-s12-1.xml\")",
    "**.*.eth[*].queuing.queues[*].bufferCapacity": "365280b",
    "**.*.eth[*].queuing.queues[*].expressQueue": "true",
    "**.*.eth[*].mac.enablePreemptingFrames": "false",
    "**.*.trafGenSchedApp.jitter": "0.000018",
    "**.*.eth[*].queuing.gateController.jitter": "0.000018",
    "**.*.trafGenSchedApp.initialSchedule": "xmldoc(\"xml/traf-gen.xml\")"
  },
  "streams": {
    "1907": {
      "latency_stats": {
        "min": 0.00029052399622742087,
        "max": 0.00032652400113875046,
        "mean": 0.000308543085662319,
        "median": 0.00030852400232106447,
        "variance": 5.428367693582629e-11,
        "std_deviation": 7.36774571601289e-06,
        "interval_size": 3.60000049113296e-05,
        "jitter": 1.801908943489816e-05,
        "packages_received": 86400
      },
      "udp_dest_port": 6000,
      "name": "1---2---6000",
      "max_allowed_latency": 10000000,
      "talker": "h1",
      "listener": "h2"
    },
    "1908": {
      "latency_stats": {
        "min": 0.00020404799579409882,
        "max": 0.00024004800070542842,
        "mean": 0.0002231674375618291,
        "median": 0.00022304800222627819,
        "variance": 4.735771735791675e-11,
        "std_deviation": 6.8816943667905475e-06,
        "interval_size": 3.60000049113296e-05,
        "jitter": 1.9119441767730285e-05,
        "packages_received": 86400
      },
      "udp_dest_port": 6001,
      "name": "1---2---6001",
      "max_allowed_latency": 10000000,
      "talker": "h1",
      "listener": "h2"
    }
  },
  "hosts": {
    "h2": {
      "received_periodically": {
        "is_periodic": true,
        "max-period-length": 250,
        "period": [
          1907,
          1908
        ],
        "period_length": 2,
        "skipped": "first 0s"
      }
    }
  },
  "switches": {
    "s12": {
      "port_1": {
        "queue_7": {
          "queueLength": {
            "min": 0,
            "max": 1,
            "mean": 0.49999710649822626,
            "median": 0,
            "variance": 0.25000144675088687,
            "std_deviation": 0.5000014467487938,
            "interval_size": 1,
            "jitter": 0.5000028935017737
          },
          "queueingTime": {
            "min": 6.8476e-05,
            "max": 0.000104476,
            "mean": 8.644897453703704e-05,
            "median": 8.6476e-05,
            "variance": 5.43032198931004e-11,
            "std_deviation": 7.3690718474649435e-06,
            "interval_size": 3.5999999999999994e-05,
            "jitter": 1.802702546296295e-05
          }
        }
      }
    },
    "s22": {
      "port_2": {
        "queue_7": {
          "queueLength": {
            "min": 0,
            "max": 2,
            "mean": 0.5158549888455184,
            "median": 1,
            "variance": 0.26560582346244493,
            "std_deviation": 0.5153695988923337,
            "interval_size": 2,
            "jitter": 1.4841450111544816
          },
          "queueingTime": {
            "min": 0.0,
            "max": 0.000104476,
            "mean": 4.381446650462963e-05,
            "median": 4.0736e-05,
            "variance": 1.852119066834936e-09,
            "std_deviation": 4.3036252936738536e-05,
            "interval_size": 0.000104476,
            "jitter": 6.0661533495370365e-05
          }
        }
      }
    },
    "s11": {
      "port_1": {
        "queue_7": {
          "queueLength": {
            "min": 0,
            "max": 1,
            "mean": 0.49999710649822626,
            "median": 0,
            "variance": 0.25000144675088687,
            "std_deviation": 0.5000014467487938,
            "interval_size": 1,
            "jitter": 0.5000028935017737
          },
          "queueingTime": {
            "min": 6.8476e-05,
            "max": 0.000104476,
            "mean": 8.648932175925926e-05,
            "median": 8.6476e-05,
            "variance": 5.4241897089724334e-11,
            "std_deviation": 7.364909849395601e-06,
            "interval_size": 3.5999999999999994e-05,
            "jitter": 1.8013321759259256e-05
          }
        }
      },
      "port_2": {
        "queue_7": {
          "queueLength": {
            "min": 0,
            "max": 1,
            "mean": 0.49999710649822626,
            "median": 0,
            "variance": 0.25000144675088687,
            "std_deviation": 0.5000014467487938,
            "interval_size": 1,
            "jitter": 0.5000028935017737
          },
          "queueingTime": {
            "min": 6.8476e-05,
            "max": 0.000104476,
            "mean": 8.647994675925926e-05,
            "median": 8.6476e-05,
            "variance": 5.423055422117261e-11,
            "std_deviation": 7.364139747531453e-06,
            "interval_size": 3.5999999999999994e-05,
            "jitter": 1.8003946759259258e-05
          }
        }
      }
    },
    "s21": {
      "port_1": {
        "queue_7": {
          "queueLength": {
            "min": 0,
            "max": 1,
            "mean": 0.49999710649822626,
            "median": 0,
            "variance": 0.25000144675088687,
            "std_deviation": 0.5000014467487938,
            "interval_size": 1,
            "jitter": 0.5000028935017737
          },
          "queueingTime": {
            "min": 6.8476e-05,
            "max": 0.000104476,
            "mean": 8.647134722222223e-05,
            "median": 8.6476e-05,
            "variance": 5.453591048025247e-11,
            "std_deviation": 7.384843294224494e-06,
            "interval_size": 3.5999999999999994e-05,
            "jitter": 1.8004652777777768e-05
          }
        }
      }
    }
  }
}