[
  {
    "switch": "s4",
    "controls": [
      {
        "port": "0",
        "entries": [
          {
            "gate-status": "11111111"
          }
        ]
      },
      {
        "port": "1",
        "entries": [
          {
            "gate-status": "11111110",
            "length": 64
          },
          {
            "gate-status": "11111111",
            "length": 16
          },
          {
            "gate-status": "11111110",
            "length": 999920
          }
        ]
      },
      {
        "port": "2",
        "entries": [
          {
            "gate-status": "11111110",
            "length": 48
          },
          {
            "gate-status": "11111111",
            "length": 16
          },
          {
            "gate-status": "11111110",
            "length": 999936
          }
        ]
      }
    ]
  },
  {
    "switch": "s5",
    "controls": [
      {
        "port": "0",
        "entries": [
          {
            "gate-status": "11111111"
          }
        ]
      },
      {
        "port": "1",
        "entries": [
          {
            "gate-status": "11111110",
            "length": 80
          },
          {
            "gate-status": "11111111",
            "length": 16
          },
          {
            "gate-status": "11111110",
            "length": 999904
          }
        ]
      }
    ]
  },
  {
    "switch": "s6",
    "controls": [
      {
        "port": "1",
        "entries": [
          {
            "gate-status": "11111110",
            "length": 64
          },
          {
            "gate-status": "11111111",
            "length": 16
          },
          {
            "gate-status": "11111110",
            "length": 999920
          }
        ]
      },
      {
        "port": "0",
        "entries": [
          {
            "gate-status": "11111111"
          }
        ]
      }
    ]
  },
  {
    "switch": "s7",
    "controls": [
      {
        "port": "2",
        "entries": [
          {
            "gate-status": "11111111"
          }
        ]
      },
      {
        "port": "1",
        "entries": [
          {
            "gate-status": "11111111"
          }
        ]
      },
      {
        "port": "0",
        "entries": [
          {
            "gate-status": "11111110",
            "length": 80
          },
          {
            "gate-status": "11111111",
            "length": 32
          },
          {
            "gate-status": "11111110",
            "length": 999888
          }
        ]
      }
    ]
  },
  {
    "switch": "s1",
    "controls": [
      {
        "port": "0",
        "entries": [
          {
            "gate-status": "11111111"
          }
        ]
      },
      {
        "port": "1",
        "entries": [
          {
            "gate-status": "11111110",
            "length": 16
          },
          {
            "gate-status": "11111111",
            "length": 16
          },
          {
            "gate-status": "11111110",
            "length": 999968
          }
        ]
      }
    ]
  },
  {
    "switch": "s2",
    "controls": [
      {
        "port": "1",
        "entries": [
          {
            "gate-status": "11111110",
            "length": 16
          },
          {
            "gate-status": "11111111",
            "length": 16
          },
          {
            "gate-status": "11111110",
            "length": 999968
          }
        ]
      },
      {
        "port": "0",
        "entries": [
          {
            "gate-status": "11111111"
          }
        ]
      }
    ]
  },
  {
    "switch": "s3",
    "controls": [
      {
        "port": "2",
        "entries": [
          {
            "gate-status": "11111110",
            "length": 32
          },
          {
            "gate-status": "11111111",
            "length": 32
          },
          {
            "gate-status": "11111110",
            "length": 999936
          }
        ]
      },
      {
        "port": "1",
        "entries": [
          {
            "gate-status": "11111111"
          }
        ]
      },
      {
        "port": "0",
        "entries": [
          {
            "gate-status": "11111111"
          }
        ]
      }
    ]
  }
]