{
  "s2": [
    {
      "queue": 7,
      "port": 1,
      "vid": 1908
    }
  ],
  "s1": [
    {
      "queue": 7,
      "port": 1,
      "vid": 1907
    }
  ],
  "s7": [
    {
      "queue": 7,
      "port": 0,
      "vid": 1907
    },
    {
      "queue": 7,
      "port": 0,
      "vid": 1908
    }
  ],
  "s4": [
    {
      "queue": 7,
      "port": 1,
      "vid": 1907
    },
    {
      "queue": 7,
      "port": 2,
      "vid": 1908
    }
  ],
  "s3": [
    {
      "queue": 7,
      "port": 2,
      "vid": 1907
    },
    {
      "queue": 7,
      "port": 2,
      "vid": 1908
    }
  ],
  "s6": [
    {
      "queue": 7,
      "port": 1,
      "vid": 1908
    }
  ],
  "s5": [
    {
      "queue": 7,
      "port": 1,
      "vid": 1907
    }
  ]
}