{
  "general": {
    "validation": {
      "valid": false,
      "errors": [
        "Host h3: No periodicity found in the streams received"
      ]
    }
  },
  "sim_parameters": {
    "**.displayAddresses": "false",
    "**.verbose": "false",
    "**.promiscuous": "true",
    "**.registerProtocol": "true",
    "**.*.clock.clockRate": "\"1us\"",
    "**.h3.eth.address": "\"aa:aa:aa:aa:aa:bb\"",
    "**.h1.eth.address": "\"12:23:34:45:56:67\"",
    "**.h2.eth.address": "\"aa:bb:cc:dd:ee:aa\"",
    "**.*.processingDelay[*].delay": "5us",
    "**.filteringDatabase.database": "xmldoc(\"xml/routing.xml\", \"/filteringDatabases/\")",
    "**.filteringDatabase.cycle": "xmldoc(\"xml/tas.xml\", \"/schedule/\")",
    "**.gateController.initialSchedule": "xmldoc(\"xml/tas.xml\")",
    "**.gateController.enableHoldAndRelease": "false",
    "**.*.eth[*].queuing.tsAlgorithms[*].typename": "\"StrictPriority\"",
    "**.s2.eth[1].queuing.queuingFrames.tciToQueueMapping": "xmldoc(\"xml/tci-maps/tci-map-s2-1.xml\")",
    "**.s3.eth[0].queuing.queuingFrames.tciToQueueMapping": "xmldoc(\"xml/tci-maps/tci-map-s3-0.xml\")",
    "**.s1.eth[1].queuing.queuingFrames.tciToQueueMapping": "xmldoc(\"xml/tci-maps/tci-map-s1-1.xml\")",
    "**.*.eth[*].queuing.queues[*].bufferCapacity": "365280b",
    "**.*.eth[*].queuing.queues[*].expressQueue": "true",
    "**.*.eth[*].mac.enablePreemptingFrames": "false",
    "**.*.trafGenSchedApp.jitter": "0.000009",
    "**.*.eth[*].queuing.gateController.jitter": "0.000009",
    "**.*.trafGenSchedApp.initialSchedule": "xmldoc(\"xml/traf-gen.xml\")"
  },
  "streams": {
    "1908": {
      "latency_stats": {
        "min": 3.952399856643751e-05,
        "max": 6.604400005016942e-05,
        "mean": 5.3204041976082204e-05,
        "median": 5.352399602998048e-05,
        "variance": 3.17383709533794e-11,
        "std_deviation": 5.633681829264002e-06,
        "interval_size": 2.6520001483731903e-05,
        "jitter": 1.3680043409644692e-05,
        "packages_received": 86400
      },
      "udp_dest_port": 6001,
      "name": "1---2---6001",
      "max_allowed_latency": 10000000,
      "talker": "h2",
      "listener": "h3"
    },
    "1907": {
      "latency_stats": {
        "min": 3.952399856643751e-05,
        "max": 6.604400005016942e-05,
        "mean": 5.2391634099503936e-05,
        "median": 5.204400804359466e-05,
        "variance": 3.141534503239824e-11,
        "std_deviation": 5.6049393424370115e-06,
        "interval_size": 2.6520001483731903e-05,
        "jitter": 1.365236595066548e-05,
        "packages_received": 86400
      },
      "udp_dest_port": 6000,
      "name": "1---2---6000",
      "max_allowed_latency": 10000000,
      "talker": "h1",
      "listener": "h3"
    }
  },
  "hosts": {
    "h3": {
      "received_periodically": {
        "is_periodic": false,
        "max-period-length": 250,
        "skipped": "first 0s"
      }
    }
  },
  "switches": {
    "s1": {
      "port_1": {
        "queue_7": {
          "queueLength": {
            "min": 0,
            "max": 1,
            "mean": 0.49999710649822626,
            "median": 0,
            "variance": 0.25000144675088687,
            "std_deviation": 0.5000014467487938,
            "interval_size": 1,
            "jitter": 0.5000028935017737
          },
          "queueingTime": {
            "min": 0.0,
            "max": 1.5476e-05,
            "mean": 6.518207222222222e-06,
            "median": 6.476e-06,
            "variance": 1.323206768191638e-11,
            "std_deviation": 3.6375909173402634e-06,
            "interval_size": 1.5476e-05,
            "jitter": 8.957792777777777e-06
          }
        }
      }
    },
    "s2": {
      "port_1": {
        "queue_7": {
          "queueLength": {
            "min": 0,
            "max": 1,
            "mean": 0.49999710649822626,
            "median": 0,
            "variance": 0.25000144675088687,
            "std_deviation": 0.5000014467487938,
            "interval_size": 1,
            "jitter": 0.5000028935017737
          },
          "queueingTime": {
            "min": 0.0,
            "max": 1.5476e-05,
            "mean": 6.515540833333334e-06,
            "median": 6.476e-06,
            "variance": 1.3295022528223011e-11,
            "std_deviation": 3.646234019947569e-06,
            "interval_size": 1.5476e-05,
            "jitter": 8.960459166666666e-06
          }
        }
      }
    },
    "s3": {
      "port_0": {
        "queue_7": {
          "queueLength": {
            "min": 0,
            "max": 2,
            "mean": 0.9651129481685528,
            "median": 1,
            "variance": 0.49878578361130854,
            "std_deviation": 0.7062476786590584,
            "interval_size": 2,
            "jitter": 1.0348870518314472
          },
          "queueingTime": {
            "min": 0.0,
            "max": 2.3996e-05,
            "mean": 1.0708964166666667e-05,
            "median": 1.0476e-05,
            "variance": 1.9016364661937395e-11,
            "std_deviation": 4.360775694981043e-06,
            "interval_size": 2.3996e-05,
            "jitter": 1.3287035833333332e-05
          }
        }
      }
    }
  }
}