{
  "general": {
    "validation": {
      "valid": false,
      "errors": [
        "Host h3: No periodicity found in the streams received",
        "Stream 1---2---6001 (-> vid 1908): max latency (5.000071523998486) higher than allowed (0.01)",
        "Stream 1---2---6000 (-> vid 1907): max latency (6.000068044006184) higher than allowed (0.01)"
      ]
    }
  },
  "sim_parameters": {
    "**.displayAddresses": "false",
    "**.verbose": "false",
    "**.promiscuous": "true",
    "**.registerProtocol": "true",
    "**.*.clock.clockRate": "\"1us\"",
    "**.h3.eth.address": "\"aa:aa:aa:aa:aa:bb\"",
    "**.h1.eth.address": "\"12:23:34:45:56:67\"",
    "**.h2.eth.address": "\"aa:bb:cc:dd:ee:aa\"",
    "**.*.processingDelay[*].delay": "5us",
    "**.filteringDatabase.database": "xmldoc(\"xml/routing.xml\", \"/filteringDatabases/\")",
    "**.filteringDatabase.cycle": "xmldoc(\"xml/tas.xml\", \"/schedule/\")",
    "**.gateController.initialSchedule": "xmldoc(\"xml/tas.xml\")",
    "**.gateController.enableHoldAndRelease": "false",
    "**.*.eth[*].queuing.tsAlgorithms[*].typename": "\"StrictPriority\"",
    "**.s2.eth[1].queuing.queuingFrames.tciToQueueMapping": "xmldoc(\"xml/tci-maps/tci-map-s2-1.xml\")",
    "**.s3.eth[0].queuing.queuingFrames.tciToQueueMapping": "xmldoc(\"xml/tci-maps/tci-map-s3-0.xml\")",
    "**.s1.eth[1].queuing.queuingFrames.tciToQueueMapping": "xmldoc(\"xml/tci-maps/tci-map-s1-1.xml\")",
    "**.*.eth[*].queuing.queues[*].bufferCapacity": "365280b",
    "**.*.eth[*].queuing.queues[*].expressQueue": "true",
    "**.*.eth[*].mac.enablePreemptingFrames": "false",
    "**.*.trafGenSchedApp.jitter": "0.000018",
    "**.*.eth[*].queuing.gateController.jitter": "0.000018",
    "**.*.trafGenSchedApp.initialSchedule": "xmldoc(\"xml/traf-gen.xml\")"
  },
  "streams": {
    "1908": {
      "latency_stats": {
        "min": 4.052399890497327e-05,
        "max": 5.000071523998486,
        "mean": 0.2140128927716598,
        "median": 6.604400005016942e-05,
        "variance": 0.2591975347633191,
        "std_deviation": 0.5091144613574821,
        "interval_size": 5.000030999999581,
        "jitter": 4.786058631226826,
        "packages_received": 86399
      },
      "udp_dest_port": 6001,
      "name": "1---2---6001",
      "max_allowed_latency": 10000000,
      "talker": "h2",
      "listener": "h3"
    },
    "1907": {
      "latency_stats": {
        "min": 4.052399890497327e-05,
        "max": 6.000068044006184,
        "mean": 0.21677632354340234,
        "median": 6.556400330737233e-05,
        "variance": 0.2646126111404817,
        "std_deviation": 0.514405104115892,
        "interval_size": 6.000027520007279,
        "jitter": 5.783291720462782,
        "packages_received": 86400
      },
      "udp_dest_port": 6000,
      "name": "1---2---6000",
      "max_allowed_latency": 10000000,
      "talker": "h1",
      "listener": "h3"
    }
  },
  "hosts": {
    "h3": {
      "received_periodically": {
        "is_periodic": false,
        "max-period-length": 250,
        "skipped": "first 0s"
      }
    }
  },
  "switches": {
    "s1": {
      "port_1": {
        "queue_7": {
          "queueLength": {
            "min": 0,
            "max": 7,
            "mean": 0.7050653642050683,
            "median": 1,
            "variance": 0.5025327331406905,
            "std_deviation": 0.7088954317391885,
            "interval_size": 7,
            "jitter": 6.294934635794932
          },
          "queueingTime": {
            "min": 0.0,
            "max": 6.000015476,
            "mean": 0.21637698257648147,
            "median": 1.3476e-05,
            "variance": 0.26423055435991627,
            "std_deviation": 0.5140336120915794,
            "interval_size": 6.000015476,
            "jitter": 5.783638493423518
          }
        }
      }
    },
    "s2": {
      "port_1": {
        "queue_7": {
          "queueLength": {
            "min": 0,
            "max": 6,
            "mean": 0.7017245370370371,
            "median": 1.0,
            "variance": 0.4972383294345625,
            "std_deviation": 0.7051512812401056,
            "interval_size": 6,
            "jitter": 5.2982754629629625
          },
          "queueingTime": {
            "min": 0.0,
            "max": 5.000019476,
            "mean": 0.21357847238787486,
            "median": 1.3476e-05,
            "variance": 0.25881679517772627,
            "std_deviation": 0.508740400575506,
            "interval_size": 5.000019476,
            "jitter": 4.786441003612126
          }
        }
      }
    },
    "s3": {
      "port_0": {
        "queue_7": {
          "queueLength": {
            "min": 0,
            "max": 5,
            "mean": 1.0414700274016997,
            "median": 1,
            "variance": 0.6409344138776233,
            "std_deviation": 0.8005837956626547,
            "interval_size": 5,
            "jitter": 3.9585299725983
          },
          "queueingTime": {
            "min": 0.0,
            "max": 1.000016956,
            "mean": 0.0003813085736375789,
            "median": 1.6476e-05,
            "variance": 0.0003644463304097603,
            "std_deviation": 0.01909047747987882,
            "interval_size": 1.000016956,
            "jitter": 0.9996356474263625
          }
        }
      }
    }
  }
}