{
  "general": {
    "validation": {
      "valid": false,
      "errors": [
        "Host h3: No periodicity found in the streams received"
      ]
    }
  },
  "sim_parameters": {
    "**.displayAddresses": "false",
    "**.verbose": "false",
    "**.promiscuous": "true",
    "**.registerProtocol": "true",
    "**.*.clock.clockRate": "\"1us\"",
    "**.h1.eth.address": "\"12:23:34:45:56:67\"",
    "**.h3.eth.address": "\"aa:aa:aa:aa:aa:bb\"",
    "**.h2.eth.address": "\"aa:bb:cc:dd:ee:aa\"",
    "**.*.processingDelay[*].delay": "5us",
    "**.filteringDatabase.database": "xmldoc(\"xml/routing.xml\", \"/filteringDatabases/\")",
    "**.filteringDatabase.cycle": "xmldoc(\"xml/tas.xml\", \"/schedule/\")",
    "**.gateController.initialSchedule": "xmldoc(\"xml/tas.xml\")",
    "**.gateController.enableHoldAndRelease": "false",
    "**.*.eth[*].queuing.tsAlgorithms[*].typename": "\"StrictPriority\"",
    "**.s5.eth[1].queuing.queuingFrames.tciToQueueMapping": "xmldoc(\"xml/tci-maps/tci-map-s5-1.xml\")",
    "**.s3.eth[2].queuing.queuingFrames.tciToQueueMapping": "xmldoc(\"xml/tci-maps/tci-map-s3-2.xml\")",
    "**.s2.eth[1].queuing.queuingFrames.tciToQueueMapping": "xmldoc(\"xml/tci-maps/tci-map-s2-1.xml\")",
    "**.s7.eth[0].queuing.queuingFrames.tciToQueueMapping": "xmldoc(\"xml/tci-maps/tci-map-s7-0.xml\")",
    "**.s4.eth[2].queuing.queuingFrames.tciToQueueMapping": "xmldoc(\"xml/tci-maps/tci-map-s4-2.xml\")",
    "**.s1.eth[1].queuing.queuingFrames.tciToQueueMapping": "xmldoc(\"xml/tci-maps/tci-map-s1-1.xml\")",
    "**.s6.eth[1].queuing.queuingFrames.tciToQueueMapping": "xmldoc(\"xml/tci-maps/tci-map-s6-1.xml\")",
    "**.s4.eth[1].queuing.queuingFrames.tciToQueueMapping": "xmldoc(\"xml/tci-maps/tci-map-s4-1.xml\")",
    "**.*.eth[*].queuing.queues[*].bufferCapacity": "365280b",
    "**.*.eth[*].queuing.queues[*].expressQueue": "true",
    "**.*.eth[*].mac.enablePreemptingFrames": "false",
    "**.*.trafGenSchedApp.jitter": "0.000011",
    "**.*.eth[*].queuing.gateController.jitter": "0.000011",
    "**.*.trafGenSchedApp.initialSchedule": "xmldoc(\"xml/traf-gen.xml\")"
  },
  "streams": {
    "1908": {
      "latency_stats": {
        "min": 8.6048e-05,
        "max": 198.00009204799426,
        "mean": 125.32946050403879,
        "median": 126.00008304799849,
        "variance": 473.03051147288454,
        "std_deviation": 21.749264619128724,
        "interval_size": 198.00000599999427,
        "jitter": 125.32937445603879,
        "packages_received": 58295
      }
    },
    "1907": {
      "latency_stats": {
        "min": 1.000086524,
        "max": 204.0000965240033,
        "mean": 119.19858850446931,
        "median": 120.00007952399028,
        "variance": 444.29061272099176,
        "std_deviation": 21.07820231236506,
        "interval_size": 203.0000100000033,
        "jitter": 118.19850198046932,
        "packages_received": 58277
      }
    }
  },
  "hosts": {
    "h3": {
      "received_periodically": {
        "is_periodic": false,
        "max-period-length": 250,
        "skipped": "first 0s"
      }
    }
  },
  "switches": {
    "s5": {
      "port_1": {
        "queue_7": {
          "queueLength": {
            "min": 0,
            "max": 44,
            "mean": 19.82092975489525,
            "median": 19.0,
            "variance": 142.98745482717936,
            "std_deviation": 11.957736191569847,
            "interval_size": 44,
            "jitter": 24.17907024510475
          },
          "queueingTime": {
            "min": 0.0,
            "max": 79.000005476,
            "mean": 28.9320549692211,
            "median": 27.999997476,
            "variance": 316.5328125961683,
            "std_deviation": 17.791369047832386,
            "interval_size": 79.000005476,
            "jitter": 50.0679505067789
          }
        }
      }
    },
    "s6": {
      "port_1": {
        "queue_7": {
          "queueLength": {
            "min": 0,
            "max": 44,
            "mean": 16.87212729858957,
            "median": 15.0,
            "variance": 130.3122917170963,
            "std_deviation": 11.415440933976063,
            "interval_size": 44,
            "jitter": 27.12787270141043
          },
          "queueingTime": {
            "min": 0.0,
            "max": 79.000001476,
            "mean": 24.662270602614203,
            "median": 22.000004476,
            "variance": 291.585604724363,
            "std_deviation": 17.07587786101678,
            "interval_size": 79.000001476,
            "jitter": 54.337730873385794
          }
        }
      }
    },
    "s7": {
      "port_0": {
        "queue_7": {
          "queueLength": {
            "min": 0,
            "max": 1,
            "mean": 0.49999785541186814,
            "median": 0,
            "variance": 0.25000107229406593,
            "std_deviation": 0.5000010722929161,
            "interval_size": 1,
            "jitter": 0.5000021445881319
          },
          "queueingTime": {
            "min": 0.0,
            "max": 1.3476e-05,
            "mean": 2.3842847682119204e-06,
            "median": 0.0,
            "variance": 1.0776309216965065e-11,
            "std_deviation": 3.282728928340728e-06,
            "interval_size": 1.3476e-05,
            "jitter": 1.109171523178808e-05
          }
        }
      }
    },
    "s1": {
      "port_1": {
        "queue_7": {
          "queueLength": {
            "min": 0,
            "max": 44,
            "mean": 43.372162670136525,
            "median": 43,
            "variance": 1.3794492429633736,
            "std_deviation": 1.1744995712912685,
            "interval_size": 44,
            "jitter": 43.372162670136525
          },
          "queueingTime": {
            "min": 0.0,
            "max": 93.999998476,
            "mean": 63.725301796926495,
            "median": 63.000006476,
            "variance": 33.58570532117201,
            "std_deviation": 5.795317534110794,
            "interval_size": 93.999998476,
            "jitter": 63.725301796926495
          }
        }
      }
    },
    "s2": {
      "port_1": {
        "queue_7": {
          "queueLength": {
            "min": 0,
            "max": 44,
            "mean": 43.367580097120765,
            "median": 43.0,
            "variance": 1.3085473193917463,
            "std_deviation": 1.1439175317267178,
            "interval_size": 44,
            "jitter": 43.367580097120765
          },
          "queueingTime": {
            "min": 0.0,
            "max": 87.000002476,
            "mean": 63.579367818011086,
            "median": 63.000005476,
            "variance": 32.03347745134713,
            "std_deviation": 5.659812492596123,
            "interval_size": 87.000002476,
            "jitter": 63.579367818011086
          }
        }
      }
    },
    "s3": {
      "port_2": {
        "queue_7": {
          "queueLength": {
            "min": 0,
            "max": 1,
            "mean": 0.4999978783982756,
            "median": 0,
            "variance": 0.2500010608008622,
            "std_deviation": 0.5000010607997369,
            "interval_size": 1,
            "jitter": 0.5000021216017244
          },
          "queueingTime": {
            "min": 0.0,
            "max": 1.3476e-05,
            "mean": 2.4002072389358e-06,
            "median": 0.0,
            "variance": 1.084959788321898e-11,
            "std_deviation": 3.2938727788454397e-06,
            "interval_size": 1.3476e-05,
            "jitter": 1.10757927610642e-05
          }
        }
      }
    },
    "s4": {
      "port_1": {
        "queue_7": {
          "queueLength": {
            "min": 0,
            "max": 44,
            "mean": 22.522792628766865,
            "median": 22.0,
            "variance": 150.0139482762665,
            "std_deviation": 12.248018136672826,
            "interval_size": 44,
            "jitter": 22.522792628766865
          },
          "queueingTime": {
            "min": 0.0,
            "max": 81.000003952,
            "mean": 32.74952644056469,
            "median": 32.999999956,
            "variance": 335.07527545925166,
            "std_deviation": 18.30506147105908,
            "interval_size": 81.000003952,
            "jitter": 48.25047751143531
          }
        }
      },
      "port_2": {
        "queue_7": {
          "queueLength": {
            "min": 0,
            "max": 44,
            "mean": 20.935416755489236,
            "median": 21,
            "variance": 170.63702821176113,
            "std_deviation": 13.062810884788968,
            "interval_size": 44,
            "jitter": 23.064583244510764
          },
          "queueingTime": {
            "min": 0.0,
            "max": 84.000001476,
            "mean": 30.7557001768363,
            "median": 30.999998476,
            "variance": 377.78121728401663,
            "std_deviation": 19.436594796517642,
            "interval_size": 84.000001476,
            "jitter": 53.244301299163695
          }
        }
      }
    }
  }
}