{
  "general": {
    "validation": {
      "valid": false,
      "errors": [
        "Host h3: No periodicity found in the streams received",
        "Stream 1---2---6001 (-> vid 1908): max latency (82.00006304398994) higher than allowed (0.01)",
        "Stream 1---2---6000 (-> vid 1907): max latency (83.00004352399992) higher than allowed (0.01)"
      ]
    }
  },
  "sim_parameters": {
    "**.displayAddresses": "false",
    "**.verbose": "false",
    "**.promiscuous": "true",
    "**.registerProtocol": "true",
    "**.*.clock.clockRate": "\"1us\"",
    "**.h3.eth.address": "\"aa:aa:aa:aa:aa:bb\"",
    "**.h1.eth.address": "\"12:23:34:45:56:67\"",
    "**.h2.eth.address": "\"aa:bb:cc:dd:ee:aa\"",
    "**.*.processingDelay[*].delay": "5us",
    "**.filteringDatabase.database": "xmldoc(\"xml/routing.xml\", \"/filteringDatabases/\")",
    "**.filteringDatabase.cycle": "xmldoc(\"xml/tas.xml\", \"/schedule/\")",
    "**.gateController.initialSchedule": "xmldoc(\"xml/tas.xml\")",
    "**.gateController.enableHoldAndRelease": "false",
    "**.*.eth[*].queuing.tsAlgorithms[*].typename": "\"StrictPriority\"",
    "**.s2.eth[1].queuing.queuingFrames.tciToQueueMapping": "xmldoc(\"xml/tci-maps/tci-map-s2-1.xml\")",
    "**.s3.eth[0].queuing.queuingFrames.tciToQueueMapping": "xmldoc(\"xml/tci-maps/tci-map-s3-0.xml\")",
    "**.s1.eth[1].queuing.queuingFrames.tciToQueueMapping": "xmldoc(\"xml/tci-maps/tci-map-s1-1.xml\")",
    "**.*.eth[*].queuing.queues[*].bufferCapacity": "365280b",
    "**.*.eth[*].queuing.queues[*].expressQueue": "true",
    "**.*.eth[*].mac.enablePreemptingFrames": "false",
    "**.*.trafGenSchedApp.jitter": "0.000018",
    "**.*.eth[*].queuing.gateController.jitter": "0.000018",
    "**.*.trafGenSchedApp.initialSchedule": "xmldoc(\"xml/traf-gen.xml\")"
  },
  "streams": {
    "1908": {
      "latency_stats": {
        "min": 3.5571999999817194e-05,
        "max": 82.00006304398994,
        "mean": 50.45119078460119,
        "median": 50.00005856400094,
        "variance": 44.83812618923345,
        "std_deviation": 6.696127701084668,
        "interval_size": 82.00002747198994,
        "jitter": 50.451155212601186,
        "packages_received": 72182
      },
      "udp_dest_port": 6001,
      "name": "1---2---6001",
      "max_allowed_latency": 10000000,
      "talker": "h2",
      "listener": "h3"
    },
    "1907": {
      "latency_stats": {
        "min": 4.504399999993858e-05,
        "max": 83.00004352399992,
        "mean": 50.6617771191754,
        "median": 50.00006204399688,
        "variance": 45.77393367755822,
        "std_deviation": 6.765643626260418,
        "interval_size": 82.99999847999992,
        "jitter": 50.6617320751754,
        "packages_received": 71891
      },
      "udp_dest_port": 6000,
      "name": "1---2---6000",
      "max_allowed_latency": 10000000,
      "talker": "h1",
      "listener": "h3"
    }
  },
  "hosts": {
    "h3": {
      "received_periodically": {
        "is_periodic": false,
        "max-period-length": 250,
        "skipped": "first 0s"
      }
    }
  },
  "switches": {
    "s1": {
      "port_1": {
        "queue_7": {
          "queueLength": {
            "min": 0,
            "max": 44,
            "mean": 42.172289187071996,
            "median": 43.0,
            "variance": 4.587458094839079,
            "std_deviation": 2.141835216546567,
            "interval_size": 44,
            "jitter": 42.172289187071996
          },
          "queueingTime": {
            "min": 0.0,
            "max": 83.000000476,
            "mean": 50.61099844401664,
            "median": 50.000008996,
            "variance": 45.83840404448319,
            "std_deviation": 6.770406490343338,
            "interval_size": 83.000000476,
            "jitter": 50.61099844401664
          }
        }
      }
    },
    "s2": {
      "port_1": {
        "queue_7": {
          "queueLength": {
            "min": 0,
            "max": 44,
            "mean": 42.1651374989753,
            "median": 43,
            "variance": 5.051691737882199,
            "std_deviation": 2.247596880644347,
            "interval_size": 44,
            "jitter": 42.1651374989753
          },
          "queueingTime": {
            "min": 0.0,
            "max": 82.000008476,
            "mean": 50.394769996142585,
            "median": 50.000006476,
            "variance": 44.90757891468371,
            "std_deviation": 6.701311730898937,
            "interval_size": 82.000008476,
            "jitter": 50.394769996142585
          }
        }
      }
    },
    "s3": {
      "port_0": {
        "queue_7": {
          "queueLength": {
            "min": 0,
            "max": 7,
            "mean": 1.1570309598919997,
            "median": 1,
            "variance": 0.9143721000007178,
            "std_deviation": 0.9562280585721786,
            "interval_size": 7,
            "jitter": 5.8429690401080006
          },
          "queueingTime": {
            "min": 0.0,
            "max": 2.000014476,
            "mean": 0.05356985780539032,
            "median": 1.4476e-05,
            "variance": 0.051284495590851374,
            "std_deviation": 0.2264608036523128,
            "interval_size": 2.000014476,
            "jitter": 1.9464446181946098
          }
        }
      }
    }
  }
}