{
  "switches": {
    "s1": {
      "num_ports": 2
    },
    "s2": {
      "num_ports": 2
    },
    "s3": {
      "num_ports": 3
    }
  },
  "hosts": {
    "h1": {
      "mac": "12:23:34:45:56:67"
    },
    "h3": {
      "mac": "aa:aa:aa:aa:aa:bb"
    },
    "h2": {
      "mac": "aa:bb:cc:dd:ee:aa"
    }
  },
  "links": [
    {
      "A": {
        "node": "h2"
      },
      "B": {
        "node": "s2",
        "port": 0
      }
    },
    {
      "A": {
        "node": "s1",
        "port": 0
      },
      "B": {
        "node": "h1"
      }
    },
    {
      "A": {
        "node": "s3",
        "port": 0
      },
      "B": {
        "node": "h3"
      }
    },
    {
      "A": {
        "node": "s3",
        "port": 2
      },
      "B": {
        "node": "s2",
        "port": 1
      }
    },
    {
      "A": {
        "node": "s3",
        "port": 1
      },
      "B": {
        "node": "s1",
        "port": 1
      }
    }
  ]
}